Iteration,Mean,Stdev,Run-0,Run-1,Run-2,Run-3,Run-4,Run-5,Run-6,Run-7,Run-8,Run-9,Run-10,Run-11,Run-12,Run-13,Run-14,Run-15,Run-16,Run-17,Run-18,Run-19,Run-20,Run-21,Run-22,Run-23,Run-24,Run-25,Run-26,Run-27,Run-28,Run-29,Run-30,Run-31,Run-32,Run-33,Run-34,Run-35,Run-36,Run-37,Run-38,Run-39,Run-40,Run-41,Run-42,Run-43,Run-44,Run-45,Run-46,Run-47,Run-48,Run-49,Run-50,Run-51,Run-52,Run-53,Run-54,Run-55,Run-56,Run-57,Run-58,Run-59,Run-60,Run-61,Run-62,Run-63,Run-64,Run-65,Run-66,Run-67,Run-68,Run-69,Run-70,Run-71,Run-72,Run-73,Run-74,Run-75,Run-76,Run-77,Run-78,Run-79,Run-80,Run-81,Run-82,Run-83,Run-84,Run-85,Run-86,Run-87,Run-88,Run-89,Run-90,Run-91,Run-92,Run-93,Run-94,Run-95,Run-96,Run-97,Run-98,Run-99
0,-915.6118925514627,39.75032653087627,-878.3578553774331,-951.5784059837458,-837.9118491684413,-844.538749715547,-890.3297727617438,-950.9127373665605,-880.7423101271203,-927.9202906698658,-926.098269136216,-1009.9575735953495,-922.2008437462015,-921.757828900083,-984.7130173719121,-911.8903316889201,-914.2386791814515,-882.363485558504,-824.2456820596174,-894.985337757729,-910.2095309557341,-949.3122004414797,-919.0567928808468,-877.9604189999967,-943.02721919516,-966.5977625839799,-887.7172934520895,-879.8063250681051,-953.524794456331,-942.762690835814,-924.4021696991322,-893.9024304308662,-953.9411741557452,-891.4817039917015,-907.9533257678871,-920.7115118889462,-894.5196339409312,-836.7724627641588,-889.3111086538221,-888.1094703882546,-903.6596611565432,-901.1414440379907,-988.43440986464,-959.3153029312908,-906.4723705598908,-937.7432038862152,-987.7886878999225,-933.8546382080507,-878.7169387344569,-900.1463499272596,-956.9521000930629,-920.6951939814351,-866.0433098777888,-977.1498704616328,-946.1438185705782,-913.5685674355306,-922.0932960673865,-917.2575966263992,-918.6849194441227,-880.2506845636681,-837.5030317693036,-917.0887567312059,-866.8836750770762,-919.058065392951,-951.8943566721643,-1031.6355525090414,-903.5482550917551,-923.1296177182805,-878.0598026572954,-926.4979351030836,-909.206470820154,-971.6183879233116,-910.5328240224087,-909.8978949360935,-878.7885480324197,-909.4913309078344,-916.1592614365651,-915.7361994741702,-947.5203185035324,-863.0292262130508,-970.7931040520104,-870.8594305992395,-878.5337788287413,-906.1639368955912,-917.6450772557466,-865.4299506735643,-892.2074940070431,-916.4632451278984,-886.9425894147322,-949.0235680381548,-964.1052052509592,-926.5386035384033,-840.3698101953431,-998.8220754252395,-878.0252115022731,-945.4164290801031,-960.8683234630565,-925.4926401256523,-951.9873889485851,-948.6458188280178,-923.9233210364903,-853.7173368224027
1,-1155.4131705133523,86.73420525076905,-1032.4742120112867,-1119.3140497829104,-1070.6144812134066,-1074.472915133641,-1297.4771787259037,-1102.932786019499,-1267.4783160171737,-1489.0755975464988,-1177.8262269496788,-1289.4083957402768,-1176.4113847493493,-1164.298531846172,-1208.9945620146013,-1066.2109755673878,-1212.459191306605,-1079.4294969111404,-1203.061022351038,-1110.2507861498843,-1157.8872404346666,-1172.9056084785582,-1078.02843591876,-1140.0957174013822,-1083.835873732312,-1235.315718665526,-1165.8563628776685,-1123.3807428314449,-1085.445458029189,-1125.9278918524635,-1226.9015928720023,-1042.2368132832232,-1109.7625616305647,-1136.258040305072,-1190.2037566591493,-1082.5298692801239,-1071.673295431876,-1099.0608225108606,-1174.5651085051409,-1114.2906482540648,-1107.325331323268,-1275.7594560431755,-1139.3019924560324,-1077.5394675754299,-1058.6245434297518,-1206.0116774907563,-1359.5303422790864,-1156.1183629020177,-1056.6838033611343,-1166.3062679832942,-1315.9152318755275,-1318.174348242486,-1144.8802431023034,-1160.214706437396,-1095.1144180587996,-1262.6101064297843,-1082.6535361404524,-1113.615776534849,-1289.8919842727378,-1265.739221349359,-1069.5811441396393,-1244.1412967310137,-1291.9873881974927,-1139.8088509872152,-1083.9163838138338,-1084.0062709546396,-1148.9668032186003,-1108.150814220366,-1079.2529238422178,-1130.392313112478,-1113.9824174049006,-1034.2573596071381,-1062.6891370801102,-1309.8781339912734,-1059.4741474822733,-1000.3852207250717,-1373.6057494648614,-1184.5286864230968,-1186.5247229238064,-1076.7210946495438,-1179.5835113829646,-1129.0343365538824,-1170.767799283449,-1085.8519712560444,-1142.523870113131,-1037.713686618484,-1224.541411241651,-1196.9127323811747,-1155.6840041512223,-1152.9215517952903,-1092.886550414946,-1232.275638653769,-1121.439213268641,-1121.5576210426993,-1059.0257465281222,-1234.2040572500096,-1210.810588933989,-1080.2429169943646,-1179.2016970254367,-1296.6196510199566,-1118.2798783084797,-1126.625271869821
2,-1226.5521768869985,71.61816209046457,-1134.9823337909118,-1225.3018553835238,-1161.4043606341054,-1071.7578122575685,-1272.1749144801038,-1083.9841291594078,-1185.0824948320849,-1380.2207345500124,-1308.8758558758489,-1389.2025776550852,-1104.3920692675163,-1264.9706879948255,-1188.0880430123834,-1158.10898699745,-1300.478601465009,-1230.3351156835763,-1269.3526930542055,-1272.658098453053,-1231.1075056304242,-1261.1678564432154,-1182.359827715962,-1186.1960912495667,-1208.408157607335,-1234.538370567212,-1246.576313938991,-1259.0376002729852,-1189.0849432745713,-1250.2322751934785,-1313.0506356041608,-1147.8341262531728,-1149.569109722388,-1255.7696750443386,-1194.1574621566638,-1147.920268702314,-1110.361210579971,-1177.6270783673804,-1282.1681314370487,-1260.2022405266528,-1181.9315509716237,-1237.4982268134565,-1189.202432417939,-1235.452501071084,-1172.9915079161588,-1302.046506480532,-1231.066187823309,-1219.8208835759604,-1184.2969413051637,-1323.1698600879795,-1301.3558841320244,-1349.8419297085345,-1233.7673638010695,-1282.8217298844884,-1152.031295554527,-1208.6497482151772,-1190.6859534243324,-1110.1703735471388,-1163.981935666118,-1338.2119654041203,-1269.197564595364,-1341.1112652182414,-1325.293585490647,-1270.1661929805232,-1170.6997683132868,-1245.4018159521459,-1213.6037920528777,-1090.5631612181069,-1204.254762874278,-1181.0960815688297,-1230.6601022752031,-1198.1098493006841,-1298.947594584668,-1179.0739095079791,-1174.6211377163506,-1084.541447237933,-1258.749385267874,-1216.0816524158395,-1176.4235016423802,-1175.1078868867448,-1321.5264618069407,-1484.0396516085311,-1269.537422939248,-1204.8425207569737,-1291.0402498920153,-1198.8780616800962,-1202.8278955982348,-1178.5014646059512,-1213.4731839294293,-1147.316094057463,-1224.362166654684,-1170.3153249376883,-1303.1811642464231,-1122.4102843397727,-1331.3378977749642,-1246.5884701988155,-1276.1969029768993,-1250.9990796487152,-1227.7417486849938,-1243.5095814914064,-1311.057307763429,-1234.0952733719944
3,-1263.8886591296787,61.34131657177902,-1286.1000644561025,-1201.9099156891175,-1125.0348183254032,-1225.9044230473971,-1274.970700874323,-1210.6453894705053,-1236.224790603898,-1301.1190883073255,-1312.7485263509238,-1393.7183613403652,-1197.4266519543705,-1285.2773531027658,-1208.537560887402,-1150.08663644331,-1279.6498634659579,-1168.5870347244695,-1358.91767125245,-1291.7038372973543,-1284.1835698857608,-1353.211167227649,-1236.4898948009964,-1294.5237486474252,-1204.8162325410656,-1236.7837419014875,-1287.3734324826821,-1285.4878402272914,-1215.5895042459929,-1286.6851280630067,-1280.2601653887539,-1206.4035157102778,-1277.5567040583487,-1334.8938668158296,-1225.9569017773458,-1260.8700916686155,-1183.203868422346,-1276.117088122647,-1387.2453208133627,-1221.6394544222724,-1214.5126110953202,-1309.4569473169754,-1246.0733829100939,-1273.6677701580152,-1246.0037083439315,-1339.9032090200476,-1335.5554499846505,-1252.9287715074427,-1205.6787756660417,-1392.4900813082313,-1287.8139345527732,-1377.6854389815337,-1196.1196821774972,-1260.4266996050367,-1131.5298921266997,-1282.552233929335,-1311.9412962094011,-1136.4098116031635,-1212.4935397123804,-1294.3520366135494,-1335.542750466205,-1331.4607487035687,-1329.6203553183925,-1265.3649381831196,-1207.9448704586669,-1320.2707042322534,-1222.8744252285762,-1195.9268242478502,-1222.3263829499608,-1165.7313110020768,-1261.6913508500293,-1313.2155157439927,-1309.7918282586193,-1238.0164211187493,-1149.3036212074333,-1143.0353129438897,-1356.8032390963624,-1301.724775561832,-1188.960718060456,-1200.230242896556,-1287.1700503024556,-1315.7362518864336,-1215.913868313299,-1307.4489315452647,-1290.5879790454132,-1197.1428080500332,-1257.9854950089991,-1249.9962054052942,-1277.7835837126524,-1288.410858816976,-1270.237766939477,-1236.925193839618,-1374.530605238028,-1288.7572767483914,-1323.9393914508757,-1303.9484168788097,-1284.305348132146,-1250.7146732669912,-1313.8901489866005,-1357.6744643948246,-1286.534135126373,-1193.9469257115873
4,-1274.1625846764468,56.426054700021396,-1333.8149346082785,-1207.75432616433,-1264.9211717575438,-1245.5180662998143,-1318.4796652845832,-1239.797543591639,-1336.239558193764,-1310.9175669746135,-1313.0575711081674,-1469.3098415324985,-1170.4137289507792,-1337.1100008425135,-1255.8545711200154,-1178.3809236321783,-1297.8002066467002,-1188.6256424397639,-1301.2546417914477,-1301.864276710261,-1327.6099324581348,-1261.648750391725,-1228.124613028625,-1314.2459888661233,-1200.5843019177532,-1299.7461161106844,-1267.8062071983823,-1274.6018571734253,-1206.1452115496709,-1275.2418270768644,-1296.7850471179609,-1281.272623929624,-1235.1393640807978,-1397.7727524103525,-1266.8990759099609,-1246.6173809755476,-1132.4391380450616,-1251.2818610065601,-1344.9781187924743,-1264.840813761492,-1255.7547894171105,-1347.769796985561,-1236.8117413497184,-1287.8858673137133,-1287.4451323007695,-1288.5679251616343,-1260.2567863599638,-1244.9542265192729,-1197.6196469043932,-1341.7504452196765,-1353.1085645262501,-1269.893953637842,-1272.384265386342,-1328.1048765034427,-1199.1803079318126,-1221.1318634707357,-1276.7827785647448,-1227.7130458585377,-1313.3510372799938,-1262.4982942647125,-1326.619379246468,-1346.9922927835437,-1276.1164782469527,-1253.6409298243575,-1189.620831257144,-1270.4446553014745,-1278.0439804586745,-1186.504894674502,-1253.5731246449618,-1265.1284732214078,-1282.21743120123,-1269.3948933626912,-1342.5957812137945,-1258.0951487506663,-1236.2293056262588,-1189.9235981809936,-1290.5271202576926,-1312.2360768015515,-1241.4709888949694,-1184.3658348583092,-1311.8414282534698,-1395.867535348031,-1231.2467620832806,-1303.7552086326882,-1320.3994763194921,-1261.9117793909602,-1267.9686631526185,-1215.2923856183047,-1242.0043861819272,-1253.270258830961,-1272.471362525883,-1179.4222425454711,-1400.8219953879654,-1235.3178118954813,-1318.1126486935143,-1309.4714762115443,-1343.3791321803676,-1240.984033443696,-1293.0416540219157,-1321.1142777855719,-1344.421417003976,-1182.540748923597
5,-1281.4487909119484,52.230540563838595,-1302.9653463773454,-1227.5417234935119,-1274.8525780377163,-1261.279134674312,-1279.559893370253,-1225.3274146822262,-1329.0333265669337,-1310.126950685626,-1312.2490067043996,-1456.995060070309,-1186.5919464680326,-1298.2611313026623,-1296.8847989019414,-1214.4091021744277,-1309.7936005939189,-1278.3125783223202,-1317.0786288932013,-1303.2861059072256,-1354.4908355590555,-1270.2749838973189,-1228.124613028625,-1261.0155785581974,-1195.58788775794,-1288.3098016989845,-1291.1651824965086,-1254.7393495813944,-1245.377894342638,-1247.3683189205399,-1274.9754004429926,-1303.6300592284385,-1249.768765267974,-1388.2942008000916,-1301.6428170876231,-1291.4685336172552,-1170.5713674701826,-1251.2818610065601,-1392.7151490716665,-1311.7862961127487,-1256.8401478052951,-1335.2717764629717,-1238.9487879093433,-1295.2894161324564,-1292.1877807168462,-1288.5679251616343,-1250.9838725423567,-1285.9579355002554,-1262.479277772077,-1341.7504452196765,-1299.5539315460398,-1276.9493019929505,-1316.7909516882698,-1346.3073008321965,-1188.64700261175,-1256.771119808147,-1259.1809336323809,-1221.0469601652533,-1336.0891181569245,-1313.4664909908442,-1268.0930400837658,-1383.0637882645583,-1261.0511486642906,-1260.0488424267803,-1283.8819658355048,-1270.807837987816,-1201.231858388477,-1205.8534426982028,-1261.4069025376423,-1268.0229530864278,-1234.9236766499102,-1375.9543432961086,-1342.5957812137945,-1263.3350675910672,-1238.581848067815,-1178.5694020280575,-1309.6743648686022,-1331.1741706694327,-1274.55073096291,-1180.3658053502834,-1279.642952341259,-1308.0435288823542,-1231.6344889500294,-1292.4768492400033,-1394.6822033597302,-1275.0381972566977,-1232.8706469231788,-1231.7426111098869,-1263.41758956429,-1305.0287244811009,-1280.1643871694666,-1231.093271289667,-1363.583614817436,-1249.6132337060844,-1339.0257803953264,-1295.6029185773,-1323.3308912310365,-1289.6384505843978,-1280.2381879779005,-1364.643556314697,-1318.7768986201002,-1181.1854379106783
6,-1282.9221042355503,52.91371597930526,-1328.3083486800417,-1266.0044513950975,-1265.4659344901409,-1264.1548854458197,-1270.0798277607134,-1223.9136163153676,-1274.5874238544588,-1343.1447267923193,-1315.6388473316445,-1437.1528329255375,-1186.5919464680326,-1300.459414994252,-1299.75248048238,-1203.8797658055414,-1309.7936005939189,-1278.3125783223202,-1317.0786288932013,-1303.2861059072256,-1342.0311311829787,-1266.5780354249548,-1228.124613028625,-1293.7231554939842,-1195.58788775794,-1313.529037921648,-1289.400979133083,-1238.6639836635652,-1272.0057053127439,-1236.5903098387996,-1302.30270949877,-1292.4623020753695,-1224.279501887006,-1388.2942008000916,-1301.6428170876231,-1291.4685336172552,-1187.231141961242,-1251.2818610065601,-1389.5071878572955,-1363.9442037277913,-1254.5581740521518,-1314.944535987,-1268.9501645405435,-1314.4760664659668,-1275.7217046729977,-1288.5679251616343,-1210.2461319037095,-1302.473482596893,-1244.00744000286,-1341.7504452196765,-1348.9993274362594,-1303.6942901206833,-1325.9367496849595,-1346.3073008321965,-1189.6150539066712,-1294.2659558844905,-1229.1037540448112,-1221.0469601652533,-1327.4973207042583,-1271.6902321090472,-1268.0930400837658,-1370.3060489551046,-1239.1278791462123,-1253.1218090980549,-1273.723209605367,-1272.4129961655485,-1190.9377134164777,-1213.693708598315,-1308.134493967289,-1285.6450370058064,-1224.6104632470283,-1361.5399342046592,-1344.877754966938,-1284.6708188988755,-1211.3270398737604,-1178.3474647086052,-1283.2487066232582,-1356.5384313773682,-1274.55073096291,-1219.414963275825,-1326.9592287866315,-1323.9759112555398,-1280.0907096622707,-1278.5601508029172,-1386.6132265855392,-1287.1017954653328,-1232.8706469231788,-1218.002776189592,-1246.003992565322,-1321.8105300875784,-1289.051831352092,-1190.7059112391885,-1344.3206422079295,-1271.2791023582608,-1339.0257803953264,-1295.6029185773,-1323.3308912310365,-1274.3553473022985,-1280.2381879779005,-1324.4083772895538,-1336.4025468775224,-1177.0699440141964
7,-1287.9222891293648,55.760694144006095,-1335.626212996255,-1252.6436956523278,-1304.250756585865,-1252.3365093394839,-1262.5257045193728,-1232.64300363718,-1300.5832045168067,-1384.1749545742455,-1315.6388473316445,-1437.1528329255375,-1188.8739202211764,-1313.788811482307,-1275.2944682396121,-1232.7757821301343,-1309.7936005939189,-1278.3125783223202,-1319.3606026463447,-1303.2861059072256,-1317.0709136898145,-1301.0656456768536,-1228.124613028625,-1289.9122550413233,-1222.2834996178572,-1315.7231574817663,-1341.4322143788738,-1238.6639836635652,-1275.5327429115516,-1226.4156208512602,-1313.075555712312,-1292.4623020753695,-1224.279501887006,-1425.1023725104262,-1301.6428170876231,-1291.4685336172552,-1168.343685788312,-1251.2818610065601,-1391.7891616104391,-1363.9442037277913,-1254.5581740521518,-1316.0546625559186,-1274.361761481305,-1314.4760664659668,-1275.7217046729977,-1286.2859514084905,-1213.177776426448,-1302.473482596893,-1181.8541930803779,-1346.387723088745,-1348.9993274362594,-1303.6942901206833,-1325.9367496849595,-1346.3073008321965,-1199.5298361108682,-1294.2659558844905,-1284.9116986386077,-1219.3768023844373,-1293.8847918799115,-1291.7138480566116,-1274.3465718812363,-1431.7620023270156,-1251.9112349757306,-1239.8300353106322,-1275.4214547724998,-1272.4129961655485,-1226.5374801499377,-1157.4317080536423,-1339.5815419474523,-1287.9437534178385,-1222.3284894938845,-1362.1896049742543,-1344.877754966938,-1287.080881574367,-1243.5068869101797,-1211.4753092148908,-1288.5543404647283,-1398.137260715809,-1274.55073096291,-1219.414963275825,-1312.9299371359452,-1323.9759112555398,-1273.734595337253,-1278.5601508029172,-1386.6132265855392,-1287.1017954653328,-1232.8706469231788,-1235.6757203540972,-1291.1207435038507,-1321.8204737536569,-1288.0601024766572,-1172.438251207175,-1344.3206422079295,-1280.502139109372,-1339.0257803953264,-1295.6029185773,-1323.3308912310365,-1293.3063655572248,-1280.2381879779005,-1324.463602913461,-1331.4900746007097,-1213.1034241651153
8,-1287.6557610418486,54.01973392793024,-1320.5333023912074,-1252.6436956523278,-1267.1726551925299,-1255.2122601109913,-1264.9059482216567,-1232.64300363718,-1304.0163188413403,-1384.1749545742455,-1315.6388473316445,-1437.1528329255375,-1188.8739202211764,-1276.8296408947906,-1282.2852836315221,-1256.7258234832314,-1313.728120013731,-1278.3125783223202,-1317.0786288932013,-1303.2861059072256,-1334.020184699815,-1301.0656456768536,-1228.124613028625,-1296.124040163125,-1226.01804155735,-1315.7231574817663,-1346.109722134712,-1238.6639836635652,-1288.1740116649194,-1223.0346001497262,-1313.075555712312,-1291.946139529178,-1224.279501887006,-1376.496504251536,-1301.6428170876231,-1291.4685336172552,-1172.884085989722,-1251.2818610065601,-1391.7891616104391,-1363.9442037277913,-1254.5581740521518,-1302.1218313177465,-1286.0980369676092,-1314.4760664659668,-1275.7217046729977,-1286.2859514084905,-1213.177776426448,-1302.473482596893,-1142.456727604043,-1346.000290195414,-1348.9993274362594,-1304.3439608902786,-1325.9367496849595,-1346.3073008321965,-1197.3974722641235,-1294.2659558844905,-1305.0108290584812,-1219.3768023844373,-1293.8847918799115,-1265.8426958708528,-1271.5158051129094,-1409.639167569105,-1239.1278791462123,-1243.5761155841726,-1272.671944305647,-1272.4129961655485,-1236.5199882761,-1186.0679677144701,-1339.5815419474523,-1287.9437534178385,-1224.0943007008368,-1362.1896049742543,-1344.877754966938,-1300.5713770945342,-1243.5068869101797,-1211.4753092148908,-1287.6288772134508,-1398.137260715809,-1274.55073096291,-1231.0988829750854,-1295.270956384002,-1323.9759112555398,-1273.734595337253,-1278.5601508029172,-1386.6132265855392,-1316.8482996312307,-1232.8706469231788,-1218.7678685679844,-1291.1207435038507,-1321.751608890248,-1288.0601024766572,-1172.438251207175,-1335.2867279701227,-1286.1119911882756,-1339.0257803953264,-1295.6029185773,-1323.3308912310365,-1315.170460183435,-1278.7844583206474,-1324.463602913461,-1337.8622683576393,-1240.920285734215
9,-1287.3597903374268,52.46692448823173,-1333.1201827851214,-1252.6436956523278,-1267.1726551925299,-1255.2122601109913,-1257.1787160953033,-1232.64300363718,-1304.0163188413403,-1384.1749545742455,-1315.6388473316445,-1434.6418982572584,-1188.8739202211764,-1281.6293038770696,-1282.2852836315221,-1285.1688972686284,-1310.963401798039,-1278.3125783223202,-1276.3540972219107,-1303.2861059072256,-1321.3369883777564,-1301.0656456768536,-1228.124613028625,-1292.883302941655,-1223.4765332661502,-1315.7231574817663,-1346.109722134712,-1238.6639836635652,-1274.6938590129932,-1223.0346001497262,-1313.075555712312,-1291.946139529178,-1224.279501887006,-1376.496504251536,-1301.6428170876231,-1291.4685336172552,-1172.884085989722,-1250.7656984603686,-1391.7891616104391,-1363.9442037277913,-1254.5581740521518,-1302.1218313177465,-1286.0980369676092,-1314.4760664659668,-1275.7217046729977,-1286.2859514084905,-1212.5281056568529,-1302.473482596893,-1185.7559757985823,-1308.0187147334432,-1348.9993274362594,-1315.2322484151061,-1325.9367496849595,-1344.0253270790527,-1197.3974722641235,-1294.2659558844905,-1274.4847980906536,-1219.3768023844373,-1293.8847918799115,-1265.8426958708528,-1271.5158051129094,-1409.639167569105,-1211.1510389016823,-1243.5761155841726,-1274.9539180587906,-1273.1815021182774,-1233.689221507773,-1186.0679677144701,-1341.4260042713906,-1287.9437534178385,-1224.0943007008368,-1361.5399342046592,-1344.877754966938,-1300.5713770945342,-1243.5068869101797,-1211.4753092148908,-1287.6288772134508,-1397.6483512289574,-1280.3934774743327,-1286.8706346999793,-1299.845838334984,-1323.9759112555398,-1273.734595337253,-1264.130537856971,-1386.6132265855392,-1291.2915525533533,-1242.381726830756,-1227.8017828057912,-1291.1207435038507,-1321.8204737536569,-1288.0601024766572,-1172.438251207175,-1335.2867279701227,-1286.1119911882756,-1339.0257803953264,-1295.6029185773,-1323.3308912310365,-1315.170460183435,-1278.7844583206474,-1324.463602913461,-1346.3594772841548,-1242.671644218794
10,-1287.9707694874203,51.20543435667575,-1333.1201827851214,-1252.6436956523278,-1267.1726551925299,-1255.2122601109913,-1282.2011844189692,-1232.64300363718,-1328.4619557594772,-1384.1749545742455,-1315.6388473316445,-1393.6116704753326,-1188.8739202211764,-1281.6293038770696,-1282.2852836315221,-1291.2573761597776,-1310.963401798039,-1278.3125783223202,-1267.269586299743,-1303.2861059072256,-1321.3369883777564,-1319.1955398132984,-1228.137043516253,-1296.546660433376,-1223.4765332661502,-1315.7231574817663,-1331.937908369536,-1238.6639836635652,-1290.5647478028623,-1223.5299270572305,-1311.621826055059,-1291.946139529178,-1224.279501887006,-1376.496504251536,-1301.6428170876231,-1291.4685336172552,-1172.884085989722,-1250.7656984603686,-1386.6764210889687,-1366.7749704961184,-1254.5581740521518,-1303.7919890985625,-1286.0980369676092,-1314.4760664659668,-1275.7217046729977,-1286.2859514084905,-1213.177776426448,-1302.473482596893,-1185.7559757985823,-1302.2818096805581,-1348.9993274362594,-1314.7103127910943,-1325.9367496849595,-1344.0253270790527,-1197.3974722641235,-1294.2659558844905,-1273.551535497711,-1219.3768023844373,-1293.8847918799115,-1265.8426958708528,-1271.5158051129094,-1409.639167569105,-1218.1880312728842,-1243.5761155841726,-1274.9539180587906,-1273.1815021182774,-1233.689221507773,-1186.0679677144701,-1341.4260042713906,-1287.9437534178385,-1221.8123269476932,-1362.1896049742543,-1344.877754966938,-1300.5713770945342,-1257.387392916795,-1211.4753092148908,-1295.503141526696,-1398.137260715809,-1274.55073096291,-1286.8706346999793,-1298.385908511516,-1323.9759112555398,-1276.7146852654637,-1263.225317107861,-1386.6132265855392,-1292.6420548254443,-1240.164985598509,-1241.0689093820588,-1291.1207435038507,-1321.751608890248,-1289.051831352092,-1172.438251207175,-1344.3206422079295,-1286.1119911882756,-1338.457581555342,-1295.6029185773,-1318.9091178228448,-1317.4524339365785,-1278.7844583206474,-1324.463602913461,-1346.3594772841548,-1240.8653784616206
11,-1289.3866728063865,51.141305568958785,-1333.1201827851214,-1252.6436956523278,-1267.1726551925299,-1261.8662264224295,-1289.7080896231732,-1255.4946807960437,-1297.097773613545,-1384.1749545742455,-1315.6388473316445,-1390.6536429004643,-1188.8739202211764,-1283.2628737159807,-1282.2852836315221,-1298.0859944561503,-1308.6814280448955,-1278.9622490919153,-1267.269586299743,-1303.2861059072256,-1321.3369883777564,-1301.0656456768536,-1228.137043516253,-1294.8765026525602,-1223.4765332661502,-1315.7231574817663,-1334.38550819983,-1238.6639836635652,-1290.5647478028623,-1223.5299270572305,-1302.0111991789715,-1291.946139529178,-1229.207623321918,-1376.496504251536,-1301.6428170876231,-1291.4685336172552,-1172.884085989722,-1250.7656984603686,-1388.958394842112,-1366.7749704961184,-1254.5581740521518,-1303.7919890985625,-1286.0980369676092,-1314.4760664659668,-1277.0803847241737,-1286.2859514084905,-1213.177776426448,-1302.473482596893,-1182.9252090302557,-1304.8321584881487,-1348.9993274362594,-1339.8488404383995,-1325.9367496849595,-1344.0253270790527,-1197.3974722641235,-1294.2659558844905,-1273.551535497711,-1219.3768023844373,-1292.6755914785847,-1265.8426958708528,-1271.5158051129094,-1409.638407149478,-1244.2187788545436,-1243.5761155841726,-1274.9539180587906,-1273.1815021182774,-1233.689221507773,-1186.0679677144701,-1341.4260042713906,-1287.9437534178385,-1221.8123269476932,-1362.1896049742543,-1344.877754966938,-1300.5713770945342,-1257.387392916795,-1211.4753092148908,-1295.2994116675982,-1397.6483512289574,-1274.55073096291,-1286.8706346999793,-1298.385908511516,-1323.9759112555398,-1276.7146852654637,-1262.921337455644,-1386.6132265855392,-1264.1384666118204,-1240.164985598509,-1314.2626180352474,-1288.673570015595,-1321.751608890248,-1289.051831352092,-1172.438251207175,-1344.3206422079295,-1286.1119911882756,-1371.379391057149,-1295.6029185773,-1336.4115908399667,-1317.4524339365785,-1296.933277154129,-1324.463602913461,-1346.3594772841548,-1231.8314642238136
12,-1289.7333368849402,52.324679728872596,-1338.3731129620555,-1261.9156654792007,-1267.1726551925299,-1262.382388968621,-1289.7080896231732,-1281.4904614583916,-1297.097773613545,-1384.1749545742455,-1317.9208210847883,-1414.7081359593244,-1188.8739202211764,-1284.4518871013402,-1282.2852836315221,-1298.0859944561503,-1308.6814280448955,-1278.9622490919153,-1267.269586299743,-1303.2861059072256,-1321.3369883777564,-1314.163012723984,-1228.137043516253,-1294.8765026525602,-1223.4765332661502,-1315.7231574817663,-1363.7518606196325,-1238.6639836635652,-1290.5647478028623,-1223.0346001497262,-1311.621826055059,-1291.946139529178,-1208.5510445405034,-1376.496504251536,-1300.0672268513676,-1292.677734018582,-1170.7306811890023,-1250.7656984603686,-1388.958394842112,-1349.3608040587383,-1254.5581740521518,-1317.7248203367346,-1286.0980369676092,-1312.3777772437609,-1277.0803847241737,-1286.2859514084905,-1213.177776426448,-1302.473482596893,-1182.9252090302557,-1304.8321584881487,-1336.2976728982696,-1339.8488404383995,-1325.9367496849595,-1344.0253270790527,-1197.3974722641235,-1241.4092176921024,-1273.551535497711,-1219.3768023844373,-1292.6755914785847,-1265.8426958708528,-1271.5158051129094,-1409.638407149478,-1231.435423025025,-1243.5761155841726,-1289.658316541808,-1273.1815021182774,-1233.689221507773,-1186.0679677144701,-1341.4260042713906,-1287.9437534178385,-1221.8123269476932,-1363.210091985475,-1344.877754966938,-1300.5713770945342,-1257.387392916795,-1211.4753092148908,-1295.2994116675982,-1398.137260715809,-1280.3934774743327,-1286.8706346999793,-1298.385908511516,-1323.9759112555398,-1276.7146852654637,-1262.921337455644,-1384.3312528323954,-1264.1384666118204,-1240.164985598509,-1339.1257761162326,-1288.673570015595,-1326.0658445478189,-1289.051831352092,-1172.438251207175,-1344.3206422079295,-1286.1119911882756,-1371.379391057149,-1295.6029185773,-1309.137666394444,-1317.4524339365785,-1296.933277154129,-1324.4083772895538,-1346.3594772841548,-1231.8314642238136
13,-1290.0892137736269,53.190182302864606,-1338.3731129620555,-1261.9156654792007,-1267.1726551925299,-1265.7774728235308,-1289.7080896231732,-1281.4904614583916,-1297.7474443831402,-1384.1749545742455,-1317.9208210847883,-1414.7081359593244,-1188.8739202211764,-1284.4518871013402,-1282.2852836315221,-1298.0859944561503,-1308.6814280448955,-1275.481811553993,-1267.269586299743,-1303.2861059072256,-1321.3369883777564,-1301.0656456768536,-1228.137043516253,-1294.8765026525602,-1223.4765332661502,-1315.7231574817663,-1371.608368393942,-1238.6639836635652,-1290.5647478028623,-1224.2279700453203,-1311.621826055059,-1307.1892800141782,-1208.5510445405034,-1376.496504251536,-1300.0672268513676,-1291.4685336172552,-1170.7306811890023,-1250.7656984603686,-1388.958394842112,-1349.3608040587383,-1254.5581740521518,-1304.3707428566581,-1286.0980369676092,-1312.3777772437609,-1277.0803847241737,-1286.2859514084905,-1213.177776426448,-1302.473482596893,-1182.9252090302557,-1304.8321584881487,-1332.7622811926874,-1339.1991696688044,-1325.9367496849595,-1344.0253270790527,-1197.3974722641235,-1221.4410818165109,-1273.551535497711,-1219.3768023844373,-1292.6755914785847,-1265.8426958708528,-1271.5158051129094,-1409.638407149478,-1231.435423025025,-1243.5761155841726,-1299.051792861256,-1273.1815021182774,-1233.689221507773,-1185.418296944875,-1341.4260042713906,-1287.9437534178385,-1221.8123269476932,-1363.210091985475,-1344.877754966938,-1300.5713770945342,-1257.8827198242993,-1211.4753092148908,-1297.0507701521772,-1416.0967210926158,-1280.3934774743327,-1286.8706346999793,-1298.385908511516,-1323.9759112555398,-1276.7146852654637,-1262.921337455644,-1386.3027180649717,-1293.8849707777183,-1240.164985598509,-1336.9925256751017,-1288.673570015595,-1352.7250589631371,-1289.051831352092,-1172.438251207175,-1344.3206422079295,-1286.1119911882756,-1371.379391057149,-1295.6029185773,-1309.137666394444,-1317.4524339365785,-1276.0349478537944,-1324.4083772895538,-1346.3594772841548,-1230.0801057392346
14,-1290.1383132141402,52.59857600995664,-1339.3502611010024,-1261.9156654792007,-1267.1726551925299,-1269.8182372628721,-1289.7080896231732,-1281.4904614583916,-1297.097773613545,-1384.1757149938724,-1317.9208210847883,-1414.7081359593244,-1188.8739202211764,-1284.4518871013402,-1282.2852836315221,-1298.0859944561503,-1308.6814280448955,-1275.481811553993,-1269.5515600528865,-1303.2861059072256,-1321.3369883777564,-1301.0656456768536,-1228.137043516253,-1294.8765026525602,-1223.4765332661502,-1315.7231574817663,-1348.7874627783938,-1238.6639836635652,-1290.5647478028623,-1224.2279700453203,-1302.0111991789715,-1307.1892800141782,-1208.5510445405034,-1376.496504251536,-1300.0672268513676,-1291.4685336172552,-1170.7306811890023,-1250.7656984603686,-1388.958394842112,-1345.9309115268138,-1253.424374986306,-1304.3707428566581,-1286.0980369676092,-1312.3777772437609,-1277.0803847241737,-1289.1167181768176,-1213.177776426448,-1302.473482596893,-1182.9252090302557,-1304.8321584881487,-1336.9969146060914,-1339.1991696688044,-1325.9367496849595,-1344.0253270790527,-1197.3974722641235,-1251.5557831034162,-1273.551535497711,-1219.3768023844373,-1292.6755914785847,-1265.8426958708528,-1273.1859628937252,-1409.638407149478,-1244.2187788545436,-1243.5761155841726,-1275.0936228892517,-1273.1815021182774,-1233.689221507773,-1186.0679677144701,-1341.4260042713906,-1287.9437534178385,-1221.8123269476932,-1363.210091985475,-1344.877754966938,-1258.8858635484864,-1257.8827198242993,-1211.4753092148908,-1295.794738575102,-1415.607811605764,-1280.3934774743327,-1288.6364459069316,-1298.385908511516,-1323.9759112555398,-1274.9633267808845,-1262.921337455644,-1383.68383250743,-1322.206436071288,-1240.164985598509,-1336.9925256751017,-1288.673570015595,-1350.8910010841141,-1288.0601024766572,-1172.438251207175,-1353.9256277803345,-1286.1119911882756,-1371.379391057149,-1295.6029185773,-1309.137666394444,-1317.4524339365785,-1293.8430218462286,-1324.463602913461,-1346.3594772841548,-1230.0801057392346
15,-1289.426596988041,52.86783290414938,-1346.912473350925,-1253.3015593964296,-1267.1726551925299,-1286.0637957001052,-1289.7080896231732,-1281.4904614583916,-1297.7474443831402,-1384.1757149938724,-1317.9208210847883,-1414.7081359593244,-1188.8739202211764,-1284.4518871013402,-1252.6571378893607,-1298.0859944561503,-1308.6814280448955,-1275.481811553993,-1269.5515600528865,-1303.2861059072256,-1332.3419500286602,-1298.7836719237098,-1228.137043516253,-1294.8765026525602,-1223.4765332661502,-1315.7231574817663,-1356.9907499507929,-1238.6639836635652,-1290.5647478028623,-1223.5299270572305,-1302.0111991789715,-1307.1892800141782,-1208.5510445405034,-1376.496504251536,-1300.0672268513676,-1291.4685336172552,-1170.7306811890023,-1250.7656984603686,-1377.701681203417,-1343.1074809019342,-1253.761304838255,-1292.108069399302,-1286.0980369676092,-1310.0958034906173,-1277.0803847241737,-1289.1167181768176,-1213.177776426448,-1302.473482596893,-1182.9252090302557,-1307.6108761520568,-1336.9969146060914,-1339.8488404383995,-1325.9367496849595,-1344.0253270790527,-1197.3974722641235,-1251.5557831034162,-1273.551535497711,-1219.3768023844373,-1292.6755914785847,-1265.8426958708528,-1273.1859628937252,-1409.638407149478,-1244.2187788545436,-1243.5761155841726,-1270.4691941204976,-1273.1815021182774,-1236.5199882761,-1186.0679677144701,-1341.4260042713906,-1287.9437534178385,-1224.5402416113343,-1363.210091985475,-1344.877754966938,-1230.564398254917,-1258.5807628123891,-1211.4753092148908,-1295.794738575102,-1416.0967210926158,-1278.7639577796515,-1288.6364459069316,-1298.385908511516,-1323.9759112555398,-1274.9633267808845,-1262.921337455644,-1383.68383250743,-1291.0542040093915,-1240.164985598509,-1336.9925256751017,-1291.1207435038507,-1350.8910010841141,-1288.0601024766572,-1172.438251207175,-1353.9256277803345,-1286.1119911882756,-1371.379391057149,-1295.6029185773,-1309.137666394444,-1317.4524339365785,-1301.6222891347832,-1324.463602913461,-1346.3594772841548,-1230.0801057392346
16,-1289.6289795032833,53.100488801602054,-1352.170466587217,-1253.3015593964296,-1264.8906814393863,-1316.2540935063982,-1289.7080896231732,-1281.4904614583916,-1297.7474443831402,-1384.1757149938724,-1317.9208210847883,-1414.7081359593244,-1188.8739202211764,-1284.4518871013402,-1251.1024746411574,-1298.0859944561503,-1308.6814280448955,-1276.1314823235882,-1269.5515600528865,-1303.2861059072256,-1329.5111832603336,-1298.7836719237098,-1228.137043516253,-1294.8765026525602,-1223.4765332661502,-1315.7231574817663,-1348.3111251623054,-1238.6639836635652,-1290.5647478028623,-1223.5299270572305,-1302.0111991789715,-1307.1892800141782,-1208.5510445405034,-1376.496504251536,-1300.0672268513676,-1278.2624902318425,-1171.9594126326338,-1251.994429904,-1350.5573266144215,-1344.025906775003,-1254.72154873367,-1306.0409006374741,-1286.0980369676092,-1314.4760664659668,-1277.0803847241737,-1289.1167181768176,-1210.8756823786855,-1302.473482596893,-1182.9252090302557,-1371.350659466918,-1336.9969146060914,-1339.8488404383995,-1325.9367496849595,-1344.0253270790527,-1197.3974722641235,-1251.5557831034162,-1273.551535497711,-1219.3768023844373,-1291.6838626031506,-1265.8426958708528,-1273.1859628937252,-1409.638407149478,-1244.2187788545436,-1243.5761155841726,-1270.4691941204976,-1272.4129961655485,-1233.689221507773,-1185.418296944875,-1341.4260042713906,-1287.9437534178385,-1224.5402416113343,-1363.85976275507,-1344.877754966938,-1260.773324031963,-1244.7002568057737,-1211.4753092148908,-1296.50521205082,-1416.0967210926158,-1264.2116946249905,-1288.6364459069316,-1298.385908511516,-1323.9759112555398,-1274.9633267808845,-1262.921337455644,-1386.1679022603298,-1291.0542040093915,-1242.995752366836,-1336.9925256751017,-1288.673570015595,-1350.8910010841141,-1288.0601024766572,-1172.438251207175,-1353.9256277803345,-1286.1119911882756,-1371.379391057149,-1295.6029185773,-1309.137666394444,-1317.4524339365785,-1273.4488431597886,-1324.463602913461,-1335.0758042275918,-1224.524733351098
17,-1289.0975933899908,53.04530273899506,-1352.170466587217,-1253.3015593964296,-1267.1726551925299,-1316.2540935063982,-1289.7080896231732,-1281.4904614583916,-1297.7474443831402,-1385.845872774688,-1317.9208210847883,-1414.7081359593244,-1179.0085487246536,-1284.4518871013402,-1251.1024746411574,-1298.0859944561503,-1308.6814280448955,-1278.9622490919153,-1269.5515600528865,-1303.2861059072256,-1329.5111832603336,-1298.7836719237098,-1228.137043516253,-1294.8765026525602,-1223.4765332661502,-1317.5037194023048,-1310.7479810457867,-1236.1202831065855,-1290.5647478028623,-1223.5299270572305,-1303.4649288362248,-1307.1892800141782,-1208.5510445405034,-1376.496504251536,-1300.0672268513676,-1279.762686114167,-1171.9594126326338,-1251.994429904,-1349.2813539966362,-1341.195140006676,-1254.72154873367,-1306.0409006374741,-1286.0980369676092,-1314.4760664659668,-1277.0803847241737,-1291.3986919299612,-1210.8756823786855,-1302.473482596893,-1182.9252090302557,-1359.3917943199283,-1336.9969146060914,-1352.776672484961,-1325.9367496849595,-1344.0253270790527,-1197.3974722641235,-1251.5557831034162,-1275.8335092508548,-1219.3768023844373,-1291.6838626031506,-1265.8426958708528,-1273.1859628937252,-1409.639167569105,-1231.435423025025,-1243.5761155841726,-1270.4691941204976,-1272.4129961655485,-1233.689221507773,-1186.0679677144701,-1341.4260042713906,-1287.9437534178385,-1224.5402416113343,-1363.85976275507,-1344.877754966938,-1244.1642676343959,-1244.7002568057737,-1211.4753092148908,-1295.3118421552263,-1416.0967210926158,-1276.2509470279333,-1288.6364459069316,-1298.385908511516,-1323.9759112555398,-1274.9633267808845,-1262.921337455644,-1383.68383250743,-1291.0542040093915,-1242.995752366836,-1336.9925256751017,-1288.673570015595,-1350.8221362207053,-1288.0601024766572,-1172.438251207175,-1353.9256277803345,-1286.1119911882756,-1371.379391057149,-1295.6029185773,-1307.9089349508124,-1317.4524339365785,-1273.4488431597886,-1324.4083772895538,-1335.0758042275918,-1230.1477676240809
18,-1289.8735073912417,52.40996977475343,-1352.170466587217,-1253.3015593964296,-1267.1726551925299,-1316.2540935063982,-1289.7080896231732,-1281.4904614583916,-1297.097773613545,-1385.845872774688,-1314.5309804575431,-1414.7081359593244,-1193.0044969993762,-1284.4518871013402,-1251.1024746411574,-1300.302735688397,-1308.6814280448955,-1278.3125783223202,-1267.269586299743,-1303.2861059072256,-1329.5111832603336,-1298.7836719237098,-1228.137043516253,-1294.8765026525602,-1223.4765332661502,-1317.5037194023048,-1310.7479810457867,-1236.1202831065855,-1290.5647478028623,-1223.5299270572305,-1308.4983791883626,-1307.1892800141782,-1208.5510445405034,-1376.496504251536,-1300.0672268513676,-1279.762686114167,-1173.7587643117301,-1249.0143399757894,-1338.1853922698979,-1341.195140006676,-1273.6857764806332,-1291.12125563328,-1286.0980369676092,-1314.4760664659668,-1277.0803847241737,-1291.3986919299612,-1210.8756823786855,-1302.461052109265,-1182.9252090302557,-1359.3917943199283,-1338.9779299023528,-1339.9240269216577,-1325.9367496849595,-1344.0253270790527,-1197.3974722641235,-1251.5557831034162,-1275.8335092508548,-1219.3768023844373,-1291.6838626031506,-1265.8426958708528,-1273.1859628937252,-1409.639167569105,-1244.2187788545436,-1243.5761155841726,-1304.2982760293858,-1272.4129961655485,-1233.689221507773,-1185.418296944875,-1341.4260042713906,-1287.9437534178385,-1222.2582678581907,-1363.210091985475,-1344.877754966938,-1244.1642676343959,-1244.7002568057737,-1211.4753092148908,-1297.063200639805,-1416.0967210926158,-1282.0936935393563,-1288.6364459069316,-1298.385908511516,-1323.9759112555398,-1274.9633267808845,-1262.921337455644,-1388.4498760134734,-1316.7873165764543,-1242.995752366836,-1336.9925256751017,-1288.673570015595,-1350.8221362207053,-1288.0601024766572,-1172.438251207175,-1353.9256277803345,-1286.1119911882756,-1371.379391057149,-1295.6029185773,-1303.2710598381786,-1317.4524339365785,-1273.4488431597886,-1324.4083772895538,-1336.7459620084076,-1234.4236956140012
19,-1288.9835714409505,51.70355265251517,-1352.170466587217,-1253.3015593964296,-1264.8906814393863,-1319.1298442779057,-1289.7080896231732,-1281.4904614583916,-1297.097773613545,-1385.845872774688,-1314.5309804575431,-1414.7081359593244,-1175.1622113690992,-1281.9341978722045,-1251.1024746411574,-1302.4568288789935,-1308.6814280448955,-1278.3125783223202,-1267.269586299743,-1303.2861059072256,-1329.5111832603336,-1304.7002741704132,-1228.124613028625,-1296.546660433376,-1223.4765332661502,-1317.5037194023048,-1310.7479810457867,-1236.1202831065855,-1285.4526798031254,-1223.5299270572305,-1308.4983791883626,-1307.1892800141782,-1208.5510445405034,-1376.496504251536,-1300.0672268513676,-1279.762686114167,-1173.7587643117301,-1249.0143399757894,-1338.1853922698979,-1344.025906775003,-1277.8457766196295,-1289.4510978524643,-1286.0980369676092,-1314.4760664659668,-1277.0803847241737,-1291.3986919299612,-1211.5253531482806,-1302.461052109265,-1182.9252090302557,-1359.3917943199283,-1318.6227956139815,-1329.3092558160479,-1325.9367496849595,-1344.0253270790527,-1197.3974722641235,-1251.5557831034162,-1275.8335092508548,-1216.5460356161104,-1291.6838626031506,-1265.8426958708528,-1273.1859628937252,-1407.887809084526,-1246.5007526076874,-1243.5761155841726,-1302.0163022762422,-1272.4129961655485,-1236.5199882761,-1185.418296944875,-1341.4260042713906,-1287.9437534178385,-1222.2582678581907,-1363.210091985475,-1344.877754966938,-1244.1642676343959,-1244.7002568057737,-1211.4753092148908,-1297.063200639805,-1377.9457656651034,-1277.4796784715652,-1288.6364459069316,-1298.385908511516,-1323.9759112555398,-1274.9633267808845,-1262.921337455644,-1386.1679022603298,-1316.7873165764543,-1242.995752366836,-1336.9925256751017,-1288.673570015595,-1350.8221362207053,-1288.0601024766572,-1172.438251207175,-1353.9256277803345,-1286.1119911882756,-1371.379391057149,-1293.5018692655035,-1303.2710598381786,-1317.4524339365785,-1273.4488431597886,-1324.463602913461,-1336.7459620084076,-1234.4236956140012
