Run,Terminal Iteration
0,17
1,8
2,9
3,17
4,12
5,13
6,12
7,8
8,6
9,13
10,20
11,13
12,17
13,12
14,6
15,6
16,11
17,6
18,10
19,8
20,5
21,11
22,10
23,8
24,18
25,7
26,11
27,9
28,19
29,7
30,7
31,9
32,6
33,18
34,9
35,5
36,19
37,16
38,20
39,8
40,9
41,7
42,7
43,5
44,7
45,7
46,10
47,18
48,20
49,20
50,7
51,6
52,9
53,15
54,11
55,6
56,8
57,9
58,6
59,9
60,12
61,9
62,16
63,7
64,9
65,9
66,8
67,8
68,7
69,7
70,5
71,18
72,8
73,8
74,8
75,14
76,18
77,10
78,11
79,7
80,8
81,7
82,15
83,7
84,10
85,14
86,8
87,15
88,7
89,8
90,7
91,9
92,12
93,6
94,12
95,9
96,17
97,7
98,10
99,19
