Iteration,Mean,Stdev,Run-0,Run-1,Run-2,Run-3,Run-4,Run-5,Run-6,Run-7,Run-8,Run-9,Run-10,Run-11,Run-12,Run-13,Run-14,Run-15,Run-16,Run-17,Run-18,Run-19,Run-20,Run-21,Run-22,Run-23,Run-24,Run-25,Run-26,Run-27,Run-28,Run-29,Run-30,Run-31,Run-32,Run-33,Run-34,Run-35,Run-36,Run-37,Run-38,Run-39,Run-40,Run-41,Run-42,Run-43,Run-44,Run-45,Run-46,Run-47,Run-48,Run-49,Run-50,Run-51,Run-52,Run-53,Run-54,Run-55,Run-56,Run-57,Run-58,Run-59,Run-60,Run-61,Run-62,Run-63,Run-64,Run-65,Run-66,Run-67,Run-68,Run-69,Run-70,Run-71,Run-72,Run-73,Run-74,Run-75,Run-76,Run-77,Run-78,Run-79,Run-80,Run-81,Run-82,Run-83,Run-84,Run-85,Run-86,Run-87,Run-88,Run-89,Run-90,Run-91,Run-92,Run-93,Run-94,Run-95,Run-96,Run-97,Run-98,Run-99
0,410.24425855412983,53.86084517924649,295.0129053545865,391.382705680817,409.9601156816786,332.69680214449556,457.93058014096135,432.73437914800735,393.8698501962811,346.9423732346687,400.1794771284459,520.3177668756465,379.68509318892995,329.1476569679734,538.9056711356616,377.4800877568776,330.8648686275418,392.1396198212283,336.4537238208973,416.49435041141334,449.73532315261315,464.11647722225354,430.0352055703058,371.65271014802335,434.7936107378024,435.47239939849715,378.9350455768428,371.3932655173349,468.9060684331927,402.84289386437774,372.3076467282995,392.5244533326601,459.7408037742151,307.91086246147347,398.05324213170206,530.7372133084667,404.54836168110177,348.32157852825367,349.7741757865887,475.53894957766596,424.7310756146488,420.5715091052677,495.8451121144286,344.65591546359144,450.5110169606573,399.492756945013,420.98151181676366,347.60684841086936,393.41943556656986,432.4087529129311,442.0323308989152,371.0871107649001,336.18928870984365,521.1352312398726,377.1017245451907,437.7599586574243,472.54029068066797,399.51831376108834,446.20989340909057,379.35904089043987,302.67466095117106,480.26970852544775,425.6270164992522,383.8649617455662,451.995976368693,537.0307731752686,384.2745851941124,404.85011914604263,434.4457043472126,461.9150135034769,386.82553698012595,445.51484183853074,452.02604246686894,361.81007326214205,380.3126014668136,320.21163414594884,408.07985602879063,433.0374190714087,499.86798599567067,315.5155825751404,446.80347524717934,395.236948363706,447.7600336371422,496.7534783402631,371.7903312664115,388.09214533192943,343.1070319281246,376.9832631501211,463.54341117178586,414.96174716818683,377.9976392509413,418.16130023615403,373.8997576286847,482.43255559924177,414.1102979069315,375.07716517858034,443.398882542202,456.7644815455478,391.5753241537131,434.1048984156357,456.5850220585987,342.4411392882518
1,564.1611218035634,70.11202796278879,447.5897654184723,416.59623878240393,502.2858722706628,545.933362551377,565.9432697910012,530.1673168385397,675.8065979208347,785.4266228127238,628.1026123517487,590.8331367976552,599.4833914280056,443.82457133275614,572.6828302047834,490.5420829093343,636.8994886376082,598.9068579196302,571.4927780358963,567.4745624989488,538.7983231446627,563.3045832971055,556.4579298811545,563.3220310788463,541.460984425445,555.3936785279861,643.4172903766962,588.0588828944583,551.1208939862776,529.6844553309796,601.6712481139132,548.2415322218824,581.5104274323704,566.0109140070621,567.1101699688653,561.0817989251559,551.0542112837713,711.6630472723675,675.4156918098294,548.6850585557503,518.263472119298,671.0701221924026,618.7532030897961,464.0154927407449,528.2413635401986,523.6346651044673,703.6416435847016,562.6085977353371,540.9037367818747,434.4842899557951,600.9693820304373,562.5113282318616,517.1669286467516,631.2193264500888,387.87674018709015,558.6750083756912,569.8647554680954,543.0937306807355,684.0136824583977,691.4717080478208,522.5138444187602,620.4560264369029,679.208332114002,476.3500636264586,536.9350744425185,506.86675815132304,563.0863756374306,546.0663121066185,556.4297683901377,583.9043532499458,533.6499760940683,578.7627191805176,521.882765604707,620.719839483947,605.8083081216823,411.04425838653515,681.8262310100986,562.4233073443547,520.4088971996888,563.5133069790567,633.5211419652984,658.7594981437743,596.0861972891033,532.8899999026,629.4900028524929,485.1719406372378,526.8191432060762,587.0748702257682,575.4453366426479,537.7853267205621,514.8514976561299,359.92284256100066,630.4070442125444,496.40052548814765,538.3916612944489,578.0788205854354,488.098938772138,542.6237958747424,522.6517922379976,599.3223743444427,538.938239850442,625.5909834560166
2,543.2712814112049,67.91609365714089,425.4843174474876,452.85314948555083,510.32121915544394,536.8956860201673,533.5567811573039,504.38418660969165,540.7078727070442,681.2079745610108,473.0182614323486,637.0939649173349,518.0427438942232,420.83179847400953,537.4035089346644,519.32020968517,657.0430416730687,569.7517044355324,470.4287650401952,516.3693321274627,547.8554152192942,549.2324217529763,530.0665741054983,596.8322920130028,541.2314416283509,540.6454415959324,541.0499306526327,552.1231117717289,511.0468760094695,472.2102752542773,556.7098949852677,599.8503380360872,540.4507555104175,543.837153242571,574.7150960146148,556.0328403337508,526.6710822635632,667.2747605638252,676.9201061577373,555.1015422330365,559.550108884903,555.4409557204532,643.124920097746,493.0770132580647,434.94134684175475,481.70652794273576,646.3718714552197,552.2522073599079,490.57472828887774,459.3273070404675,578.110795019064,525.0114605664263,512.7470291631271,586.4696715781484,403.1697880427761,542.560127149842,522.5410536455666,591.3538849720833,649.9235275922409,674.8354623312002,477.32153263099474,552.4599924856003,662.9309435738677,496.52485580148783,490.2188680893759,467.21063042760113,570.6194751434347,542.5974020201538,595.150936654117,577.3992191081032,553.7890388662571,572.7107362243876,514.1623392629386,399.347511312724,600.3512313422384,453.57102498542486,560.1678398347808,588.7547302446148,556.5285911084077,595.4599205520099,625.2201746279579,649.2853724786942,615.0602575226623,512.7826033836362,643.8874957824939,474.067053468228,545.2914046120062,579.3424484557496,579.1652198542284,520.8229823552235,442.7317645767517,358.3541832298708,636.6888922313151,530.7786629568709,629.8205005335401,468.65111447524066,438.1953872457612,474.3685498611405,512.1208435114643,559.3856522846307,465.9804695336821,650.1886344184495
3,532.6196788059285,65.98719794938714,514.438000219321,440.82635839316816,503.5670164615771,497.020007399679,528.5361572377514,566.8350733730597,533.4947026100433,622.7386634386945,488.1957142118901,661.6995801159184,453.8881508013197,416.2242058628902,537.4529502005241,523.9317688559184,663.4199926954852,475.24654766700246,468.5156094903799,509.467522439735,541.7902225720605,471.2823986834504,535.6093114647093,563.8026354506344,504.80722372823936,571.2976276462956,532.0168259716745,541.3763119446752,473.3944478114712,404.99345066535795,554.3470318099854,626.8305560471033,518.7623450393367,561.6417266123547,581.5011000012994,515.3815396922447,469.1542664118677,648.9427571106522,672.2798628328977,550.9695985065395,554.8418499248155,540.4672882409407,658.5473412949683,555.6065885414333,446.8239849925642,525.5738168430399,642.4115047988894,536.4028033993893,448.570854313446,475.13069675488066,523.5424797150574,516.8598528831446,521.2746227936424,607.8976599498666,487.8622015573865,553.6590677824859,600.8763846507261,569.9289715642611,673.341969272151,644.889247012847,465.56391849980236,506.19309076810333,558.8726196477478,474.80713665245673,505.1822720374365,478.5878289140434,590.9281635281112,609.484377359291,588.6776082740904,544.4692783631889,527.7985454163277,657.7718255789931,480.6503795540699,385.134735939691,576.838613352982,469.83484522865695,521.6478971494378,584.4576747945423,546.5036749391003,590.6373184307082,586.0798453238494,543.4733407557753,660.2243820864562,497.83175123388986,593.9079412054186,486.84226053187444,528.9747597588924,550.438742209929,523.2606526110865,461.746414780576,433.35607888909914,377.0692797101319,578.7508504050857,517.0552474558082,549.5932739693811,518.484910258027,453.2659838792513,469.27479098422305,410.4146787515106,577.1595873662017,468.2118305334813,482.32102570098607
4,519.4887904647829,63.92723957496745,548.424612452967,414.09621038869864,465.92980669923935,493.4708822903193,526.5640035206084,552.876026915266,443.74092282996264,619.9749411707446,487.9305629806524,588.5587639590163,480.3917200668509,433.7006687545131,547.5889248162614,481.1587966086678,660.0928314061813,485.2801529896042,471.3912502276181,480.5343220137039,552.8584652520727,449.12893853370457,518.8141012133215,519.7266413357746,507.65243319007897,560.4101889105082,539.2249813295708,529.4345450351773,470.6182937097318,439.9432189322964,547.5077830635938,524.993104131686,479.9228583562479,528.8848747315066,640.2930206475354,530.8608126947627,438.5249202647441,651.7494187985798,653.838037821049,554.5462577540961,512.4651128686614,527.0645701392019,653.8154639777339,544.6651617713227,473.58444756735736,531.1046744062094,590.9058487722253,537.0298022910916,407.56098805106467,478.39540758204026,524.4571373785245,505.87242348488604,579.8212203039249,557.8065520292074,345.36632242378636,537.6806872401137,589.2340713557381,502.27837725112977,588.4357520700692,638.9010158129636,483.4043415581543,519.2846445349359,543.6391561262697,474.8867728219948,497.75257707270475,437.863783534189,543.649774797251,610.5717154042569,543.3217236311718,462.9544730687486,518.5862989968421,619.1879326991135,468.77267998678434,376.46334153253645,598.260864591655,481.18547451805375,519.8709826401451,567.9283347284775,514.1697540427044,571.8512419822421,584.6222239065456,548.9358541952254,659.2863225949471,508.43221038263226,576.16936092847,521.4234908549215,524.1656209244386,544.1675897416494,540.9609913333684,458.25459871444184,423.1070769127869,413.89300696912227,569.0024032665175,457.95546608402077,507.8051403468669,518.2291554558952,459.4217293705102,443.9704622835703,409.93355435700477,535.951409463723,451.2396089278292,491.262568621431
5,510.29049200127554,66.8153359447057,502.3199094131758,306.953889723302,441.10981589617234,493.282531253574,458.4305453447236,562.0348117765624,442.00988162194244,619.81318900759,487.16364203194297,601.7487671302835,466.6226972483489,411.2048482060548,492.10722497988456,430.67751611063795,647.8101997136931,444.45841268886664,473.91019726010717,482.63155136585226,570.6700655219124,444.1830890643397,518.8141012133215,495.0575736024693,492.32268205942074,570.3110027562008,484.2539421657414,546.0694683563038,416.212172108345,420.33878963368545,537.0117086722805,517.4026457362015,453.3954141099321,530.9734030195926,595.3691976428327,474.21160215837926,446.50392494957595,651.7494187985798,683.0046489115978,588.9704872850957,512.2194655565696,541.7591665163274,652.8794927845016,525.2993063278639,476.1068760306036,531.1046744062094,599.861832835039,537.313396580913,441.89696367645314,478.39540758204026,534.8855540634223,456.99224298242893,595.189959513475,545.5459858816301,377.9343897630795,546.2540092554948,586.1256857450683,502.02799278192384,578.3303906601932,582.8581211810202,535.0902141699031,498.7323325820454,515.6661501647112,478.67957952867124,475.8538668263772,436.4223529833293,537.3286765425984,604.7105015772754,537.427426723457,481.25578783764627,531.6163462782577,553.3189657275251,468.77267998678434,388.7015485472595,596.6059752794836,486.74099116055623,523.5664887036465,555.5529092043605,523.4460689251398,567.7680283647613,541.0552321951808,564.1657176387104,659.1387743621664,505.230772633987,502.910363395312,519.8243729972118,470.833421650509,529.8805507182617,524.6992116254282,469.406166215849,405.5831412523654,453.27999033615225,569.0210931856816,456.27355464164737,551.7592780171975,533.5033117480449,442.6932038060306,409.79001429654625,410.6844135465606,485.1639931967157,429.3816345956832,493.4182142957691
6,509.6447812532849,68.47390971165368,497.9632427626742,306.3525444704323,421.20761957618623,494.7210554228784,466.63514974871117,562.48172211868,518.5148685107805,666.6754858902306,489.9044116593015,590.679755308255,466.6226972483489,411.2981260692977,483.58267718586956,435.51176092485747,647.8101997136931,444.45841268886664,473.91019726010717,482.63155136585226,579.8233814504349,452.06097208190477,518.8141012133215,488.4938469578913,492.32268205942074,559.1077550326908,483.7886276537538,544.0370993232518,417.0164461918687,423.9570757899764,550.152345868017,519.359612068177,447.29737132581624,530.9734030195926,595.3691976428327,474.21160215837926,441.5224544379732,651.7494187985798,686.7068065752767,522.3122441771573,513.93768967982,578.6363989354043,644.8889289583437,485.93816642589235,473.5358849567821,531.1046744062094,569.9813009552238,534.1303115557057,451.93395337235705,478.39540758204026,542.44637278936,427.56803162405646,593.084460422109,545.5459858816301,358.51697337479806,492.4800602636952,550.7753456621136,502.02799278192384,585.7220629823776,632.6912611556397,535.0902141699031,494.29733399859356,532.6860058024095,476.85176897988663,478.6266253456311,428.2618039186808,533.1491798162457,571.1841458023101,602.3252921558826,512.9427666950987,529.6271992279388,561.2432928202619,466.4577778384166,392.13899628306785,605.8882696336228,487.83025247933244,507.3037789230993,591.5310918488567,523.4460689251398,520.8343748909314,477.0434560318579,569.0195491817849,605.644299588373,508.49966467666144,507.9450182399866,439.28122684791276,470.833421650509,538.9393081923415,562.3340351936297,478.0107727619832,405.2770953962764,392.10042630232874,579.6228933522626,445.9040383999489,551.7592780171975,533.5033117480449,442.6932038060306,413.71383102244073,410.6844135465606,532.2461440402593,521.544442880542,492.7828693794274
7,506.63483957644377,67.54045937215848,474.5405219519318,296.8672106772485,432.9805158181937,485.9068115371629,470.98876057761953,561.9911237016178,469.876540832828,616.1241951443224,489.9044116593015,590.679755308255,465.0631870013411,404.56575814490736,494.13482983233195,457.50802970524506,647.8101997136931,444.45841268886664,471.7439634110615,482.63155136585226,574.5419403099673,373.1697308209765,518.8141012133215,489.73324126920727,518.0181441509249,558.4062646482726,479.6880304513424,544.0370993232518,414.70264554473505,427.696134864256,553.5799982739828,519.359612068177,447.29737132581624,553.3703588379246,595.3691976428327,474.21160215837926,450.0763423471736,651.7494187985798,684.9723863072212,522.3122441771573,513.93768967982,578.3664761024972,601.549753373881,485.93816642589235,473.5358849567821,532.8978767689409,569.1809762790543,534.1303115557057,487.64713097376097,478.8149150089151,542.44637278936,427.56803162405646,593.084460422109,545.5459858816301,361.46680859236164,492.4800602636952,655.8313571957812,503.25204028413987,547.3862257703368,618.1853953967745,531.6445981867636,529.2194821633266,561.9590594293577,468.9568776474275,478.8539905862958,428.2618039186808,521.5567922667286,453.4750921038976,602.7924923359145,512.9942808132333,531.150678764451,561.6490424994479,466.4577778384166,390.0989634066023,550.8416339927718,435.2828236659855,502.64343039989075,533.3688086809153,523.4460689251398,520.8343748909314,482.75695680135215,569.0195491817849,610.4656942149971,508.49966467666144,507.9450182399866,439.28122684791276,470.833421650509,546.3573471741948,508.2118472320351,478.01482838200434,405.13024027163385,400.6083445449036,579.6228933522626,450.8828242055481,551.7592780171975,533.5033117480449,442.6932038060306,435.3915784731003,410.6844135465606,532.2390362542278,530.8987330424862,511.06891051399475
8,505.52424420277913,67.95610245328358,489.9444412994962,296.8672106772485,405.30822144085533,487.4198703996566,469.38588761155324,561.9911237016178,466.7402036571477,616.1241951443224,489.9044116593015,590.679755308255,465.0631870013411,397.51671430200264,494.5255813359952,430.0290148458528,648.0862190935228,444.45841268886664,473.91019726010717,482.63155136585226,564.0003639320023,373.1697308209765,518.8141012133215,486.8524280104248,484.45365678688216,558.4062646482726,475.77566003146893,544.0370993232518,413.03679385282265,429.67401766582196,553.5799982739828,519.2076737090766,447.29737132581624,537.24368801675,595.3691976428327,474.21160215837926,449.975170684592,651.7494187985798,684.9723863072212,522.3122441771573,513.93768967982,563.9893933981389,605.5105323469795,485.93816642589235,473.5358849567821,532.8978767689409,569.1809762790543,534.1303115557057,483.5376581856207,478.9709935971755,542.44637278936,428.18827181498756,593.084460422109,545.5459858816301,362.09008234490534,492.4800602636952,649.3303508873607,503.25204028413987,547.3862257703368,643.012332663899,532.4366186834462,535.4699991358456,532.6860058024095,466.29865784918445,477.23570873968157,428.2618039186808,524.5512040210898,439.2436255369263,602.7924923359145,512.9942808132333,529.412057661164,561.6490424994479,466.4577778384166,386.05222567165595,550.8416339927718,435.2828236659855,504.4484918786908,533.3688086809153,523.4460689251398,520.6651825525997,474.1711508015863,569.0195491817849,610.4656942149971,508.49966467666144,507.9450182399866,463.73569870255733,470.833421650509,548.9281409699478,508.2118472320351,477.9702758058903,405.13024027163385,400.6083445449036,581.9896156743986,463.0318355936792,551.7592780171975,533.5033117480449,442.6932038060306,453.23564709583906,411.6334966149332,532.2390362542278,521.5498994057521,508.5048070829578
9,505.1052610465849,69.18799092693742,485.76315572566733,296.8672106772485,405.30822144085533,487.4198703996566,469.7502499338563,561.9911237016178,466.7402036571477,616.1241951443224,489.9044116593015,591.7297127471777,465.0631870013411,393.4403577817799,494.5255813359952,491.29714522571817,647.8797508508816,444.45841268886664,414.4972131357382,482.63155136585226,568.264851573022,373.1697308209765,518.8141012133215,489.01219630451305,485.17580875531036,558.4062646482726,475.77566003146893,544.0370993232518,415.18081855302955,429.67401766582196,553.5799982739828,519.2076737090766,447.29737132581624,537.24368801675,595.3691976428327,474.21160215837926,449.975170684592,651.5957297991137,684.9723863072212,522.3122441771573,513.93768967982,563.9893933981389,605.5105323469795,485.93816642589235,473.5358849567821,532.8978767689409,568.6103703719252,534.1303115557057,428.266925760211,435.280907614094,542.44637278936,420.26525839112406,593.084460422109,547.5325689672587,362.09008234490534,492.4800602636952,652.1395778304078,503.25204028413987,547.3862257703368,643.012332663899,532.4366186834462,535.4699991358456,508.8022262798681,466.29865784918445,475.2978891403944,428.7783944993682,525.1500578903277,439.2436255369263,602.0052323498932,512.9942808132333,529.412057661164,561.2432928202619,466.4577778384166,386.05222567165595,550.8416339927718,435.2828236659855,504.4484918786908,532.8443761368408,524.278193431351,574.2417009511724,475.6672481416372,569.0195491817849,610.4656942149971,518.1314944498673,507.9450182399866,485.5052300711751,472.2479536722132,548.3412554785467,508.2118472320351,478.01482838200434,405.13024027163385,400.6083445449036,581.9896156743986,463.0318355936792,551.7592780171975,533.5033117480449,442.6932038060306,453.23564709583906,411.6334966149332,532.2390362542278,518.7338116195434,506.38440406434773
10,505.0661536585447,70.77564404292738,485.76315572566733,296.8672106772485,405.30822144085533,487.4198703996566,452.578735843232,561.9911237016178,482.9302667485935,616.1241951443224,489.9044116593015,647.4044894670842,465.0631870013411,393.4403577817799,494.5255813359952,484.5279606416836,647.8797508508816,444.45841268886664,424.47437975659074,482.63155136585226,568.264851573022,365.5622048342094,518.808591687743,486.34396422328825,485.17580875531036,558.4062646482726,489.65048822308654,544.0370993232518,397.30619099718814,430.09841388800544,554.3705762439598,519.2076737090766,447.29737132581624,537.24368801675,595.3691976428327,474.21160215837926,449.975170684592,651.5957297991137,687.7942992059186,521.0028980773371,513.93768967982,562.651873581085,605.5105323469795,485.93816642589235,473.5358849567821,532.8978767689409,569.1809762790543,534.1303115557057,428.266925760211,436.2492114543862,542.44637278936,420.756166981616,593.084460422109,547.5325689672587,362.09008234490534,492.4800602636952,651.9985075234982,503.25204028413987,547.3862257703368,643.012332663899,532.4366186834462,535.4699991358456,489.65919313413985,466.29865784918445,475.2978891403944,428.7783944993682,525.1500578903277,439.2436255369263,602.0052323498932,512.9942808132333,530.9339360487024,561.6490424994479,466.4577778384166,386.05222567165595,559.1978072787331,435.2828236659855,502.53891790323325,533.3688086809153,523.4460689251398,574.2417009511724,476.54465679977983,569.0195491817849,607.2137489425527,518.5891994709796,507.9450182399866,438.6626306511375,475.53312015195985,554.1124282033131,508.2118472320351,477.9702758058903,405.2770953962764,400.6083445449036,579.6228933522626,463.0318355936792,552.3973880894772,533.5033117480449,443.1973840587304,450.9797695328153,411.6334966149332,532.2390362542278,518.7338116195434,509.7322518065917
11,506.3851894767403,71.34353748033645,485.76315572566733,296.8672106772485,405.30822144085533,483.23439861797806,451.746326159353,558.0863192925485,480.72127266607737,616.1241951443224,489.9044116593015,649.6032988213676,465.0631870013411,394.6447315620919,494.5255813359952,484.14474122874486,649.4292534457211,445.09216413616866,424.47437975659074,482.63155136585226,568.264851573022,373.1697308209765,518.808591687743,487.8659189507183,485.17580875531036,558.4062646482726,488.38446798008994,544.0370993232518,397.30619099718814,430.09841388800544,558.1872714171384,519.2076737090766,444.1901781172805,537.24368801675,595.3691976428327,474.21160215837926,449.975170684592,651.5957297991137,686.0720438100428,521.0028980773371,513.93768967982,562.651873581085,605.5105323469795,485.93816642589235,472.87397483534704,532.8978767689409,569.1809762790543,534.1303115557057,428.66510845092563,434.79556533204453,542.44637278936,402.54595884129714,593.084460422109,547.5325689672587,362.09008234490534,492.4800602636952,651.9985075234982,503.25204028413987,548.0396146576131,643.012332663899,532.4366186834462,535.4705820004845,541.8321558495358,466.29865784918445,475.2978891403944,428.7783944993682,525.1500578903277,439.2436255369263,602.0052323498932,512.9942808132333,530.9339360487024,561.6490424994479,466.4577778384166,386.05222567165595,559.1978072787331,435.2828236659855,502.7856496778907,532.8443761368408,523.4460689251398,574.2417009511724,476.54465679977983,569.0195491817849,607.2137489425527,518.7523753198748,507.9450182399866,460.0031288707978,475.53312015195985,625.4769968075018,507.789743370208,477.9702758058903,405.2770953962764,400.6083445449036,579.6228933522626,463.0318355936792,535.6602716655709,533.5033117480449,440.9891274957477,450.9797695328153,435.6299448882014,532.2390362542278,518.7338116195434,510.59472267772003
12,505.9085369534954,70.9642044913989,487.65605807640094,308.40773294882763,405.30822144085533,483.42976166757893,451.746326159353,514.1782726461267,480.72127266607737,616.1241951443224,487.8159443871999,637.6919969426376,465.0631870013411,396.0477754866713,494.5255813359952,484.14474122874486,649.4292534457211,445.09216413616866,424.47437975659074,482.63155136585226,568.264851573022,365.26164077896095,518.808591687743,487.8659189507183,485.17580875531036,558.4062646482726,474.32920280410457,544.0370993232518,397.30619099718814,429.67401766582196,554.3705762439598,519.2076737090766,465.6622385115511,537.24368801675,596.5340847335762,473.4594213872475,450.50304560199544,651.5957297991137,686.0720438100428,535.7135376839482,513.93768967982,577.0219541793211,605.5105323469795,488.59130821039247,472.87397483534704,532.8978767689409,569.1809762790543,534.1303115557057,428.66510845092563,434.79556533204453,551.7265104341138,402.54595884129714,593.084460422109,547.5325689672587,362.09008234490534,524.4169309072737,651.9985075234982,503.25204028413987,548.0396146576131,643.012332663899,532.4366186834462,535.4705820004845,511.21601168972796,466.29865784918445,470.6386482530969,428.7783944993682,525.1500578903277,439.2436255369263,602.0052323498932,512.9942808132333,530.9339360487024,559.7219430223544,466.4577778384166,386.05222567165595,559.1978072787331,435.2828236659855,502.7856496778907,533.3688086809153,524.278193431351,574.2417009511724,476.54465679977983,569.0195491817849,607.2137489425527,518.7523753198748,510.2583532412542,460.0031288707978,475.53312015195985,617.8669564239146,507.789743370208,471.4703062939932,405.2770953962764,400.6083445449036,579.6228933522626,463.0318355936792,535.6602716655709,533.5033117480449,414.6762886585185,450.9797695328153,435.6299448882014,532.2461440402593,518.7338116195434,510.59472267772003
13,506.2023512453723,71.15940157351966,487.65605807640094,308.40773294882763,405.30822144085533,483.6971257922668,451.746326159353,514.1782726461267,481.28192109681487,616.1241951443224,487.8159443871999,637.6919969426376,465.0631870013411,396.0477754866713,494.5255813359952,484.14474122874486,649.4292534457211,445.43069990995957,424.47437975659074,482.63155136585226,568.264851573022,373.1697308209765,518.808591687743,487.8659189507183,485.17580875531036,558.4062646482726,466.82142652150543,544.0370993232518,397.30619099718814,430.72189739187354,554.3705762439598,518.9228761097578,465.6622385115511,537.24368801675,596.5340847335762,474.21160215837926,450.50304560199544,651.5957297991137,686.0720438100428,535.7135376839482,513.93768967982,580.2320462004293,605.5105323469795,488.59130821039247,472.87397483534704,532.8978767689409,569.1809762790543,534.1303115557057,428.66510845092563,434.79556533204453,553.6938059349548,401.9435376906362,593.084460422109,547.5325689672587,362.09008234490534,527.8815718172776,651.9985075234982,503.25204028413987,548.0396146576131,643.012332663899,532.4366186834462,535.4705820004845,511.21601168972796,466.29865784918445,482.9492176537504,428.7783944993682,525.1500578903277,438.46380376350936,602.0052323498932,512.9942808132333,530.9339360487024,559.7219430223544,466.4577778384166,386.05222567165595,559.4935568101041,435.2828236659855,500.45075750564325,549.6261248231266,524.278193431351,574.2417009511724,476.54465679977983,569.0195491817849,607.2137489425527,518.7523753198748,508.24588548230656,484.8214496862465,475.53312015195985,618.0500306966383,507.789743370208,464.78375694822176,405.2770953962764,400.6083445449036,579.6228933522626,463.0318355936792,535.6602716655709,533.5033117480449,414.6762886585185,450.9797695328153,409.77238335226326,532.2461440402593,518.7338116195434,512.6606820215417
14,505.2328908760538,72.16533510667772,486.293291428929,308.40773294882763,405.30822144085533,479.754727429642,451.746326159353,514.1782726461267,480.72127266607737,616.1237200065108,487.8159443871999,637.6919969426376,465.0631870013411,396.0477754866713,494.5255813359952,484.14474122874486,649.4292534457211,445.43069990995957,422.3237110003888,482.63155136585226,568.264851573022,373.1697308209765,518.808591687743,487.8659189507183,485.17580875531036,558.4062646482726,470.7336067873407,544.0370993232518,397.30619099718814,430.72189739187354,558.1872714171384,518.9228761097578,465.6622385115511,537.24368801675,596.5340847335762,474.21160215837926,450.50304560199544,651.5957297991137,686.0720438100428,535.1330378596663,514.5635259832802,580.2320462004293,605.5105323469795,488.59130821039247,472.87397483534704,532.0279609685517,569.1809762790543,534.1303115557057,428.66510845092563,434.79556533204453,552.3896015595376,401.9435376906362,593.084460422109,547.5325689672587,362.09008234490534,467.43979167346384,651.9985075234982,503.25204028413987,548.0396146576131,643.012332663899,531.1158834749514,535.4705820004845,541.8321558495358,466.29865784918445,464.6864914843379,428.7783944993682,525.1500578903277,439.2436255369263,602.0052323498932,512.9942808132333,530.9339360487024,559.7219430223544,466.4577778384166,344.82858447023204,559.4935568101041,435.2828236659855,503.0772349080087,549.1332090633034,524.278193431351,572.4348660500469,476.54465679977983,569.0195491817849,609.0810735766607,518.7523753198748,511.5601122094816,463.1149368568828,475.53312015195985,618.0500306966383,507.789743370208,465.7885698339253,405.13024027163385,400.6083445449036,578.3321527798065,463.0318355936792,535.6602716655709,533.5033117480449,414.6762886585185,450.9797695328153,421.73425412688965,532.2390362542278,518.7338116195434,512.6606820215417
15,505.05638023391526,72.12342917345687,482.2365153345598,297.4436864128964,405.30822144085533,472.870393708313,451.746326159353,514.1782726461267,481.28192109681487,616.1237200065108,487.8159443871999,637.6919969426376,465.0631870013411,396.0477754866713,513.4264139280864,484.14474122874486,649.4292534457211,445.43069990995957,422.3237110003888,482.63155136585226,568.9617498704299,375.7933725201913,518.808591687743,487.8659189507183,485.17580875531036,558.4062646482726,464.0220917045328,544.0370993232518,397.30619099718814,430.09841388800544,558.1872714171384,518.9228761097578,465.6622385115511,537.24368801675,596.5340847335762,474.21160215837926,450.50304560199544,651.5957297991137,687.4835393857702,535.447610138026,513.7463366956691,564.3155371058588,605.5105323469795,490.6506957729676,472.87397483534704,532.0279609685517,569.1809762790543,534.1303115557057,428.66510845092563,434.93076624965653,552.3896015595376,402.54595884129714,593.084460422109,547.5325689672587,362.09008234490534,467.43979167346384,651.9985075234982,503.25204028413987,548.0396146576131,643.012332663899,531.1158834749514,535.4705820004845,541.8321558495358,466.29865784918445,428.2889016809445,428.7783944993682,524.5512040210898,439.2436255369263,602.0052323498932,512.9942808132333,530.2174486246283,559.7219430223544,466.4577778384166,368.6414019199627,559.9301634344004,435.2828236659855,503.0772349080087,549.6261248231266,518.8255921647567,572.4348660500469,476.54465679977983,569.0195491817849,609.0810735766607,518.7523753198748,511.5601122094816,485.8036944182033,475.53312015195985,618.0500306966383,508.2118472320351,465.7885698339253,405.13024027163385,400.6083445449036,578.3321527798065,463.0318355936792,535.6602716655709,533.5033117480449,414.6762886585185,450.9797695328153,418.0642758354268,532.2390362542278,518.7338116195434,512.6606820215417
16,505.7915855368701,73.04611194861369,484.37131141333623,297.4436864128964,407.5353719215627,412.91886718115546,451.746326159353,514.1782726461267,481.28192109681487,616.1237200065108,487.8159443871999,637.6919969426376,465.0631870013411,396.0477754866713,513.0306609073358,484.14474122874486,649.4292534457211,446.0671928315704,422.3237110003888,482.63155136585226,569.9899909014804,375.7933725201913,518.808591687743,487.8659189507183,485.17580875531036,558.4062646482726,454.05223782201676,544.0370993232518,397.30619099718814,430.09841388800544,558.1872714171384,518.9228761097578,465.6622385115511,537.24368801675,596.5340847335762,469.87021430568797,448.9070201821696,650.3420874278204,732.2815952137059,535.4821196612232,513.9130890278182,578.9255654593527,605.5105323469795,485.93816642589235,472.87397483534704,532.0279609685517,570.1062567180647,534.1303115557057,428.66510845092563,472.2559624285147,552.3896015595376,402.54595884129714,593.084460422109,547.5325689672587,362.09008234490534,467.43979167346384,651.9985075234982,503.25204028413987,547.9375825209312,643.012332663899,531.1158834749514,535.4705820004845,541.8321558495358,466.29865784918445,428.2889016809445,428.2618039186808,525.1500578903277,438.46380376350936,602.0052323498932,512.9942808132333,530.2174486246283,560.1268575958079,466.4577778384166,419.80743538980863,551.6151150523034,435.2828236659855,503.50283727951296,549.6261248231266,532.6036245731318,572.4348660500469,476.54465679977983,569.0195491817849,609.0810735766607,518.7523753198748,508.72479534066525,485.8036944182033,474.833094827692,618.0500306966383,507.789743370208,465.7885698339253,405.13024027163385,400.6083445449036,578.3321527798065,463.0318355936792,535.6602716655709,533.5033117480449,414.6762886585185,450.9797695328153,417.51034795435675,532.2390362542278,518.5050932391629,512.5955760683939
17,505.841301965193,72.89986436648613,484.37131141333623,297.4436864128964,405.30822144085533,412.91886718115546,451.746326159353,514.1782726461267,481.28192109681487,614.6767015828981,487.8159443871999,637.6919969426376,452.9472767059171,396.0477754866713,513.0306609073358,484.14474122874486,649.4292534457211,445.09216413616866,422.3237110003888,482.63155136585226,569.9899909014804,375.7933725201913,518.808591687743,487.8659189507183,485.17580875531036,560.1765518124806,516.3462666607905,542.3051756595373,397.30619099718814,430.09841388800544,557.4271711736893,518.9228761097578,465.6622385115511,537.24368801675,596.5340847335762,469.0502188366959,448.9070201821696,650.3420874278204,731.7441709411232,536.6361583997917,513.9130890278182,578.9255654593527,605.5105323469795,485.93816642589235,472.87397483534704,530.2196336356304,570.1062567180647,534.1303115557057,428.66510845092563,476.4538909281178,552.3896015595376,413.3509057426742,593.084460422109,547.5325689672587,362.09008234490534,467.43979167346384,650.578358946783,503.25204028413987,547.9375825209312,643.012332663899,531.1158834749514,535.4699991358456,511.21601168972796,466.29865784918445,428.2889016809445,428.2618039186808,525.1500578903277,439.2436255369263,602.0052323498932,512.9942808132333,530.2174486246283,560.1268575958079,466.4577778384166,398.59682630817997,551.6151150523034,435.2828236659855,502.7783037107351,549.6261248231266,524.9180596390883,572.4348660500469,476.54465679977983,569.0195491817849,609.0810735766607,518.7523753198748,511.5601122094816,485.8036944182033,474.833094827692,618.0500306966383,507.789743370208,465.74714606168277,405.13024027163385,400.6083445449036,578.3321527798065,463.0318355936792,535.6602716655709,533.5033117480449,416.8081287247183,450.9797695328153,417.51034795435675,532.2461440402593,518.5050932391629,515.7137880983406
18,506.4695333323748,72.24213580856298,484.37131141333623,297.4436864128964,405.30822144085533,412.91886718115546,451.746326159353,514.1782726461267,480.72127266607737,614.6767015828981,485.07932156260205,637.6919969426376,482.44278274425363,396.0477754866713,513.0306609073358,480.6513498040829,649.4292534457211,444.45841268886664,424.47437975659074,482.63155136585226,569.9899909014804,375.7933725201913,518.808591687743,487.8659189507183,485.17580875531036,560.1765518124806,516.3462666607905,542.3051756595373,397.30619099718814,430.09841388800544,554.6067204811775,518.9228761097578,465.6622385115511,537.24368801675,596.5340847335762,469.0502188366959,449.576802263755,653.2666533816439,719.5315061057053,536.6361583997917,533.934384301105,574.2139742564799,605.5105323469795,485.93816642589235,472.87397483534704,530.2196336356304,570.1062567180647,534.1373930064581,428.66510845092563,476.4538909281178,550.3800494892508,417.84336742917066,593.084460422109,547.5325689672587,362.09008234490534,467.43979167346384,650.578358946783,503.25204028413987,547.9375825209312,643.012332663899,531.1158834749514,535.4699991358456,541.8321558495358,466.29865784918445,461.9515675857891,428.2618039186808,525.1500578903277,438.46380376350936,602.0052323498932,512.9942808132333,531.7389356893632,559.7219430223544,466.4577778384166,398.59682630817997,551.6151150523034,435.2828236659855,500.443333762893,549.6261248231266,525.7289591669447,572.4348660500469,476.54465679977983,569.0195491817849,609.0810735766607,518.7523753198748,506.39617842670276,464.3859431534485,474.833094827692,618.0500306966383,507.789743370208,465.74714606168277,405.13024027163385,400.6083445449036,578.3321527798065,463.0318355936792,535.6602716655709,533.5033117480449,416.9952886814409,450.9797695328153,417.51034795435675,532.2461440402593,516.943468887198,512.8188955846731
19,506.09411699776786,72.07963060237809,484.37131141333623,297.4436864128964,407.5353719215627,414.25483624504955,451.746326159353,514.1782726461267,480.72127266607737,614.6767015828981,485.07932156260205,637.6919969426376,478.6729072974944,397.7781573651057,513.0306609073358,478.9489750994164,649.4292534457211,444.45841268886664,424.47437975659074,482.63155136585226,569.9899909014804,374.7553282005761,518.8141012133215,486.34396422328825,485.17580875531036,560.1765518124806,516.3462666607905,542.3051756595373,401.3042377050614,430.09841388800544,554.6067204811775,518.9228761097578,465.6622385115511,537.24368801675,596.5340847335762,469.0502188366959,449.576802263755,653.2666533816439,719.5315061057053,535.4821196612232,536.683139210833,575.4878530469131,605.5105323469795,485.93816642589235,472.87397483534704,530.2196336356304,570.6772480787795,534.1373930064581,428.66510845092563,476.4538909281178,549.6005394172317,413.6602405659366,593.084460422109,547.5325689672587,362.09008234490534,467.43979167346384,650.578358946783,503.7798894264612,547.9375825209312,643.012332663899,531.1158834749514,538.0194551303433,540.2463378784811,466.29865784918445,464.0894473905898,428.2618039186808,524.5512040210898,438.46380376350936,602.0052323498932,512.9942808132333,531.7389356893632,559.7219430223544,466.4577778384166,398.59682630817997,551.6151150523034,435.2828236659855,500.443333762893,508.3198825152425,523.3012286152899,572.4348660500469,476.54465679977983,569.0195491817849,609.0810735766607,518.7523753198748,508.72479534066525,464.3859431534485,474.833094827692,618.0500306966383,507.789743370208,465.74714606168277,405.13024027163385,400.6083445449036,578.3321527798065,463.0318355936792,535.6602716655709,534.6018710725655,416.9952886814409,450.9797695328153,417.51034795435675,532.2390362542278,516.943468887198,512.8188955846731
