Iteration,Mean,Stdev,Run-0,Run-1,Run-2,Run-3,Run-4,Run-5,Run-6,Run-7,Run-8,Run-9,Run-10,Run-11,Run-12,Run-13,Run-14,Run-15,Run-16,Run-17,Run-18,Run-19,Run-20,Run-21,Run-22,Run-23,Run-24,Run-25,Run-26,Run-27,Run-28,Run-29,Run-30,Run-31,Run-32,Run-33,Run-34,Run-35,Run-36,Run-37,Run-38,Run-39,Run-40,Run-41,Run-42,Run-43,Run-44,Run-45,Run-46,Run-47,Run-48,Run-49,Run-50,Run-51,Run-52,Run-53,Run-54,Run-55,Run-56,Run-57,Run-58,Run-59,Run-60,Run-61,Run-62,Run-63,Run-64,Run-65,Run-66,Run-67,Run-68,Run-69,Run-70,Run-71,Run-72,Run-73,Run-74,Run-75,Run-76,Run-77,Run-78,Run-79,Run-80,Run-81,Run-82,Run-83,Run-84,Run-85,Run-86,Run-87,Run-88,Run-89,Run-90,Run-91,Run-92,Run-93,Run-94,Run-95,Run-96,Run-97,Run-98,Run-99
0,407.0320029466508,50.92899727510842,301.5303414735532,323.1157251501918,406.2373065802621,342.85465680833477,442.0685448165179,460.53635090138044,465.9722752605217,420.3684012068374,407.12046841958073,395.6965615672588,401.52572497648595,310.64056949996024,431.452841898588,392.57297953992963,329.2826357314773,352.5371013729901,359.10859813090093,389.85600795161986,488.3675268706612,340.57814771725293,417.6981169795933,377.29713077189604,492.38185941567195,397.95086798746183,375.7626772289106,515.9038113199208,488.4671570784955,435.8058227373637,442.6352318186273,416.8585287724023,403.20865096763424,359.08713417045635,432.15770406005424,446.9245445094286,534.7212778024464,393.30250641135825,365.41743390639675,367.22783573715475,497.61051396000795,311.6571864687025,405.8851334781334,400.09161868359945,482.1009612461933,416.90305365365225,417.9976743379581,315.5416894362504,385.68543487327787,446.46343444821065,360.75816350703,381.4847087084877,407.3418490599885,381.8069983897748,359.42954001682807,369.64795123429667,371.01347209087777,443.31348329675717,412.8992974540231,402.73143734757406,468.562295254383,363.1408550441926,365.4811435336955,415.73708041760216,409.3161027390913,477.2486663816042,453.5579499732129,403.92529143289994,406.3648589453612,414.9722042347939,363.70330535753646,436.09196548745945,485.2766517408686,415.5695275401025,370.6860570498098,370.3153244602419,527.1948213346367,429.56307595084763,431.711445338928,354.43420930635904,446.63822153385377,432.11975628919106,438.5310013226839,344.3047997402569,428.6133731153454,355.50562874289415,306.13594314695246,389.6178935007496,391.7323699960473,462.0382864435668,409.51887251079245,402.2938100121128,347.0078138522538,415.5509155605997,357.52974304035854,408.94438944590894,530.538189489386,424.41905927709365,482.45983203541914,359.412998048013,421.9426161558856,390.897290640874
1,577.9306358771046,67.9980868227946,672.0666507664366,623.7635683505715,569.2916503834551,585.352504312495,689.4118356205541,574.9719126961635,758.4872161795313,596.9413505734746,540.6353346207343,640.9864757074325,549.5961579003726,486.07455457205907,604.4372936963761,606.4137352058594,578.56102773883,628.1736590090269,663.4637256642027,618.8293758827193,679.9484003049776,655.7964518451843,573.7774163106195,516.5988725108912,610.8503509537735,589.1331424655103,547.578636806531,560.0256534051024,721.5469159209645,550.9698900427253,546.7449136853669,575.0863388824428,676.8008952008324,550.2504937939902,562.3284721190234,519.3667536855567,738.452068688174,526.1616411363443,545.0500205005745,594.0735947515079,621.6841512714672,639.8906948652677,438.2356833165189,528.1974943838817,560.7531344612945,517.6958493033729,674.0757553714468,568.4705252940167,448.42624858610424,511.46913598482325,665.6914383716793,517.8128681817169,638.5041783769336,626.9667769470001,509.3999365496709,548.0744502216597,677.7587263167018,548.5897972786122,634.4628669488136,648.6199084764876,573.4031637035866,547.6669836683076,634.9440968537518,640.3557477000446,611.561179231862,609.563290414324,593.4163767580443,438.25011645552456,560.7207125007936,420.6263101892314,521.3681540161903,628.3491999509874,644.9119393614839,574.3268378511453,516.0595076641132,538.8090045071746,583.6406662065156,490.03726072332614,629.6622533316872,621.4689815294846,511.37003466553324,534.0986735314134,578.1604217428128,570.8056400505676,561.6276512265413,676.6904980605874,486.25296095821784,545.0002870499114,541.5865269888478,596.4822573474823,580.2128096437534,509.92947882313575,513.2921018733066,506.25010016695376,531.000154407277,606.4723819842163,468.5585279724414,477.25912453746815,713.4182325385855,453.45010793509203,549.5664708270787,549.6587903638128
2,562.6207868263259,65.22775371695067,628.9198997744501,549.6009820231993,563.6693344506307,543.2373978490258,632.1676416492286,570.1884216780529,762.9974947956703,608.5992039117577,514.5697696762026,613.9451737025757,504.80561915877354,548.2261140638104,554.680763757004,489.93542503077543,508.1223402704154,612.628963546818,562.187247403961,642.1960691042862,503.7466179488169,603.0657659287299,448.05658805185834,610.7611788430976,601.4147696122028,465.7804804323965,645.6068348856268,523.9189715230192,588.264397889994,550.3288746032292,570.4466433938965,593.8070937374375,650.2518188636366,580.6978321910086,496.7512012292003,524.9899897670308,669.2467939716636,636.1011392671567,508.9326291274674,585.889058743451,598.3173373853263,627.8057192688261,481.7453832479763,618.6934241335472,528.0862835161936,534.294530902231,675.5793398864776,526.1426259832784,445.3220089402911,534.3451291074286,617.1437073979305,555.6328583740093,662.0522344299497,620.4337874739953,543.2104296374226,466.6844194676901,528.9563726287776,542.4833665687798,651.4959685266663,652.5236700889218,439.8951629964508,493.6901924380593,615.426050506785,542.6362707365288,612.5175789987068,594.4859010786819,572.4053477199562,460.3111678054478,469.79322424831435,509.73789555253495,519.700650720866,648.0953011912144,665.5405390964428,537.2665435677449,515.4615344264844,532.4219068181759,610.1105176137856,498.905766461801,618.3875075253212,557.1660640328674,617.8231132654269,548.2907505597722,561.8087322460782,517.207675581662,571.2492129775642,700.1549071636675,440.81151066552843,470.29494711654615,502.44524988626256,595.9151784022365,542.8342998173982,459.37482100336007,498.0921803652209,568.0847704752949,495.19180648255116,644.6125448153693,516.4256857598729,496.9449024896551,666.9121741493129,561.0581630820502,498.00155191151487,594.9042420568184
3,545.5170004889836,65.33196363837573,618.3086797544757,494.1333133972174,572.6190864417724,520.0339859848542,621.1401987654555,572.7530348855174,760.6342462740699,557.0256639332445,504.9747988067938,611.4220701052994,561.118543207651,549.0955904457605,512.3868952084722,431.16016424071165,487.86382116813354,557.215692061579,555.489404882078,583.2355045608841,509.7050540126201,628.3101275493663,463.63547515349927,553.2667672508798,645.7421783211814,468.74060197332847,636.4495135624009,524.1513904900632,682.6868749027685,545.4667455359667,534.9960348931525,581.1817804850424,545.2011943429396,549.9956745305242,484.67386955277505,553.1073491400408,622.8884485748306,627.1223929268559,427.6015876391357,466.2470945366124,550.3056672020725,542.4970267777696,453.5087528489703,583.7095207794916,551.4915429048552,526.2745194928789,665.3870350806454,523.8086925383091,418.25923679950125,501.9278705696572,632.8525145568772,480.1394622449548,674.586177446655,623.5721529160417,479.94310835683336,466.8409806846877,574.2733609338588,545.4423688202759,618.3023367208357,662.2627568404721,452.756815232254,486.61515592115455,593.8197365400835,516.4058690020933,553.4907189421042,562.2249250055288,562.140652704201,410.25128413273444,484.55026494491307,474.3716191225453,516.2404972468353,630.3780099194329,618.2060740606364,534.9232663930387,560.6662685030341,494.3155001511501,568.5782886304397,554.5553532383785,560.0430406580583,548.2749595797679,522.8522765662613,541.5851387081447,530.7723237422086,546.4561539652192,536.4660005558984,631.2262002968431,418.90497210781217,479.1087990132347,525.9623877983059,560.8528828868466,538.9922166751456,459.98311283551084,452.6610456625896,538.0358279313277,536.7114676769295,638.8161105780346,500.6720194650635,515.7034961529365,650.287081179812,499.58636279828994,481.0574403312185,565.0324980287469
4,541.8892347843181,63.025428231153974,642.4020770718178,467.136877608048,575.0356692883117,524.3552446747766,559.7385433706108,578.8491470761296,760.5902033825275,555.7391608423746,532.4807736490453,508.50239640924025,512.4994814284598,570.9539890391138,463.9442872284636,445.50741529679476,494.38341174787814,555.7443368741034,572.0856635709487,577.1632127693504,520.0383080752034,618.2915443847687,468.40750796036326,579.3747732669391,638.0496561205294,450.0906716697904,639.8008014284823,515.005654013404,664.3011947037886,529.5144322450967,569.1824209407888,532.0460954475102,516.3861555262795,579.2354247184182,477.64682041210483,556.6252352688623,641.2161222355957,615.3652564832397,483.710962595091,469.2622525404452,550.2182974885424,516.4920926788172,450.0990819621362,584.7050535491566,548.429586185721,496.17023210692554,650.990422009203,513.1877860926621,474.97679629127657,509.3394152365926,658.8491278418036,487.4173580783058,659.8983061799314,574.5771262428124,485.1740832541161,455.6473099002364,539.8701002305544,517.0786614502215,611.7834108171079,658.9240392498808,491.1706033785719,454.5431142350083,594.5899887641508,521.5488322508888,546.1397619654146,569.3863889912133,519.3316199134082,416.7024822004129,504.4996008410903,479.3632211869965,487.3290271389076,640.7837583132737,620.0788884875645,567.0620168109068,579.5979187784129,538.9507209122291,561.0072774571964,541.7415823455378,524.5943325796277,551.2527073966432,473.3233044864679,534.3372985541813,532.499993584886,552.5131227993716,553.2849067325906,616.1906123707445,431.79764878490363,473.6349078092137,500.44713871222604,571.4051764535544,490.3032346255235,473.8144345902556,448.7270861587346,540.2835074447087,544.2127495117013,633.0971721085439,554.9591697698736,510.93809805656696,638.2774357789174,500.37168162915395,503.8787323123742,496.4607539991934
5,533.9238176397461,60.87235493087627,644.6837100520287,480.3821897290718,621.3277560719536,494.6053049569897,560.7372738562409,574.9022818429241,707.2112786881673,560.9559242503299,475.34822831631624,497.95353819363964,516.5049194675614,570.9539890391138,459.6422666592186,436.5401136656883,494.38341174787814,537.3893163112624,526.3420524563311,536.5009239000959,526.5301048851288,560.0837072443547,448.38936954946763,580.7364890227235,656.273905728477,461.3761904399257,585.1638812699298,535.9315637046807,664.3011947037886,532.2108494750553,528.3890250141777,522.3277676639324,514.4658329284742,532.9982502434692,475.28328471449106,549.8160152859356,592.0984609581437,572.3944371975971,484.53565725048026,465.13416535279254,549.22988954287,519.0112382702073,443.28503837238753,567.084282586176,543.2205215200406,490.46899858268216,647.2025293281454,512.4974080101601,473.04688841905926,495.5951417322404,614.737578428073,498.702186839397,660.4843828080637,569.6665846811263,515.1917083194975,454.9699541937801,498.9010214077069,520.4468262751833,616.6299304573638,656.2448254100569,471.21893486823524,450.5952272401549,546.0893800920446,521.5488322508888,537.8803371899409,568.594070909956,509.83072157468695,420.45197719782374,496.7081189504756,482.3082304755936,499.8679263568506,597.1851724411358,622.6127104548357,574.7336344859252,577.5778242013919,536.5705623818583,536.0358268462923,499.4947271562848,542.1112276929676,546.6989325913174,469.38306183233976,534.3372985541813,530.8214609530369,534.2381554884878,591.9562357091015,650.6566386940374,436.72776922306747,473.4332523302041,500.44713871222604,542.5863820811402,485.3851766903096,482.39609888543293,448.4455006938229,443.9533606578282,531.1762419911358,665.597527507727,552.4010621007734,505.33374340672697,646.1914473122249,497.9264189138659,502.6981903794462,496.7536594767597
6,532.0334692593034,60.44345806111563,633.2168882954905,454.10913471952125,619.6033143195906,494.6053049569897,560.7372738562409,574.9022818429241,712.2661692637707,507.173342919273,475.85343104869145,497.95353819363964,501.1854669143061,570.9539890391138,459.9118004459765,452.53189126071027,494.38341174787814,537.3893163112624,526.3420524563311,540.2712429141902,526.1771288501865,560.0837072443547,447.17127029415224,580.7364890227235,666.6874982545014,451.12960530371095,585.1638812699298,530.69258354448,664.3011947037886,526.8918680896045,532.1418794367967,470.5243970680755,517.6129595170798,532.9982502434692,475.28328471449106,549.8160152859356,592.0984609581437,573.6003845282697,493.9498574069616,468.2622032022267,551.1764349622019,518.3551910335879,437.8626273618735,569.4235536015112,543.2205215200406,490.46899858268216,628.6150845069724,524.9214411140663,474.58118634737997,495.5951417322404,612.5680134002818,496.525818971947,659.8983061799314,573.5795565828633,492.91838481998514,448.44730942728506,497.8351236761191,521.6700230000694,614.76777578815,628.0436666432314,476.34716085498906,486.4158022585499,581.8510616622376,519.9127708869805,534.6541249309315,576.2440750415666,505.40667669028403,420.656948396784,506.04043765289606,495.92689731798805,500.2676193490783,597.1851724411358,626.7941631030119,578.7730272616063,579.3185922778513,537.0247950835324,526.8292861909626,503.61675490412756,542.565747596115,550.3205070372467,445.29641417436613,534.3372985541813,530.8214609530369,527.8891279404269,591.4344668985625,622.7494065349306,442.7269669332494,468.75405120420703,500.03622823573266,531.2644966120441,480.45690799065045,482.39609888543293,451.8215148326052,477.8396122484893,531.1762419911358,665.597527507727,531.9086277843214,453.5853064256549,646.6617428518548,491.88080651435723,517.2933139551631,492.0807572671431
7,534.6077093327175,58.16311941369218,633.2168882954905,534.6779965494197,606.9556118936571,494.6053049569897,603.3040454188007,574.9022818429241,707.0573453786659,499.50257140908974,481.6144057133669,497.95353819363964,497.3802097415673,570.9539890391138,464.5723744173299,440.3176469019376,520.3796470282646,543.8544970774451,526.3420524563311,540.2712429141902,538.2048457319668,559.9006878962629,446.96903183545294,604.179045985047,623.0195548226679,451.12960530371095,585.1638812699298,530.69258354448,666.0416114667238,526.6482908469771,560.2800590134038,457.8063652735413,517.6129595170798,532.9982502434692,475.28328471449106,549.7678888063457,592.0984609581437,566.7995374004257,493.9498574069616,492.68473032258635,562.6370942300183,518.3551910335879,467.1099457701817,533.9323170795233,542.8210327685164,490.46899858268216,628.6150845069724,531.2996036821991,469.74493861122346,495.5951417322404,611.8602062918764,495.08431196813115,659.8983061799314,574.2044161596879,469.8976676906507,433.8615928840089,497.8351236761191,521.6700230000694,614.76777578815,643.831078927927,476.34716085498906,499.7829971198701,581.8510616622376,519.9127708869805,530.3996256339644,583.6923242060676,512.33056148993,433.73317601048984,502.64061276767166,500.88112009737546,500.2676193490783,597.1851724411358,625.5372807712436,568.7564773814886,579.3185922778513,521.2432562770191,515.6265155539796,503.61675490412756,552.8743933469393,550.3205070372467,445.6621705406308,534.3372985541813,530.8214609530369,538.8627784005971,591.4344668985625,608.1400161211728,442.7269669332494,473.7119647443611,500.03622823573266,531.2644966120441,480.0094055659652,482.39609888543293,498.61463865481005,479.81312183644644,531.1762419911358,665.597527507727,542.9780339789615,495.2703475057577,646.6617428518548,504.5522815919093,525.7889193489582,482.0147133379593
8,535.8166829584799,57.749777971207536,633.2168882954905,529.013958510087,606.9556118936571,494.54359489983665,603.3040454188007,574.9022818429241,683.7419988919627,499.50257140908974,481.6144057133669,497.12674091688825,502.3684880334652,570.9539890391138,464.5723744173299,440.3176469019376,558.0350613130432,540.0010720192299,526.3420524563311,540.2712429141902,538.7718501202327,560.0837072443547,446.96903183545294,603.9721961339078,623.0195548226679,451.12960530371095,585.1638812699298,530.69258354448,666.0416114667238,526.6482908469771,560.2800590134038,445.8676832017976,517.6129595170798,532.9982502434692,475.28328471449106,549.7678888063457,592.0984609581437,567.6250973139287,493.9498574069616,493.2703365368166,559.2769640787429,518.3551910335879,500.1824424058789,533.9323170795233,542.8210327685164,490.46899858268216,628.6150845069724,533.6334042059334,521.304697904972,495.5951417322404,610.501180572683,495.08431196813115,659.8983061799314,573.7761317496108,469.8976676906507,432.47213791316267,497.8351236761191,521.6700230000694,614.76777578815,645.0770212442525,476.34716085498906,499.7829971198701,581.8510616622376,519.9099292494566,513.9660551690231,583.6923242060676,517.3950239216929,433.55727288430137,505.3317272522312,500.88112009737546,500.2676193490783,597.1826967784233,625.5372807712436,566.8256002533594,579.3185922778513,557.4322141633802,508.9281467987399,503.61675490412756,552.8743933469393,563.5470832167236,449.4042135094371,534.3372985541813,530.8214609530369,533.1816236966647,607.5670503349403,623.3974094935688,431.7868181850526,473.7119647443611,500.44713871222604,531.2644966120441,480.0094055659652,482.39609888543293,503.50082301893246,479.6585987349297,531.1762419911358,665.597527507727,543.5588464367308,495.2703475057577,646.6617428518548,490.3016731917514,525.7889193489582,480.38837246676366
9,534.8033879184021,58.13349819118341,633.2168882954905,528.5723091906101,606.9556118936571,494.54359489983665,597.1934235371152,580.3135585548852,684.7177521653158,499.50257140908974,481.6144057133669,497.12674091688825,505.8686967086295,570.9539890391138,464.5723744173299,440.3176469019376,552.1923575214407,543.8544970774451,526.3420524563311,540.3518493878934,540.3518755369066,558.2193794624442,447.17127029415224,604.179045985047,623.0195548226679,451.12960530371095,585.1638812699298,530.5761508164312,666.0416114667238,526.6479078345266,560.2800590134038,445.6695628623813,517.6129595170798,532.9982502434692,482.6867165381324,549.7678888063457,592.0984609581437,484.7442233116956,493.9498574069616,497.113343659555,562.8671712646478,518.3551910335879,500.1824424058789,533.9323170795233,542.8210327685164,490.46899858268216,628.6150845069724,533.6334042059334,470.72164172048986,495.5951417322404,610.4737508707719,495.08431196813115,660.4843828080637,573.7761317496108,468.5387411288794,432.47213791316267,493.39064524510593,521.6700230000694,614.76777578815,646.3487159467015,476.34716085498906,499.33858923474304,583.0153179002681,519.6400273195079,514.0851874187215,583.6923242060676,521.3947268572184,426.90509549861383,506.55513969905945,499.74585561084746,500.2676193490783,597.2818339014491,625.5372807712436,566.8256002533594,579.3185922778513,559.1957972982032,510.17207898345765,503.61675490412756,552.8743933469393,563.5470832167236,450.1689824642229,535.5113561560881,530.8214609530369,533.1816236966647,607.5670503349403,623.3974094935688,438.1186185644579,473.7119647443611,501.70865151621365,531.2644966120441,480.0094055659652,482.39609888543293,495.5676766498908,479.6585987349297,531.1762419911358,665.597527507727,543.5588464367308,512.594647855821,646.6617428518548,490.3016731917514,525.7889193489582,480.38837246676366
10,535.907692375848,58.45531154606548,633.2168882954905,529.5250142356356,606.9556118936571,494.54359489983665,604.1161942615541,626.6352173540369,676.4874819553244,500.0275415745058,481.6144057133669,497.95353819363964,505.8686967086295,570.9539890391138,464.5723744173299,440.38420251229263,572.8753727907972,554.9031136198357,526.3420524563311,540.3518493878934,540.3518755369066,559.9006878962629,447.17127029415224,604.179045985047,623.0195548226679,451.12960530371095,585.1638812699298,530.5761508164312,666.0416114667238,526.6479078345266,558.8950205713218,445.7125397297725,517.6129595170798,532.9982502434692,482.6867165381324,549.7678888063457,592.0984609581437,484.7445526747631,493.9498574069616,500.19541016290987,562.8671712646478,518.3551910335879,500.39338823963845,533.9323170795233,542.8210327685164,488.9662066939682,628.6150845069724,533.6334042059334,470.72164172048986,495.5951417322404,610.4737508707719,495.08431196813115,660.4843828080637,574.3998858974214,470.4519573290627,432.4385384985072,493.39064524510593,521.6700230000694,614.76777578815,645.1196705875324,476.34716085498906,499.7829971198701,583.0153179002681,526.307458083803,514.0851874187215,583.6923242060676,517.3950239216929,428.11826691651515,504.22651628287764,499.74585561084746,499.8679263568506,604.2876163881757,625.5372807712436,566.8256002533594,579.3185922778513,559.1957972982032,510.17207898345765,503.39807469726566,552.8743933469393,563.5470832167236,450.1689824642229,535.5113561560881,530.8214609530369,533.1816236966647,591.4344668985625,622.7494065349306,438.1186185644579,473.7119647443611,501.70865151621365,531.2644966120441,480.0094055659652,482.39609888543293,495.5676766498908,479.6585987349297,531.2739882432546,665.597527507727,543.5588464367308,547.3993708303226,646.6617428518548,490.3016731917514,527.192447791028,480.38837246676366
11,535.339551618166,59.04770364139089,633.2168882954905,533.1002525995693,606.9556118936571,494.54359489983665,604.1161942615541,629.5319874901778,676.4874819553244,486.0339917719256,481.6144057133669,497.12674091688825,507.09272183046915,570.9539890391138,464.5723744173299,440.38420251229263,572.8753727907972,554.9031136198357,526.3420524563311,540.3518493878934,538.7718501202327,560.3042319553005,446.96903183545294,604.179045985047,623.0195548226679,451.12960530371095,585.1638812699298,530.5761508164312,666.0416114667238,526.6479078345266,558.8950205713218,445.7125397297725,517.6129595170798,532.9982502434692,482.6867165381324,549.7678888063457,592.0984609581437,484.7445526747631,493.9498574069616,500.5834191898654,562.8671712646478,518.5890978757509,500.39338823963845,533.9323170795233,544.0137809849609,490.6080605965574,628.6150845069724,534.0823130375002,470.72164172048986,495.5951417322404,613.8939310418663,495.08431196813115,658.3574630250142,573.7761317496108,469.220661093031,432.8917604955157,493.39064524510593,521.6700230000694,616.6299304573638,645.1196705875324,476.3527521989324,499.33858923474304,581.8510616622376,523.9966899046772,514.0851874187215,583.6923242060676,521.3947268572184,423.3385144214449,504.85124503098007,499.74585561084746,499.8679263568506,604.2876163881757,625.5372807712436,567.5589416596545,579.3185922778513,559.1957972982032,510.17207898345765,462.6720527927288,552.8743933469393,563.5470832167236,450.1689824642229,535.5113561560881,530.8214609530369,533.1816236966647,591.4344668985625,623.3974094935688,438.1186185644579,473.7119647443611,502.1131102884207,531.2644966120441,480.0094055659652,482.39609888543293,495.5676766498908,479.6585987349297,531.2739882432546,665.597527507727,543.5588464367308,536.6590765047418,646.4413617300238,490.3016731917514,527.192447791028,480.38837246676366
12,534.7759415858695,58.67224829463752,634.6833951349887,533.1002525995693,606.9556118936571,494.54359489983665,604.1161942615541,629.5319874901778,676.4874819553244,497.93390530004683,481.6144057133669,497.95353819363964,507.09272183046915,570.9539890391138,464.5723744173299,440.38420251229263,550.9051449179991,554.9031136198357,526.3420524563311,540.3518493878934,538.7718501202327,559.9044850337989,447.1937001654868,603.9721961339078,623.0195548226679,451.12960530371095,584.9723100601261,530.5761508164312,666.0416114667238,526.6479078345266,558.8950205713218,445.7125397297725,517.6129595170798,532.9982502434692,478.12008143097984,549.7678888063457,592.0984609581437,515.1547077714074,493.9498574069616,500.00102007922715,563.2838571251802,519.2430428140974,500.39338823963845,533.9323170795233,544.0137809849609,490.6080605965574,627.1091614226028,533.6334042059334,470.72164172048986,495.5951417322404,613.9176993002126,495.08431196813115,658.3574630250142,573.7761317496108,469.220661093031,433.0641009745179,493.2011943967124,521.6700230000694,616.6299304573638,645.1196705875324,476.3527521989324,499.33858923474304,581.8510616622376,523.9966899046772,514.0851874187215,583.6923242060676,517.3950239216929,423.3385144214449,504.22651628287764,500.88112009737546,499.8679263568506,604.2876163881757,625.5372807712436,566.8256002533594,579.3185922778513,559.1957972982032,510.17207898345765,462.6720527927288,552.8743933469393,556.4061829167264,450.1689824642229,535.5113561560881,530.8214609530369,533.1816236966647,591.9562357091015,608.8266886428861,438.12492582850837,473.7119647443611,501.70865151621365,531.2644966120441,480.0094055659652,482.39609888543293,495.5676766498908,479.6585987349297,531.2739882432546,665.9557173364819,543.5588464367308,489.7173281281197,646.4413617300238,490.3016731917514,527.192447791028,480.38837246676366
13,535.048772185576,58.705112997548504,634.6833951349887,533.1002525995693,606.9556118936571,494.54359489983665,604.1161942615541,629.5319874901778,676.4874819553244,506.69563640756314,481.6144057133669,497.95353819363964,507.09272183046915,570.9539890391138,464.5723744173299,440.38420251229263,572.8753727907972,537.3893163112624,524.0177054250137,540.3518493878934,538.7718501202327,558.132079608322,448.7679936681727,603.9721961339078,623.0195548226679,451.12960530371095,584.9723100601261,530.5761508164312,666.0416114667238,526.6479078345266,558.8950205713218,445.7125397297725,517.6129595170798,532.9982502434692,478.12008143097984,549.7678888063457,592.0984609581437,514.0012166803472,493.9498574069616,500.00102007922715,562.8400206960071,519.0112382702073,500.1824424058789,532.3185110265999,544.0137809849609,490.6080605965574,627.1091614226028,533.6334042059334,472.375247639678,495.5951417322404,612.5680134002818,495.08431196813115,658.3574630250142,573.7761317496108,469.220661093031,433.10127762417017,493.2011943967124,521.6700230000694,616.6299304573638,645.1196705875324,476.3527521989324,499.33858923474304,583.0153179002681,523.9966899046772,514.0851874187215,583.6923242060676,521.3947268572184,423.3385144214449,504.85124503098007,501.0608404556868,499.8679263568506,604.2876163881757,625.5372807712436,566.8256002533594,579.3185922778513,559.1957972982032,510.17207898345765,462.6720527927288,552.8743933469393,562.1517965272997,450.1689824642229,535.5113561560881,530.8214609530369,533.1816236966647,591.9562357091015,608.8266886428861,438.12492582850837,473.5899836135477,502.1131102884207,531.2644966120441,480.0094055659652,482.39609888543293,495.5676766498908,479.6585987349297,531.2739882432546,669.7335501122626,543.5588464367308,489.7173281281197,646.4413617300238,494.4274854189515,527.192447791028,480.38837246676366
14,533.9296601970823,60.43859922574745,634.6833951349887,526.5742342785916,606.9556118936571,494.54359489983665,604.1161942615541,629.5319874901778,676.4874819553244,506.69563640756314,481.6144057133669,497.12674091688825,493.80569729980243,570.9539890391138,464.5723744173299,440.38420251229263,572.8753727907972,554.9031136198357,526.3420524563311,538.9306195522967,538.7718501202327,559.9044850337989,448.7679936681727,603.9721961339078,623.0195548226679,451.12960530371095,584.9723100601261,530.5761508164312,668.003610970276,526.6479078345266,558.8950205713218,445.7125397297725,517.6129595170798,532.9982502434692,469.6557162688085,549.7678888063457,592.0984609581437,512.3580339382971,493.9498574069616,500.00102007922715,562.8400206960071,518.5890978757509,500.1824424058789,532.3185110265999,544.0137809849609,490.6080605965574,627.1091614226028,533.6334042059334,472.375247639678,495.5951417322404,613.9176993002126,495.08431196813115,658.3574630250142,573.7761317496108,469.9936735265752,432.92211625834693,484.5477171867928,521.6700230000694,616.6299304573638,645.1196705875324,476.34716085498906,499.33858923474304,581.8510616622376,523.9966899046772,514.0851874187215,583.6923242060676,517.3950239216929,413.06909303595194,506.55513969905945,501.0608404556868,501.5103966692232,604.2876163881757,625.5372807712436,566.8256002533594,579.3185922778513,559.1957972982032,510.17207898345765,462.6720527927288,552.8743933469393,562.1517965272997,450.1689824642229,535.5113561560881,530.8214609530369,533.1816236966647,591.9562357091015,608.8266886428861,438.12492582850837,485.6129081139803,501.70865151621365,531.2644966120441,477.2353714798747,482.39609888543293,491.273330263767,480.3611610113628,531.2739882432546,669.7335501122626,543.5588464367308,489.7173281281197,646.4413617300238,405.0843951956857,527.192447791028,480.38837246676366
15,534.1924582285965,60.18282521554278,634.6833951349887,525.7465236915082,605.233622200953,494.54359489983665,600.5171557870545,629.5319874901778,676.4874819553244,506.69563640756314,481.6144057133669,497.12674091688825,490.1177732350431,570.9539890391138,464.5723744173299,440.38420251229263,572.8753727907972,555.1270836844957,526.3420524563311,538.9306195522967,538.7718501202327,559.9044850337989,448.5451503534091,603.9721961339078,623.0195548226679,451.12960530371095,584.9723100601261,530.5761508164312,666.0416114667238,526.6482908469771,558.8950205713218,455.36810988424367,517.6301123264701,532.9982502434692,482.6867165381324,549.7678888063457,592.0984609581437,512.3576764904534,493.9498574069616,500.00102007922715,562.8400206960071,518.5890978757509,500.1824424058789,532.3185110265999,544.0137809849609,490.6080605965574,627.1091614226028,533.6334042059334,472.8810431738491,495.5951417322404,612.5680134002818,495.08431196813115,658.3574630250142,574.3998858974214,469.9936735265752,433.10127762417017,484.5477171867928,521.6700230000694,614.76777578815,645.0770212442525,476.242483098684,499.7829971198701,581.8510616622376,523.9966899046772,514.0851874187215,583.6923242060676,522.5317054431013,418.9296541259344,505.9200447107862,501.0608404556868,501.6042615674224,603.9586131842647,625.5372807712436,566.8256002533594,579.3185922778513,559.1957972982032,510.17207898345765,462.6720527927288,552.8743933469393,562.1517965272997,450.1689824642229,534.3372985541813,530.8214609530369,533.1816236966647,591.4344668985625,623.3974094935688,438.12492582850837,475.92175810462913,501.70865151621365,531.2644966120441,477.2353714798747,482.18234146193134,495.15597260306913,480.3611610113628,531.2739882432546,669.7335501122626,543.5588464367308,489.7173281281197,646.4413617300238,405.0843951956857,527.192447791028,480.38837246676366
16,534.138761235844,60.2913487724607,634.6833951349887,526.9214847021414,606.9556118936571,494.54359489983665,600.5171557870545,629.5319874901778,676.4874819553244,506.69563640756314,479.74757984185214,497.95353819363964,490.1177732350431,570.9539890391138,464.5723744173299,440.38420251229263,572.8753727907972,555.1270836844957,526.3420524563311,538.9306195522967,540.3518755369066,559.9044850337989,446.81386391759645,603.9721961339078,623.0195548226679,451.12960530371095,585.1638812699298,530.5761508164312,666.0416114667238,526.5820874911104,558.8950205713218,455.36810988424367,517.6301123264701,532.9982502434692,482.6867165381324,549.7678888063457,592.0984609581437,512.3576764904534,493.9498574069616,500.00102007922715,563.2838571251802,518.5890978757509,500.1824424058789,532.3185110265999,544.0137809849609,490.6080605965574,628.6150845069724,533.6334042059334,472.72536632811415,483.27440720237007,613.9176993002126,495.08431196813115,658.4324751441342,573.7761317496108,469.85633972506645,432.92211625834693,484.5477171867928,521.6700230000694,616.6299304573638,643.831078927927,476.242483098684,499.33858923474304,581.8510616622376,523.9966899046772,514.0851874187215,583.6923242060676,522.5317054431013,418.9296541259344,504.22651628287764,500.88112009737546,501.6042615674224,603.9586131842647,625.5372807712436,566.8256002533594,579.3185922778513,559.1957972982032,510.17207898345765,462.6720527927288,552.8743933469393,562.5888658452599,450.1689824642229,535.5113561560881,530.8214609530369,533.1816236966647,591.4344668985625,622.7494065349306,442.9459797872472,475.92175810462913,498.7758652570523,531.2644966120441,477.2353714798747,482.18234146193134,495.15597260306913,480.3611610113628,531.2739882432546,669.7335501122626,543.5588464367308,489.7173281281197,646.4413617300238,406.82375433140595,527.192447791028,480.34054092824516
17,533.4567998529438,60.9126989844264,633.2168882954905,526.9214847021414,606.9556118936571,494.54359489983665,600.5171557870545,629.5319874901778,681.9583577847918,506.69563640756314,481.6144057133669,497.95353819363964,490.1177732350431,570.9539890391138,464.5723744173299,440.38420251229263,572.8753727907972,537.632312055497,526.3420524563311,540.3518493878934,538.5756427714784,559.9044850337989,438.7355921349418,603.9721961339078,623.0195548226679,449.89929649386045,585.1638812699298,530.5761508164312,666.0416114667238,526.5820874911104,554.9044918225128,453.7183554650247,517.6301123264701,532.9982502434692,482.6867165381324,549.7678888063457,592.0984609581437,512.3580339382971,493.9498574069616,500.00102007922715,562.8400206960071,518.5890978757509,500.1824424058789,532.3185110265999,544.0137809849609,490.6080605965574,628.6150845069724,533.6334042059334,472.72536632811415,478.53199707219954,612.5680134002818,495.08431196813115,658.4324751441342,573.7761317496108,468.5974536457787,432.92211625834693,484.5477171867928,521.6700230000694,615.9007155582336,643.831078927927,449.39999380625756,499.33858923474304,583.0153179002681,523.9966899046772,514.0851874187215,583.6923242060676,522.5317054431013,418.9296541259344,504.85124503098007,500.88112009737546,501.6042615674224,603.9586131842647,625.5372807712436,566.8256002533594,579.3185922778513,559.1957972982032,510.17207898345765,462.6720527927288,552.8743933469393,562.5888658452599,450.1689824642229,534.9535976021301,530.8214609530369,533.1816236966647,590.3902859184354,623.3974094935688,445.9431727812519,475.92175810462913,499.89099936378443,531.2644966120441,480.0094055659652,482.18234146193134,495.15597260306913,468.47658099969027,531.2739882432546,669.7335501122626,543.5588464367308,489.7173281281197,646.4413617300238,405.0843951956857,527.192447791028,480.34054092824516
18,533.30350021178,60.6048591643039,633.2168882954905,528.2818106177825,605.233622200953,494.6053049569897,600.5171557870545,629.5319874901778,681.9583577847918,506.69563640756314,481.6144057133669,497.95353819363964,492.274743082881,570.9539890391138,477.1061305781853,440.38420251229263,566.3776747175939,537.632312055497,526.3420524563311,540.3518493878934,536.9760361869531,558.132079608322,438.7355921349418,603.9721961339078,623.0195548226679,449.89929649386045,585.1638812699298,529.273561119403,666.0416114667238,526.5820874911104,554.9044918225128,455.36810988424367,517.6301123264701,532.9982502434692,482.6867165381324,550.0517340839917,592.0984609581437,512.3580339382971,493.9498574069616,500.00102007922715,562.8400206960071,518.438119832751,500.1824424058789,532.3185110265999,544.0137809849609,490.6080605965574,628.6150845069724,533.6334042059334,472.72536632811415,478.53199707219954,611.8602062918764,495.08431196813115,658.9224514631871,574.3998858974214,470.3101110493922,432.92211625834693,484.5477171867928,511.5432594986352,615.9007155582336,643.831078927927,449.39999380625756,499.7829971198701,583.0153179002681,523.9966899046772,514.0760429194826,583.6923242060676,517.3950239216929,420.30024966877124,504.8980833612978,500.88112009737546,501.6042615674224,603.9586131842647,625.5372807712436,566.8256002533594,577.5272609879684,559.1957972982032,510.17207898345765,462.6720527927288,552.8743933469393,555.6285795244174,450.1689824642229,534.9535976021301,530.8214609530369,533.1816236966647,590.3902859184354,621.586567046679,445.9431727812519,475.92175810462913,500.32131226314937,531.2644966120441,480.0094055659652,482.18234146193134,495.15597260306913,468.47658099969027,531.2739882432546,669.7335501122626,543.5588464367308,489.7173281281197,646.4413617300238,405.0843951956857,528.2857036722284,480.34054092824516
19,533.5294327755778,60.52554805983372,633.2168882954905,528.2818106177825,605.233622200953,494.6053049569897,600.5171557870545,629.5319874901778,681.9583577847918,506.69563640756314,481.6144057133669,497.12674091688825,488.9366481098464,570.9539890391138,491.2812409973929,440.38420251229263,566.3776747175939,544.0920668817441,526.3420524563311,540.3518493878934,536.9760361869531,558.132079608322,438.7355921349418,603.9721961339078,623.0195548226679,449.89929649386045,585.1638812699298,529.273561119403,668.003610970276,526.5824722747399,554.9044918225128,455.36810988424367,517.6301123264701,532.9982502434692,482.6867165381324,550.0517340839917,592.0984609581437,512.3580339382971,493.9498574069616,500.5834191898654,562.8671712646478,518.438119832751,500.1824424058789,532.3185110265999,544.0137809849609,490.6080605965574,628.6150845069724,533.6334042059334,472.2231779366998,478.53199707219954,610.501180572683,493.40159504727905,658.9224514631871,573.7761317496108,470.3101110493922,433.10127762417017,484.5477171867928,518.6473473590307,615.9007155582336,643.831078927927,449.39999380625756,499.7829971198701,583.0153179002681,523.9966899046772,514.0760429194826,583.6923242060676,521.3947268572184,420.30024966877124,505.9676953526971,500.88112009737546,501.6042615674224,603.7345086914817,625.5372807712436,566.8256002533594,577.5272609879684,559.1957972982032,510.17207898345765,462.6720527927288,552.8743933469393,546.8121005434803,450.1689824642229,534.9535976021301,530.8214609530369,533.1816236966647,590.3902859184354,622.2463761769138,444.91335452650304,475.92175810462913,501.790118041332,531.2644966120441,480.0094055659652,482.18234146193134,494.7661135153156,470.40588876705647,531.2739882432546,669.7335501122626,543.5588464367308,489.7173281281197,648.2101703142398,405.0843951956857,528.2857036722284,480.34054092824516
