Iteration,Mean,Stdev,Run-0,Run-1,Run-2,Run-3,Run-4,Run-5,Run-6,Run-7,Run-8,Run-9,Run-10,Run-11,Run-12,Run-13,Run-14,Run-15,Run-16,Run-17,Run-18,Run-19,Run-20,Run-21,Run-22,Run-23,Run-24,Run-25,Run-26,Run-27,Run-28,Run-29,Run-30,Run-31,Run-32,Run-33,Run-34,Run-35,Run-36,Run-37,Run-38,Run-39,Run-40,Run-41,Run-42,Run-43,Run-44,Run-45,Run-46,Run-47,Run-48,Run-49,Run-50,Run-51,Run-52,Run-53,Run-54,Run-55,Run-56,Run-57,Run-58,Run-59,Run-60,Run-61,Run-62,Run-63,Run-64,Run-65,Run-66,Run-67,Run-68,Run-69,Run-70,Run-71,Run-72,Run-73,Run-74,Run-75,Run-76,Run-77,Run-78,Run-79,Run-80,Run-81,Run-82,Run-83,Run-84,Run-85,Run-86,Run-87,Run-88,Run-89,Run-90,Run-91,Run-92,Run-93,Run-94,Run-95,Run-96,Run-97,Run-98,Run-99
0,1.0127123241343516,0.06499037272088722,1.2054459755625717,1.0467091286503618,1.023474474522936,0.8797158632194835,1.0509043724335712,1.0128672173587214,1.010494928240612,0.9329523031752472,0.9887365675446628,0.9492628719169413,1.0234744745229363,1.0331989159885913,1.0128672173587216,1.0738249391777046,1.0428326807307107,1.0316976301223135,1.2043255373859683,1.0104949282406115,1.028396810574596,1.020343079557067,0.8660254037844387,0.9645724441429988,1.0943491216243568,1.023474474522936,1.0493331215586397,1.00054984883313,0.9386692708297206,0.9474175425861617,1.030097082803363,0.9937303457175897,1.0234744745229363,1.0805091392487154,0.9820386957752725,0.9517877914745493,1.0571660229122017,1.0697663296253048,1.023474474522936,1.0380751417888792,1.0493331215586397,1.0805091392487156,1.0554146104730606,1.0428326807307107,0.9474175425861618,0.9541488353501243,1.010494928240612,0.9614572273377525,1.081850266903881,0.9597395480024772,1.0065286881157443,0.9718024490605064,1.081850266903881,0.9597395480024774,1.1182128598795482,0.9785703858180064,0.9701030873056739,0.9541488353501241,0.9305374790947434,0.9313968005098581,1.0203430795570672,1.139122469271852,0.9386692708297206,1.0069260151570234,0.9987992791347026,0.9929249719893243,0.9454628496138815,1.079073676817296,0.9820386957752725,0.9433981132056599,1.002197585309403,1.0588200980336553,0.9785703858180064,0.9297311439335563,0.9205976319760986,1.0331989159885913,1.0741973747873348,1.0246950765959595,1.0440306508910546,1.0219589032832959,1.0897247358851683,1.0316976301223135,0.8494704232638122,1.0712142642814275,1.131856881412133,1.0842508934743837,1.1155267813907457,0.9614572273377525,0.9474175425861618,1.0554146104730606,1.0428326807307107,0.8986100377805715,0.8724104538575865,1.0493331215586397,1.058820098033655,1.044222198576528,0.9987992791347025,1.0186265262597485,1.0883014288330224,0.9820386957752725,0.9420721840708387,1.0397595875970556
1,0.7208505181601104,0.054171306688135704,0.8986100377805708,0.753325958665968,0.7876547467006084,0.6464518543557592,0.7782030583337488,0.7301369734508725,0.7280109889280517,0.7168681887209112,0.7213875518748571,0.7386474125047754,0.7520638270785268,0.7249827584156745,0.6606057825965496,0.6671581521648366,0.8170679286326203,0.6556675987114204,0.7778817390837757,0.6854925236645549,0.7480641683706014,0.7605261336732622,0.6437390775772428,0.7445804187594507,0.7735631842325491,0.7437069315261221,0.6837397165588672,0.7110555533852474,0.7078841713161832,0.7213875518748571,0.7410128204019146,0.6557438524302001,0.6708203932499369,0.7701298591796063,0.7166589146867567,0.7172168430816435,0.7936623967405791,0.76019734279988,0.7213875518748574,0.7459222479588608,0.7399324293474367,0.7732399368889316,0.7273926037567334,0.731026675299882,0.5834380858325927,0.6707458535093603,0.7110555533852473,0.6766830868286863,0.7570336848516056,0.7323933369440222,0.772269383052313,0.6737210105080585,0.7410128204019144,0.6396092557178955,0.8277076778670112,0.6675327707311455,0.6671581521648366,0.7386474125047756,0.6307931515164054,0.6737210105080587,0.7664854858377942,0.6916646586316237,0.7056202944927246,0.735594997264119,0.6621178142898744,0.7022107945624306,0.663626400921482,0.6606057825965497,0.6823488843692794,0.6855654600401045,0.7163099887618488,0.7909487973314075,0.733757453113766,0.6118823416311341,0.6734983296193094,0.6982120021884469,0.6606057825965498,0.7701298591796063,0.7520638270785268,0.6689544080129826,0.7961783719745218,0.7863841300535007,0.5982474404458408,0.8002499609497021,0.7578918128598556,0.7964923100695943,0.7208328516376036,0.7301369734508725,0.6823488843692793,0.7937253933193771,0.7337574531137665,0.7078841713161833,0.6590902821313629,0.7166589146867568,0.7279423054061362,0.6964912059746335,0.6887670143089022,0.7997499609252878,0.8411301920630356,0.7386474125047757,0.6539113089708731,0.7200000000000006
2,0.5397055777903652,0.05484422760845477,0.692531587727231,0.5230678732248805,0.6324555320336759,0.5418486873657622,0.5566866263886711,0.5095095681142798,0.5915234568468102,0.5638262143604181,0.43485629810317805,0.5309425580983314,0.5477225575051661,0.5257375771237962,0.5287721626560913,0.4581484475582121,0.6161168720299743,0.5148786264742395,0.6307931515164061,0.478643917750973,0.4794788837894739,0.5847221562417482,0.43999999999999967,0.5361902647381807,0.6042350536008313,0.5624944444170088,0.5653317610041024,0.47947888378947384,0.5771481612203231,0.5473572873361601,0.5418486873657623,0.5344155686354948,0.538423625038872,0.5946427498927399,0.5642694391866354,0.5083306010855534,0.6135144660071186,0.555967624956706,0.573672380370539,0.5523585791856586,0.54735728733616,0.5827520913733384,0.5916079783099618,0.5559676249567058,0.3693237062523879,0.5083306010855534,0.5523585791856584,0.4673328578219168,0.5894913061275799,0.5462600113499066,0.6082762530298221,0.44933283877321906,0.5642694391866355,0.4581484475582121,0.6464518543557585,0.4894895300208166,0.5418486873657621,0.5946427498927399,0.4431703961232065,0.4833218389437824,0.5775811631277457,0.5361902647381808,0.5063595560468863,0.5230678732248802,0.5035871324805665,0.495075751779462,0.5230678732248805,0.538423625038872,0.5418486873657623,0.5196152422706632,0.5148786264742397,0.5376802023508027,0.6042350536008313,0.4528796749689695,0.5528109984434099,0.5148786264742394,0.46733285782191686,0.5276362383309169,0.5376802023508029,0.5196152422706636,0.5257375771237962,0.6701492371106605,0.4555216789572148,0.5812916651733447,0.5095095681142797,0.606217782649107,0.5376802023508026,0.5736723803705391,0.5083306010855534,0.5915234568468102,0.5673623181001707,0.57227615711298,0.5339475629684993,0.5545268253204713,0.4528796749689695,0.49989998999799934,0.5257375771237962,0.5083306010855534,0.6689544080129826,0.58949130612758,0.47696960070847294,0.5444263035526475
3,0.43094737239435965,0.04101660915284305,0.46861498055439926,0.4063249930782005,0.4894895300208167,0.42649736224272244,0.42379240200834223,0.39949968710876393,0.4348562981031778,0.4528796749689699,0.3155946767611902,0.4092676385936222,0.4348562981031779,0.4454211490264016,0.4581484475582121,0.4,0.4990991885387113,0.4357751713900183,0.4572745346069474,0.34583232931581204,0.3871692136521187,0.4223742416388574,0.34117444218463955,0.4223742416388574,0.48948953002081647,0.38091993909481786,0.474447046571058,0.41218927691049884,0.4795831523312721,0.4330127018922193,0.4651881339845201,0.40632499307820036,0.46861498055439926,0.4795831523312725,0.40926763859362253,0.3979949748426478,0.5095095681142796,0.4686149805543992,0.44317039612320647,0.3979949748426478,0.4621688003316532,0.4330127018922193,0.4673328578219168,0.4472135954999579,0.31368774282716216,0.41218927691049884,0.42237424163885734,0.39949968710876405,0.5117616632769592,0.43485629810317805,0.4974937185533102,0.4063249930782005,0.4237924020083422,0.399499687108764,0.4467661580737735,0.42,0.4302324952859786,0.4795831523312722,0.3861346915261561,0.38716921365211876,0.41218927691049884,0.3871692136521187,0.423792402008342,0.4330127018922192,0.41121770389904166,0.43485629810317805,0.44317039612320636,0.4555216789572152,0.43301270189221946,0.4358898943540675,0.45552167895721507,0.41218927691049884,0.4242640687119285,0.37202150475476525,0.41218927691049884,0.4454211490264016,0.38613469152615615,0.4223742416388574,0.4121892769104988,0.3979949748426478,0.46733285782191686,0.5361902647381807,0.38613469152615615,0.46216880033165336,0.42237424163885734,0.4894895300208163,0.4348562981031779,0.49183330509431694,0.43577517139001837,0.4581484475582121,0.44317039612320674,0.47947888378947395,0.42237424163885734,0.39949968710876405,0.3720215047547653,0.3861346915261561,0.4330127018922193,0.40632499307820064,0.5187484939737177,0.48332183894378244,0.4092676385936227,0.3736308338453887
4,0.3690013718941126,0.040521445436493685,0.4330127018922193,0.3136877428271622,0.4357751713900183,0.3720215047547653,0.3693237062523879,0.3458323293158119,0.35930488446443326,0.3809199390948181,0.24413111231467396,0.31368774282716233,0.33151168908501544,0.37202150475476525,0.36041642581880173,0.37416573867739417,0.41121770389904155,0.3736308338453884,0.39949968710876393,0.33030289129827456,0.2998332870112989,0.2998332870112988,0.2628687885618981,0.34583232931581187,0.40632499307820064,0.32787192621509953,0.40926763859362236,0.3458323293158118,0.3954743986657038,0.3570714214271425,0.3954743986657037,0.3693237062523878,0.4237924020083422,0.43999999999999945,0.3693237062523877,0.36041642581880184,0.4472135954999579,0.42379240200834195,0.40926763859362253,0.31559467676119024,0.38613469152615615,0.3720215047547653,0.34583232931581215,0.3736308338453883,0.2984962311319856,0.3871692136521186,0.369323706252388,0.34409301068170484,0.4302324952859786,0.37202150475476536,0.4431703961232063,0.39547439866570394,0.37363083384538837,0.3871692136521186,0.3871692136521186,0.3570714214271424,0.33030289129827456,0.41665333311999275,0.3155946767611902,0.34583232931581187,0.34641016151377546,0.3315116890850154,0.37416573867739417,0.37363083384538837,0.33030289129827456,0.3440930106817049,0.3655133376499408,0.39949968710876393,0.39547439866570394,0.3593048844644332,0.4199999999999999,0.3604164258188018,0.3871692136521186,0.29580398915498085,0.38716921365211876,0.3871692136521186,0.34583232931581204,0.345832329315812,0.37363083384538837,0.3604164258188018,0.4357751713900183,0.42,0.3278719262150999,0.41665333311999275,0.3840572873934303,0.4121892769104988,0.37416573867739417,0.46216880033165314,0.3736308338453883,0.37363083384538837,0.3693237062523877,0.39949968710876377,0.35707142142714254,0.34583232931581187,0.3155946767611905,0.33151168908501527,0.3954743986657039,0.3136877428271622,0.39949968710876393,0.39547439866570383,0.3440930106817049,0.31368774282716216
5,0.33808779006033524,0.03479434166813061,0.42,0.3136877428271622,0.3593048844644334,0.35707142142714227,0.3440930106817049,0.31559467676119,0.2984962311319857,0.3570714214271423,0.24413111231467396,0.27999999999999986,0.3155946767611902,0.32787192621510003,0.3315116890850153,0.37363083384538825,0.3720215047547653,0.36041642581880184,0.34641016151377546,0.31368774282716216,0.2643860813280456,0.29849623113198587,0.2628687885618981,0.3303028912982746,0.3570714214271423,0.31048349392520036,0.39547439866570383,0.3155946767611902,0.33030289129827456,0.34409301068170484,0.3315116890850154,0.34409301068170484,0.38716921365211854,0.39547439866570383,0.3536947836765478,0.33151168908501544,0.37416573867739417,0.37363083384538837,0.36041642581880173,0.31559467676119024,0.3570714214271425,0.34583232931581187,0.3315116890850153,0.34583232931581187,0.2984962311319856,0.3861346915261562,0.3411744421846395,0.3155946767611901,0.3840572873934302,0.3278719262150999,0.395474398665704,0.39547439866570383,0.36041642581880184,0.3871692136521186,0.34583232931581215,0.31368774282716233,0.31559467676119035,0.3536947836765478,0.2984962311319857,0.3315116890850154,0.32787192621510003,0.31622776601683794,0.3315116890850153,0.34583232931581187,0.2984962311319857,0.3136877428271622,0.31048349392520047,0.3736308338453884,0.33030289129827467,0.2799999999999997,0.32787192621510003,0.3593048844644334,0.3604164258188018,0.27999999999999975,0.36041642581880196,0.3315116890850153,0.345832329315812,0.29849623113198587,0.36041642581880184,0.33151168908501527,0.41218927691049884,0.35707142142714215,0.2821347195933176,0.3693237062523877,0.34409301068170484,0.36041642581880173,0.34641016151377546,0.4330127018922196,0.3315116890850154,0.3315116890850154,0.3136877428271622,0.3570714214271425,0.34117444218463944,0.33151168908501544,0.2984962311319857,0.33151168908501527,0.3693237062523878,0.2984962311319857,0.3604164258188018,0.3411744421846397,0.3136877428271622,0.262868788561898
6,0.32118274103432887,0.03400951134131725,0.39547439866570383,0.3136877428271622,0.31559467676119013,0.3440930106817049,0.34409301068170484,0.31559467676119,0.2984962311319857,0.3440930106817049,0.24413111231467396,0.27999999999999986,0.31559467676119,0.31368774282716216,0.33151168908501527,0.3303028912982746,0.3720215047547653,0.34641016151377546,0.3155946767611903,0.29580398915498096,0.2643860813280456,0.29849623113198587,0.2628687885618981,0.3155946767611902,0.3411744421846399,0.31048349392519997,0.3570714214271424,0.2449489742783178,0.33030289129827456,0.3303028912982748,0.3155946767611901,0.33030289129827456,0.35930488446443326,0.3809199390948179,0.35369478367654744,0.33030289129827467,0.34641016151377546,0.3458323293158118,0.34641016151377546,0.31559467676119024,0.35707142142714243,0.34409301068170484,0.3315116890850153,0.33151168908501527,0.2984962311319856,0.3861346915261562,0.32419130154894626,0.3155946767611901,0.345832329315812,0.3278719262150999,0.34117444218463977,0.3693237062523879,0.3604164258188018,0.3871692136521186,0.3155946767611903,0.3136877428271622,0.3155946767611902,0.3104834939252002,0.24413111231467396,0.29983328701129885,0.3136877428271622,0.2998332870112988,0.31622776601683794,0.31622776601683794,0.262868788561898,0.2628687885618982,0.2958039891549811,0.35930488446443337,0.3136877428271622,0.2799999999999997,0.2917190429162965,0.29983328701129885,0.34641016151377546,0.27999999999999975,0.31559467676119,0.31622776601683794,0.3315116890850153,0.29849623113198576,0.36041642581880173,0.29983328701129874,0.4112177038990416,0.3570714214271421,0.26438608132804553,0.32787192621510003,0.2821347195933176,0.31622776601683794,0.34641016151377546,0.4112177038990416,0.2984962311319858,0.3315116890850153,0.29849623113198576,0.3155946767611903,0.34117444218463944,0.3303028912982746,0.2984962311319857,0.33151168908501527,0.3411744421846397,0.2821347195933176,0.29983328701129885,0.27999999999999975,0.3136877428271622,0.262868788561898
7,0.3111030479452475,0.033821495519521155,0.3655133376499411,0.3136877428271622,0.3136877428271623,0.2958039891549811,0.34409301068170484,0.31559467676119,0.2984962311319857,0.3440930106817049,0.24413111231467396,0.27999999999999986,0.31559467676119,0.27999999999999986,0.2821347195933176,0.33030289129827456,0.3720215047547653,0.3315116890850153,0.26438608132804575,0.29580398915498096,0.2643860813280456,0.29849623113198587,0.2628687885618981,0.3155946767611902,0.32787192621510003,0.27999999999999975,0.32787192621509986,0.2233830790368868,0.33030289129827456,0.3303028912982746,0.2821347195933176,0.3136877428271622,0.33151168908501527,0.38091993909481786,0.35369478367654744,0.3136877428271622,0.34641016151377546,0.3315116890850154,0.34641016151377546,0.31559467676119024,0.3570714214271424,0.33030289129827456,0.3315116890850153,0.33151168908501527,0.2984962311319856,0.3861346915261562,0.3104834939252006,0.3155946767611901,0.33030289129827467,0.3278719262150999,0.3411744421846396,0.3693237062523879,0.34641016151377546,0.35930488446443326,0.3155946767611902,0.3136877428271622,0.3155946767611901,0.2958039891549812,0.24413111231467396,0.29983328701129885,0.2958039891549808,0.2998332870112988,0.29983328701129897,0.299833287011299,0.2598076211353317,0.262868788561898,0.2821347195933176,0.3303028912982745,0.3136877428271622,0.2799999999999997,0.27640549922170476,0.2628687885618981,0.3155946767611905,0.27999999999999975,0.298496231131986,0.31622776601683794,0.2998332870112988,0.29849623113198576,0.34641016151377546,0.29983328701129874,0.3871692136521186,0.357071421427142,0.26438608132804553,0.32787192621510003,0.26286878856189805,0.2998332870112988,0.34641016151377546,0.3994996871087641,0.2984962311319858,0.299833287011299,0.2821347195933176,0.26286878856189805,0.34117444218463944,0.3136877428271622,0.2984962311319857,0.33151168908501527,0.3136877428271622,0.2821347195933176,0.29983328701129885,0.262868788561898,0.3136877428271622,0.262868788561898
8,0.30407400713980776,0.0360693523914706,0.3278719262151,0.3136877428271622,0.3136877428271623,0.2628687885618981,0.34409301068170484,0.31559467676119,0.2984962311319857,0.3440930106817049,0.24413111231467396,0.27999999999999986,0.31559467676119,0.27999999999999975,0.2821347195933176,0.33030289129827456,0.3720215047547653,0.3155946767611901,0.2449489742783178,0.29580398915498096,0.2643860813280456,0.29849623113198587,0.2628687885618981,0.3155946767611902,0.2416609194718913,0.27999999999999975,0.3136877428271623,0.2233830790368867,0.33030289129827456,0.3303028912982746,0.2821347195933176,0.31368774282716216,0.3315116890850152,0.38091993909481786,0.35369478367654744,0.29849623113198576,0.3458323293158119,0.3315116890850154,0.34641016151377546,0.31559467676119024,0.3570714214271424,0.33030289129827456,0.29983328701129897,0.33151168908501527,0.2984962311319856,0.3861346915261562,0.31048349392520025,0.3155946767611901,0.29849623113198576,0.3278719262150999,0.31559467676119024,0.3693237062523879,0.3155946767611902,0.35930488446443326,0.2984962311319857,0.3136877428271622,0.2821347195933176,0.29580398915498096,0.24413111231467396,0.29983328701129885,0.27999999999999975,0.2998332870112988,0.29983328701129874,0.2998332870112988,0.24166091947189125,0.1989974874213239,0.2628687885618979,0.2821347195933176,0.3136877428271622,0.2799999999999997,0.2764054992217047,0.26286878856189805,0.31559467676119013,0.27999999999999975,0.29849623113198565,0.31622776601683794,0.2998332870112988,0.29849623113198576,0.33151168908501544,0.29983328701129874,0.3871692136521186,0.31368774282716216,0.26438608132804553,0.32787192621510003,0.22338307903688653,0.282842712474619,0.34641016151377546,0.3861346915261561,0.2984962311319858,0.282842712474619,0.2821347195933176,0.26286878856189805,0.34117444218463944,0.3136877428271622,0.2984962311319857,0.33151168908501527,0.3136877428271622,0.2821347195933176,0.29983328701129885,0.26286878856189794,0.3136877428271622,0.262868788561898
9,0.30048358774125367,0.0386472961297974,0.2799999999999998,0.3136877428271622,0.3136877428271623,0.2628687885618981,0.34409301068170484,0.31559467676119,0.2984962311319857,0.3440930106817049,0.24413111231467396,0.27999999999999986,0.31559467676119,0.27999999999999975,0.2821347195933176,0.33030289129827456,0.3720215047547653,0.29849623113198587,0.22338307903688656,0.29580398915498096,0.2643860813280456,0.29849623113198587,0.2628687885618981,0.3155946767611902,0.24166091947189128,0.27999999999999975,0.31368774282716216,0.2,0.33030289129827456,0.3303028912982746,0.2821347195933176,0.31368774282716216,0.31622776601683794,0.38091993909481786,0.35369478367654744,0.2984962311319857,0.33151168908501544,0.3315116890850154,0.34641016151377546,0.31559467676119024,0.3570714214271424,0.33030289129827456,0.29983328701129897,0.33151168908501527,0.2984962311319856,0.3861346915261562,0.31048349392520025,0.3155946767611901,0.28213471959331765,0.3278719262150999,0.2821347195933176,0.3693237062523879,0.29849623113198576,0.35930488446443326,0.29849623113198565,0.3136877428271622,0.2821347195933176,0.2799999999999998,0.24413111231467396,0.29983328701129885,0.24166091947189117,0.29983328701129874,0.29983328701129874,0.2998332870112988,0.2215851980616033,0.1989974874213239,0.22158519806160343,0.2821347195933176,0.3136877428271622,0.2799999999999997,0.27640549922170465,0.26286878856189805,0.31559467676119013,0.27999999999999975,0.2984962311319856,0.31622776601683794,0.2998332870112988,0.29849623113198576,0.33030289129827456,0.29983328701129874,0.3871692136521186,0.31368774282716216,0.26438608132804553,0.3278719262151,0.2,0.282842712474619,0.34641016151377546,0.37363083384538853,0.2984962311319858,0.282842712474619,0.2821347195933176,0.26286878856189805,0.34117444218463944,0.3136877428271622,0.2984962311319857,0.33151168908501527,0.3136877428271622,0.2821347195933176,0.29983328701129885,0.26286878856189794,0.3136877428271622,0.262868788561898
10,0.2982925539863534,0.04031813780791948,0.26286878856189827,0.31048349392520047,0.3136877428271623,0.2628687885618981,0.34409301068170484,0.31559467676119,0.2984962311319857,0.3440930106817049,0.24413111231467396,0.27999999999999986,0.31559467676119,0.27999999999999975,0.2821347195933176,0.33030289129827456,0.3720215047547653,0.244131112314674,0.2,0.29580398915498096,0.2643860813280456,0.29849623113198587,0.2628687885618981,0.3155946767611902,0.24166091947189128,0.27999999999999975,0.31368774282716216,0.2,0.33030289129827456,0.3303028912982746,0.2821347195933176,0.31368774282716216,0.31622776601683794,0.38091993909481786,0.35369478367654744,0.2821347195933176,0.33151168908501527,0.3315116890850154,0.34641016151377546,0.31559467676119024,0.3570714214271424,0.3155946767611903,0.29983328701129897,0.33151168908501527,0.2984962311319856,0.3861346915261562,0.31048349392520025,0.3155946767611901,0.2643860813280456,0.3278719262150999,0.2821347195933176,0.3693237062523879,0.29849623113198576,0.35930488446443326,0.29849623113198565,0.3136877428271622,0.2821347195933176,0.2799999999999998,0.24413111231467396,0.29983328701129885,0.24166091947189117,0.29983328701129874,0.29983328701129874,0.2998332870112988,0.2215851980616033,0.1989974874213239,0.1989974874213239,0.2821347195933176,0.3136877428271622,0.2799999999999997,0.27640549922170465,0.26286878856189805,0.31559467676119013,0.27999999999999975,0.2984962311319856,0.31622776601683794,0.2998332870112988,0.29849623113198576,0.31622776601683794,0.29983328701129874,0.3871692136521186,0.2984962311319856,0.26438608132804553,0.3278719262151,0.2,0.282842712474619,0.34641016151377546,0.37202150475476525,0.2984962311319858,0.282842712474619,0.2821347195933176,0.26286878856189805,0.34117444218463944,0.3136877428271622,0.2984962311319857,0.33151168908501527,0.3136877428271622,0.2821347195933176,0.29983328701129885,0.24413111231467396,0.3136877428271622,0.262868788561898
11,0.296471097675805,0.040347097081490674,0.2628687885618982,0.29849623113198587,0.3136877428271623,0.2628687885618981,0.34409301068170484,0.31559467676119,0.2984962311319857,0.3440930106817049,0.24413111231467396,0.27999999999999986,0.31559467676119,0.27999999999999975,0.2821347195933176,0.33030289129827456,0.3720215047547653,0.244131112314674,0.2,0.29580398915498096,0.2643860813280456,0.29849623113198587,0.2628687885618981,0.3155946767611902,0.24166091947189128,0.27999999999999975,0.31368774282716216,0.2,0.33030289129827456,0.3303028912982746,0.2821347195933176,0.31368774282716216,0.31622776601683794,0.38091993909481786,0.35369478367654744,0.2821347195933176,0.3136877428271622,0.3315116890850154,0.34641016151377546,0.31559467676119024,0.3570714214271424,0.262868788561898,0.29983328701129897,0.33151168908501527,0.2984962311319856,0.37363083384538837,0.31048349392520025,0.3155946767611901,0.244131112314674,0.3278719262150999,0.2821347195933176,0.3693237062523879,0.29849623113198576,0.35930488446443326,0.29849623113198565,0.3136877428271622,0.2821347195933176,0.2799999999999998,0.24413111231467396,0.29983328701129885,0.24166091947189117,0.29983328701129874,0.29983328701129874,0.2998332870112988,0.2215851980616033,0.1989974874213239,0.1989974874213239,0.2821347195933176,0.3136877428271622,0.2799999999999997,0.27640549922170465,0.26286878856189805,0.31559467676119013,0.27999999999999975,0.2984962311319856,0.31622776601683794,0.282842712474619,0.29849623113198576,0.29983328701129897,0.29983328701129874,0.3871692136521186,0.29849623113198553,0.26438608132804553,0.3278719262151,0.2,0.282842712474619,0.34641016151377546,0.35930488446443326,0.2984962311319858,0.282842712474619,0.2821347195933176,0.26286878856189805,0.34117444218463944,0.3136877428271622,0.2984962311319857,0.33151168908501527,0.3136877428271622,0.2821347195933176,0.29983328701129885,0.22338307903688673,0.3136877428271622,0.262868788561898
12,0.29457300204321274,0.03984653645236069,0.2628687885618982,0.2984962311319856,0.3136877428271623,0.2628687885618981,0.34409301068170484,0.31559467676119,0.2984962311319857,0.3440930106817049,0.24413111231467396,0.27999999999999986,0.31559467676119,0.27999999999999975,0.2821347195933176,0.33030289129827456,0.3720215047547653,0.244131112314674,0.2,0.29580398915498096,0.2643860813280456,0.29849623113198587,0.2628687885618981,0.3155946767611902,0.24166091947189128,0.27999999999999975,0.31368774282716216,0.2,0.33030289129827456,0.29849623113198565,0.2821347195933176,0.31368774282716216,0.31622776601683794,0.38091993909481786,0.3136877428271622,0.2821347195933176,0.27999999999999975,0.3315116890850154,0.34641016151377546,0.31559467676119024,0.3570714214271424,0.2628687885618978,0.29983328701129897,0.33151168908501527,0.2984962311319856,0.36041642581880184,0.31048349392520025,0.3155946767611901,0.2233830790368867,0.3278719262150999,0.2821347195933176,0.3693237062523879,0.29849623113198576,0.35930488446443326,0.29849623113198565,0.3136877428271622,0.2821347195933176,0.2799999999999998,0.24413111231467396,0.2643860813280456,0.24166091947189117,0.29983328701129874,0.29983328701129874,0.2998332870112988,0.2215851980616033,0.1989974874213239,0.1989974874213239,0.2821347195933176,0.3136877428271622,0.2799999999999997,0.27640549922170465,0.26286878856189805,0.31559467676119013,0.27999999999999975,0.2984962311319856,0.31622776601683794,0.282842712474619,0.29849623113198576,0.2998332870112988,0.29983328701129874,0.3871692136521186,0.29849623113198553,0.26438608132804553,0.3278719262151,0.2,0.282842712474619,0.33151168908501544,0.3593048844644332,0.2984962311319858,0.282842712474619,0.2821347195933176,0.26286878856189805,0.34117444218463944,0.3136877428271622,0.2984962311319857,0.33151168908501527,0.3136877428271622,0.2821347195933176,0.29983328701129885,0.2233830790368867,0.3136877428271622,0.262868788561898
13,0.2930258125560225,0.03987321376416381,0.2628687885618982,0.29849623113198553,0.3136877428271623,0.2628687885618981,0.34409301068170484,0.31559467676119,0.2984962311319857,0.3440930106817049,0.1989974874213239,0.27999999999999986,0.31559467676119,0.27999999999999975,0.2821347195933176,0.33030289129827456,0.3720215047547653,0.244131112314674,0.2,0.29580398915498096,0.2643860813280456,0.29849623113198587,0.2628687885618981,0.3155946767611902,0.24166091947189128,0.27999999999999975,0.31368774282716216,0.2,0.33030289129827456,0.29849623113198565,0.2821347195933176,0.31368774282716216,0.31622776601683794,0.38091993909481786,0.27999999999999975,0.2821347195933176,0.27999999999999975,0.3315116890850154,0.34641016151377546,0.31559467676119024,0.3570714214271424,0.2628687885618978,0.29983328701129897,0.33151168908501527,0.2984962311319856,0.3458323293158118,0.31048349392520025,0.3155946767611901,0.2233830790368867,0.3278719262150999,0.2821347195933176,0.3693237062523879,0.29849623113198576,0.35930488446443326,0.29849623113198565,0.3136877428271622,0.2821347195933176,0.2799999999999998,0.24413111231467396,0.2643860813280456,0.24166091947189117,0.29983328701129874,0.29983328701129874,0.2998332870112988,0.2215851980616033,0.1989974874213239,0.1989974874213239,0.2821347195933176,0.3136877428271622,0.2799999999999997,0.27640549922170465,0.26286878856189805,0.31559467676119013,0.27999999999999975,0.2984962311319856,0.2998332870112988,0.282842712474619,0.29849623113198576,0.2998332870112988,0.29983328701129874,0.3871692136521186,0.29849623113198553,0.26438608132804553,0.3278719262151,0.2,0.282842712474619,0.3155946767611901,0.3303028912982745,0.2984962311319858,0.282842712474619,0.2821347195933176,0.26286878856189805,0.34117444218463944,0.3136877428271622,0.2984962311319857,0.33151168908501527,0.3136877428271622,0.2821347195933176,0.29983328701129885,0.2233830790368867,0.3136877428271622,0.262868788561898
14,0.2930015029051908,0.03985121447709478,0.2628687885618982,0.29849623113198553,0.3136877428271623,0.2628687885618981,0.34409301068170484,0.31559467676119,0.2984962311319857,0.3440930106817049,0.19899748742132387,0.27999999999999986,0.31559467676119,0.27999999999999975,0.2821347195933176,0.33030289129827456,0.3720215047547653,0.244131112314674,0.2,0.29580398915498096,0.2643860813280456,0.29849623113198587,0.2628687885618981,0.3155946767611902,0.24166091947189128,0.27999999999999975,0.31368774282716216,0.2,0.33030289129827456,0.29849623113198565,0.2821347195933176,0.31368774282716216,0.31622776601683794,0.38091993909481786,0.27999999999999975,0.2821347195933176,0.27999999999999975,0.3315116890850154,0.34641016151377546,0.31559467676119024,0.3570714214271424,0.2628687885618978,0.29983328701129897,0.33151168908501527,0.2984962311319856,0.3458323293158118,0.31048349392520025,0.3155946767611901,0.2233830790368867,0.3278719262150999,0.2821347195933176,0.3693237062523879,0.29849623113198576,0.35930488446443326,0.29849623113198565,0.3136877428271622,0.2821347195933176,0.2799999999999998,0.24413111231467396,0.2643860813280456,0.24166091947189117,0.29983328701129874,0.29983328701129874,0.2998332870112988,0.2215851980616033,0.1989974874213239,0.1989974874213239,0.2821347195933176,0.3136877428271622,0.2799999999999997,0.27640549922170465,0.26286878856189805,0.31559467676119013,0.27999999999999975,0.2984962311319856,0.2998332870112988,0.282842712474619,0.29849623113198576,0.2998332870112988,0.29983328701129874,0.3871692136521186,0.29849623113198553,0.26438608132804553,0.3278719262151,0.2,0.282842712474619,0.3155946767611901,0.3278719262151002,0.2984962311319858,0.282842712474619,0.2821347195933176,0.26286878856189805,0.34117444218463944,0.3136877428271622,0.2984962311319857,0.33151168908501527,0.3136877428271622,0.2821347195933176,0.29983328701129885,0.2233830790368867,0.3136877428271622,0.262868788561898
15,0.29265218073853355,0.04005872076066105,0.2628687885618982,0.29849623113198553,0.3136877428271623,0.2628687885618981,0.34409301068170484,0.31559467676119,0.2984962311319857,0.3440930106817049,0.19899748742132387,0.27999999999999986,0.31559467676119,0.27999999999999975,0.2821347195933176,0.33030289129827456,0.3720215047547653,0.244131112314674,0.2,0.29580398915498096,0.2643860813280456,0.29849623113198587,0.2628687885618981,0.3155946767611902,0.24166091947189128,0.27999999999999975,0.31368774282716216,0.2,0.33030289129827456,0.29849623113198565,0.2821347195933176,0.31368774282716216,0.31622776601683794,0.38091993909481786,0.27999999999999975,0.2821347195933176,0.27999999999999975,0.3315116890850154,0.34641016151377546,0.31559467676119024,0.3570714214271424,0.2628687885618978,0.29983328701129897,0.33151168908501527,0.2984962311319856,0.3458323293158118,0.31048349392520025,0.3155946767611901,0.2233830790368867,0.3278719262150999,0.2821347195933176,0.3693237062523879,0.29849623113198576,0.35930488446443326,0.29849623113198565,0.3136877428271622,0.2821347195933176,0.2799999999999998,0.2233830790368865,0.2643860813280456,0.24166091947189117,0.29983328701129874,0.29983328701129874,0.2998332870112988,0.2215851980616033,0.1989974874213239,0.1989974874213239,0.2821347195933176,0.3136877428271622,0.2799999999999997,0.27640549922170465,0.26286878856189805,0.31559467676119013,0.27999999999999975,0.2984962311319856,0.2998332870112988,0.282842712474619,0.29849623113198576,0.2998332870112988,0.29983328701129874,0.3871692136521186,0.29849623113198553,0.26438608132804553,0.3278719262151,0.2,0.282842712474619,0.3155946767611901,0.3136877428271623,0.2984962311319858,0.282842712474619,0.2821347195933176,0.26286878856189805,0.34117444218463944,0.3136877428271622,0.2984962311319857,0.33151168908501527,0.3136877428271622,0.2821347195933176,0.29983328701129885,0.2233830790368867,0.3136877428271622,0.262868788561898
16,0.29208087178707,0.039405130834767294,0.2628687885618982,0.29849623113198553,0.3136877428271623,0.2628687885618981,0.33030289129827456,0.31559467676119,0.2984962311319857,0.3440930106817049,0.19899748742132387,0.27999999999999986,0.31559467676119,0.27999999999999975,0.2821347195933176,0.33030289129827456,0.3720215047547653,0.244131112314674,0.2,0.29580398915498096,0.2643860813280456,0.29849623113198587,0.2628687885618981,0.3155946767611902,0.24166091947189128,0.27999999999999975,0.31368774282716216,0.2,0.33030289129827456,0.29849623113198565,0.2821347195933176,0.31368774282716216,0.31622776601683794,0.38091993909481786,0.27999999999999975,0.2821347195933176,0.27999999999999975,0.3315116890850154,0.34641016151377546,0.31559467676119024,0.3570714214271424,0.2628687885618978,0.29983328701129897,0.33151168908501527,0.2984962311319856,0.3458323293158118,0.31048349392520025,0.3155946767611901,0.2233830790368867,0.3278719262150999,0.2821347195933176,0.3411744421846398,0.29849623113198576,0.35930488446443326,0.29849623113198565,0.3136877428271622,0.2821347195933176,0.2799999999999998,0.2233830790368865,0.2643860813280456,0.24166091947189117,0.29983328701129874,0.29983328701129874,0.2998332870112988,0.2215851980616033,0.1989974874213239,0.1989974874213239,0.2821347195933176,0.3136877428271622,0.2799999999999997,0.27640549922170465,0.26286878856189805,0.31559467676119013,0.27999999999999975,0.2984962311319856,0.29983328701129874,0.282842712474619,0.29849623113198576,0.2998332870112988,0.29983328701129874,0.3871692136521186,0.29849623113198553,0.26438608132804553,0.3278719262151,0.2,0.282842712474619,0.3155946767611901,0.2984962311319858,0.2984962311319858,0.282842712474619,0.2821347195933176,0.26286878856189805,0.34117444218463944,0.3136877428271622,0.2984962311319857,0.33151168908501527,0.3136877428271622,0.2821347195933176,0.29983328701129885,0.2233830790368867,0.3136877428271622,0.262868788561898
17,0.2914623065397138,0.03890660440786202,0.2628687885618982,0.29849623113198553,0.3136877428271623,0.2628687885618981,0.3278719262150998,0.29983328701129885,0.2984962311319857,0.3440930106817049,0.19899748742132387,0.27999999999999986,0.31559467676119,0.27999999999999975,0.2821347195933176,0.33030289129827456,0.3720215047547653,0.244131112314674,0.2,0.29580398915498096,0.2643860813280456,0.29849623113198587,0.2628687885618981,0.3155946767611902,0.24166091947189128,0.27999999999999975,0.31368774282716216,0.2,0.33030289129827456,0.29849623113198565,0.2821347195933176,0.31368774282716216,0.31622776601683794,0.3693237062523879,0.27999999999999975,0.2821347195933176,0.27999999999999975,0.3315116890850154,0.34641016151377546,0.31559467676119024,0.3570714214271424,0.2628687885618978,0.29983328701129897,0.33151168908501527,0.2984962311319856,0.3458323293158118,0.31048349392520025,0.3155946767611901,0.2233830790368867,0.2958039891549808,0.2821347195933176,0.34117444218463977,0.29849623113198576,0.35930488446443326,0.29849623113198565,0.3136877428271622,0.2821347195933176,0.2799999999999998,0.2233830790368865,0.2643860813280456,0.24166091947189117,0.29983328701129874,0.29983328701129874,0.2998332870112988,0.2215851980616033,0.1989974874213239,0.1989974874213239,0.2821347195933176,0.3136877428271622,0.2799999999999997,0.27640549922170465,0.26286878856189805,0.31559467676119013,0.27999999999999975,0.2984962311319856,0.29983328701129874,0.282842712474619,0.29849623113198576,0.2998332870112988,0.29983328701129874,0.3871692136521186,0.29849623113198553,0.26438608132804553,0.3278719262151,0.2,0.282842712474619,0.3155946767611901,0.2984962311319858,0.2984962311319858,0.282842712474619,0.2821347195933176,0.26286878856189805,0.34117444218463944,0.3136877428271622,0.2984962311319857,0.33151168908501527,0.3136877428271622,0.2821347195933176,0.29983328701129885,0.2233830790368867,0.3136877428271622,0.262868788561898
18,0.2911429783231817,0.03888143738478929,0.2628687885618982,0.29849623113198553,0.3136877428271623,0.2628687885618981,0.3136877428271622,0.29983328701129874,0.2984962311319857,0.3440930106817049,0.19899748742132387,0.27999999999999986,0.31559467676119,0.27999999999999975,0.2821347195933176,0.33030289129827456,0.3720215047547653,0.244131112314674,0.2,0.29580398915498096,0.2643860813280456,0.29849623113198587,0.2628687885618981,0.3155946767611902,0.24166091947189128,0.27999999999999975,0.31368774282716216,0.2,0.33030289129827456,0.29849623113198565,0.2821347195933176,0.31368774282716216,0.31622776601683794,0.3693237062523877,0.27999999999999975,0.2643860813280457,0.27999999999999975,0.3315116890850154,0.34641016151377546,0.31559467676119024,0.3570714214271424,0.2628687885618978,0.29983328701129897,0.33151168908501527,0.2984962311319856,0.3458323293158118,0.31048349392520025,0.3155946767611901,0.2233830790368867,0.29580398915498074,0.2821347195933176,0.34117444218463977,0.29849623113198576,0.35930488446443326,0.29849623113198565,0.3136877428271622,0.2821347195933176,0.2799999999999998,0.2233830790368865,0.2643860813280456,0.24166091947189117,0.29983328701129874,0.29983328701129874,0.2998332870112988,0.2215851980616033,0.1989974874213239,0.1989974874213239,0.2821347195933176,0.3136877428271622,0.2799999999999997,0.27640549922170465,0.26286878856189805,0.31559467676119013,0.27999999999999975,0.2984962311319856,0.29983328701129874,0.282842712474619,0.29849623113198576,0.2998332870112988,0.29983328701129874,0.3871692136521186,0.29849623113198553,0.26438608132804553,0.3278719262151,0.2,0.282842712474619,0.3155946767611901,0.2984962311319858,0.2984962311319858,0.282842712474619,0.2821347195933176,0.26286878856189805,0.34117444218463944,0.3136877428271622,0.2984962311319857,0.33151168908501527,0.3136877428271622,0.2821347195933176,0.29983328701129885,0.2233830790368867,0.31368774282716216,0.262868788561898
19,0.29066625106012034,0.038705690727011,0.2628687885618982,0.29849623113198553,0.3136877428271623,0.2628687885618981,0.3136877428271622,0.282842712474619,0.2984962311319857,0.3440930106817049,0.19899748742132387,0.27999999999999986,0.31559467676119,0.27999999999999975,0.2821347195933176,0.33030289129827456,0.3720215047547653,0.244131112314674,0.2,0.29580398915498096,0.2643860813280456,0.29849623113198587,0.2628687885618981,0.3155946767611902,0.24166091947189128,0.27999999999999975,0.31368774282716216,0.2,0.33030289129827456,0.29849623113198565,0.2821347195933176,0.31368774282716216,0.31622776601683794,0.3693237062523877,0.27999999999999975,0.2643860813280457,0.27999999999999975,0.3315116890850154,0.34641016151377546,0.31559467676119024,0.3570714214271424,0.2628687885618978,0.29983328701129897,0.33151168908501527,0.2984962311319856,0.3315116890850154,0.31048349392520025,0.3155946767611901,0.2233830790368867,0.29580398915498074,0.2821347195933176,0.34117444218463977,0.29849623113198576,0.35930488446443326,0.29849623113198565,0.3136877428271622,0.2821347195933176,0.2799999999999998,0.2233830790368865,0.2643860813280456,0.24166091947189117,0.29983328701129874,0.29983328701129874,0.2998332870112988,0.2215851980616033,0.1989974874213239,0.1989974874213239,0.2821347195933176,0.3136877428271622,0.2799999999999997,0.27640549922170465,0.26286878856189805,0.31559467676119013,0.27999999999999975,0.2984962311319856,0.29983328701129874,0.282842712474619,0.2821347195933176,0.2998332870112988,0.29983328701129874,0.3871692136521186,0.29849623113198553,0.26438608132804553,0.3278719262151,0.2,0.282842712474619,0.3155946767611901,0.2984962311319858,0.2984962311319858,0.282842712474619,0.2821347195933176,0.26286878856189805,0.34117444218463944,0.3136877428271622,0.2984962311319857,0.33151168908501527,0.3136877428271622,0.2821347195933176,0.29983328701129885,0.2233830790368867,0.31368774282716216,0.262868788561898
