Iteration,Mean,Stdev,Run-0,Run-1,Run-2,Run-3,Run-4,Run-5,Run-6,Run-7,Run-8,Run-9,Run-10,Run-11,Run-12,Run-13,Run-14,Run-15,Run-16,Run-17,Run-18,Run-19,Run-20,Run-21,Run-22,Run-23,Run-24,Run-25,Run-26,Run-27,Run-28,Run-29,Run-30,Run-31,Run-32,Run-33,Run-34,Run-35,Run-36,Run-37,Run-38,Run-39,Run-40,Run-41,Run-42,Run-43,Run-44,Run-45,Run-46,Run-47,Run-48,Run-49,Run-50,Run-51,Run-52,Run-53,Run-54,Run-55,Run-56,Run-57,Run-58,Run-59,Run-60,Run-61,Run-62,Run-63,Run-64,Run-65,Run-66,Run-67,Run-68,Run-69,Run-70,Run-71,Run-72,Run-73,Run-74,Run-75,Run-76,Run-77,Run-78,Run-79,Run-80,Run-81,Run-82,Run-83,Run-84,Run-85,Run-86,Run-87,Run-88,Run-89,Run-90,Run-91,Run-92,Run-93,Run-94,Run-95,Run-96,Run-97,Run-98,Run-99
0,1.0114597511697796,0.07357426019721189,1.216552506059644,0.9977975746613137,0.9555626614722871,1.0248902380255158,0.9748846085563145,0.9386692708297208,0.9329523031752472,1.0934349546269315,1.0805091392487154,0.9803570778037966,1.060377291344924,1.0346013725102041,1.11977676346672,0.9369631796394146,1.0749883720301348,1.1104503590886001,0.9762684057163793,0.9733961166965893,1.0428326807307107,1.1001818031580044,0.9079647570252927,1.0934349546269315,0.9682974749528173,1.0738249391777046,1.1620671237067157,1.0805091392487154,0.9079647570252929,0.9348261870529739,1.0051865498503243,0.9850888284819793,1.017644338656684,1.0467091286503618,0.9404254356406996,1.002197585309403,0.9905049217444605,1.0065286881157443,1.1371455491712574,1.061838029079765,0.9921693403849957,0.8905616205518856,0.9474175425861617,1.0382196299434923,0.9820386957752724,0.9555626614722872,0.9748846085563144,1.0150862032359609,1.1652896635600958,0.9404254356406987,1.0749883720301348,0.8760707733967616,0.9357350052231667,0.9386692708297208,1.1014081895464558,1.0037429949942367,1.0603772913449243,0.9684523736353803,0.8837986195961158,1.006528688115744,1.0428326807307104,0.9002221947941513,1.0168087332433775,1.1594826432508585,1.1391224692718522,0.9492628719169411,1.0136567466356647,1.0262066068779723,0.9645724441429989,1.0665833300778715,0.9463614531456782,1.026206606877972,0.9937303457175896,0.911262859991561,1.0359054010864122,1.1489125293076057,0.9630680142129113,0.9921693403849963,0.9404254356406988,0.9733961166965893,1.0077698149875294,0.8742997197757754,1.010494928240612,1.1717934971657762,0.9785703858180065,1.0359054010864124,1.0051865498503243,0.9541488353501243,0.9820386957752725,1.0219589032832965,1.0077698149875296,0.9762684057163791,0.9850888284819793,0.9951884243699775,0.9614572273377523,1.034601372510204,0.8724104538575868,1.1594826432508585,1.046709128650362,1.120535586226515,0.9937303457175897,1.0413452837555839
1,0.7231678876023153,0.05471934156041014,0.8799999999999994,0.7804485889538143,0.6936137253543933,0.7483314773547883,0.7213875518748569,0.6556675987114204,0.7031358332498769,0.7921489758877426,0.705974503788912,0.7310266752998815,0.753325958665968,0.7549172140042909,0.7485986908885158,0.7163099887618489,0.7860661549767926,0.7618398781896363,0.6333245613427604,0.7123903424387502,0.7208328516376036,0.7480641683706014,0.5778408085277467,0.8411896337925242,0.740000000000001,0.7956758133813043,0.7701298591796062,0.7306846104852625,0.676683086828686,0.7123903424387502,0.7166589146867567,0.7078841713161833,0.7123903424387502,0.7681145747868608,0.6327716807822547,0.7262919523166975,0.728010988928052,0.740000000000001,0.7880989785553585,0.7613146524269708,0.6333245613427604,0.6902173570694958,0.6796322535018473,0.8086408349817612,0.7022107945624306,0.6782329983125266,0.7622991538759565,0.7304792947099872,0.8842510955605314,0.6538348415311009,0.7310266752998817,0.6737210105080587,0.6928203230275507,0.5908468498688981,0.7794228634059946,0.683739716558867,0.7575618786607468,0.7442445834535848,0.6383572667401853,0.7748548251124207,0.7025667228100118,0.6887670143089019,0.739932429347437,0.7964923100695942,0.7196526940128821,0.6999285677838848,0.7906326580656781,0.7249827584156745,0.6931089380465383,0.800249960949702,0.6581033353509159,0.7031358332498772,0.6837397165588672,0.6689544080129826,0.7025667228100119,0.7871467461661767,0.6477653896280654,0.7196526940128822,0.6538348415311009,0.7399324293474367,0.7745966692414832,0.6333245613427604,0.6982836100038445,0.7977468270071651,0.6785278181474947,0.7386474125047757,0.7249827584156746,0.6837397165588673,0.7022107945624307,0.7163099887618488,0.7410128204019146,0.6913031173081741,0.7124605252222759,0.7310266752998821,0.7000000000000003,0.6849087530467107,0.6523802572120037,0.8135723692456617,0.7956758133813042,0.7735631842325491,0.6881860213634101,0.699928567783885
2,0.5433625821372273,0.04233325327877353,0.698212002188447,0.5996665740225976,0.5523585791856586,0.5271622141238882,0.5874521257089802,0.5287721626560912,0.5339475629684992,0.5567764362830026,0.5736723803705389,0.5494542747126456,0.5291502622129182,0.5276362383309169,0.4555216789572149,0.5344155686354949,0.58,0.5566866263886711,0.47444704657105785,0.5148786264742394,0.5545268253204712,0.5287721626560913,0.45287967496896975,0.6383572667401852,0.5230678732248804,0.6244197306299666,0.5462600113499066,0.5462600113499065,0.5462600113499066,0.5083306010855534,0.5385164807134506,0.5095095681142796,0.5083306010855534,0.5982474404458407,0.4651881339845199,0.5775811631277455,0.5743692192309751,0.5894913061275799,0.5847221562417483,0.567362318100171,0.43999999999999956,0.5309425580983309,0.49909918853871144,0.5894913061275798,0.5462600113499066,0.5102940328869231,0.5915234568468102,0.5566866263886712,0.5642694391866354,0.5230678732248804,0.538423625038872,0.4918333050943172,0.567362318100171,0.5195190083144214,0.555967624956706,0.5545268253204712,0.581291665173345,0.5799999999999996,0.4894895300208166,0.573672380370539,0.4998999899979994,0.5462600113499065,0.5148786264742397,0.5000000000000003,0.5418486873657622,0.4898979485566356,0.5257375771237963,0.5444263035526478,0.5494542747126457,0.5942221806698231,0.5148786264742397,0.5276362383309169,0.5148786264742395,0.5000000000000001,0.5638262143604181,0.5743692192309752,0.49507575177946206,0.5095095681142799,0.5225897052181568,0.5376802023508028,0.5874521257089801,0.507838557023785,0.511761663276959,0.5736723803705389,0.5187484939737176,0.5743692192309751,0.5701754116059369,0.469041575982343,0.5701754116059367,0.5624944444170091,0.5946427498927399,0.4673328578219168,0.5339475629684993,0.5946427498927399,0.5444263035526475,0.5545268253204712,0.5271622141238882,0.59152345684681,0.6135144660071186,0.5916079783099617,0.47947888378947395,0.5642694391866355
3,0.43038907774737906,0.03728594582091923,0.49989998999799934,0.4894895300208166,0.4357751713900183,0.3871692136521187,0.43588989435406755,0.43485629810317794,0.43023249528597873,0.3954743986657038,0.4621688003316534,0.4572745346069472,0.3861346915261562,0.4092676385936226,0.3458323293158118,0.4112177038990415,0.39799497484264784,0.38613469152615615,0.3871692136521186,0.4330127018922193,0.4330127018922192,0.3604164258188019,0.37202150475476525,0.4,0.4454211490264017,0.4862098312457285,0.43577517139001837,0.42379240200834223,0.42000000000000015,0.4237924020083415,0.45727453460694695,0.45552167895721507,0.4237924020083422,0.45727453460694695,0.3604164258188018,0.46733285782191686,0.45727453460694706,0.48620983124572853,0.4581484475582121,0.44933283877321933,0.369323706252388,0.4330127018922193,0.42379240200834195,0.4998999899979994,0.4302324952859788,0.3655133376499411,0.4833218389437825,0.45814844755821216,0.41218927691049884,0.434856298103178,0.4237924020083417,0.4302324952859785,0.4454211490264017,0.47864391775097287,0.4121892769104988,0.38405728739343026,0.4786439177509732,0.4974937185533102,0.3736308338453881,0.45552167895721507,0.41218927691049884,0.4121892769104988,0.42,0.41121770389904166,0.35707142142714254,0.3840572873934302,0.41999999999999993,0.39949968710876393,0.43485629810317783,0.495075751779462,0.39547439866570383,0.4092676385936226,0.4223742416388574,0.4308131845707603,0.4572745346069471,0.4686149805543992,0.38716921365211865,0.4121892769104989,0.3919183588453083,0.46861498055439926,0.49989998999799934,0.42379240200834206,0.4092676385936222,0.4472135954999579,0.4092676385936224,0.457274534606947,0.46861498055439904,0.39949968710876393,0.45552167895721507,0.39799497484264784,0.48620983124572853,0.41121770389904155,0.42237424163885734,0.4749736834815165,0.4357751713900183,0.4357751713900183,0.3979949748426478,0.48620983124572864,0.4769696007084729,0.4862098312457284,0.37363083384538837,0.4454211490264016
4,0.36863257197407884,0.03439515779547328,0.3979949748426478,0.39949968710876393,0.3604164258188018,0.3315116890850154,0.3919183588453082,0.3840572873934303,0.35930488446443326,0.3303028912982746,0.3979949748426478,0.37202150475476525,0.282842712474619,0.35930488446443337,0.3136877428271622,0.35930488446443326,0.3136877428271622,0.3303028912982746,0.3440930106817049,0.3954743986657039,0.3979949748426478,0.299833287011299,0.34409301068170484,0.31622776601683794,0.4112177038990415,0.38716921365211854,0.3861346915261561,0.33030289129827456,0.36041642581880173,0.3458323293158121,0.42379240200834206,0.3979949748426478,0.34641016151377546,0.423792402008342,0.33030289129827456,0.4121892769104988,0.38613469152615615,0.41218927691049884,0.39949968710876377,0.31559467676119,0.3136877428271622,0.3840572873934302,0.37363083384538837,0.42379240200834206,0.3766961640367474,0.3411744421846396,0.41231056256176624,0.37363083384538837,0.3736308338453885,0.3994996871087641,0.3736308338453884,0.3720215047547653,0.41121770389904166,0.3979949748426478,0.3736308338453884,0.34409301068170484,0.40236799077461427,0.41121770389904166,0.31559467676119,0.3604164258188018,0.345832329315812,0.38716921365211854,0.35930488446443326,0.3979949748426478,0.31048349392520014,0.3278719262150999,0.39547439866570383,0.34409301068170484,0.3593048844644334,0.40926763859362236,0.33030289129827467,0.3536947836765478,0.3720215047547653,0.3693237062523877,0.41121770389904183,0.37363083384538837,0.34641016151377546,0.36041642581880196,0.35707142142714265,0.3994996871087638,0.4223742416388574,0.35930488446443326,0.3593048844644333,0.34409301068170484,0.3155946767611901,0.3979949748426478,0.38716921365211854,0.3570714214271427,0.38613469152615615,0.3155946767611903,0.3840572873934304,0.3736308338453886,0.3315116890850154,0.40926763859362236,0.3693237062523881,0.38613469152615615,0.3604164258188019,0.42237424163885734,0.4330127018922193,0.4112177038990415,0.282842712474619,0.3593048844644335
5,0.3360415753682922,0.02951371925048235,0.3593048844644334,0.3720215047547653,0.2998332870112988,0.26438608132804575,0.365513337649941,0.32787192621510003,0.33030289129827456,0.29849623113198576,0.3570714214271425,0.34409301068170484,0.2821347195933176,0.3303028912982745,0.3136877428271622,0.3155946767611903,0.3136877428271622,0.29849623113198565,0.29849623113198565,0.3411744421846396,0.3720215047547653,0.29983328701129885,0.34409301068170484,0.282842712474619,0.3593048844644335,0.345832329315812,0.37363083384538825,0.29983328701129897,0.3155946767611903,0.31559467676119046,0.3840572873934304,0.3440930106817049,0.2998332870112991,0.3736308338453886,0.29983328701129885,0.3720215047547653,0.3136877428271622,0.37363083384538837,0.3315116890850155,0.26286878856189816,0.3136877428271622,0.3570714214271426,0.34409301068170484,0.3871692136521186,0.34117444218463966,0.3370459909270542,0.3693237062523879,0.29849623113198565,0.3315116890850154,0.3736308338453887,0.3155946767611901,0.37202150475476525,0.3861346915261562,0.3315116890850153,0.33030289129827456,0.3155946767611903,0.3693237062523879,0.34583232931581187,0.29983328701129897,0.3155946767611905,0.3303028912982746,0.3604164258188018,0.34409301068170484,0.3736308338453885,0.3104834939252001,0.29849623113198587,0.3693237062523879,0.3155946767611903,0.3303028912982747,0.32787192621510003,0.29849623113198576,0.29580398915498096,0.34641016151377546,0.34117444218463966,0.3593048844644333,0.35930488446443337,0.34583232931581215,0.33030289129827456,0.3411744421846397,0.37363083384538837,0.3570714214271425,0.34409301068170484,0.35930488446443326,0.31048349392520047,0.2958039891549808,0.34641016151377546,0.37202150475476525,0.3278719262151003,0.3604164258188019,0.3155946767611902,0.34117444218463966,0.3736308338453886,0.33030289129827456,0.3440930106817049,0.3411744421846395,0.35930488446443337,0.3155946767611901,0.39949968710876377,0.37363083384538825,0.3604164258188018,0.282842712474619,0.3303028912982748
6,0.31976335556152297,0.03126334019318749,0.34583232931581187,0.32787192621510003,0.26438608132804553,0.2449489742783178,0.365513337649941,0.32787192621510003,0.33030289129827456,0.29849623113198576,0.3570714214271423,0.29983328701129897,0.2821347195933176,0.29983328701129885,0.3136877428271622,0.29983328701129897,0.3136877428271622,0.29849623113198553,0.2821347195933176,0.3278719262150999,0.3315116890850154,0.2643860813280455,0.34409301068170484,0.282842712474619,0.34583232931581187,0.2958039891549811,0.36041642581880184,0.2998332870112989,0.29983328701129885,0.31559467676119046,0.35930488446443326,0.3278719262150999,0.2821347195933176,0.35930488446443337,0.282842712474619,0.35930488446443337,0.27999999999999975,0.3315116890850153,0.31622776601683794,0.262868788561898,0.3136877428271622,0.3136877428271622,0.3278719262151,0.34583232931581187,0.3411744421846396,0.31048349392520036,0.35707142142714227,0.2821347195933176,0.3315116890850154,0.3720215047547653,0.29849623113198565,0.34409301068170484,0.3736308338453885,0.2984962311319857,0.2984962311319859,0.26438608132804575,0.34409301068170484,0.344093010681705,0.282842712474619,0.31559467676118996,0.3303028912982746,0.34583232931581187,0.33030289129827456,0.36041642581880173,0.3104834939252001,0.2984962311319857,0.3693237062523878,0.29983328701129897,0.31559467676119,0.29580398915498096,0.2799999999999998,0.26286878856189805,0.29983328701129885,0.33704599092705423,0.33030289129827467,0.35930488446443337,0.34583232931581187,0.31559467676119013,0.2984962311319856,0.36041642581880184,0.3303028912982746,0.34409301068170484,0.3440930106817049,0.2821347195933176,0.2764054992217049,0.2821347195933176,0.3458323293158118,0.32787192621510025,0.3593048844644334,0.3155946767611902,0.3411744421846396,0.37363083384538853,0.2643860813280457,0.3315116890850155,0.32419130154894654,0.34409301068170484,0.3136877428271622,0.3994996871087637,0.34583232931581187,0.3303028912982747,0.282842712474619,0.3303028912982748
7,0.3113529438475064,0.03251683191043498,0.3458323293158118,0.3136877428271623,0.24413111231467396,0.2449489742783178,0.365513337649941,0.32787192621510003,0.33030289129827456,0.29849623113198576,0.3278719262150999,0.2628687885618979,0.2821347195933176,0.29983328701129885,0.3136877428271622,0.29983328701129897,0.3136877428271622,0.29849623113198553,0.2821347195933176,0.3278719262150999,0.29983328701129897,0.24413111231467396,0.34409301068170484,0.282842712474619,0.34583232931581176,0.27999999999999975,0.3458323293158119,0.29983328701129885,0.29983328701129885,0.31559467676119046,0.35930488446443326,0.3278719262150999,0.2821347195933176,0.34583232931581215,0.282842712474619,0.35930488446443326,0.27999999999999975,0.33030289129827456,0.31622776601683794,0.262868788561898,0.3136877428271622,0.3136877428271622,0.29580398915498074,0.34409301068170484,0.3104834939252005,0.31048349392520014,0.262868788561898,0.2821347195933176,0.3315116890850154,0.34117444218463944,0.27999999999999975,0.33030289129827456,0.35930488446443337,0.27999999999999975,0.2799999999999999,0.2449489742783178,0.34409301068170484,0.34409301068170484,0.2643860813280457,0.31559467676118996,0.3303028912982746,0.3315116890850154,0.33030289129827456,0.3458323293158119,0.3104834939252001,0.2984962311319857,0.3693237062523878,0.29983328701129874,0.31559467676119,0.29580398915498074,0.2799999999999998,0.2628687885618979,0.29983328701129874,0.33704599092705423,0.3136877428271623,0.35930488446443337,0.34583232931581187,0.31559467676119013,0.2628687885618982,0.36041642581880184,0.31559467676119,0.34409301068170484,0.34409301068170484,0.2643860813280458,0.25980762113533173,0.244131112314674,0.3458323293158118,0.32787192621510025,0.34583232931581187,0.3155946767611902,0.32419130154894643,0.3315116890850154,0.2643860813280457,0.3303028912982746,0.2917190429162966,0.3136877428271623,0.2984962311319857,0.3871692136521186,0.34583232931581176,0.3303028912982745,0.282842712474619,0.3303028912982748
8,0.30727539813165805,0.03287597455636782,0.3458323293158118,0.31368774282716216,0.24413111231467396,0.2449489742783178,0.365513337649941,0.32787192621510003,0.33030289129827456,0.29849623113198576,0.3278719262150999,0.2215851980616035,0.2821347195933176,0.29983328701129885,0.3136877428271622,0.29983328701129897,0.3136877428271622,0.29849623113198553,0.2821347195933176,0.3278719262150999,0.29983328701129885,0.24413111231467396,0.34409301068170484,0.282842712474619,0.3315116890850155,0.27999999999999975,0.34583232931581187,0.2821347195933176,0.29983328701129885,0.31559467676119046,0.35930488446443326,0.31048349392520025,0.2821347195933176,0.3458323293158121,0.282842712474619,0.3155946767611905,0.27999999999999975,0.31559467676119013,0.31622776601683794,0.262868788561898,0.3136877428271622,0.3136877428271622,0.29580398915498074,0.34409301068170484,0.31048349392520036,0.31048349392520014,0.262868788561898,0.2821347195933176,0.3315116890850154,0.2917190429162965,0.2598076211353318,0.33030289129827456,0.35930488446443337,0.27999999999999975,0.27999999999999986,0.2449489742783178,0.34409301068170484,0.3303028912982748,0.2643860813280457,0.31559467676118996,0.3303028912982746,0.3315116890850153,0.31559467676119024,0.3315116890850153,0.3104834939252001,0.2984962311319857,0.3693237062523878,0.282842712474619,0.31559467676119,0.29580398915498074,0.2799999999999998,0.2628687885618979,0.2643860813280455,0.33704599092705423,0.3136877428271623,0.35930488446443337,0.34583232931581187,0.31559467676119013,0.2628687885618982,0.36041642581880184,0.29849623113198565,0.34409301068170484,0.34409301068170484,0.244131112314674,0.25980762113533173,0.24413111231467396,0.3458323293158118,0.32787192621510025,0.34583232931581165,0.3155946767611902,0.3241913015489463,0.3315116890850154,0.2643860813280457,0.33030289129827456,0.2764054992217047,0.3136877428271623,0.29849623113198565,0.3604164258188019,0.3315116890850155,0.3303028912982745,0.282842712474619,0.3303028912982748
9,0.305409637661316,0.03231026498782696,0.34409301068170484,0.31368774282716216,0.24413111231467396,0.2449489742783178,0.365513337649941,0.32787192621510003,0.33030289129827456,0.29849623113198576,0.3278719262150999,0.22158519806160343,0.2821347195933176,0.29983328701129885,0.3136877428271622,0.29983328701129897,0.3136877428271622,0.29849623113198553,0.2821347195933176,0.3278719262150999,0.2821347195933176,0.24413111231467396,0.34409301068170484,0.282842712474619,0.3315116890850155,0.27999999999999975,0.34583232931581187,0.2821347195933176,0.29983328701129885,0.31559467676119046,0.35930488446443326,0.31048349392520025,0.2821347195933176,0.3303028912982746,0.282842712474619,0.3155946767611903,0.27999999999999975,0.31559467676119013,0.31622776601683794,0.262868788561898,0.3136877428271622,0.3136877428271622,0.29580398915498074,0.34409301068170484,0.31048349392520036,0.27999999999999975,0.262868788561898,0.2821347195933176,0.33151168908501527,0.2917190429162965,0.2598076211353318,0.33030289129827456,0.35930488446443337,0.27999999999999975,0.27999999999999986,0.2449489742783178,0.34409301068170484,0.33030289129827467,0.2643860813280457,0.31559467676118996,0.3303028912982746,0.2998332870112988,0.29983328701129874,0.3155946767611902,0.2958039891549811,0.2984962311319857,0.3693237062523878,0.282842712474619,0.31559467676119,0.29580398915498074,0.2799999999999998,0.2628687885618979,0.2643860813280455,0.33704599092705423,0.3136877428271623,0.35930488446443337,0.34583232931581187,0.31559467676119013,0.2628687885618982,0.36041642581880184,0.29849623113198565,0.34409301068170484,0.34409301068170484,0.244131112314674,0.25980762113533173,0.24413111231467396,0.3458323293158118,0.3136877428271622,0.33151168908501544,0.3155946767611902,0.3241913015489463,0.3315116890850154,0.2643860813280457,0.33030289129827456,0.2764054992217047,0.3136877428271623,0.29849623113198565,0.3458323293158118,0.3315116890850155,0.3303028912982745,0.282842712474619,0.3303028912982748
10,0.3036476762597833,0.032312361443165204,0.3155946767611901,0.31368774282716216,0.24413111231467396,0.2449489742783178,0.365513337649941,0.32787192621510003,0.33030289129827456,0.29849623113198576,0.3278719262150999,0.22158519806160343,0.2821347195933176,0.29983328701129885,0.3136877428271622,0.29983328701129897,0.3136877428271622,0.29849623113198553,0.2821347195933176,0.3278719262150999,0.2821347195933176,0.24413111231467396,0.34409301068170484,0.282842712474619,0.3315116890850155,0.27999999999999975,0.34583232931581187,0.2821347195933176,0.29983328701129885,0.31559467676119046,0.35930488446443326,0.31048349392520025,0.2821347195933176,0.2998332870112988,0.282842712474619,0.3155946767611903,0.27999999999999975,0.31559467676119013,0.31622776601683794,0.262868788561898,0.3136877428271622,0.3136877428271622,0.29580398915498074,0.34409301068170484,0.31048349392520036,0.24166091947189114,0.262868788561898,0.2821347195933176,0.31559467676119013,0.2917190429162965,0.2598076211353318,0.33030289129827456,0.35930488446443337,0.27999999999999975,0.27999999999999986,0.2449489742783178,0.34409301068170484,0.33030289129827467,0.2643860813280457,0.2821347195933176,0.3303028912982746,0.2998332870112988,0.29983328701129874,0.3155946767611902,0.295803989154981,0.2984962311319857,0.3693237062523878,0.282842712474619,0.31559467676119,0.29580398915498074,0.2799999999999998,0.2628687885618979,0.2643860813280455,0.33704599092705423,0.3136877428271623,0.35930488446443337,0.34583232931581187,0.31559467676119013,0.2628687885618982,0.36041642581880184,0.29849623113198565,0.34409301068170484,0.34409301068170484,0.244131112314674,0.25980762113533173,0.24413111231467396,0.3458323293158118,0.29849623113198553,0.3315116890850153,0.3155946767611902,0.3241913015489463,0.3315116890850154,0.2643860813280457,0.33030289129827456,0.2764054992217047,0.3136877428271623,0.29849623113198565,0.33151168908501544,0.3315116890850155,0.3303028912982745,0.282842712474619,0.3303028912982748
11,0.3026693038167077,0.0312616782516459,0.3155946767611901,0.31368774282716216,0.24413111231467396,0.2449489742783178,0.365513337649941,0.32787192621510003,0.33030289129827456,0.29849623113198576,0.3278719262150999,0.22158519806160343,0.2821347195933176,0.29983328701129885,0.3136877428271622,0.29983328701129897,0.3136877428271622,0.29849623113198553,0.2821347195933176,0.3278719262150999,0.2821347195933176,0.24413111231467396,0.32787192621510014,0.282842712474619,0.3315116890850155,0.27999999999999975,0.34583232931581187,0.2821347195933176,0.29983328701129885,0.31559467676119046,0.3458323293158119,0.31048349392520025,0.2821347195933176,0.2998332870112988,0.282842712474619,0.31559467676119,0.27999999999999975,0.31559467676119013,0.31622776601683794,0.262868788561898,0.3136877428271622,0.3136877428271622,0.29580398915498074,0.34409301068170484,0.31048349392520036,0.24166091947189114,0.262868788561898,0.2821347195933176,0.3155946767611901,0.2917190429162965,0.2598076211353318,0.33030289129827456,0.33030289129827467,0.27999999999999975,0.27999999999999986,0.2449489742783178,0.3411744421846399,0.33030289129827467,0.2643860813280457,0.2821347195933176,0.3303028912982746,0.2998332870112988,0.29983328701129874,0.3155946767611902,0.2917190429162962,0.2984962311319857,0.3693237062523878,0.282842712474619,0.31559467676119,0.29580398915498074,0.2799999999999998,0.2628687885618979,0.2643860813280455,0.33704599092705423,0.3136877428271623,0.35930488446443337,0.34583232931581187,0.31559467676119013,0.2628687885618982,0.36041642581880184,0.29849623113198565,0.32787192621510003,0.34409301068170484,0.244131112314674,0.25980762113533173,0.24413111231467396,0.3458323293158118,0.29849623113198553,0.33151168908501527,0.3155946767611902,0.3241913015489463,0.3315116890850154,0.2643860813280457,0.33030289129827456,0.2764054992217047,0.3136877428271623,0.29849623113198565,0.31559467676119,0.3315116890850155,0.3303028912982745,0.282842712474619,0.3303028912982748
12,0.3014655595922407,0.033354405702052475,0.3155946767611901,0.31368774282716216,0.24413111231467396,0.2449489742783178,0.365513337649941,0.32787192621510003,0.33030289129827456,0.29849623113198576,0.3278719262150999,0.1729161646579061,0.2821347195933176,0.29983328701129885,0.3136877428271622,0.29983328701129897,0.3136877428271622,0.29849623113198553,0.2821347195933176,0.31048349392520047,0.2449489742783178,0.24413111231467396,0.3278719262151,0.282842712474619,0.3315116890850155,0.27999999999999975,0.34583232931581187,0.2821347195933176,0.29983328701129885,0.31559467676119046,0.3458323293158117,0.31048349392520025,0.2821347195933176,0.2998332870112988,0.282842712474619,0.31559467676119,0.27999999999999975,0.31559467676119013,0.31622776601683794,0.262868788561898,0.3136877428271622,0.3136877428271622,0.29580398915498074,0.34409301068170484,0.31048349392520036,0.24166091947189114,0.262868788561898,0.2821347195933176,0.3155946767611901,0.2917190429162965,0.2598076211353318,0.33030289129827456,0.33030289129827456,0.27999999999999975,0.27999999999999986,0.2449489742783178,0.34117444218463966,0.33030289129827467,0.2643860813280457,0.2821347195933176,0.3303028912982746,0.2998332870112988,0.29983328701129874,0.3155946767611902,0.29171904291629613,0.2984962311319857,0.3693237062523878,0.282842712474619,0.31559467676119,0.29580398915498074,0.2628687885618981,0.2628687885618979,0.2643860813280455,0.33704599092705423,0.3136877428271623,0.35930488446443337,0.34583232931581187,0.31559467676119013,0.2628687885618982,0.36041642581880184,0.29849623113198565,0.32787192621510003,0.34409301068170484,0.244131112314674,0.25980762113533173,0.24413111231467396,0.3458323293158118,0.29849623113198553,0.33151168908501527,0.3155946767611902,0.3241913015489463,0.3315116890850154,0.2643860813280457,0.33030289129827456,0.2764054992217047,0.3136877428271623,0.29849623113198565,0.31559467676119,0.3315116890850155,0.3303028912982745,0.282842712474619,0.3303028912982748
13,0.2997986253871911,0.03347811547788481,0.3155946767611901,0.31368774282716216,0.24413111231467396,0.2449489742783178,0.365513337649941,0.32787192621510003,0.33030289129827456,0.29849623113198576,0.3278719262150999,0.17291616465790605,0.2821347195933176,0.29983328701129885,0.3136877428271622,0.29983328701129897,0.3136877428271622,0.29849623113198553,0.2821347195933176,0.31048349392520036,0.2233830790368868,0.24413111231467396,0.3278719262151,0.282842712474619,0.3315116890850155,0.27999999999999975,0.34583232931581187,0.2821347195933176,0.29983328701129885,0.31559467676119046,0.33030289129827456,0.31048349392520025,0.2821347195933176,0.2998332870112988,0.282842712474619,0.31559467676119,0.27999999999999975,0.31559467676119013,0.31622776601683794,0.262868788561898,0.3136877428271622,0.3136877428271622,0.29580398915498074,0.34409301068170484,0.31048349392520036,0.24166091947189114,0.262868788561898,0.262868788561898,0.3155946767611901,0.2917190429162965,0.2598076211353318,0.33030289129827456,0.3155946767611905,0.27999999999999975,0.27999999999999986,0.2449489742783178,0.3411744421846396,0.33030289129827467,0.2643860813280457,0.2821347195933176,0.3303028912982746,0.2998332870112988,0.29983328701129874,0.3155946767611902,0.29171904291629613,0.2984962311319857,0.3693237062523878,0.282842712474619,0.31559467676119,0.29580398915498074,0.26286878856189805,0.2628687885618979,0.2643860813280455,0.33704599092705423,0.3136877428271623,0.35930488446443337,0.34583232931581187,0.31559467676119,0.2628687885618982,0.36041642581880184,0.29849623113198565,0.32787192621510003,0.3155946767611903,0.244131112314674,0.25980762113533173,0.24413111231467396,0.3458323293158118,0.29849623113198553,0.2643860813280457,0.3155946767611902,0.3241913015489463,0.33151168908501527,0.2643860813280457,0.33030289129827456,0.2764054992217047,0.3136877428271623,0.29849623113198565,0.31559467676119,0.3315116890850155,0.3303028912982745,0.282842712474619,0.3303028912982748
14,0.29824525875021024,0.03439135986000073,0.3155946767611901,0.31368774282716216,0.24413111231467396,0.2449489742783178,0.365513337649941,0.27999999999999975,0.33030289129827456,0.29849623113198576,0.3278719262150999,0.1399999999999999,0.2821347195933176,0.29983328701129885,0.3136877428271622,0.29983328701129897,0.3136877428271622,0.29849623113198553,0.2821347195933176,0.2958039891549811,0.2233830790368868,0.24413111231467396,0.3278719262151,0.282842712474619,0.3315116890850155,0.27999999999999975,0.34583232931581187,0.2821347195933176,0.29983328701129885,0.31559467676119046,0.33030289129827456,0.31048349392520025,0.2821347195933176,0.2998332870112988,0.282842712474619,0.31559467676119,0.27999999999999975,0.31559467676119013,0.31622776601683794,0.262868788561898,0.3136877428271622,0.3136877428271622,0.29580398915498074,0.34409301068170484,0.31048349392520036,0.24166091947189114,0.262868788561898,0.26286878856189794,0.3155946767611901,0.2917190429162965,0.2598076211353318,0.33030289129827456,0.3155946767611901,0.27999999999999975,0.27999999999999986,0.2449489742783178,0.31368774282716233,0.33030289129827467,0.2643860813280457,0.2821347195933176,0.3303028912982746,0.2998332870112988,0.29983328701129874,0.3155946767611902,0.29171904291629613,0.2984962311319857,0.3693237062523878,0.282842712474619,0.31559467676119,0.29580398915498074,0.26286878856189805,0.2628687885618979,0.2643860813280455,0.33704599092705423,0.3136877428271623,0.35930488446443337,0.34583232931581187,0.31559467676119,0.2628687885618982,0.36041642581880184,0.29849623113198565,0.32787192621510003,0.2984962311319856,0.244131112314674,0.25980762113533173,0.24413111231467396,0.3458323293158118,0.29849623113198553,0.26438608132804553,0.3155946767611902,0.3241913015489463,0.31622776601683794,0.2643860813280457,0.33030289129827456,0.2764054992217047,0.3136877428271623,0.29849623113198565,0.31559467676119,0.3315116890850155,0.3303028912982745,0.282842712474619,0.3303028912982748
15,0.2973934747538295,0.034599438923822105,0.2998332870112989,0.31368774282716216,0.22338307903688673,0.2449489742783178,0.365513337649941,0.27999999999999975,0.33030289129827456,0.29849623113198576,0.3278719262150999,0.13999999999999987,0.2821347195933176,0.29983328701129885,0.3136877428271622,0.29983328701129897,0.3136877428271622,0.29849623113198553,0.2821347195933176,0.29580398915498096,0.2233830790368868,0.24413111231467396,0.3278719262151,0.282842712474619,0.3315116890850155,0.27999999999999975,0.34583232931581187,0.2821347195933176,0.282842712474619,0.31559467676119046,0.33030289129827456,0.31048349392520025,0.2821347195933176,0.2998332870112988,0.282842712474619,0.31559467676119,0.27999999999999975,0.31559467676119013,0.31622776601683794,0.262868788561898,0.3136877428271622,0.3136877428271622,0.29580398915498074,0.34409301068170484,0.31048349392520036,0.24166091947189114,0.262868788561898,0.26286878856189794,0.3155946767611901,0.2917190429162965,0.2598076211353318,0.33030289129827456,0.3155946767611901,0.27999999999999975,0.27999999999999986,0.2449489742783178,0.3136877428271623,0.33030289129827467,0.2643860813280457,0.2821347195933176,0.3303028912982746,0.2998332870112988,0.29983328701129874,0.3155946767611902,0.29171904291629613,0.2984962311319857,0.3693237062523878,0.282842712474619,0.31559467676119,0.29580398915498074,0.26286878856189805,0.2628687885618979,0.2643860813280455,0.33704599092705423,0.3136877428271623,0.35930488446443337,0.34583232931581187,0.31559467676119,0.2628687885618982,0.36041642581880184,0.29849623113198565,0.32787192621510003,0.2984962311319856,0.244131112314674,0.25980762113533173,0.24413111231467396,0.3458323293158118,0.29849623113198553,0.26438608132804553,0.3155946767611902,0.3241913015489463,0.31622776601683794,0.2643860813280457,0.33030289129827456,0.2764054992217047,0.3136877428271623,0.29849623113198565,0.31559467676119,0.2998332870112989,0.3303028912982745,0.282842712474619,0.3303028912982748
16,0.29672239375373327,0.03466729070830884,0.2998332870112989,0.31368774282716216,0.2233830790368867,0.2449489742783178,0.365513337649941,0.27999999999999975,0.33030289129827456,0.29849623113198576,0.3278719262150999,0.13999999999999987,0.2821347195933176,0.29983328701129885,0.2984962311319858,0.29983328701129897,0.3136877428271622,0.29849623113198553,0.2821347195933176,0.29580398915498096,0.2233830790368868,0.24413111231467396,0.3278719262151,0.282842712474619,0.3315116890850155,0.27999999999999975,0.34583232931581187,0.2821347195933176,0.282842712474619,0.31559467676119046,0.33030289129827456,0.31048349392520025,0.2821347195933176,0.2998332870112988,0.2643860813280456,0.2821347195933176,0.27999999999999975,0.31559467676119013,0.31622776601683794,0.262868788561898,0.3136877428271622,0.3136877428271622,0.29580398915498074,0.34409301068170484,0.31048349392520036,0.24166091947189114,0.262868788561898,0.26286878856189794,0.3155946767611901,0.2917190429162965,0.2598076211353318,0.33030289129827456,0.3155946767611901,0.27999999999999975,0.27999999999999986,0.2449489742783178,0.3136877428271623,0.33030289129827467,0.2643860813280457,0.2821347195933176,0.3303028912982746,0.2998332870112988,0.29983328701129874,0.3155946767611902,0.29171904291629613,0.2984962311319857,0.3693237062523878,0.282842712474619,0.31559467676119,0.2958039891549807,0.26286878856189805,0.2628687885618979,0.2643860813280455,0.33704599092705423,0.3136877428271623,0.35930488446443337,0.34583232931581187,0.31559467676119,0.2628687885618982,0.36041642581880184,0.29849623113198565,0.32787192621510003,0.2984962311319856,0.244131112314674,0.25980762113533173,0.24413111231467396,0.3458323293158118,0.29849623113198553,0.26438608132804553,0.3155946767611902,0.3241913015489463,0.31622776601683794,0.2643860813280457,0.33030289129827456,0.2764054992217047,0.3136877428271623,0.29849623113198565,0.31559467676119,0.2998332870112989,0.3303028912982745,0.282842712474619,0.3303028912982748
17,0.2958663560667605,0.034526791738833704,0.2998332870112989,0.31368774282716216,0.2233830790368867,0.2449489742783178,0.365513337649941,0.27999999999999975,0.33030289129827456,0.29849623113198576,0.3278719262150999,0.13999999999999987,0.2821347195933176,0.29983328701129885,0.27999999999999975,0.29983328701129897,0.3136877428271622,0.29849623113198553,0.2821347195933176,0.29580398915498096,0.2233830790368868,0.24413111231467396,0.3278719262151,0.282842712474619,0.3315116890850155,0.27999999999999975,0.34583232931581187,0.2821347195933176,0.2821347195933176,0.31559467676119046,0.33030289129827456,0.31048349392520025,0.2821347195933176,0.2998332870112988,0.2643860813280456,0.27999999999999975,0.27999999999999975,0.31559467676119013,0.31622776601683794,0.262868788561898,0.3136877428271622,0.3136877428271622,0.29580398915498074,0.34409301068170484,0.31048349392520036,0.24166091947189114,0.262868788561898,0.26286878856189794,0.3155946767611901,0.2917190429162965,0.2598076211353318,0.33030289129827456,0.3155946767611901,0.27999999999999975,0.27999999999999986,0.2449489742783178,0.3136877428271623,0.33030289129827467,0.2643860813280457,0.2821347195933176,0.3303028912982746,0.2998332870112988,0.29983328701129874,0.3155946767611902,0.29171904291629613,0.2984962311319857,0.3693237062523878,0.282842712474619,0.31559467676119,0.2764054992217047,0.26286878856189805,0.2628687885618979,0.2643860813280455,0.33704599092705423,0.3136877428271623,0.35930488446443337,0.34583232931581187,0.31559467676119,0.2628687885618982,0.36041642581880184,0.29849623113198565,0.3136877428271622,0.29849623113198553,0.244131112314674,0.25980762113533173,0.24413111231467396,0.33151168908501544,0.29849623113198553,0.26438608132804553,0.3155946767611902,0.3241913015489463,0.31622776601683794,0.2643860813280457,0.33030289129827456,0.2764054992217047,0.3136877428271623,0.2821347195933176,0.31559467676119,0.2998332870112989,0.3303028912982745,0.282842712474619,0.3303028912982748
18,0.2953999764463951,0.03415924348502339,0.2998332870112989,0.31368774282716216,0.2233830790368867,0.2449489742783178,0.365513337649941,0.27999999999999975,0.33030289129827456,0.29849623113198576,0.3278719262150999,0.13999999999999987,0.2821347195933176,0.29983328701129885,0.27999999999999975,0.29983328701129897,0.3136877428271622,0.29849623113198553,0.2821347195933176,0.29580398915498096,0.2233830790368868,0.24413111231467396,0.3278719262151,0.282842712474619,0.3315116890850155,0.27999999999999975,0.34583232931581187,0.2821347195933176,0.2821347195933176,0.31559467676119046,0.33030289129827456,0.31048349392520025,0.2821347195933176,0.2998332870112988,0.2643860813280456,0.27999999999999975,0.27999999999999975,0.31559467676119013,0.31622776601683794,0.262868788561898,0.3136877428271622,0.3136877428271622,0.29580398915498074,0.34409301068170484,0.31048349392520036,0.24166091947189114,0.262868788561898,0.26286878856189794,0.3155946767611901,0.2917190429162965,0.2598076211353318,0.33030289129827456,0.3155946767611901,0.27999999999999975,0.27999999999999986,0.2449489742783178,0.3136877428271623,0.33030289129827467,0.2643860813280457,0.2821347195933176,0.3303028912982746,0.2998332870112988,0.29983328701129874,0.3155946767611902,0.29171904291629613,0.2984962311319857,0.3693237062523878,0.282842712474619,0.31559467676119,0.2764054992217047,0.26286878856189805,0.2628687885618979,0.2643860813280455,0.33704599092705423,0.3136877428271623,0.35930488446443337,0.33030289129827456,0.31559467676119,0.2628687885618982,0.36041642581880184,0.29849623113198565,0.29849623113198576,0.29849623113198553,0.244131112314674,0.25980762113533173,0.24413111231467396,0.3155946767611902,0.29849623113198553,0.26438608132804553,0.3155946767611902,0.3241913015489463,0.31622776601683794,0.2643860813280457,0.33030289129827456,0.2764054992217047,0.3136877428271623,0.2821347195933176,0.31559467676119,0.2998332870112989,0.3303028912982745,0.282842712474619,0.3303028912982748
19,0.2943484097972514,0.03436587915111811,0.2998332870112989,0.31368774282716216,0.2233830790368867,0.2449489742783178,0.365513337649941,0.27999999999999975,0.33030289129827456,0.29849623113198576,0.3278719262150999,0.13999999999999987,0.2821347195933176,0.29983328701129885,0.27999999999999975,0.2998332870112989,0.3136877428271622,0.29849623113198553,0.2821347195933176,0.29580398915498096,0.22338307903688676,0.24413111231467396,0.3278719262151,0.2643860813280457,0.3315116890850155,0.27999999999999975,0.34583232931581187,0.2821347195933176,0.2821347195933176,0.31559467676119046,0.33030289129827456,0.31048349392520025,0.2821347195933176,0.2998332870112988,0.2643860813280456,0.27999999999999975,0.27999999999999975,0.31559467676119013,0.31622776601683794,0.262868788561898,0.3136877428271622,0.3136877428271622,0.29580398915498074,0.34409301068170484,0.31048349392520036,0.24166091947189114,0.262868788561898,0.26286878856189794,0.298496231131986,0.2917190429162965,0.2598076211353318,0.33030289129827456,0.3155946767611901,0.27999999999999975,0.27999999999999986,0.2449489742783178,0.3136877428271623,0.33030289129827467,0.2643860813280457,0.2821347195933176,0.3155946767611901,0.2998332870112988,0.29983328701129874,0.3155946767611902,0.29171904291629613,0.2984962311319857,0.3693237062523878,0.282842712474619,0.31559467676119,0.2764054992217047,0.26286878856189805,0.2628687885618979,0.2643860813280455,0.33704599092705423,0.3136877428271623,0.35930488446443337,0.33030289129827445,0.31559467676119,0.2628687885618982,0.36041642581880184,0.29849623113198565,0.2628687885618982,0.29849623113198553,0.244131112314674,0.25980762113533173,0.24413111231467396,0.31559467676119013,0.29849623113198553,0.26438608132804553,0.3155946767611902,0.3241913015489463,0.31622776601683794,0.2643860813280457,0.33030289129827456,0.2764054992217047,0.3136877428271623,0.26286878856189827,0.31559467676119,0.2998332870112989,0.3303028912982745,0.282842712474619,0.3303028912982748
