Iteration,Mean,Stdev,Run-0,Run-1,Run-2,Run-3,Run-4,Run-5,Run-6,Run-7,Run-8,Run-9,Run-10,Run-11,Run-12,Run-13,Run-14,Run-15,Run-16,Run-17,Run-18,Run-19,Run-20,Run-21,Run-22,Run-23,Run-24,Run-25,Run-26,Run-27,Run-28,Run-29,Run-30,Run-31,Run-32,Run-33,Run-34,Run-35,Run-36,Run-37,Run-38,Run-39,Run-40,Run-41,Run-42,Run-43,Run-44,Run-45,Run-46,Run-47,Run-48,Run-49,Run-50,Run-51,Run-52,Run-53,Run-54,Run-55,Run-56,Run-57,Run-58,Run-59,Run-60,Run-61,Run-62,Run-63,Run-64,Run-65,Run-66,Run-67,Run-68,Run-69,Run-70,Run-71,Run-72,Run-73,Run-74,Run-75,Run-76,Run-77,Run-78,Run-79,Run-80,Run-81,Run-82,Run-83,Run-84,Run-85,Run-86,Run-87,Run-88,Run-89,Run-90,Run-91,Run-92,Run-93,Run-94,Run-95,Run-96,Run-97,Run-98,Run-99
0,1.0100045604691088,0.07651005052672534,1.182328211623152,1.0089103032480151,1.0442221985765283,0.9404254356406989,0.9017205775626951,0.8888194417315591,0.8968834929911462,1.0656453443805776,1.1694015563526505,1.023474474522936,1.1104503590886001,0.9329523031752475,0.9785703858180064,1.094486180817283,1.0051865498503243,0.9541488353501242,0.955562661472287,0.9718024490605064,0.9061456836513653,0.9297311439335562,1.0648474069086151,0.931396800509858,1.0219589032832965,1.0346013725102046,1.1092339699089628,1.0051865498503243,1.0428326807307107,1.1934822998268548,1.0248902380255156,1.0523782589924595,0.8792610533851709,0.9436100889668355,0.9701030873056734,0.9327379053088813,0.9987992791347026,0.9965440281292147,1.0219589032832967,0.9386692708297206,0.9386692708297202,1.026206606877972,1.1651609330903614,0.955562661472287,1.0219589032832965,1.1802965729002182,0.9989494481704276,0.9850888284819794,0.9002221947941519,0.9836157786453001,0.9787236586493668,0.9420721840708388,1.1126095451684757,0.9820386957752727,1.0770329614269005,0.9820386957752725,1.0537551897855586,0.9965440281292146,1.0128672173587219,1.0219589032832965,1.0910545357588677,1.0712142642814275,1.0316976301223135,0.9701030873056735,0.9836157786453001,1.0665833300778715,0.9803570778037966,1.2126005112979308,1.0523782589924595,1.045896744425568,0.9951884243699775,1.0455142275454703,1.0790736768172962,0.9748846085563143,1.0562196741208714,0.9977975746613136,0.9386692708297207,0.938669270829721,1.0554146104730606,0.9079647570252931,0.9672641831474997,1.0248902380255156,0.863655023721856,1.0632027088001603,0.9042123644365859,0.9877246579892595,0.8627861844049194,0.9221713506718798,1.002197585309403,1.090871211463571,1.12942463227964,1.026206606877972,0.9850888284819795,0.8662563131083081,1.0136567466356645,0.9951884243699777,1.0428326807307107,1.0005498488331297,1.1115754585272202,1.0830974102083344,1.1521718621802914,0.9718024490605066
1,0.7210233133338665,0.05467523780517852,0.8529361054615986,0.7251896303726356,0.7573638491504595,0.7218725649309575,0.6884039511798286,0.7,0.7213875518748571,0.7323933369440222,0.8411896337925235,0.7706490770772387,0.8158431221748454,0.6689544080129827,0.6855654600401044,0.6770524351924313,0.7533923280734952,0.7123903424387504,0.659090282131363,0.640312423743285,0.7112664760833312,0.6606057825965499,0.7208328516376037,0.6523802572120037,0.7704544113703291,0.7485986908885159,0.7830070242341381,0.6770524351924304,0.761839878189636,0.677052435192431,0.7112664760833309,0.6584831053261729,0.6611353870426241,0.726360791893396,0.6928203230275509,0.6383572667401853,0.7000000000000002,0.693613725354393,0.6766830868286864,0.6913031173081742,0.7073895673530958,0.7383088784512885,0.8602325267042626,0.6118823416311341,0.6785278181474947,0.8246211251235321,0.7262919523166973,0.7022107945624306,0.6636264009214821,0.7123903424387504,0.6982120021884469,0.7078841713161832,0.813080561814141,0.7273926037567333,0.7310266752998819,0.683739716558867,0.7681145747868608,0.7022107945624306,0.6823488843692794,0.7123903424387502,0.7794870107962037,0.7027801932325637,0.761839878189636,0.734574706888278,0.7351190379795639,0.7701298591796063,0.6689544080129826,0.8248636250920507,0.7472616676907767,0.7301369734508726,0.6837397165588672,0.7123903424387503,0.7748548251124207,0.6690291473471099,0.7578918128598559,0.7306846104852623,0.6731270311018569,0.6581033353509159,0.7758221445666522,0.7263607918933959,0.7022107945624305,0.8046738469715538,0.6108191221630181,0.7675285010994708,0.6280127387243031,0.6982120021884468,0.7022107945624306,0.6118823416311342,0.7794228634059946,0.7989993742175279,0.783007024234138,0.7704544113703291,0.6550572494064929,0.702780193232564,0.7388504584826349,0.7249827584156745,0.761839878189636,0.6785278181474949,0.8377947242612592,0.7838367176906162,0.7166589146867568,0.6384355879804955
2,0.5382467125281921,0.04542550442861029,0.6707458535093604,0.5458021619598078,0.5908468498688982,0.5385164807134507,0.49749371855331015,0.4950757517794622,0.5,0.5894913061275798,0.5559676249567058,0.5653317610041025,0.5982474404458409,0.5230678732248805,0.5276362383309169,0.5559676249567059,0.5706137047074837,0.4862098312457284,0.4302324952859788,0.4882622246293481,0.5638262143604181,0.5480875842417889,0.5473572873361602,0.5361902647381805,0.5827520913733385,0.5276362383309168,0.5653317610041025,0.5276362383309168,0.5148786264742398,0.5473572873361602,0.5673623181001709,0.49909918853871144,0.5425863986500219,0.5444263035526477,0.49989998999799934,0.5083306010855534,0.5624944444170092,0.5271622141238882,0.4121892769104988,0.5559676249567057,0.5701754116059369,0.48948953002081685,0.6701492371106605,0.49507575177946206,0.5291502622129182,0.5982474404458407,0.46733285782191686,0.5339475629684992,0.5195190083144213,0.5744562646538031,0.5148786264742398,0.5309425580983309,0.598247440445841,0.5230678732248802,0.5148786264742395,0.5276362383309168,0.5291502622129182,0.5523585791856587,0.46861498055439904,0.5099019513592785,0.6151422599691881,0.46679760067935244,0.5444263035526478,0.5559676249567059,0.5874521257089802,0.5523585791856586,0.5035871324805664,0.4786439177509728,0.565685424949238,0.47958315233127213,0.5000000000000003,0.5385164807134505,0.5148786264742397,0.4555216789572152,0.4990991885387114,0.4950757517794621,0.5722761571129802,0.5361902647381804,0.5653317610041024,0.5827520913733384,0.511761663276959,0.5969924622639717,0.5148786264742395,0.5915234568468102,0.4862098312457284,0.530942558098331,0.5782732917920387,0.49749371855331015,0.6468384651518494,0.5376802023508028,0.5874521257089801,0.554526825320471,0.45727453460694695,0.5523585791856587,0.5660388679233962,0.5418486873657622,0.5545268253204712,0.5361902647381807,0.6161168720299742,0.5523585791856587,0.5817215828899598,0.49507575177946217
3,0.4300921650320676,0.0384412483932136,0.49749371855331,0.4710626285325548,0.46216880033165325,0.3693237062523878,0.39547439866570394,0.42,0.36932370625238775,0.47947888378947395,0.39949968710876393,0.476969600708473,0.4769696007084729,0.45727453460694706,0.4472135954999579,0.47444704657105785,0.37363083384538837,0.38716921365211854,0.3536947836765476,0.4223742416388574,0.47696960070847283,0.4673328578219168,0.3871692136521186,0.43485629810317794,0.4467661580737736,0.43577517139001837,0.4121892769104988,0.43485629810317805,0.3840572873934302,0.47444704657105785,0.4454211490264017,0.4063249930782004,0.43588989435406744,0.43485629810317805,0.41121770389904155,0.40926763859362225,0.46733285782191686,0.43588989435406733,0.2998332870112991,0.4199999999999999,0.4166533331199928,0.41121770389904166,0.49989998999799934,0.40926763859362225,0.4121892769104988,0.4431703961232065,0.3861346915261562,0.42000000000000004,0.4555216789572152,0.476969600708473,0.4431703961232067,0.4454211490264016,0.4862098312457287,0.3994996871087639,0.42379240200834195,0.4330127018922194,0.40632499307820064,0.45814844755821216,0.3871692136521186,0.4112177038990416,0.4431703961232067,0.4166533331199928,0.4467661580737739,0.46861498055439904,0.4431703961232068,0.42379240200834223,0.4454211490264016,0.3736308338453885,0.4472135954999579,0.36932370625238775,0.40926763859362236,0.42379240200834206,0.4454211490264016,0.3840572873934304,0.4,0.3736308338453886,0.47864391775097326,0.4121892769104988,0.4472135954999579,0.4092676385936226,0.3994996871087638,0.46861498055439926,0.4302324952859788,0.43301270189221963,0.3979949748426478,0.4357751713900183,0.4358898943540675,0.41218927691049884,0.554526825320471,0.4,0.43485629810317794,0.4467661580737736,0.3604164258188018,0.48948953002081647,0.479583152331272,0.4199999999999999,0.45727453460694706,0.3840572873934302,0.47696960070847333,0.4572745346069471,0.4833218389437825,0.41121770389904155
4,0.36790573302582513,0.03544533265086071,0.42237424163885734,0.4092676385936226,0.40632499307820036,0.3278719262151001,0.3570714214271423,0.3840572873934302,0.3440930106817049,0.3954743986657038,0.2998332870112988,0.42237424163885734,0.38613469152615626,0.39799497484264784,0.29983328701129897,0.38613469152615615,0.34583232931581187,0.3303028912982745,0.3136877428271622,0.3720215047547653,0.4112177038990417,0.40926763859362236,0.3155946767611901,0.3979949748426478,0.36041642581880184,0.3570714214271425,0.36041642581880184,0.3720215047547653,0.34409301068170484,0.42237424163885734,0.3693237062523879,0.3570714214271424,0.3570714214271425,0.4,0.33151168908501544,0.34583232931581176,0.4199999999999998,0.40632499307820064,0.2643860813280458,0.34409301068170484,0.38091993909481786,0.38613469152615615,0.3871692136521186,0.37363083384538864,0.33151168908501527,0.35930488446443337,0.31559467676119024,0.3954743986657038,0.3720215047547653,0.42,0.39799497484264784,0.3861346915261562,0.37363083384538837,0.36041642581880184,0.37363083384538837,0.3871692136521186,0.34117444218463977,0.3604164258188018,0.3593048844644334,0.35930488446443326,0.36041642581880173,0.38091993909481797,0.3871692136521186,0.3871692136521186,0.3720215047547653,0.3604164258188018,0.43023249528597884,0.2998332870112988,0.3871692136521186,0.32787192621510003,0.35930488446443326,0.3593048844644333,0.3840572873934303,0.31368774282716216,0.34583232931581187,0.3458323293158119,0.3954743986657038,0.35930488446443337,0.37416573867739417,0.35707142142714254,0.3136877428271622,0.4112177038990415,0.3720215047547653,0.38405728739343015,0.35930488446443326,0.35930488446443326,0.38405728739343026,0.3315116890850154,0.46861498055439943,0.36041642581880184,0.33151168908501544,0.41218927691049884,0.2821347195933176,0.42379240200834195,0.41231056256176596,0.3278719262151,0.3871692136521186,0.34409301068170484,0.37363083384538853,0.34641016151377546,0.4199999999999999,0.3303028912982746
5,0.3363026255509615,0.030521206521526196,0.38405728739343026,0.3840572873934301,0.3720215047547653,0.3278719262150999,0.3136877428271623,0.34409301068170484,0.34409301068170484,0.35930488446443326,0.29983328701129874,0.36041642581880184,0.3155946767611902,0.3593048844644334,0.26286878856189794,0.3440930106817049,0.3315116890850154,0.2821347195933176,0.3136877428271622,0.33030289129827467,0.36041642581880184,0.3720215047547653,0.3155946767611901,0.34641016151377546,0.29983328701129885,0.32787192621510014,0.3155946767611903,0.34409301068170484,0.3303028912982747,0.3954743986657038,0.3411744421846398,0.33030289129827456,0.3411744421846396,0.3736308338453883,0.33151168908501527,0.33151168908501527,0.3979949748426478,0.34409301068170495,0.2449489742783178,0.33030289129827456,0.3693237062523877,0.3593048844644332,0.31622776601683794,0.31622776601683794,0.29983328701129874,0.31559467676119013,0.2821347195933176,0.3720215047547653,0.35930488446443326,0.3720215047547653,0.34583232931581215,0.3440930106817049,0.3315116890850154,0.345832329315812,0.3315116890850156,0.3315116890850156,0.29849623113198587,0.3315116890850153,0.34583232931581176,0.3458323293158119,0.34583232931581204,0.365513337649941,0.3720215047547653,0.36041642581880184,0.3440930106817049,0.3458323293158118,0.38405728739343015,0.27999999999999975,0.36041642581880184,0.3136877428271623,0.3315116890850153,0.34583232931581204,0.3458323293158118,0.31368774282716216,0.34583232931581187,0.2821347195933176,0.3570714214271424,0.34583232931581176,0.35930488446443337,0.3411744421846396,0.29849623113198576,0.34583232931581187,0.3303028912982746,0.37202150475476525,0.34409301068170484,0.33030289129827484,0.32787192621510003,0.31622776601683794,0.36041642581880196,0.299833287011299,0.2998332870112989,0.37363083384538825,0.26438608132804564,0.34409301068170484,0.380919939094818,0.27999999999999975,0.36041642581880184,0.29983328701129885,0.34583232931581187,0.3315116890850154,0.3871692136521187,0.27999999999999975
6,0.319234685525645,0.029600938453745847,0.34583232931581187,0.3536947836765477,0.3570714214271425,0.3278719262150999,0.2984962311319857,0.32787192621510003,0.31559467676119,0.33030289129827484,0.29983328701129874,0.299833287011299,0.2984962311319858,0.35930488446443326,0.26286878856189794,0.34409301068170484,0.31559467676119013,0.2821347195933176,0.3136877428271622,0.33030289129827456,0.31622776601683794,0.3411744421846397,0.3155946767611901,0.3303028912982746,0.282842712474619,0.29849623113198565,0.2984962311319858,0.31048349392520025,0.31559467676119013,0.3736308338453885,0.31368774282716233,0.2799999999999998,0.31368774282716233,0.3593048844644334,0.33151168908501527,0.282842712474619,0.3736308338453885,0.34409301068170484,0.2449489742783178,0.2998332870112988,0.3693237062523877,0.3458323293158123,0.26438608132804553,0.31622776601683794,0.29983328701129874,0.31559467676119013,0.2821347195933176,0.365513337649941,0.35930488446443326,0.3278719262151002,0.3155946767611901,0.34409301068170484,0.29983328701129897,0.345832329315812,0.31622776601683794,0.29983328701129897,0.27999999999999975,0.29983328701129885,0.3315116890850153,0.3458323293158119,0.34583232931581187,0.3411744421846396,0.34409301068170484,0.3315116890850155,0.3440930106817049,0.32787192621510003,0.34409301068170495,0.24413111231467396,0.35930488446443326,0.3136877428271623,0.3155946767611904,0.33030289129827445,0.31559467676118996,0.27999999999999975,0.33030289129827467,0.2821347195933176,0.3570714214271423,0.3458323293158117,0.35930488446443337,0.32787192621510014,0.2821347195933176,0.3136877428271623,0.3155946767611903,0.3570714214271422,0.34409301068170484,0.31559467676119013,0.3059411708155671,0.29983328701129897,0.29983328701129897,0.2821347195933176,0.2821347195933176,0.3315116890850154,0.26438608132804564,0.3303028912982746,0.35369478367654783,0.2628687885618983,0.36041642581880173,0.2821347195933176,0.33151168908501527,0.3155946767611901,0.3593048844644333,0.27999999999999975
7,0.3102524604303637,0.029906701538376875,0.3155946767611902,0.3241913015489464,0.34409301068170484,0.3278719262150999,0.2984962311319857,0.32787192621510003,0.28213471959331765,0.31559467676119,0.29983328701129874,0.29983328701129874,0.2984962311319858,0.299833287011299,0.26286878856189794,0.34409301068170484,0.31559467676119013,0.2821347195933176,0.3136877428271622,0.33030289129827456,0.31622776601683794,0.32787192621510003,0.3155946767611901,0.33030289129827456,0.2643860813280456,0.29849623113198565,0.29849623113198576,0.31048349392520025,0.31559467676119013,0.34641016151377546,0.31368774282716216,0.27999999999999975,0.2984962311319859,0.3458323293158118,0.33151168908501527,0.282842712474619,0.36041642581880173,0.34409301068170484,0.2449489742783178,0.2998332870112988,0.3693237062523877,0.34583232931581226,0.2449489742783178,0.2998332870112987,0.29983328701129874,0.31559467676119013,0.2821347195933176,0.32787192621510014,0.35930488446443326,0.26286878856189827,0.2998332870112988,0.3155946767611902,0.29983328701129897,0.345832329315812,0.26286878856189827,0.29983328701129897,0.2628687885618978,0.29849623113198565,0.29983328701129885,0.3458323293158119,0.3315116890850153,0.3411744421846395,0.33030289129827467,0.3315116890850153,0.3440930106817049,0.3136877428271623,0.34409301068170484,0.24413111231467396,0.35930488446443326,0.3136877428271623,0.2821347195933176,0.29983328701129874,0.2998332870112988,0.27999999999999975,0.3303028912982746,0.2821347195933176,0.3570714214271423,0.3458323293158117,0.35930488446443337,0.32787192621510014,0.2821347195933176,0.29849623113198587,0.26286878856189816,0.3440930106817049,0.34409301068170484,0.31559467676119013,0.2764054992217049,0.29983328701129885,0.29983328701129874,0.2821347195933176,0.2643860813280455,0.32787192621509986,0.26438608132804564,0.2984962311319857,0.3536947836765478,0.2628687885618983,0.36041642581880173,0.2821347195933176,0.29983328701129885,0.31559467676119,0.3458323293158119,0.27999999999999975
8,0.307124982153349,0.029937356885753386,0.3155946767611902,0.3241913015489464,0.3303028912982746,0.3278719262150999,0.29580398915498096,0.32787192621510003,0.2821347195933176,0.282842712474619,0.29983328701129874,0.29983328701129874,0.2984962311319858,0.299833287011299,0.26286878856189794,0.34409301068170484,0.31559467676119013,0.2821347195933176,0.3136877428271622,0.33030289129827456,0.31622776601683794,0.32787192621510003,0.3155946767611901,0.33030289129827456,0.2643860813280456,0.29849623113198565,0.29849623113198576,0.31048349392520025,0.31559467676119013,0.3315116890850153,0.29849623113198587,0.27999999999999975,0.29849623113198576,0.3458323293158118,0.33151168908501527,0.282842712474619,0.3458323293158119,0.34409301068170484,0.2449489742783178,0.2998332870112988,0.3693237062523877,0.34583232931581215,0.2449489742783178,0.2998332870112987,0.29983328701129874,0.31559467676119013,0.2821347195933176,0.32787192621510014,0.35930488446443326,0.2628687885618981,0.282842712474619,0.31559467676119013,0.29983328701129897,0.345832329315812,0.244131112314674,0.29983328701129897,0.2628687885618978,0.2643860813280456,0.2998332870112988,0.3458323293158119,0.29849623113198565,0.32419130154894654,0.3136877428271622,0.3155946767611904,0.3440930106817049,0.31368774282716216,0.34409301068170484,0.24413111231467396,0.35930488446443326,0.3136877428271623,0.2821347195933176,0.2998332870112987,0.2998332870112988,0.27999999999999975,0.3303028912982746,0.2821347195933176,0.3570714214271423,0.3458323293158117,0.35930488446443326,0.32787192621510014,0.2821347195933176,0.29849623113198587,0.2628687885618978,0.34409301068170484,0.34409301068170484,0.31559467676119013,0.2764054992217049,0.2821347195933176,0.29983328701129874,0.2821347195933176,0.2643860813280454,0.32787192621509986,0.26438608132804564,0.2821347195933176,0.33704599092705434,0.2628687885618983,0.36041642581880173,0.2821347195933176,0.29983328701129874,0.2998332870112989,0.3458323293158119,0.27999999999999975
9,0.30421995429824644,0.030744420742188715,0.3155946767611902,0.3241913015489464,0.2799999999999999,0.3278719262150999,0.29580398915498096,0.32787192621510003,0.26438608132804564,0.282842712474619,0.29983328701129874,0.29983328701129874,0.2984962311319858,0.2998332870112988,0.26286878856189794,0.34409301068170484,0.31559467676119013,0.2821347195933176,0.2984962311319856,0.33030289129827456,0.31622776601683794,0.32787192621510003,0.3155946767611901,0.33030289129827456,0.2643860813280456,0.29849623113198565,0.29849623113198576,0.31048349392520025,0.31559467676119013,0.2998332870112989,0.29849623113198587,0.27999999999999975,0.2799999999999998,0.3458323293158118,0.33151168908501527,0.282842712474619,0.33151168908501544,0.34409301068170484,0.2416609194718914,0.2998332870112988,0.3693237062523877,0.34583232931581204,0.2449489742783178,0.2998332870112987,0.29983328701129874,0.31559467676119013,0.2821347195933176,0.32787192621510014,0.35930488446443326,0.2628687885618981,0.2449489742783178,0.31559467676119,0.29983328701129897,0.345832329315812,0.244131112314674,0.29983328701129885,0.2628687885618978,0.2643860813280456,0.2821347195933176,0.3458323293158119,0.29849623113198565,0.32419130154894643,0.29580398915498096,0.3155946767611902,0.3440930106817049,0.31368774282716216,0.34409301068170484,0.24413111231467396,0.35930488446443326,0.3136877428271623,0.2821347195933176,0.282842712474619,0.2998332870112988,0.27999999999999975,0.3303028912982746,0.2821347195933176,0.3570714214271423,0.3315116890850155,0.35930488446443326,0.32787192621510014,0.2821347195933176,0.29849623113198587,0.2628687885618978,0.34409301068170484,0.34409301068170484,0.31559467676119013,0.2764054992217049,0.2821347195933176,0.29983328701129874,0.2821347195933176,0.2643860813280454,0.32787192621509986,0.26438608132804564,0.2821347195933176,0.33704599092705423,0.2628687885618983,0.36041642581880173,0.2821347195933176,0.2821347195933176,0.282842712474619,0.3458323293158119,0.27999999999999975
10,0.30233095168553537,0.031400567716498205,0.3155946767611902,0.3241913015489464,0.2799999999999999,0.3278719262150999,0.29580398915498096,0.3278719262150999,0.26438608132804564,0.282842712474619,0.29983328701129874,0.29983328701129874,0.2984962311319858,0.2998332870112988,0.26286878856189794,0.34409301068170484,0.31559467676119013,0.2643860813280456,0.26286878856189805,0.33030289129827456,0.31622776601683794,0.32787192621510003,0.3155946767611901,0.33030289129827456,0.2643860813280456,0.29849623113198565,0.29849623113198576,0.31048349392520025,0.31559467676119013,0.29983328701129874,0.29849623113198587,0.27999999999999975,0.2799999999999998,0.3458323293158118,0.33151168908501527,0.282842712474619,0.31559467676119035,0.3278719262151,0.2416609194718914,0.2998332870112988,0.3693237062523877,0.3315116890850153,0.2449489742783178,0.2998332870112987,0.29983328701129874,0.31559467676119013,0.2821347195933176,0.32787192621510014,0.35930488446443326,0.2628687885618981,0.2449489742783178,0.31559467676119,0.29983328701129897,0.345832329315812,0.244131112314674,0.29983328701129885,0.2628687885618978,0.2643860813280456,0.2821347195933176,0.3458323293158118,0.29849623113198565,0.32419130154894643,0.27999999999999986,0.3155946767611902,0.3440930106817049,0.31368774282716216,0.34409301068170484,0.24413111231467396,0.35930488446443326,0.3136877428271623,0.2821347195933176,0.282842712474619,0.2998332870112988,0.27999999999999975,0.3303028912982746,0.2821347195933176,0.3570714214271423,0.31622776601683794,0.35930488446443326,0.32787192621510014,0.2821347195933176,0.29849623113198587,0.2628687885618978,0.34409301068170484,0.34409301068170484,0.31559467676119013,0.2764054992217049,0.2821347195933176,0.29983328701129874,0.2821347195933176,0.2643860813280454,0.32787192621509986,0.26438608132804564,0.2821347195933176,0.33704599092705423,0.2628687885618983,0.36041642581880173,0.2821347195933176,0.2628687885618979,0.24413111231467396,0.3458323293158119,0.27999999999999975
11,0.3010041158558136,0.03169419880451009,0.3155946767611902,0.3241913015489464,0.2799999999999999,0.3278719262150999,0.29580398915498096,0.3278719262150998,0.26438608132804564,0.282842712474619,0.29983328701129874,0.29983328701129874,0.2984962311319858,0.2998332870112988,0.26286878856189794,0.34409301068170484,0.31559467676119013,0.2643860813280456,0.26286878856189805,0.33030289129827456,0.31622776601683794,0.32787192621510003,0.3155946767611901,0.33030289129827456,0.2643860813280456,0.29849623113198565,0.29849623113198576,0.31048349392520025,0.31559467676119013,0.282842712474619,0.29849623113198587,0.27999999999999975,0.2799999999999998,0.3458323293158118,0.33151168908501527,0.282842712474619,0.2643860813280456,0.32787192621509986,0.2416609194718914,0.2998332870112988,0.3693237062523877,0.31622776601683794,0.2449489742783178,0.2998332870112987,0.29983328701129874,0.31559467676119013,0.2821347195933176,0.32787192621510014,0.35930488446443326,0.2628687885618981,0.2449489742783178,0.31559467676119,0.29983328701129897,0.345832329315812,0.244131112314674,0.29983328701129885,0.2628687885618978,0.2643860813280456,0.2821347195933176,0.33151168908501527,0.29849623113198565,0.32419130154894643,0.26286878856189805,0.3155946767611902,0.3440930106817049,0.31368774282716216,0.34409301068170484,0.24413111231467396,0.35930488446443326,0.3136877428271623,0.2821347195933176,0.282842712474619,0.2998332870112988,0.27999999999999975,0.3303028912982746,0.2821347195933176,0.3570714214271423,0.31622776601683794,0.35930488446443326,0.32787192621510014,0.26438608132804575,0.29849623113198587,0.2628687885618978,0.34409301068170484,0.34409301068170484,0.31559467676119013,0.2764054992217049,0.2821347195933176,0.29983328701129874,0.2821347195933176,0.2643860813280454,0.32787192621509986,0.26438608132804564,0.2821347195933176,0.33704599092705423,0.2628687885618983,0.36041642581880173,0.2821347195933176,0.2628687885618979,0.24413111231467396,0.3458323293158119,0.27999999999999975
12,0.300529993967579,0.03147574821742604,0.31559467676119013,0.3241913015489464,0.2799999999999998,0.3278719262150999,0.29580398915498096,0.3278719262150998,0.26438608132804564,0.282842712474619,0.29983328701129874,0.29983328701129874,0.2984962311319858,0.2998332870112988,0.26286878856189794,0.34409301068170484,0.31559467676119013,0.2643860813280456,0.26286878856189805,0.33030289129827456,0.31622776601683794,0.32787192621510003,0.3155946767611901,0.33030289129827456,0.2643860813280456,0.29849623113198565,0.29849623113198576,0.31048349392520025,0.31559467676119013,0.282842712474619,0.29849623113198587,0.27999999999999975,0.2799999999999998,0.33030289129827456,0.33151168908501527,0.282842712474619,0.2643860813280456,0.3136877428271623,0.2416609194718914,0.2821347195933176,0.3693237062523877,0.31622776601683794,0.2449489742783178,0.2998332870112987,0.29983328701129874,0.31559467676119013,0.2821347195933176,0.32787192621510014,0.35930488446443326,0.2628687885618981,0.2449489742783178,0.31559467676119,0.29983328701129897,0.345832329315812,0.244131112314674,0.29983328701129885,0.2628687885618978,0.2643860813280456,0.2821347195933176,0.33151168908501527,0.29849623113198565,0.32419130154894643,0.26286878856189805,0.3155946767611902,0.3440930106817049,0.31368774282716216,0.34409301068170484,0.24413111231467396,0.35930488446443326,0.3136877428271623,0.2821347195933176,0.282842712474619,0.2998332870112988,0.27999999999999975,0.3303028912982746,0.2821347195933176,0.3570714214271423,0.31622776601683794,0.35930488446443326,0.32787192621510014,0.26438608132804553,0.29849623113198587,0.2628687885618978,0.34409301068170484,0.34409301068170484,0.31559467676119013,0.2764054992217049,0.2821347195933176,0.29983328701129874,0.2821347195933176,0.2643860813280454,0.32787192621509986,0.26438608132804564,0.2821347195933176,0.33704599092705423,0.2628687885618983,0.36041642581880173,0.2821347195933176,0.2628687885618979,0.24413111231467396,0.3458323293158119,0.27999999999999975
13,0.29952453354751013,0.031686808030257,0.31559467676119,0.3241913015489464,0.2799999999999998,0.3278719262150999,0.29580398915498096,0.3278719262150998,0.26438608132804564,0.282842712474619,0.29983328701129874,0.29983328701129874,0.2821347195933176,0.2998332870112988,0.26286878856189794,0.34409301068170484,0.31559467676119013,0.2643860813280456,0.26286878856189805,0.33030289129827456,0.31622776601683794,0.32787192621510003,0.3155946767611901,0.33030289129827456,0.2643860813280456,0.29849623113198565,0.29849623113198576,0.31048349392520025,0.31559467676119013,0.282842712474619,0.29849623113198587,0.27999999999999975,0.2799999999999998,0.2821347195933176,0.33151168908501527,0.282842712474619,0.2643860813280456,0.3136877428271622,0.2416609194718914,0.2821347195933176,0.3693237062523877,0.31622776601683794,0.2449489742783178,0.2998332870112987,0.29983328701129874,0.31559467676119013,0.2821347195933176,0.32787192621510014,0.35930488446443326,0.2628687885618981,0.2449489742783178,0.31559467676119,0.29983328701129897,0.345832329315812,0.244131112314674,0.29983328701129885,0.2628687885618978,0.2643860813280456,0.2821347195933176,0.33151168908501527,0.29849623113198565,0.32419130154894643,0.26286878856189805,0.2998332870112988,0.3440930106817049,0.31368774282716216,0.34409301068170484,0.24413111231467396,0.35930488446443326,0.3136877428271623,0.2821347195933176,0.282842712474619,0.2998332870112988,0.27999999999999975,0.3303028912982746,0.2821347195933176,0.3570714214271423,0.31622776601683794,0.35930488446443326,0.32787192621510014,0.244131112314674,0.29849623113198587,0.2628687885618978,0.34409301068170484,0.34409301068170484,0.31559467676119013,0.2764054992217049,0.2821347195933176,0.29983328701129874,0.2821347195933176,0.2643860813280454,0.32787192621509986,0.26438608132804564,0.2821347195933176,0.33704599092705423,0.2628687885618983,0.36041642581880173,0.2821347195933176,0.2628687885618979,0.24413111231467396,0.3458323293158119,0.27999999999999975
14,0.29883656720826585,0.031807327759173436,0.298496231131986,0.3241913015489464,0.2799999999999998,0.3278719262150999,0.29580398915498096,0.3278719262150998,0.26438608132804564,0.282842712474619,0.29983328701129874,0.29983328701129874,0.2821347195933176,0.2998332870112988,0.26286878856189794,0.34409301068170484,0.31559467676119013,0.2643860813280456,0.244131112314674,0.33030289129827456,0.31622776601683794,0.32787192621510003,0.3155946767611901,0.33030289129827456,0.2643860813280456,0.29849623113198565,0.29849623113198576,0.31048349392520025,0.31559467676119013,0.282842712474619,0.29849623113198587,0.27999999999999975,0.2799999999999998,0.2821347195933176,0.33151168908501527,0.282842712474619,0.2643860813280456,0.3136877428271622,0.2416609194718914,0.2821347195933176,0.3693237062523877,0.31622776601683794,0.2449489742783178,0.2998332870112987,0.29983328701129874,0.31559467676119013,0.2821347195933176,0.32787192621510014,0.35930488446443326,0.2628687885618981,0.2449489742783178,0.31559467676119,0.29983328701129897,0.345832329315812,0.244131112314674,0.29983328701129885,0.2628687885618978,0.2643860813280456,0.2821347195933176,0.33151168908501527,0.29849623113198565,0.32419130154894643,0.26286878856189805,0.2998332870112988,0.3440930106817049,0.31368774282716216,0.34409301068170484,0.24413111231467396,0.34409301068170484,0.3136877428271623,0.2821347195933176,0.282842712474619,0.2998332870112988,0.27999999999999975,0.3303028912982746,0.2821347195933176,0.3570714214271423,0.31622776601683794,0.35930488446443326,0.32787192621510014,0.244131112314674,0.29849623113198587,0.2628687885618978,0.34409301068170484,0.34409301068170484,0.31559467676119013,0.2764054992217049,0.2821347195933176,0.29983328701129874,0.2643860813280457,0.2643860813280454,0.32787192621509986,0.26438608132804564,0.2821347195933176,0.33704599092705423,0.2628687885618983,0.36041642581880173,0.2821347195933176,0.2628687885618979,0.24413111231467396,0.3458323293158119,0.27999999999999975
15,0.29849007739994127,0.031822534370740466,0.29849623113198565,0.3241913015489464,0.2799999999999998,0.3278719262150999,0.29580398915498096,0.3278719262150998,0.26438608132804564,0.282842712474619,0.29983328701129874,0.29983328701129874,0.2821347195933176,0.2998332870112988,0.26286878856189794,0.34409301068170484,0.31559467676119013,0.2643860813280456,0.244131112314674,0.33030289129827456,0.31622776601683794,0.32787192621510003,0.3155946767611901,0.33030289129827456,0.2643860813280456,0.29849623113198565,0.29849623113198576,0.31048349392520025,0.31559467676119013,0.282842712474619,0.29849623113198587,0.27999999999999975,0.2799999999999998,0.2821347195933176,0.33151168908501527,0.282842712474619,0.2643860813280456,0.3136877428271622,0.2416609194718914,0.2821347195933176,0.3693237062523877,0.31622776601683794,0.2449489742783178,0.2998332870112987,0.29983328701129874,0.31559467676119013,0.2821347195933176,0.32787192621510014,0.34409301068170484,0.2628687885618981,0.2449489742783178,0.31559467676119,0.29983328701129897,0.345832329315812,0.244131112314674,0.29983328701129885,0.2628687885618978,0.2643860813280456,0.2821347195933176,0.33151168908501527,0.29849623113198565,0.32419130154894643,0.26286878856189805,0.2998332870112988,0.3440930106817049,0.31368774282716216,0.34409301068170484,0.24413111231467396,0.34409301068170484,0.3136877428271623,0.2821347195933176,0.282842712474619,0.2998332870112988,0.27999999999999975,0.3303028912982746,0.2821347195933176,0.3570714214271423,0.31622776601683794,0.35930488446443326,0.32787192621510014,0.244131112314674,0.29849623113198587,0.2628687885618978,0.34409301068170484,0.34409301068170484,0.31559467676119013,0.2764054992217049,0.2821347195933176,0.29983328701129874,0.2449489742783178,0.2643860813280454,0.32787192621509986,0.26438608132804564,0.2821347195933176,0.33704599092705423,0.2628687885618983,0.36041642581880173,0.2821347195933176,0.2628687885618979,0.24413111231467396,0.3458323293158119,0.27999999999999975
16,0.29766521156695835,0.031865684094301044,0.26286878856189805,0.3241913015489464,0.2799999999999998,0.3278719262150999,0.29580398915498096,0.3278719262150998,0.26438608132804564,0.282842712474619,0.29983328701129874,0.29983328701129874,0.2821347195933176,0.2998332870112988,0.26286878856189794,0.34409301068170484,0.29983328701129885,0.2643860813280456,0.244131112314674,0.33030289129827456,0.31622776601683794,0.32787192621510003,0.3155946767611901,0.33030289129827456,0.2643860813280456,0.29849623113198565,0.29849623113198576,0.31048349392520025,0.31559467676119013,0.282842712474619,0.29849623113198587,0.27999999999999975,0.2799999999999998,0.2821347195933176,0.33151168908501527,0.282842712474619,0.2643860813280456,0.3136877428271622,0.2416609194718914,0.2821347195933176,0.3693237062523877,0.31622776601683794,0.2449489742783178,0.2998332870112987,0.29983328701129874,0.31559467676119013,0.2821347195933176,0.32787192621510014,0.3315116890850154,0.2628687885618981,0.2449489742783178,0.31559467676119,0.29983328701129897,0.345832329315812,0.244131112314674,0.29983328701129885,0.2628687885618978,0.2643860813280456,0.2821347195933176,0.33151168908501527,0.29849623113198565,0.32419130154894643,0.26286878856189805,0.2998332870112988,0.34409301068170484,0.31368774282716216,0.34409301068170484,0.24413111231467396,0.34409301068170484,0.3136877428271623,0.2821347195933176,0.282842712474619,0.2821347195933176,0.27999999999999975,0.3303028912982746,0.2821347195933176,0.3570714214271423,0.31622776601683794,0.35930488446443326,0.32787192621510014,0.244131112314674,0.29849623113198587,0.2628687885618978,0.34409301068170484,0.34409301068170484,0.31559467676119013,0.2764054992217049,0.2821347195933176,0.29983328701129874,0.24413111231467402,0.2643860813280454,0.32787192621509986,0.26438608132804564,0.2821347195933176,0.33704599092705423,0.2628687885618983,0.36041642581880173,0.2821347195933176,0.2628687885618979,0.24413111231467396,0.3458323293158119,0.27999999999999975
17,0.2966509682360962,0.03178369148771902,0.26286878856189805,0.3241913015489464,0.2799999999999998,0.3278719262150999,0.29580398915498096,0.3278719262150998,0.26438608132804564,0.282842712474619,0.29983328701129874,0.29983328701129874,0.2821347195933176,0.2998332870112988,0.26286878856189794,0.34409301068170484,0.29849623113198576,0.2643860813280456,0.244131112314674,0.33030289129827456,0.31622776601683794,0.32787192621510003,0.3155946767611901,0.33030289129827456,0.2643860813280456,0.29849623113198565,0.29849623113198576,0.31048349392520025,0.31559467676119013,0.282842712474619,0.29849623113198587,0.27999999999999975,0.2799999999999998,0.2821347195933176,0.33151168908501527,0.282842712474619,0.2643860813280456,0.3136877428271622,0.2416609194718914,0.2821347195933176,0.3693237062523877,0.31622776601683794,0.2449489742783178,0.2998332870112987,0.29983328701129874,0.31559467676119013,0.2821347195933176,0.32787192621510014,0.29983328701129897,0.2628687885618981,0.244131112314674,0.31559467676119,0.29983328701129897,0.345832329315812,0.244131112314674,0.29983328701129885,0.2628687885618978,0.2643860813280456,0.2821347195933176,0.33151168908501527,0.29849623113198565,0.32419130154894643,0.26286878856189805,0.2998332870112988,0.34409301068170484,0.31368774282716216,0.34409301068170484,0.24413111231467396,0.31368774282716233,0.3136877428271623,0.2821347195933176,0.282842712474619,0.2449489742783178,0.27999999999999975,0.3303028912982746,0.2821347195933176,0.3570714214271423,0.31622776601683794,0.35930488446443326,0.32787192621510014,0.244131112314674,0.29849623113198587,0.2628687885618978,0.34409301068170484,0.34409301068170484,0.31559467676119013,0.2764054992217049,0.2821347195933176,0.29983328701129874,0.24413111231467402,0.2643860813280454,0.32787192621509986,0.26438608132804564,0.2821347195933176,0.33704599092705423,0.2628687885618983,0.36041642581880173,0.2821347195933176,0.2628687885618979,0.24413111231467396,0.3458323293158119,0.27999999999999975
18,0.2965077618337883,0.03159346724114569,0.26286878856189805,0.3241913015489464,0.2799999999999998,0.3278719262150999,0.29580398915498096,0.3278719262150998,0.26438608132804564,0.282842712474619,0.29983328701129874,0.29983328701129874,0.2821347195933176,0.2998332870112988,0.26286878856189794,0.34409301068170484,0.29849623113198576,0.2643860813280456,0.244131112314674,0.33030289129827456,0.31622776601683794,0.32787192621510003,0.3155946767611901,0.33030289129827456,0.2643860813280456,0.29849623113198565,0.29849623113198576,0.31048349392520025,0.31559467676119013,0.282842712474619,0.29849623113198587,0.27999999999999975,0.2799999999999998,0.2821347195933176,0.33151168908501527,0.282842712474619,0.2643860813280456,0.3136877428271622,0.2416609194718914,0.2821347195933176,0.3693237062523877,0.31622776601683794,0.2449489742783178,0.2998332870112987,0.29983328701129874,0.31559467676119013,0.2821347195933176,0.32787192621510014,0.29983328701129885,0.2628687885618981,0.244131112314674,0.31559467676119,0.29983328701129897,0.33151168908501527,0.244131112314674,0.29983328701129885,0.2628687885618978,0.2643860813280456,0.2821347195933176,0.33151168908501527,0.29849623113198565,0.32419130154894643,0.26286878856189805,0.2998332870112988,0.34409301068170484,0.31368774282716216,0.34409301068170484,0.24413111231467396,0.31368774282716216,0.3136877428271623,0.2821347195933176,0.282842712474619,0.2449489742783178,0.27999999999999975,0.3303028912982746,0.2821347195933176,0.3570714214271423,0.31622776601683794,0.35930488446443326,0.32787192621510014,0.244131112314674,0.29849623113198587,0.2628687885618978,0.34409301068170484,0.34409301068170484,0.31559467676119013,0.2764054992217049,0.2821347195933176,0.29983328701129874,0.24413111231467402,0.2643860813280454,0.32787192621509986,0.26438608132804564,0.2821347195933176,0.33704599092705423,0.2628687885618983,0.36041642581880173,0.2821347195933176,0.2628687885618979,0.24413111231467396,0.3458323293158119,0.27999999999999975
19,0.29555411557915057,0.031189177036689972,0.26286878856189805,0.3241913015489464,0.2799999999999998,0.3278719262150999,0.29580398915498096,0.3278719262150998,0.26438608132804564,0.282842712474619,0.29983328701129874,0.29983328701129874,0.2821347195933176,0.2998332870112988,0.26286878856189794,0.34409301068170484,0.29849623113198576,0.2643860813280456,0.244131112314674,0.33030289129827456,0.31622776601683794,0.32787192621510003,0.3155946767611901,0.33030289129827456,0.2643860813280456,0.29849623113198565,0.29849623113198576,0.31048349392520025,0.31559467676119013,0.282842712474619,0.29849623113198587,0.27999999999999975,0.2799999999999998,0.2821347195933176,0.33151168908501527,0.282842712474619,0.2643860813280456,0.3136877428271622,0.2416609194718914,0.2821347195933176,0.3693237062523877,0.31622776601683794,0.2449489742783178,0.2998332870112987,0.29983328701129874,0.31559467676119013,0.2821347195933176,0.3136877428271623,0.29983328701129885,0.2628687885618981,0.244131112314674,0.31559467676119,0.29983328701129897,0.33151168908501527,0.244131112314674,0.29983328701129885,0.2628687885618978,0.2643860813280456,0.2821347195933176,0.33151168908501527,0.29849623113198565,0.32419130154894643,0.26286878856189805,0.2998332870112988,0.34409301068170484,0.31368774282716216,0.34409301068170484,0.24413111231467396,0.2984962311319857,0.3136877428271623,0.2821347195933176,0.282842712474619,0.2449489742783178,0.27999999999999975,0.3303028912982746,0.2821347195933176,0.3570714214271423,0.31622776601683794,0.35930488446443326,0.32787192621510014,0.244131112314674,0.29849623113198587,0.2628687885618978,0.3278719262151001,0.34409301068170484,0.31559467676119013,0.2764054992217049,0.2821347195933176,0.2643860813280456,0.24413111231467402,0.2643860813280454,0.32787192621509986,0.26438608132804564,0.2821347195933176,0.33704599092705423,0.2628687885618983,0.36041642581880173,0.2821347195933176,0.2628687885618979,0.24413111231467396,0.3315116890850155,0.27999999999999975
