Iteration,Mean,Stdev,Run-0,Run-1,Run-2,Run-3,Run-4,Run-5,Run-6,Run-7,Run-8,Run-9,Run-10,Run-11,Run-12,Run-13,Run-14,Run-15,Run-16,Run-17,Run-18,Run-19,Run-20,Run-21,Run-22,Run-23,Run-24,Run-25,Run-26,Run-27,Run-28,Run-29,Run-30,Run-31,Run-32,Run-33,Run-34,Run-35,Run-36,Run-37,Run-38,Run-39,Run-40,Run-41,Run-42,Run-43,Run-44,Run-45,Run-46,Run-47,Run-48,Run-49,Run-50,Run-51,Run-52,Run-53,Run-54,Run-55,Run-56,Run-57,Run-58,Run-59,Run-60,Run-61,Run-62,Run-63,Run-64,Run-65,Run-66,Run-67,Run-68,Run-69,Run-70,Run-71,Run-72,Run-73,Run-74,Run-75,Run-76,Run-77,Run-78,Run-79,Run-80,Run-81,Run-82,Run-83,Run-84,Run-85,Run-86,Run-87,Run-88,Run-89,Run-90,Run-91,Run-92,Run-93,Run-94,Run-95,Run-96,Run-97,Run-98,Run-99
0,-918.1964899282418,37.71986293813595,-937.6288985281227,-886.3086079945124,-928.7735949550249,-904.7093717038554,-950.2987041310602,-937.2956784374301,-1012.4595174871722,-882.6974371128538,-955.0640287530308,-935.5390345435604,-929.9166395974315,-957.3718317351752,-970.7189455140633,-898.8449491247662,-901.6570821348405,-883.8514489279949,-877.0499347585126,-927.3791760532687,-930.2732659088949,-906.0117175675583,-892.7970111211099,-906.4810365269739,-936.3990115495675,-846.0079020920296,-927.7602430571179,-867.6085622155681,-902.701709502467,-917.416045262438,-956.6495256163406,-854.4120142176434,-894.0626000535506,-1001.5833694881352,-1010.3199149632246,-939.1019748172255,-941.8400870437547,-970.169408634728,-937.427096445586,-918.3743800978355,-883.5107239886778,-845.7975029339929,-894.7365409323575,-919.1273375255062,-850.970871610429,-853.8235621234131,-877.572339068058,-993.1906554099809,-949.1917604151553,-896.1639029452041,-893.212379111661,-913.838629058169,-949.9845432411963,-907.6696912769395,-933.4571742062002,-925.5886781311904,-931.4472642192094,-919.3963645754538,-973.1449927758246,-935.8362411488241,-872.2279477921899,-879.7962123612446,-922.9881962832035,-890.1809884892092,-948.1129067539724,-948.8064126845753,-936.4035271339156,-907.043679863029,-939.2769465842937,-913.1682981450534,-883.3626315829491,-880.5598142727632,-838.6439982265089,-900.9589258451908,-950.3115764674809,-906.0537657417971,-948.1705003237096,-932.204329603077,-944.0413237306068,-873.3746529632148,-879.2066707717305,-968.5002423725325,-1013.9647008144484,-918.0655878237657,-914.5184147519991,-880.359307138985,-968.3384128167957,-887.398104074381,-896.2566661101448,-961.2890762633243,-942.4484483830563,-947.9574216412876,-892.4124653541375,-964.1320638485213,-873.7066826559014,-897.5645890662854,-942.3728672626457,-915.1657738059902,-921.0985761277121,-861.071129229881,-893.5599617793636,-881.9522835113978
1,-1130.2895020591804,70.21699875569966,-1112.1438716114137,-1058.132681355058,-1153.5453468907456,-1090.3139117747485,-1096.8496872409837,-1179.2692379368216,-1111.9646650060931,-1093.3469425708959,-1131.7858881451896,-1177.615893624193,-1084.8319019457042,-1230.846538047843,-1122.6931058550183,-1297.6704787745366,-1059.6517123392337,-1241.2524684650941,-1021.3022328818788,-1193.61196828893,-1024.738106939384,-1205.1584245290965,-1151.797713811907,-1132.8795263951897,-1274.082330216932,-1043.5823563054244,-1122.6628595109116,-1165.1028223972294,-1055.9346471724436,-1220.9970582252863,-1136.8754970202713,-1049.287990235391,-990.3742774715413,-1058.9512001491216,-1336.8221817123408,-1110.2558610326,-1163.6832363019037,-1120.2443346871241,-1153.1606819077795,-1128.3318150856717,-1124.0918049910417,-1102.5128742105592,-1193.442489327515,-1075.3103133380087,-1044.3629685834544,-1238.0712623741479,-1248.571138655098,-1150.200096571733,-1147.8800489377113,-1230.2723604246546,-1096.227832946461,-1047.5747336373736,-1062.4327338622209,-1214.3436235938948,-1201.6778569593098,-1126.0165643769042,-1152.4609991085708,-1056.0960991456434,-1033.2484227104885,-1065.2504150191583,-1099.694130637269,-1080.223312987218,-1200.00777927168,-1244.3026833840518,-1112.2256882038873,-1179.3505365662493,-1146.591909031756,-1070.5804459097567,-1226.3956151097934,-1003.2614808008851,-1048.0266519957713,-1211.9616195780543,-1123.7861580365793,-1045.0649699942783,-1119.397904525503,-1040.4269397745434,-1135.2623955464894,-1096.7792208879148,-1220.6815247443305,-1071.3301586184896,-1140.1438547017185,-1121.3132753507464,-1133.3801003308402,-1189.481181246323,-1062.0652473914045,-1038.3818989846445,-1117.3127620158384,-1122.5873951305796,-1083.56955590277,-1246.738991947919,-1217.1339521899286,-1199.4376065897197,-1237.026934162753,-1130.392872331588,-1034.2313309553197,-1130.149483796811,-1113.431019833569,-1143.381279143197,-1134.6587501479858,-1037.149471331896,-1126.1330205439583,-1083.703003648138
2,-1201.479109512618,64.01494420974724,-1264.532616833904,-1137.4720724363372,-1294.6713121781418,-1181.8586935533299,-1243.0677404884227,-1226.6426972868771,-1106.113695920833,-1186.836654551904,-1286.7284718629041,-1365.4913275508482,-1127.9071020258048,-1158.5945835121113,-1173.330104191911,-1233.4462177493517,-1134.4142893056912,-1176.0404832140155,-1186.7643880413475,-1249.066638671939,-1164.4552548830122,-1082.9139707033048,-1216.7212752670737,-1263.5776110671281,-1377.5262982584125,-1157.3714880703076,-1245.108485055987,-1205.2553870032011,-1205.6868403831936,-1195.8277006310595,-1226.6392528904798,-1104.9473935711235,-1080.8411936849127,-1156.2953161465289,-1315.6042812980381,-1079.272806208122,-1167.875519068902,-1139.2483802759893,-1232.656458050327,-1218.4810811927277,-1199.166316930786,-1164.1076001187216,-1107.2472258413195,-1141.53501647351,-1211.1008176637872,-1171.6543410879187,-1292.1992193082608,-1189.0375381577264,-1240.9395420178676,-1191.5684556178578,-1192.6316890837431,-1178.6658870792944,-1115.3925853846051,-1248.295761052799,-1241.5204952220479,-1267.2261858158406,-1191.3840019896575,-1109.2332134869016,-1153.274857946756,-1223.676796328906,-1215.519162755111,-1171.6025142856067,-1236.8602145783411,-1334.2118827853324,-1256.4493146066438,-1262.3568636234108,-1222.3896396431592,-1195.794764633344,-1286.052937054676,-1096.5154006943253,-1184.6594952681496,-1144.6645521353719,-1226.611746832166,-1173.1257424183939,-1255.9129076943518,-1181.3649920334271,-1175.5011941547978,-1155.9667125433177,-1365.5601092839036,-1304.9678828255849,-1190.8419997589815,-1234.1193270608608,-1146.4856179358392,-1264.2309736544064,-1167.332800029408,-1093.4757106718766,-1097.3921554980377,-1182.3542983532177,-1182.651026459595,-1287.7549044417233,-1272.0663769574878,-1220.9762439351593,-1172.4361222828309,-1231.550687602399,-1133.8980056643654,-1168.6821728702853,-1193.787098266722,-1312.1488122821668,-1232.1193093343502,-1173.4075320836257,-1175.3957976750214,-1169.5733189001971
3,-1229.5708838425937,61.91051504521389,-1296.5233834924475,-1183.867398445334,-1255.380544410699,-1174.0804429796249,-1205.153242524296,-1240.204183700967,-1138.0468844872298,-1162.9518166709897,-1334.7635415565471,-1398.0017573010814,-1201.5313770477715,-1275.2539363307626,-1291.5912649548325,-1324.0355340742246,-1174.1963601689147,-1247.3081828154557,-1240.3108084795133,-1235.7033221832176,-1197.4747593531433,-1193.510098440065,-1290.4651803330537,-1279.5708842283755,-1374.3229121481945,-1162.9334672871626,-1268.0391907491576,-1092.8795111862928,-1262.9486329102022,-1149.54211352258,-1249.5624329765376,-1106.6447932634344,-1155.2355721345507,-1185.8946169382464,-1289.0362503664317,-1143.3679240069416,-1189.2506377135912,-1163.2135458207617,-1232.4260343204685,-1185.1352403491342,-1170.5967384882606,-1170.5605377343784,-1115.4539527310358,-1201.8410283775686,-1186.7583337454937,-1195.2556082602985,-1320.3158458205387,-1212.487999807457,-1221.6318585360623,-1216.7334920957023,-1229.9942124135307,-1286.100888057232,-1178.4707914126632,-1345.7200605100277,-1212.208766325186,-1241.7417453277046,-1130.6836816502039,-1181.258540487372,-1228.3066133945028,-1223.0016399718882,-1202.8394751743363,-1205.2296293950897,-1286.6437836950895,-1334.1177881690824,-1193.7401002907204,-1295.551659147531,-1316.993866715022,-1263.258453880116,-1285.6350014943996,-1193.2224545054607,-1211.6236571193135,-1229.6934193522854,-1264.0312318141496,-1157.422145230812,-1254.0594061564254,-1233.440789866982,-1250.760638227507,-1232.3185062830273,-1321.282448073516,-1216.8476598620014,-1223.9121239635351,-1365.2529606304831,-1190.3832526087413,-1292.9207670153119,-1246.6566903282085,-1224.9865225795822,-1183.6748233252333,-1256.6094268714885,-1156.6781881650054,-1253.634603418019,-1349.3885752646784,-1271.034472755356,-1250.286160249103,-1211.2518946009625,-1108.1177293677558,-1170.793002390747,-1273.4175811179298,-1293.89800124666,-1281.801101210924,-1183.3529638164887,-1173.5585590610222,-1227.2867549999053
4,-1239.3393155728122,56.05904254541547,-1299.7458937205743,-1220.7182764565607,-1237.8084496910708,-1206.3960333242835,-1202.2793566415417,-1228.9105208398632,-1224.4599803234346,-1121.635852744026,-1333.651665987267,-1351.5400016369306,-1211.0259365062313,-1227.7218486266768,-1258.9753265696725,-1284.4888528024458,-1167.7028777328928,-1238.0045270013036,-1239.2530526443804,-1291.9326243102737,-1241.99799762601,-1214.0192030737128,-1293.868993085271,-1205.496879644584,-1316.8146734689947,-1258.9012854615928,-1203.4859050038758,-1129.848256570106,-1258.5578529772122,-1146.5330088750102,-1248.7499869230344,-1133.1350224380078,-1181.5140687567712,-1251.5161825491111,-1314.5932803566877,-1181.7002297957386,-1198.2936416759899,-1191.9324827019075,-1232.405333539908,-1227.1574928606206,-1149.9893010956716,-1158.4892365638873,-1187.4381934238586,-1243.6127785591525,-1198.9884428795267,-1227.1412631110531,-1266.4086425883022,-1227.1545180553264,-1229.3138271852292,-1176.8002068552537,-1255.4793844741343,-1300.5344695352542,-1282.6475422236083,-1348.30370471552,-1204.4368508054147,-1322.309458916499,-1185.9385933111728,-1237.82852372297,-1252.0603818229354,-1223.6927556619557,-1210.5654935075295,-1207.6284946514788,-1310.8150197792238,-1287.847034424382,-1248.8188289054756,-1324.90762840072,-1282.144952738699,-1306.9386215680431,-1263.2786465879685,-1201.6193735565107,-1266.0634740339228,-1196.3547256277477,-1277.7786138762801,-1202.7047108776112,-1299.2097926359952,-1205.4984686583489,-1205.567760369984,-1237.369851160766,-1279.1433314947678,-1233.2257541692961,-1216.6728402713318,-1348.158563718233,-1244.6463603129869,-1305.7834416248063,-1239.3004775965112,-1175.267416507042,-1171.6124679956122,-1248.1057416991546,-1221.1553703376287,-1277.6175056997727,-1332.5899339898538,-1361.0609575426095,-1203.7520148630877,-1168.7567941796055,-1091.7995886499716,-1191.141367539636,-1325.308566895276,-1320.7333199653742,-1265.5004470902575,-1331.5016531585995,-1185.0838449026007,-1205.5613752662232
5,-1249.4044466797666,52.74498653148925,-1273.625495698748,-1262.1795503095177,-1263.569480877439,-1191.8235419614855,-1219.3830917426935,-1259.7755168488,-1232.0043988407194,-1129.564482373027,-1327.910229237403,-1321.04318499849,-1245.711743840419,-1244.5666491462428,-1241.1094768961873,-1310.6170147501184,-1206.00286857289,-1261.4304240499118,-1239.2530526443804,-1315.6147010999298,-1292.368034953338,-1233.5920688706537,-1293.868993085271,-1239.6052473863056,-1287.0468152025585,-1255.0452522674698,-1208.480155903762,-1078.4128066576743,-1259.3664173809805,-1186.3616958806892,-1266.9337910378629,-1160.0367320073924,-1170.7275196207022,-1309.4435511368076,-1333.7750375041294,-1190.4960046904096,-1272.0731588062276,-1260.383400053635,-1226.3017505882437,-1227.1000373700695,-1171.076016831275,-1162.8070226892912,-1198.8960634627554,-1272.8646889927527,-1188.823238442275,-1202.7441672530551,-1271.391302911098,-1242.74148733991,-1249.3788473031602,-1288.6286882308107,-1216.090485526229,-1303.8735108852877,-1281.2707099312127,-1354.8298555924807,-1217.0253191164686,-1316.7567500053544,-1244.4267122058186,-1255.8077413410197,-1245.2891256622133,-1226.308982227695,-1213.6589158256982,-1204.1826544456478,-1317.785699551343,-1320.1647185192874,-1255.5413415399055,-1332.8247489426274,-1291.800570012769,-1267.2654271147148,-1271.337765644567,-1207.6569638199308,-1305.8158773973312,-1214.1064799761657,-1298.2747124197933,-1210.254596691101,-1299.2097926359952,-1200.4930787500873,-1234.2764106652958,-1233.3337112364884,-1324.932916049165,-1213.2988334332438,-1263.3420897108679,-1310.8519711618385,-1259.3314944025478,-1301.5342827641246,-1235.888782685863,-1171.8826477344041,-1182.8556740142171,-1249.6316274452888,-1342.0871366505405,-1217.5075382841674,-1287.1386253570531,-1274.245341892744,-1212.7089583261827,-1183.937546270141,-1155.8744774512404,-1207.7660916465277,-1332.5492215602428,-1360.4756191547792,-1264.629847351043,-1287.5511675378325,-1251.569862097714,-1163.2353595633829
6,-1247.9330262952565,50.98908415981097,-1220.6964998533383,-1189.7803341796468,-1254.1654278918159,-1191.8235419614855,-1264.2994225960424,-1249.771691674024,-1251.5618971568422,-1169.5991323735323,-1327.910229237403,-1309.5940959449836,-1198.412838489549,-1220.855284006508,-1241.1094768961873,-1289.186545338267,-1238.940141758624,-1261.4304240499118,-1239.2530526443804,-1314.7753272005632,-1283.3827074480573,-1257.4198004997018,-1293.868993085271,-1217.169462345775,-1307.4272878180611,-1260.949923713914,-1211.7512331053738,-1082.9112746086423,-1291.5340275065914,-1226.474916343949,-1262.7930768958797,-1148.8220888948943,-1240.45549846176,-1309.112925141238,-1312.4934371101685,-1195.5987490488278,-1289.4766839344027,-1264.5946991461817,-1226.3017505882437,-1275.853189202621,-1171.076016831275,-1181.1547134187003,-1225.6143027309142,-1269.704027330064,-1188.823238442275,-1202.7441672530551,-1271.391302911098,-1234.562090868461,-1249.3788473031602,-1232.5446124735497,-1199.8022282190482,-1289.809398180349,-1253.9975338213656,-1354.8298555924807,-1224.0262419144533,-1313.9487477266214,-1243.3154531289445,-1257.044148563978,-1229.9135574490863,-1226.308982227695,-1232.7028419725123,-1228.8719731885346,-1355.2492965576141,-1329.1738075488815,-1257.9281828245616,-1366.0175955275386,-1280.984767145767,-1271.5907695057292,-1264.210733171385,-1207.6569638199308,-1274.8184060816016,-1167.5290078470014,-1283.77167350433,-1206.2501243254703,-1297.2514012357587,-1200.4930787500873,-1234.660337315527,-1267.4430544612007,-1324.932916049165,-1229.397464828173,-1280.665827631709,-1313.5645643944008,-1267.9105051743616,-1289.883426621464,-1235.888782685863,-1187.3013179450318,-1132.5698000150592,-1235.8021898106065,-1262.2845553090476,-1212.7918593002214,-1262.3432431622864,-1292.5453829628048,-1209.8332075546753,-1172.6624114276558,-1155.9976108632268,-1244.7956578809597,-1346.7560920709234,-1311.4325270081042,-1260.1896314864778,-1211.741443607478,-1248.3443090967896,-1165.5173333165264
7,-1247.286915549682,49.51084720568212,-1242.4169242829007,-1183.9759397525613,-1252.965218861531,-1188.5621202924597,-1245.4432112990278,-1249.1172770178418,-1245.1901055967876,-1179.4461561114242,-1327.910229237403,-1279.320634963202,-1198.412838489549,-1251.6390209650065,-1241.1094768961873,-1289.186545338267,-1269.7362083389228,-1261.4304240499118,-1239.2530526443804,-1314.7753272005632,-1283.3827074480573,-1293.2569624475148,-1293.868993085271,-1219.3653616017405,-1303.1913281994905,-1260.949923713914,-1209.2396537352117,-1082.9112746086423,-1291.5340275065914,-1251.7496939687624,-1256.3175799137443,-1158.1225776538272,-1247.9221558397235,-1308.0270043919572,-1312.4934371101685,-1195.5987490488278,-1247.3116493651012,-1264.5946991461817,-1226.3017505882437,-1256.198366732524,-1171.076016831275,-1211.901850065611,-1195.4240049246216,-1284.023087961823,-1188.823238442275,-1202.7441672530551,-1271.391302911098,-1282.1655179517286,-1249.3788473031602,-1286.0082959551821,-1202.9611227282996,-1280.3055670328647,-1269.2137720966277,-1354.8298555924807,-1167.2767972794375,-1313.9487477266214,-1233.789378061612,-1157.6747913945728,-1239.1519001502427,-1224.192399017503,-1230.0103419115896,-1226.3654349027747,-1341.5604892669144,-1313.9380100355304,-1258.4170923114132,-1344.1069709649705,-1284.304853857864,-1269.2457374681796,-1264.210733171385,-1207.6569638199308,-1280.475444376934,-1217.0197034214063,-1304.0364664190583,-1209.7976936426362,-1273.7025686564277,-1200.4930787500873,-1234.660337315527,-1253.4073915501453,-1324.932916049165,-1229.397464828173,-1280.665827631709,-1300.1563718183002,-1260.3876347032801,-1296.322682164657,-1235.888782685863,-1191.2363793421475,-1177.9910879637303,-1229.0814044311992,-1237.5458357298332,-1212.7918593002214,-1277.328485462798,-1223.3067567719231,-1209.8332075546753,-1144.0503133708921,-1159.798035604193,-1244.7956578809597,-1346.7560920709234,-1311.4325270081042,-1245.6070325755777,-1237.6039018116596,-1264.345384925356,-1165.5173333165264
8,-1248.294819994844,50.404810832408636,-1242.4169242829007,-1183.9759397525613,-1266.4564158916749,-1188.5621202924597,-1243.9941590322398,-1249.1172770178418,-1246.3896197428408,-1236.6447382421222,-1327.910229237403,-1279.320634963202,-1198.412838489549,-1289.7425835551962,-1241.1094768961873,-1289.186545338267,-1269.7362083389228,-1261.4304240499118,-1254.8373163650701,-1312.4933534474196,-1283.3827074480573,-1293.2569624475148,-1293.868993085271,-1217.6952038209245,-1303.1913281994905,-1260.949923713914,-1209.2396537352117,-1082.9112746086423,-1291.5340275065914,-1228.6120063086353,-1272.023821305734,-1158.1225776538272,-1236.6945644048544,-1308.0270043919572,-1312.4934371101685,-1195.5987490488278,-1273.7146661012016,-1264.5946991461817,-1226.3017505882437,-1258.963084948216,-1171.076016831275,-1186.4737173299059,-1195.4240049246216,-1284.023087961823,-1188.823238442275,-1202.7441672530551,-1271.391302911098,-1282.1655179517286,-1249.3788473031602,-1271.2116230616718,-1150.0868230486433,-1302.0294582427273,-1269.2137720966277,-1354.8298555924807,-1167.7275688331617,-1308.5948596073738,-1233.789378061612,-1183.6635213923491,-1229.2932775979996,-1226.429086533081,-1230.031331842733,-1193.237590396489,-1328.894581177997,-1314.5252631000108,-1258.4170923114132,-1372.3394239730603,-1284.304853857864,-1269.2457374681796,-1264.210733171385,-1207.6569638199308,-1280.475444376934,-1239.4448324466223,-1304.0364664190583,-1209.7976936426362,-1273.7025686564277,-1200.4930787500873,-1234.660337315527,-1253.4073915501453,-1329.7632421236558,-1229.397464828173,-1280.665827631709,-1300.1563718183002,-1221.0408929560492,-1299.0534005672082,-1235.888782685863,-1191.2363793421475,-1175.1603211954036,-1264.7156139459973,-1237.5458357298332,-1212.7918593002214,-1272.3064063109887,-1218.1847103686982,-1212.7089583261827,-1150.3995394797255,-1178.363912208421,-1244.7956578809597,-1346.7560920709234,-1313.489155373196,-1247.3676587137195,-1237.6674486227153,-1264.345384925356,-1165.5173333165264
9,-1252.4368899632132,52.18992287179359,-1242.4169242829007,-1183.9759397525613,-1259.6544154007104,-1188.5621202924597,-1243.9941590322398,-1249.771691674024,-1277.7428798559897,-1236.6447382421222,-1327.910229237403,-1279.320634963202,-1198.412838489549,-1315.6050670062239,-1241.1094768961873,-1289.186545338267,-1271.1456316240838,-1278.3185936303628,-1253.1214973673325,-1314.7753272005632,-1283.3827074480573,-1293.2569624475148,-1293.868993085271,-1217.6952038209245,-1301.4399697149113,-1260.949923713914,-1209.2396537352117,-1083.0875749647917,-1291.5340275065914,-1279.312744017098,-1270.4120594040526,-1158.1225776538272,-1231.801816101141,-1308.0270043919572,-1312.4934371101685,-1195.5987490488278,-1315.2867612603175,-1287.0470928973148,-1345.3242166314424,-1258.963084948216,-1171.076016831275,-1202.8560088893735,-1195.4240049246216,-1284.023087961823,-1188.823238442275,-1202.7441672530551,-1271.391302911098,-1282.1655179517286,-1255.5542872109447,-1271.2116230616718,-1166.7251476868266,-1320.1071454386072,-1269.2137720966277,-1354.8298555924807,-1167.7275688331617,-1307.0086025045202,-1236.0713518147556,-1183.6635213923491,-1260.3862949663023,-1226.69722786938,-1230.031331842733,-1221.307586687712,-1356.508568393461,-1299.9689373057658,-1258.4170923114132,-1372.3394239730603,-1284.304853857864,-1269.2457374681796,-1264.210733171385,-1207.6569638199308,-1280.475444376934,-1238.7670679363612,-1268.5658572272284,-1206.2501243254703,-1273.7025686564277,-1200.4930787500873,-1233.0619426411192,-1260.067177973246,-1329.7632421236558,-1229.397464828173,-1280.665827631709,-1300.1563718183002,-1220.8645925998994,-1302.8830982317072,-1238.653500901555,-1191.2363793421475,-1175.0283589557434,-1264.7156139459973,-1237.5458357298332,-1212.7918593002214,-1274.5081487375157,-1218.1847103686982,-1212.7089583261827,-1146.0190299826625,-1162.7444364402459,-1244.7956578809597,-1346.7560920709234,-1313.489155373196,-1284.397224948152,-1237.215187756116,-1262.0634111722122,-1165.5173333165264
10,-1252.0649984770557,50.687400210474756,-1242.4169242829007,-1183.9759397525613,-1259.6544154007104,-1188.5621202924597,-1231.6497762358656,-1248.985693370753,-1277.7428798559897,-1236.6447382421222,-1327.910229237403,-1279.320634963202,-1198.412838489549,-1314.7791717729222,-1241.1094768961873,-1291.4685190914108,-1269.7362083389228,-1286.1517471395416,-1256.5355507793718,-1314.7753272005632,-1283.3827074480573,-1293.2569624475148,-1293.868993085271,-1217.6952038209245,-1301.4399697149113,-1263.4657650117758,-1207.4014493530615,-1083.0875749647917,-1291.5340275065914,-1304.994695993595,-1270.4120594040526,-1160.2125163063504,-1231.801816101141,-1308.0270043919572,-1274.4513082982708,-1195.5987490488278,-1298.907615109536,-1269.4186574635837,-1345.3242166314424,-1258.963084948216,-1171.076016831275,-1250.1419568948925,-1195.4240049246216,-1284.023087961823,-1188.823238442275,-1202.7441672530551,-1270.469344962588,-1282.1655179517286,-1255.5542872109447,-1271.9602962899608,-1166.7251476868266,-1316.277447774108,-1269.2137720966277,-1354.8298555924807,-1167.7275688331617,-1307.0086025045202,-1236.0713518147556,-1183.6635213923491,-1260.3862949663023,-1192.3208228757433,-1230.031331842733,-1221.307586687712,-1290.9142607481522,-1299.9689373057658,-1258.4170923114132,-1352.4769163810295,-1282.0228801047203,-1269.2457374681796,-1264.210733171385,-1207.6569638199308,-1280.475444376934,-1230.7888777963847,-1268.5658572272284,-1209.7976936426362,-1273.7025686564277,-1200.4930787500873,-1246.012035330127,-1271.9807340706532,-1329.7632421236558,-1229.397464828173,-1287.786282281021,-1300.1563718183002,-1216.372682225199,-1302.8830982317072,-1235.888782685863,-1187.0276137577628,-1175.0283589557434,-1264.7156139459973,-1237.5458357298332,-1212.7918593002214,-1274.5081487375157,-1218.1847103686982,-1212.7089583261827,-1153.3762853305857,-1162.7444364402459,-1244.7956578809597,-1346.7560920709234,-1301.132255807852,-1296.3848006126414,-1301.218949413914,-1262.0634111722122,-1165.5173333165264
11,-1252.0714626895415,51.51900349446506,-1226.0149588322367,-1183.9759397525613,-1256.5412724181667,-1190.3995642549828,-1243.7885050066159,-1226.842933663774,-1275.4609061028461,-1241.0252477391857,-1327.910229237403,-1277.0386612100585,-1198.412838489549,-1314.7791717729222,-1241.1094768961873,-1291.4685190914108,-1269.7362083389228,-1286.1517471395416,-1256.5355507793718,-1314.7753272005632,-1283.3827074480573,-1293.2569624475148,-1293.868993085271,-1217.6952038209245,-1301.4399697149113,-1263.4657650117758,-1207.4014493530615,-1083.0875749647917,-1291.5340275065914,-1254.046980730584,-1270.4398905406802,-1160.2125163063504,-1231.801816101141,-1308.8119230580912,-1274.4513082982708,-1195.5987490488278,-1301.4702200684453,-1278.0969292100558,-1345.3242166314424,-1308.011327258067,-1171.076016831275,-1249.694473693711,-1195.4240049246216,-1284.023087961823,-1188.823238442275,-1202.7441672530551,-1270.469344962588,-1282.1655179517286,-1255.5542872109447,-1271.9602962899608,-1166.7251476868266,-1320.1071454386072,-1269.2137720966277,-1354.8298555924807,-1152.1448660902693,-1307.0086025045202,-1236.0713518147556,-1183.6635213923491,-1260.3862949663023,-1193.09372107389,-1230.031331842733,-1221.307586687712,-1266.9531926918014,-1299.9689373057658,-1255.5413415399055,-1352.4769163810295,-1282.0228801047203,-1271.5907695057292,-1264.210733171385,-1207.6569638199308,-1280.475444376934,-1230.7888777963847,-1304.0364664190583,-1206.2501243254703,-1273.7025686564277,-1200.3933036032354,-1246.012035330127,-1271.9807340706532,-1329.7632421236558,-1229.397464828173,-1309.1963198854955,-1300.1563718183002,-1218.2101261877222,-1302.8830982317072,-1235.888782685863,-1187.0276137577628,-1175.0283589557434,-1266.6854718189422,-1237.5458357298332,-1212.7918593002214,-1273.9048009853962,-1216.9913404731044,-1212.7089583261827,-1153.3762853305857,-1162.7444364402459,-1244.7956578809597,-1346.7560920709234,-1301.7711992102957,-1296.873710099493,-1301.218949413914,-1262.0634111722122,-1163.4223718886572
12,-1251.5205683291233,51.49402807623525,-1226.1087205732001,-1183.9759397525613,-1283.8151968636896,-1190.3995642549828,-1239.3308868291585,-1226.842933663774,-1275.4609061028461,-1236.6447382421222,-1327.910229237403,-1277.0386612100585,-1194.04256200669,-1314.7791717729222,-1241.1094768961873,-1291.4685190914108,-1242.2143928770204,-1286.1517471395416,-1256.5355507793718,-1314.7753272005632,-1283.3827074480573,-1293.2569624475148,-1293.868993085271,-1217.6952038209245,-1301.4399697149113,-1263.4657650117758,-1207.4014493530615,-1083.0875749647917,-1291.5340275065914,-1251.2822625148922,-1270.4398905406802,-1160.2125163063504,-1231.801816101141,-1321.5422072012805,-1274.4513082982708,-1195.5987490488278,-1303.752193821589,-1308.2872270163484,-1345.3242166314424,-1270.9817610236346,-1171.076016831275,-1249.694473693711,-1195.4240049246216,-1284.023087961823,-1188.823238442275,-1202.7441672530551,-1270.469344962588,-1282.1655179517286,-1249.3788473031602,-1271.9602962899608,-1166.7251476868266,-1316.277447774108,-1269.2137720966277,-1354.8298555924807,-1152.1448660902693,-1307.0086025045202,-1236.0713518147556,-1183.6635213923491,-1260.3862949663023,-1193.09372107389,-1230.031331842733,-1221.307586687712,-1266.9531926918014,-1273.7605806554186,-1255.5413415399055,-1352.4769163810295,-1283.0100705741268,-1271.5907695057292,-1264.210733171385,-1207.6569638199308,-1280.475444376934,-1230.7888777963847,-1268.5658572272284,-1209.7976936426362,-1272.3890456371944,-1200.3933036032354,-1246.012035330127,-1286.0163969817083,-1329.7632421236558,-1229.397464828173,-1294.3470447059137,-1300.1563718183002,-1216.1963818690494,-1302.8830982317072,-1235.888782685863,-1192.0975770727032,-1175.0283589557434,-1266.6854718189422,-1237.5458357298332,-1211.1217015194054,-1274.5081487375157,-1216.9913404731044,-1212.7089583261827,-1151.9044476280055,-1162.7444364402459,-1244.7956578809597,-1346.7560920709234,-1301.7711992102957,-1296.873710099493,-1322.8426832030007,-1262.0634111722122,-1163.4223718886572
13,-1253.3305755179242,51.78507839962569,-1238.4026654882468,-1183.9759397525613,-1283.8151968636896,-1190.3995642549828,-1241.3921014630043,-1226.842933663774,-1277.7428798559897,-1236.6447382421222,-1327.910229237403,-1277.0386612100585,-1240.0595287090903,-1314.7791717729222,-1241.1094768961873,-1291.4685190914108,-1242.3102931429487,-1286.1517471395416,-1253.666710815797,-1314.7753272005632,-1283.3827074480573,-1293.2569624475148,-1293.868993085271,-1219.3653616017405,-1303.1913281994905,-1263.4657650117758,-1207.4022097726884,-1083.0875749647917,-1291.5340275065914,-1253.3638286532512,-1269.7418475525901,-1160.2125163063504,-1231.801816101141,-1321.1515174971887,-1274.4513082982708,-1195.5987490488278,-1303.752193821589,-1299.7776855486932,-1345.3242166314424,-1276.19474007848,-1171.076016831275,-1249.694473693711,-1195.4240049246216,-1284.023087961823,-1188.823238442275,-1202.7441672530551,-1272.7513187157315,-1282.1655179517286,-1249.3788473031602,-1271.9602962899608,-1164.8877037243037,-1320.1071454386072,-1253.9975338213656,-1354.8298555924807,-1169.96425634874,-1307.0086025045202,-1239.9010494792549,-1183.6635213923491,-1260.3862949663023,-1192.973616768504,-1223.433607450205,-1221.307586687712,-1266.9531926918014,-1321.3368416102003,-1258.4170923114132,-1352.4769163810295,-1282.0228801047203,-1271.5907695057292,-1264.405870562836,-1207.6569638199308,-1280.475444376934,-1230.7888777963847,-1280.5756887567877,-1206.2501243254703,-1270.5516016746715,-1200.3933036032354,-1246.012035330127,-1286.0163969817083,-1329.7632421236558,-1229.397464828173,-1340.0138277735095,-1300.1563718183002,-1221.0408929560492,-1301.3353743203518,-1235.888782685863,-1192.0975770727032,-1175.0283589557434,-1266.6854718189422,-1237.5458357298332,-1216.8741029806001,-1274.5081487375157,-1224.878105092021,-1209.8332075546753,-1151.9044476280055,-1162.7444364402459,-1244.7956578809597,-1346.7560920709234,-1301.7711992102957,-1296.873710099493,-1322.8426832030007,-1262.0634111722122,-1163.4223718886572
14,-1253.925297020944,52.34864502951934,-1266.8265209621063,-1183.9759397525613,-1283.8151968636896,-1190.3995642549828,-1245.849719640462,-1226.1885190075918,-1275.4609061028461,-1236.6447382421222,-1327.910229237403,-1277.0386612100585,-1240.0595287090903,-1314.7791717729222,-1241.1094768961873,-1291.4685190914108,-1242.2143928770204,-1286.1517471395416,-1256.2829373815366,-1314.7753272005632,-1283.3827074480573,-1293.2569624475148,-1293.868993085271,-1219.3653616017405,-1303.1913281994905,-1263.4657650117758,-1207.4022097726884,-1083.0875749647917,-1291.5340275065914,-1253.3638286532512,-1269.7418475525901,-1160.2125163063504,-1231.801816101141,-1312.5567694257447,-1310.6118926004056,-1195.5987490488278,-1303.9559236806865,-1299.7776855486932,-1343.0422428782988,-1276.19474007848,-1171.076016831275,-1238.8840261210476,-1195.4240049246216,-1284.023087961823,-1188.823238442275,-1202.7441672530551,-1272.7513187157315,-1282.1655179517286,-1245.0944925674492,-1271.9602962899608,-1164.8877037243037,-1320.1071454386072,-1253.9975338213656,-1354.8298555924807,-1171.6344141295558,-1309.2905762576636,-1239.9010494792549,-1180.7877706208417,-1260.3862949663023,-1190.8570335583117,-1232.2174824913395,-1221.307586687712,-1266.9531926918014,-1321.3368416102003,-1258.4170923114132,-1372.49521371392,-1282.0228801047203,-1271.5907695057292,-1270.5655077985648,-1207.6569638199308,-1280.475444376934,-1239.960437831955,-1280.5756887567877,-1203.4193575571433,-1270.5516016746715,-1200.3933036032354,-1233.0619426411192,-1271.9807340706532,-1329.7632421236558,-1229.397464828173,-1340.0138277735095,-1300.1563718183002,-1221.0408929560492,-1302.8830982317072,-1235.888782685863,-1187.0276137577628,-1176.2397294791515,-1266.6854718189422,-1237.5458357298332,-1219.6465249919765,-1274.5081487375157,-1224.878105092021,-1212.7089583261827,-1151.9044476280055,-1162.7444364402459,-1244.7956578809597,-1346.7560920709234,-1301.7711992102957,-1296.873710099493,-1322.8426832030007,-1262.0634111722122,-1163.4223718886572
15,-1253.777120933415,51.157478282150244,-1247.7329736791035,-1183.9759397525613,-1283.8151968636896,-1190.3995642549828,-1241.3921014630043,-1226.842933663774,-1275.4609061028461,-1236.6447382421222,-1327.910229237403,-1277.0386612100585,-1240.0587682894632,-1314.7791717729222,-1241.1094768961873,-1291.4685190914108,-1242.1964364642063,-1286.1517471395416,-1256.2829373815366,-1314.7753272005632,-1283.3827074480573,-1293.2569624475148,-1293.868993085271,-1219.3653616017405,-1303.1913281994905,-1263.4657650117758,-1207.4014493530615,-1083.0875749647917,-1291.5340275065914,-1251.2822625148922,-1269.7140164159628,-1160.2125163063504,-1231.801816101141,-1312.5567694257447,-1276.7275850676103,-1195.5987490488278,-1298.4796945378296,-1299.7776855486932,-1345.3242166314424,-1276.19474007848,-1171.076016831275,-1238.8840261210476,-1195.4240049246216,-1284.023087961823,-1188.823238442275,-1221.8279844360393,-1273.6732766642417,-1282.1655179517286,-1259.891153857626,-1271.9602962899608,-1192.7277454110424,-1316.9623393954232,-1253.9975338213656,-1354.8298555924807,-1156.0517113866636,-1309.2905762576636,-1236.0713518147556,-1180.7877706208417,-1260.3862949663023,-1190.8570335583117,-1230.031331842733,-1221.307586687712,-1266.9531926918014,-1321.3368416102003,-1258.4170923114132,-1356.7053688152319,-1282.0228801047203,-1271.5907695057292,-1270.5655077985648,-1207.6569638199308,-1280.475444376934,-1237.1914777001055,-1268.2104470335828,-1206.9669268743091,-1272.3890456371944,-1200.3933036032354,-1233.7468342624345,-1271.9807340706532,-1329.7632421236558,-1229.397464828173,-1340.0138277735095,-1300.1563718183002,-1220.8645925998994,-1299.0534005672082,-1238.653500901555,-1187.0268533381357,-1175.0463595835574,-1266.6854718189422,-1237.5458357298332,-1255.4221244831676,-1273.9048009853962,-1224.878105092021,-1209.8332075546753,-1156.2849571250688,-1162.7444364402459,-1244.7956578809597,-1346.7560920709234,-1301.7711992102957,-1296.873710099493,-1322.8426832030007,-1262.0634111722122,-1163.4223718886572
16,-1254.2092571300211,51.598454208567766,-1269.3944582616937,-1183.9759397525613,-1283.8151968636896,-1188.5621202924597,-1247.6010781250409,-1226.1885190075918,-1275.4609061028461,-1236.6447382421222,-1327.910229237403,-1277.0386612100585,-1240.0587682894632,-1314.7791717729222,-1241.1094768961873,-1291.4685190914108,-1245.7388720371152,-1286.1517471395416,-1256.2829373815366,-1314.7753272005632,-1283.3827074480573,-1293.2569624475148,-1293.868993085271,-1219.3653616017405,-1303.1913281994905,-1263.4657650117758,-1207.4014493530615,-1083.0875749647917,-1291.5340275065914,-1254.046980730584,-1269.7140164159628,-1160.2125163063504,-1231.801816101141,-1321.1515174971887,-1310.6118926004056,-1195.5987490488278,-1298.4796945378296,-1299.7776855486932,-1345.3242166314424,-1276.19474007848,-1171.076016831275,-1238.8840261210476,-1197.705978677765,-1284.023087961823,-1188.823238442275,-1221.8279844360393,-1272.7513187157315,-1282.1655179517286,-1235.322920038463,-1271.9602962899608,-1163.669696342358,-1320.7920370599224,-1253.9975338213656,-1314.5957620205122,-1156.0517113866636,-1309.2905762576636,-1236.0713518147556,-1180.7877706208417,-1260.3862949663023,-1190.8570335583117,-1230.031331842733,-1221.307586687712,-1266.9531926918014,-1318.5721233945083,-1256.1086376316348,-1356.7053688152319,-1282.0228801047203,-1280.509970989298,-1264.0999792211717,-1207.6569638199308,-1280.475444376934,-1237.1914777001055,-1269.194476286749,-1203.4193575571433,-1272.3890456371944,-1202.2377659271738,-1233.7468342624345,-1286.0163969817083,-1329.7624817040287,-1229.397464828173,-1340.0138277735095,-1300.1563718183002,-1219.0271486373765,-1299.0534005672082,-1238.653500901555,-1192.0968166530763,-1175.0463595835574,-1266.6854718189422,-1237.5458357298332,-1320.8455565398215,-1273.9048009853962,-1222.1133868763293,-1212.7089583261827,-1156.2849571250688,-1162.7444364402459,-1244.7956578809597,-1346.7560920709234,-1301.7711992102957,-1296.873710099493,-1301.098845108528,-1262.0634111722122,-1163.4223718886572
17,-1254.3138076121622,50.982128617813196,-1269.3944582616937,-1183.9759397525613,-1283.8151968636896,-1188.5621202924597,-1235.2566953286664,-1226.1885190075918,-1275.4609061028461,-1236.6447382421222,-1327.910229237403,-1277.0386612100585,-1240.0587682894632,-1314.7791717729222,-1241.1094768961873,-1291.4685190914108,-1220.262734464158,-1286.1517471395416,-1256.2829373815366,-1314.7753272005632,-1282.728292791875,-1293.2569624475148,-1293.868993085271,-1217.6952038209245,-1303.1913281994905,-1260.949923713914,-1207.4014493530615,-1083.0875749647917,-1291.5340275065914,-1254.046980730584,-1269.7140164159628,-1160.2125163063504,-1231.801816101141,-1321.1515174971887,-1310.6118926004056,-1195.5987490488278,-1298.6834243969274,-1299.7776855486932,-1345.3242166314424,-1271.1480481096444,-1171.076016831275,-1238.8840261210476,-1197.705978677765,-1281.1923211934961,-1188.823238442275,-1221.8279844360393,-1270.469344962588,-1282.1655179517286,-1268.1674326322284,-1271.9602962899608,-1229.093128399012,-1316.9623393954232,-1253.9975338213656,-1300.338802596377,-1156.0517113866636,-1307.0086025045202,-1239.9010494792549,-1180.7877706208417,-1260.3862949663023,-1192.973616768504,-1230.031331842733,-1221.307586687712,-1266.9531926918014,-1321.3368416102003,-1256.1086376316348,-1356.7053688152319,-1282.0228801047203,-1280.509970989298,-1255.4787294424964,-1207.6569638199308,-1280.475444376934,-1231.7117971671812,-1290.0334456257121,-1206.9669268743091,-1272.3890456371944,-1202.2377659271738,-1233.0619426411192,-1272.0412456641782,-1328.9373468903543,-1229.397464828173,-1338.9065478004347,-1300.1563718183002,-1216.372682225199,-1299.0534005672082,-1235.888782685863,-1190.9611543156243,-1172.2155928152304,-1266.6854718189422,-1237.5458357298332,-1322.5157143206377,-1273.9048009853962,-1220.4432290955133,-1212.7089583261827,-1148.4387922902938,-1162.7444364402459,-1244.7956578809597,-1346.7560920709234,-1301.7711992102957,-1296.873710099493,-1301.098845108528,-1262.0634111722122,-1163.4223718886572
18,-1254.388883462083,51.126047371680535,-1269.3944582616937,-1183.9759397525613,-1283.8151968636896,-1188.5621202924597,-1233.5053368440874,-1226.842933663774,-1275.4609061028461,-1236.6447382421222,-1343.302160617585,-1277.0386612100585,-1257.6524697976292,-1314.7791717729222,-1241.1094768961873,-1291.4685190914108,-1220.262734464158,-1286.1517471395416,-1256.2829373815366,-1314.7753272005632,-1282.728292791875,-1293.2569624475148,-1293.868993085271,-1217.6952038209245,-1303.1913281994905,-1260.949923713914,-1207.4014493530615,-1083.0875749647917,-1289.2520537534476,-1254.046980730584,-1269.7140164159628,-1160.2125163063504,-1239.3853755165608,-1321.1522779168156,-1311.1008020872573,-1195.5987490488278,-1299.0080373581093,-1299.7776855486932,-1345.3242166314424,-1271.1480481096444,-1171.076016831275,-1238.8840261210476,-1197.705978677765,-1281.1923211934961,-1188.823238442275,-1221.8279844360393,-1272.7513187157315,-1307.8801477423349,-1255.13033647066,-1271.9602962899608,-1229.093128399012,-1316.9623393954232,-1253.9975338213656,-1291.772063238746,-1156.0517113866636,-1309.2905762576636,-1239.9010494792549,-1180.7877706208417,-1258.541832642364,-1192.973616768504,-1230.031331842733,-1221.307586687712,-1266.9531926918014,-1318.5721233945083,-1256.1086376316348,-1356.7053688152319,-1282.0228801047203,-1280.509970989298,-1258.3564137759283,-1207.6569638199308,-1280.475444376934,-1231.3742951608365,-1290.0334456257121,-1207.4780709761228,-1272.3890456371944,-1202.2377659271738,-1233.7468342624345,-1272.0412456641782,-1328.9373468903543,-1232.2732155996807,-1315.6102566043278,-1300.1563718183002,-1216.372682225199,-1307.0789562079021,-1235.888782685863,-1190.9611543156243,-1175.0463595835574,-1266.6854718189422,-1210.8963655557873,-1322.5157143206377,-1273.9048009853962,-1220.4432290955133,-1212.7089583261827,-1148.4387922902938,-1162.7444364402459,-1243.6022879853658,-1346.7560920709234,-1301.7711992102957,-1296.873710099493,-1301.098845108528,-1261.17171737133,-1163.4223718886572
19,-1254.5177887794134,51.830584322946386,-1269.3944582616937,-1183.9759397525613,-1283.8151968636896,-1188.5621202924597,-1233.1954806948208,-1226.842933663774,-1277.7428798559897,-1236.6447382421222,-1343.302160617585,-1277.0386612100585,-1240.0587682894632,-1314.7791717729222,-1241.1094768961873,-1291.4685190914108,-1220.3586347300864,-1286.1517471395416,-1256.2829373815366,-1314.7753272005632,-1304.6955878794781,-1293.2569624475148,-1293.868993085271,-1217.6952038209245,-1303.1913281994905,-1262.6200814947301,-1207.4014493530615,-1083.0875749647917,-1289.2520537534476,-1254.046980730584,-1269.7140164159628,-1162.4944900594942,-1239.3853755165608,-1321.1515174971887,-1290.308111180148,-1195.5987490488278,-1299.0080373581093,-1299.7776855486932,-1345.3242166314424,-1271.1480481096444,-1171.076016831275,-1238.8840261210476,-1197.705978677765,-1281.1923211934961,-1188.823238442275,-1202.7441672530551,-1272.7513187157315,-1323.1466847403992,-1255.13033647066,-1271.9602962899608,-1229.093128399012,-1316.9623393954232,-1253.9975338213656,-1291.772063238746,-1156.0517113866636,-1307.0086025045202,-1239.9010494792549,-1180.7877706208417,-1260.3862949663023,-1192.973616768504,-1230.031331842733,-1221.307586687712,-1266.9531926918014,-1318.5721233945083,-1256.1086376316348,-1356.7053688152319,-1283.0100705741268,-1280.509970989298,-1205.1637558867053,-1207.3159806241144,-1280.475444376934,-1231.4943994662226,-1290.0334456257121,-1210.3088377444496,-1272.3890456371944,-1202.2377659271738,-1233.7468342624345,-1286.0163969817083,-1328.9373468903543,-1229.397464828173,-1315.6102566043278,-1300.1563718183002,-1216.372682225199,-1330.0569621422724,-1238.653500901555,-1196.3055822374608,-1175.0463595835574,-1266.6854718189422,-1238.734820903391,-1322.5157143206377,-1273.9048009853962,-1215.3211826922884,-1212.7089583261827,-1148.4387922902938,-1162.7444364402459,-1243.6022879853658,-1346.7560920709234,-1301.7711992102957,-1296.873710099493,-1301.098845108528,-1273.4093670416528,-1163.4223718886572
