Iteration,Mean,Stdev,Run-0,Run-1,Run-2,Run-3,Run-4,Run-5,Run-6,Run-7,Run-8,Run-9,Run-10,Run-11,Run-12,Run-13,Run-14,Run-15,Run-16,Run-17,Run-18,Run-19,Run-20,Run-21,Run-22,Run-23,Run-24,Run-25,Run-26,Run-27,Run-28,Run-29,Run-30,Run-31,Run-32,Run-33,Run-34,Run-35,Run-36,Run-37,Run-38,Run-39,Run-40,Run-41,Run-42,Run-43,Run-44,Run-45,Run-46,Run-47,Run-48,Run-49,Run-50,Run-51,Run-52,Run-53,Run-54,Run-55,Run-56,Run-57,Run-58,Run-59,Run-60,Run-61,Run-62,Run-63,Run-64,Run-65,Run-66,Run-67,Run-68,Run-69,Run-70,Run-71,Run-72,Run-73,Run-74,Run-75,Run-76,Run-77,Run-78,Run-79,Run-80,Run-81,Run-82,Run-83,Run-84,Run-85,Run-86,Run-87,Run-88,Run-89,Run-90,Run-91,Run-92,Run-93,Run-94,Run-95,Run-96,Run-97,Run-98,Run-99
0,407.6970531590143,46.39470340472297,341.97652597404436,394.2020583589114,391.9232946171688,361.6050625869105,426.12906576137937,435.1977780023272,423.25433139500836,361.6620427191609,439.45435821025495,364.01563584170276,385.2570986846514,369.4293073759229,440.3199346485215,403.0172584713023,347.2975539638114,385.82277172793346,375.8041500210031,407.94070596802146,405.47805389905415,378.8052526666504,400.3681026501346,404.08729334332816,395.2242950503157,364.94480983735787,459.3582539571163,379.76949161204243,452.2240945725183,377.9119088795342,439.9887203886705,371.2793615465698,355.11987289530276,344.8443822415257,465.23231242598723,498.2706431538378,490.0731022765387,430.2123221191116,378.9613465037031,386.11156997157065,404.78274638938694,381.9845268273284,419.20714008249996,372.15246622385087,350.30095854383194,371.6283297959042,380.7714292179324,357.0538632053476,390.39679126184006,393.7494890513217,381.09745035006637,501.2464355268942,403.8016785335915,372.30533178357206,413.9789157144121,374.9208555728567,497.8360828829508,385.2491607731734,515.8416102103266,415.79430820160275,374.19338367941293,485.3442035075347,373.790302744848,377.406857706656,458.7285573670713,437.0364454873936,435.3816419222912,423.5729511298068,428.5090587328762,451.10273033237314,389.6325754036451,383.8864034036727,345.09248153672996,414.21644373580045,423.22106827730164,325.2110520572879,424.49301110481065,472.47115556353947,547.341642145053,388.47146671581487,407.8472529828312,480.6494016361812,447.9242442279528,510.2983188483559,417.10691873743883,385.40452840693587,342.6788294503337,350.2280850796867,348.54662681353034,520.5569065722582,381.57235829440464,462.92328461183655,386.91769028437363,394.27217556191084,363.9784502773427,375.90045488531746,435.97467419943985,467.32006872907704,404.0016011580426,371.2005389384389,471.33235047890946,367.29342870531684
1,540.1064638308192,67.70795063948833,336.07010436770554,524.238714259563,520.5276173319618,433.9331060741123,569.2543787761596,542.8932000376967,522.1274799025217,504.74312673965636,610.3716203311337,531.8246983734526,584.8437721417786,598.9946774263583,474.84710020376156,489.41044594093006,513.2797360844212,583.5960774406249,512.4777843185303,624.1984188662527,450.63001753150417,624.2353185185858,546.824182219268,547.1404331991637,478.10753534324607,430.3342846685169,524.3791663860773,512.3580673511294,495.83836956428024,558.7253145098427,545.6549486488913,420.4117426854732,442.2966476998297,326.85973630126716,498.46611535349626,576.7918010268957,648.7565624842946,565.414216918191,547.3203542937147,542.0385778454383,415.53708885350255,615.6303524182945,614.8645585279453,580.9778342183749,476.4383428767149,598.8701943354056,591.2517551181327,520.8162191452552,536.7003696325191,663.8487886249404,554.3628673744815,633.5232251152132,458.3799932565059,549.6598267339667,487.32847921980294,602.2622463901076,657.1232216588277,503.112134724824,541.7817495047051,507.02208191290697,582.3950449625969,626.8710459414345,546.4263191737283,548.2300516429648,529.5890823989051,579.7103198945747,553.1387602258264,518.8650666683209,527.4522224513578,525.738309285637,539.1494661518472,603.0455262634636,644.9606504043065,477.48898600003497,545.263929771275,415.47501629996907,582.5056241014804,555.2512651144242,617.6442396599332,607.3157827496187,602.4613783479326,595.2878587217273,454.60407622876704,678.3692329938946,531.1466331383178,477.78662963017115,471.9131461148041,500.9200940161161,446.4937649147205,553.4651565000651,631.5725417078594,559.7339118754256,635.0963417847753,467.1011502596009,448.61667196945314,585.1839705765221,602.0068593722865,548.1802528418276,642.6462442500691,531.7550138408601,489.2738691184578,560.8080949084131
2,538.4761161286573,66.00262125797367,479.0782884727384,605.4588595042156,452.3649205532466,368.1523446858556,564.7650565915814,502.2056069200504,510.88790955489355,510.88752056238354,579.6181966874966,537.2561058862168,538.9634134587469,575.6502186828159,484.0052597834893,483.6989862122087,517.683292704962,510.6663094129838,600.7030277133558,615.7813495337026,590.2799764585221,502.7227917021298,441.8264146148169,557.4007272512395,541.172844832847,497.4040472370037,547.8084124936705,526.802320452208,556.4000418469199,562.9342408287799,524.8010187105283,425.4589509150457,550.9608610847075,378.6419377027334,416.9636515174466,555.7192847827218,597.0836491835707,570.407921131171,548.4314858192516,494.2362760486241,435.97504832855356,606.5290465879632,497.1638823026722,605.439961252912,487.2456589768792,481.60295884817316,577.9338961216285,564.2817679428489,511.19224788320327,636.8531876656821,518.223398273708,634.61846880772,489.18956378715876,554.6004709874203,537.8783550246433,637.1762735768517,677.6417976514758,507.1148301272481,529.3712195465339,496.45290115175663,551.0236931481,634.8454321008917,551.9794724719609,417.07526511685666,658.5146902620282,605.8946872172918,568.4743888220448,540.297628995838,339.37417823785347,538.8402689102386,595.3881419807304,517.9523939585971,649.138884500901,542.4037414886463,519.4877113509774,518.924033078593,596.225719430867,552.6708134800676,643.1417116176041,582.7437771878814,601.3987369183071,621.8072973028214,483.50920189881305,627.7844341414122,520.7104530368558,477.2686863500281,491.81981260767344,530.1623320758525,469.0243691745185,571.2887657528561,612.5054971623907,547.0876186576805,523.614555580204,490.281800873124,483.6493870254801,456.0563875289308,612.9721686582287,625.495858199151,666.7320411087454,496.1892300640347,458.80707850938126,543.2808105013653
3,520.4732575000937,62.17605072952367,475.71428664914754,568.4000489856061,441.15323724468806,451.45641745991304,564.2363478959962,496.8638578488845,468.4697828981057,477.2189996593798,521.6934827386375,537.6193708553254,467.4352580730166,575.187734024032,531.4868212606256,475.801500600417,480.43760254944186,543.9596091472473,546.060186344254,597.9705663011899,603.8900314504797,494.12794080207647,445.9291691849186,535.9858548938449,525.5191616269741,498.47172346151075,544.3452770454619,456.87226254176704,584.4616266351678,515.1551902951197,510.62652140928094,435.6395970010745,519.0373625402518,393.68861675981293,395.9077687857832,556.1565067016895,646.1586480409552,498.66860854958696,542.2221298760959,427.26584249828494,446.758259898807,612.1202901264039,494.1061371832822,584.8400042628929,464.64852967154496,470.1072660506151,558.9473919157557,499.0170226597754,512.2601424965499,621.981518063567,589.6224275887723,561.1453475208959,505.3923775293205,505.27843717209794,475.7562387554617,592.5221817358143,609.052260988836,452.24941438623034,509.52457448524535,494.4128571223014,524.9166312620927,621.6090072573891,539.1581898954882,413.3852335545959,579.7830608897806,546.1430087706192,515.9699179071723,523.8396636152871,342.9528161608072,478.03650894645756,586.184707899756,518.5883312203453,612.3855043170611,537.4184055700248,525.7723389591201,510.4056980830619,589.5467564601922,484.2980308400119,593.1254234617923,524.223064927717,593.177487534193,520.9513731768144,460.1304007128482,618.9945448310501,543.9444686946443,444.58111186883326,594.567220425951,581.7816866284072,411.4350858560105,585.6596088260034,612.8707148469807,544.3909115635,462.77728290157376,444.0636893861636,457.7777702782122,472.7378326343723,620.9475802544916,545.6684315732354,624.6899991527853,415.55750503356626,468.15573421858676,543.6853793621259
4,511.3677682457793,57.986654353221304,446.8938112537122,550.9432516680519,463.6543339684942,438.211405072416,556.9222004722617,496.0772253195877,465.23043025243163,464.6706320974506,523.3512157754117,516.2874490241929,459.7645169471785,567.0524305484455,546.0457391388,507.73372774237174,478.6122012815721,538.8405066683852,539.8625505553167,554.3514896297681,548.1358937228696,485.5845106398718,476.25840507452386,519.917638199816,481.7965035048112,465.6740514346252,534.9311462913623,483.6756827499793,587.1050306647768,517.7650420108238,513.8786908940638,460.970031222519,523.7183333852731,431.1636281155107,419.18726128614185,512.7369769472467,649.9376514979537,502.167024991436,542.2224463712782,409.6433711356016,414.46389194739294,622.1294303233215,506.3881618483515,537.1738414166202,477.8981106292535,429.8490750989898,571.0304910470002,505.75078812491563,525.0663833105866,448.76378878432394,583.4285701531039,558.9359703060741,533.4675126609441,499.2177908873903,474.7254281002031,553.2567079413831,576.8965234862882,395.6698490091817,500.4343333742981,505.90647000089024,515.9386179948153,621.1360516314621,521.585836552489,401.11650842963024,520.8643517973381,543.468516741478,519.6934672024533,542.6902069962787,357.76522342027016,469.8519551890253,532.5797570129024,521.4441507357825,581.643371721237,486.52862162978136,480.2504638992273,490.13744885206756,557.9782146873372,513.1815505563686,586.6695934162016,524.3602371848132,592.7814686039936,515.9933935426861,506.15080784302666,623.2640416326924,539.894734901588,455.6255229062848,579.2297472723449,538.6614017404497,323.19454216256906,570.5446453541765,585.3342386020468,453.4549700985984,530.8005788678012,442.18001485125916,444.52882084735205,487.1975173144638,618.7559584092908,545.3066965105929,587.7307104599597,500.7433461006631,459.8551676672418,545.2367972310625
5,512.3676980406897,54.01835000472381,414.04260266278294,603.4321078056647,450.57751848468195,431.2221324519493,543.796174764566,493.12700373607817,463.0610358742976,474.3287853280417,523.3177645621095,511.84020698417294,489.0765741614824,564.1626535093872,531.8673800555654,497.8324122751128,491.457359212912,499.37314442946047,539.8625505553167,554.9634646239581,536.9624452279616,486.74770543176476,476.25840507452386,526.2498804354414,489.67485517314185,469.5398443950284,534.7634254416753,439.97611428381384,587.8154155141548,528.5656525400605,532.5553355941424,481.05779820598383,522.2592344158508,480.3539815873467,451.0665618964733,513.4622527698086,633.5870143298872,556.3078751371426,542.3361837049453,409.63117435955394,424.02428523125144,616.2357583784158,499.74830755306886,481.6082884265707,477.6131460357361,498.059530790157,571.0273985200081,496.9598287083253,519.6690098364838,571.2586591235365,518.2619899019702,534.856672904361,549.8224739304536,500.51445893564886,496.23623842030906,551.9493360016337,532.5068399255626,414.1706947895544,499.0412118492954,505.26749060615526,519.7282654915277,627.1269712606561,521.151431877626,398.98669965213287,518.3773758936893,541.1397552491379,521.3454634152729,563.9629932565676,348.5329183853116,464.7690003767829,520.4181149694674,498.36688812063846,591.4302277228936,490.13336909208374,480.2504638992273,436.33996969353893,516.2652697285754,485.4055671225333,602.926666550251,512.2290580711774,544.3462770121595,520.6159163583476,502.2772798768364,629.9240529258198,536.1115852285053,453.9445323184351,580.3313645374958,537.1956604667813,413.69332132179534,533.857285927992,535.1790480450411,508.759556412533,537.4567052348839,477.41227576822786,392.30852393587503,483.7194522511734,594.5318384776148,548.4141833028274,590.2736308707537,474.57466305903006,555.5692728254052,592.0432612176066
6,508.1334958418021,52.89449251451634,410.57260923812055,575.7065542051882,446.24202370934046,431.2221324519493,498.974457118229,488.33371002458676,452.8879567307148,430.90534479000314,523.3177645621095,520.9969132645958,532.7861374943652,572.1266155833634,531.8673800555654,508.8447396527412,527.4169274372049,499.37314442946047,539.8625505553167,554.856172111679,489.8345874646284,486.7297189476512,476.25840507452386,513.2741410335938,487.78396212749976,468.04985855418414,532.6565430859936,445.1311655203489,541.5082337459005,557.1485533101754,575.5946679005039,478.7002016264481,466.4530994686084,480.3933482825282,437.2560952136875,490.28002687028385,596.0410533668324,557.5928467373255,542.3361837049453,336.0198897347496,424.02428523125144,588.3276184660564,466.99747672704024,485.1603678622252,477.6131460357361,498.059530790157,571.0273985200081,499.1572250288243,519.6690098364838,545.1582157773067,509.95141998280616,544.6376282460176,489.4728129004319,500.51445893564886,500.1060033611073,554.2416661027853,525.3455794820115,413.3111593951338,511.801099487269,505.26749060615526,520.0072513477859,562.1791425502081,520.4624482732057,430.9419817256681,519.1084606116262,570.5006308976697,522.4991261696092,559.6256581717529,371.64575389196204,464.7690003767829,454.7772083977041,514.410670062,595.9755491775685,487.6145610826907,479.1962952254531,436.33996969353893,514.6929044292734,531.4906200897326,602.926666550251,520.124710072947,545.4723169467709,518.5608224700354,499.92286949572593,621.582812316283,536.1115852285053,471.1504779198775,544.8254853858667,549.4709110110015,430.71360008422005,534.358369326888,539.6316918728868,499.2434139602466,535.8568387488697,477.91411426575183,392.4166297779853,426.0122501992517,579.8299883189067,549.8638905981506,591.2909433889191,507.7010775538592,556.0464696684629,590.9051088848856
7,507.2696455931606,51.52183784457392,412.13910090585915,585.103872135576,448.3869095998332,431.93631912408154,497.24913340677693,487.0445355665127,461.4026852541719,432.6427956474197,523.3177645621095,509.7287887579188,532.7861374943652,568.70887548443,531.8673800555654,508.8447396527412,543.6765209564016,499.37314442946047,539.8625505553167,554.856172111679,489.8345874646284,475.0954661956627,476.25840507452386,513.5490417161292,496.64142063440596,468.04985855418414,533.8647921737064,445.1311655203489,541.5082337459005,541.6799041246012,571.3695883204016,499.0903952920122,468.81331922770886,473.6600391787212,437.2560952136875,490.28002687028385,566.2887470599736,557.5928467373255,542.3361837049453,336.090840868589,424.02428523125144,572.0480432926502,515.4785903293018,469.33710091453185,477.6131460357361,498.059530790157,571.0273985200081,537.717695525092,519.6690098364838,539.7562609360588,509.21826151540887,543.1721379485759,503.4361607444227,500.51445893564886,498.14844036314094,554.2416661027853,523.4442204529589,509.11930355028727,503.84649764443583,502.4035079821968,522.1436049113609,568.1694787947821,520.4947099755668,403.7757534652789,519.7781948132174,572.9977266150402,520.6027896296627,562.6548513856814,371.64575389196204,464.7690003767829,515.0967631990151,465.6068250610618,537.7371905494738,489.7028116085491,470.6792110989346,436.33996969353893,514.6929044292734,500.5308820800138,602.926666550251,520.124710072947,545.4723169467709,525.1773129631353,509.2056499959747,630.7223370480028,536.1115852285053,469.8641821669713,498.3500376688664,547.2940321577527,454.7491310682341,534.358369326888,535.0812266852606,425.86236289635855,535.8568387488697,457.3558975403911,392.2973405555714,426.0122501992517,579.8299883189067,549.8638905981506,596.5561624777614,498.32175327074253,541.6528863373151,590.9051088848856
8,505.9893783378894,52.78365398389437,412.13910090585915,585.103872135576,448.20804649291586,431.93631912408154,510.15340956310786,487.0445355665127,458.66805559322063,422.83578803516264,523.3177645621095,509.7287887579188,532.7861374943652,607.4281822271877,531.8673800555654,508.8447396527412,543.6765209564016,499.37314442946047,539.4162357275427,556.6802967829257,489.8345874646284,475.0954661956627,476.25840507452386,514.7402371014014,496.64142063440596,468.04985855418414,533.8647921737064,445.1311655203489,541.5082337459005,528.5008024127486,569.3439836932187,499.0903952920122,459.52157421690396,473.6600391787212,437.2560952136875,490.28002687028385,553.3519759572979,557.5928467373255,542.3361837049453,340.0554697466169,424.02428523125144,582.6312781724487,515.4785903293018,469.33710091453185,477.6131460357361,498.059530790157,571.0273985200081,537.717695525092,519.6690098364838,548.734349145541,437.0045860861195,533.6587707057478,503.4361607444227,500.51445893564886,497.76190692907585,553.7855453884672,523.4442204529589,471.11515636746884,505.99852821258116,505.4366942962107,522.485016640163,610.1723779607571,525.7888897507061,404.8411388602367,519.7781948132174,553.571951931613,520.6027896296627,562.6548513856814,371.64575389196204,464.7690003767829,515.0967631990151,455.88058695496716,537.7371905494738,489.7028116085491,470.6792110989346,436.33996969353893,514.6929044292734,500.5308820800138,598.3544065528384,520.124710072947,545.4723169467709,525.1773129631353,476.20381341564115,614.3356253829368,536.1115852285053,469.8641821669713,498.6481869763664,531.4328294255546,454.7491310682341,534.358369326888,537.1936802125487,420.7120849873351,537.4567052348839,466.2252370476015,395.57536853045804,426.0122501992517,579.8299883189067,549.0453560973015,596.4599921901289,498.29613119655113,541.6528863373151,590.9051088848856
9,504.80336528787683,51.70938379096171,412.13910090585915,585.103872135576,444.40367181814474,431.93631912408154,510.15340956310786,488.33371002458676,492.6273114465792,422.83578803516264,523.3177645621095,509.7287887579188,532.7861374943652,590.3093171046542,531.8673800555654,508.8447396527412,543.2192563734426,495.56101619249245,540.9380721488837,554.856172111679,489.8345874646284,475.0954661956627,476.25840507452386,514.7402371014014,499.01568929311276,468.04985855418414,533.8647921737064,445.57188760236284,541.5082337459005,471.49211653374374,571.3780506200316,499.0903952920122,459.7561424321099,473.6600391787212,437.2560952136875,490.28002687028385,542.5325930780787,547.4046555261123,494.3690960267299,340.0554697466169,424.02428523125144,577.0295693889329,515.4785903293018,469.33710091453185,477.6131460357361,498.059530790157,571.0273985200081,537.717695525092,512.1591903773449,548.734349145541,442.64580853112284,539.5229602296231,503.4361607444227,500.51445893564886,497.76190692907585,555.6433467198991,521.8481308215081,471.11515636746884,538.1770138363801,505.1734276655958,522.485016640163,624.6850915336227,522.9500684115643,415.7429586710197,519.7781948132174,553.571951931613,520.6027896296627,562.6548513856814,371.64575389196204,464.7690003767829,515.0967631990151,454.3499613225711,508.92887374454693,487.6145610826907,470.6792110989346,436.33996969353893,513.8586688108219,508.4835251729873,598.3544065528384,520.124710072947,545.4723169467709,525.1773129631353,475.8425809506325,623.1891955000044,538.7101275816076,469.8641821669713,501.70077436874374,531.4328294255546,454.7491310682341,534.358369326888,538.1224796504705,420.7120849873351,537.4567052348839,460.98326740734655,397.32522781095815,426.0122501992517,579.8299883189067,549.0453560973015,548.0270006265187,498.1994656133377,543.3095533525589,590.9051088848856
10,503.9713813846447,52.156149462643214,412.13910090585915,585.103872135576,444.40367181814474,431.93631912408154,501.7146230213904,488.530533697511,492.6273114465792,422.83578803516264,523.3177645621095,509.7287887579188,532.7861374943652,590.7674043777658,531.8673800555654,506.95340912663136,543.6765209564016,489.68422975052744,538.5146670865464,554.856172111679,489.8345874646284,475.0954661956627,476.25840507452386,514.7402371014014,499.01568929311276,465.08161945343824,533.7928152340953,445.57188760236284,541.5082337459005,486.80008203921653,571.3780506200316,498.1088631709501,459.7561424321099,473.6600391787212,429.19029105471157,490.28002687028385,539.5931107183253,550.0514142172389,494.3690960267299,340.0554697466169,424.02428523125144,577.4825635074575,515.4785903293018,469.33710091453185,477.6131460357361,498.059530790157,572.1787532263944,537.717695525092,512.1591903773449,548.3639170716889,442.64580853112284,529.3962954426112,503.4361607444227,500.51445893564886,497.76190692907585,555.6433467198991,521.8481308215081,471.11515636746884,538.1770138363801,497.6016004233155,522.485016640163,624.6850915336227,509.3077976820942,415.7429586710197,519.7781948132174,572.9009155908864,522.4134186879775,562.6548513856814,371.64575389196204,464.7690003767829,515.0967631990151,454.18608170730647,508.92887374454693,489.7028116085491,470.6792110989346,436.33996969353893,504.73558248971597,507.678232877074,598.3544065528384,520.124710072947,545.7659485712284,525.1773129631353,476.7251370201054,623.1891955000044,536.1115852285053,471.0599244637252,501.70077436874374,531.4328294255546,454.7491310682341,534.358369326888,538.1224796504705,420.7120849873351,537.4567052348839,459.89641624491935,397.32522781095815,426.0122501992517,579.8299883189067,552.0781478097269,542.2660434551948,450.6044087971068,543.3095533525589,590.9051088848856
11,505.43445676763145,50.93722464036206,411.7867721868747,585.103872135576,442.2052326499023,432.10575368354466,509.73682055598584,499.38243024736266,494.5100958860961,427.6172692051131,523.3177645621095,511.55567226871113,532.7861374943652,590.7674043777658,531.8673800555654,506.95340912663136,543.6765209564016,489.68422975052744,538.5146670865464,554.856172111679,489.8345874646284,475.0954661956627,476.25840507452386,514.7402371014014,499.01568929311276,465.08161945343824,533.7928152340953,445.57188760236284,541.5082337459005,544.3461573449916,571.3643572052671,498.1088631709501,459.7561424321099,473.4120988549789,429.19029105471157,490.28002687028385,539.0032321566663,550.2209217092965,494.3690960267299,388.76065655252205,424.02428523125144,577.8837221608991,515.4785903293018,469.33710091453185,477.6131460357361,498.059530790157,572.1787532263944,537.717695525092,512.1591903773449,548.3639170716889,442.64580853112284,539.5229602296231,503.4361607444227,500.51445893564886,504.9184867240573,555.6433467198991,521.8481308215081,471.11515636746884,538.1770138363801,495.991463058229,522.485016640163,624.6850915336227,505.84367589521713,415.7429586710197,518.3773758936893,572.9009155908864,522.4134186879775,559.6256581717529,371.64575389196204,464.7690003767829,515.0967631990151,454.18608170730647,537.7371905494738,487.6145610826907,470.6792110989346,436.2780027642832,504.73558248971597,507.678232877074,598.3544065528384,520.124710072947,526.7585755778077,525.1773129631353,476.7714905031201,623.1891955000044,536.1115852285053,471.0599244637252,501.70077436874374,531.4896403166588,454.7491310682341,534.358369326888,537.8751231788419,419.62202436274106,537.4567052348839,459.89641624491935,397.32522781095815,426.0122501992517,579.8299883189067,551.4310606919521,542.8725782342735,450.6044087971068,543.3095533525589,592.1034267574457
12,505.61507554776585,49.27400720616281,412.22349206730223,585.103872135576,470.03135440908994,432.10575368354466,508.23331036373986,499.38243024736266,494.5100958860961,422.83578803516264,523.3177645621095,511.55567226871113,532.5312474753113,590.7674043777658,531.8673800555654,506.95340912663136,526.5795370813819,489.68422975052744,538.5146670865464,554.856172111679,489.8345874646284,475.0954661956627,476.25840507452386,514.7402371014014,499.01568929311276,465.08161945343824,533.7928152340953,445.57188760236284,541.5082337459005,541.8531964855974,571.3643572052671,498.1088631709501,459.7561424321099,458.0034912431047,429.19029105471157,490.28002687028385,537.1659075011447,500.11967413687825,494.3690960267299,456.4149612819476,424.02428523125144,577.8837221608991,515.4785903293018,469.33710091453185,477.6131460357361,498.059530790157,572.1787532263944,537.717695525092,519.6690098364838,548.3639170716889,442.64580853112284,529.3962954426112,503.4361607444227,500.51445893564886,504.9184867240573,555.6433467198991,521.8481308215081,471.11515636746884,538.1770138363801,495.991463058229,522.485016640163,624.6850915336227,505.84367589521713,415.94664944033894,518.3773758936893,572.9009155908864,522.4835775591459,559.6256581717529,371.64575389196204,464.7690003767829,515.0967631990151,454.18608170730647,508.92887374454693,489.7028116085491,471.13694243049395,436.2780027642832,504.73558248971597,537.7424338056852,598.3544065528384,520.124710072947,530.3052944159925,525.1773129631353,476.36257219325,623.1891955000044,536.1115852285053,468.8028829455117,501.70077436874374,531.4896403166588,454.7491310682341,535.4827753918053,538.1224796504705,419.62202436274106,537.4567052348839,460.1588003728985,397.32522781095815,426.0122501992517,579.8299883189067,551.4310606919521,542.8725782342735,462.2523704286339,543.3095533525589,592.1034267574457
13,504.7815650147069,48.65599880076064,408.9730030981418,585.103872135576,470.03135440908994,432.10575368354466,508.0515724752388,499.38243024736266,492.6273114465792,422.83578803516264,523.3177645621095,511.55567226871113,480.39485325220716,590.7674043777658,531.8673800555654,506.95340912663136,526.5155934994528,489.68422975052744,537.5501899232863,554.856172111679,489.8345874646284,475.0954661956627,476.25840507452386,513.5490417161292,496.64142063440596,465.08161945343824,533.7925186362672,445.57188760236284,541.5082337459005,544.6345410982474,570.9509937243714,498.1088631709501,459.7561424321099,458.8539075968629,429.19029105471157,490.28002687028385,537.1659075011447,508.1227640093362,494.3690960267299,458.6186910310489,424.02428523125144,577.8837221608991,515.4785903293018,469.33710091453185,477.6131460357361,498.059530790157,570.5722915779727,537.717695525092,519.6690098364838,548.3639170716889,442.3820886910188,539.5229602296231,489.4728129004319,500.51445893564886,501.075315156732,555.6433467198991,532.6953996659115,471.11515636746884,538.1770138363801,495.81096105993436,519.9066534585793,624.6850915336227,505.84367589521713,443.69250808407907,519.7781948132174,572.9009155908864,522.4134186879775,559.6256581717529,371.4669645898745,464.7690003767829,515.0967631990151,454.18608170730647,509.90530035231893,487.6145610826907,471.3013071166925,436.2780027642832,504.73558248971597,537.7424338056852,598.3544065528384,520.124710072947,472.7637870036052,525.1773129631353,476.20381341564115,612.7332362114652,536.1115852285053,468.8028829455117,501.70077436874374,531.4896403166588,454.7491310682341,535.4779313213953,538.1224796504705,428.1636391821991,535.8568387488697,460.1588003728985,397.32522781095815,426.0122501992517,579.8299883189067,551.4310606919521,542.8725782342735,462.2523704286339,543.3095533525589,592.1034267574457
14,505.08398627325755,47.73550180678692,458.8572631610823,585.103872135576,470.03135440908994,432.10575368354466,509.537586980748,498.09172758439263,494.5100958860961,422.83578803516264,523.3177645621095,511.55567226871113,480.39485325220716,590.7674043777658,531.8673800555654,506.95340912663136,526.5795370813819,489.68422975052744,536.8028036865418,554.856172111679,489.8345874646284,475.0954661956627,476.25840507452386,513.5490417161292,496.64142063440596,465.08161945343824,533.7925186362672,445.57188760236284,541.5082337459005,544.6345410982474,570.9509937243714,498.1088631709501,459.7561424321099,465.1039470752774,437.1397644893449,490.28002687028385,536.9317670790471,508.1227640093362,496.5559462235099,458.6186910310489,424.02428523125144,582.4356318263667,515.4785903293018,469.33710091453185,477.6131460357361,498.059530790157,570.5722915779727,537.717695525092,511.5972081086359,548.3639170716889,442.3820886910188,539.5229602296231,489.4728129004319,500.51445893564886,500.0110143210643,553.8384058311395,532.6953996659115,469.1111566737646,538.1770138363801,492.748863749963,522.3093736438113,624.6850915336227,505.84367589521713,443.69250808407907,519.7781948132174,553.6878344999174,522.4134186879775,559.6256581717529,369.7253437898635,464.7690003767829,515.0967631990151,455.299823723565,509.90530035231893,488.08319372029035,471.3013071166925,436.2780027642832,513.8586688108219,507.678232877074,598.3544065528384,520.124710072947,472.7637870036052,525.1773129631353,476.20381341564115,623.1891955000044,536.1115852285053,471.0599244637252,500.278099170314,531.4896403166588,454.7491310682341,534.7646811540969,538.1224796504705,428.1636391821991,537.4567052348839,460.1588003728985,397.32522781095815,426.0122501992517,579.8299883189067,551.4310606919521,542.8725782342735,462.2523704286339,543.3095533525589,592.1034267574457
15,505.12578747219135,48.67118747287873,468.4732628833056,585.103872135576,470.03135440908994,432.10575368354466,508.0515724752388,499.38243024736266,494.5100958860961,422.83578803516264,523.3177645621095,511.55567226871113,480.39523451137035,590.7674043777658,531.8673800555654,506.95340912663136,526.5801067311724,489.68422975052744,536.8028036865418,554.856172111679,489.8345874646284,475.0954661956627,476.25840507452386,513.5490417161292,496.64142063440596,465.08161945343824,533.7928152340953,445.57188760236284,541.5082337459005,541.8531964855974,570.9646630273595,498.1088631709501,459.7561424321099,465.1039470752774,401.93628057198765,490.28002687028385,543.9067883159925,508.1227640093362,494.3690960267299,458.6186910310489,424.02428523125144,582.4356318263667,515.4785903293018,469.33710091453185,477.6131460357361,481.017204189757,569.4139938267017,537.717695525092,507.8135642306217,548.3639170716889,439.3624285136893,530.8973238275846,489.4728129004319,500.51445893564886,507.2558872070915,553.8384058311395,521.8481308215081,469.1111566737646,538.1770138363801,492.748863749963,522.485016640163,624.6850915336227,505.84367589521713,443.69250808407907,519.7781948132174,567.2299264793431,522.4134186879775,559.6256581717529,369.7253437898635,464.7690003767829,515.0967631990151,455.6579718033667,517.4616393594915,490.1899348133476,471.13694243049395,436.2780027642832,515.5155182294892,507.678232877074,598.3544065528384,520.124710072947,472.7637870036052,525.1773129631353,475.8425809506325,614.3356253829368,538.7101275816076,471.0602276702816,499.26150425446156,531.4896403166588,454.7491310682341,578.9902835519858,537.8751231788419,428.1636391821991,535.8568387488697,465.35465844384197,397.32522781095815,426.0122501992517,579.8299883189067,551.4310606919521,542.8725782342735,462.2523704286339,543.3095533525589,592.1034267574457
16,504.66631900965723,48.402020634234965,449.2944775025064,585.103872135576,470.03135440908994,431.93631912408154,507.4044855807839,498.09172758439263,494.5100958860961,422.83578803516264,523.3177645621095,511.55567226871113,480.39523451137035,590.7674043777658,531.8673800555654,506.95340912663136,526.7478216692573,489.68422975052744,536.8028036865418,554.856172111679,489.8345874646284,475.0954661956627,476.25840507452386,513.5490417161292,496.64142063440596,465.08161945343824,533.7928152340953,445.57188760236284,541.5082337459005,544.3461573449916,570.9646630273595,498.1088631709501,459.7561424321099,458.8539075968629,437.1397644893449,490.28002687028385,543.9067883159925,508.1227640093362,494.3690960267299,458.6186910310489,424.02428523125144,582.4356318263667,514.0281065790438,469.33710091453185,477.6131460357361,481.017204189757,570.5722915779727,537.717695525092,517.0775618916953,548.3639170716889,454.6492219640538,540.991043898308,489.4728129004319,442.2906914011615,507.2558872070915,553.8384058311395,521.8481308215081,469.1111566737646,538.1770138363801,492.748863749963,522.485016640163,624.6850915336227,505.84367589521713,441.05245069441867,520.3091686615749,567.2299264793431,522.4134186879775,558.076905178189,373.04541030474013,464.7690003767829,515.0967631990151,455.6579718033667,517.4588322813271,488.08319372029035,471.13694243049395,435.77914312093856,515.5155182294892,537.7424338056852,598.3548266506698,520.124710072947,472.7637870036052,525.1773129631353,475.8063879590055,614.3356253829368,538.7101275816076,468.8031958355543,499.26150425446156,531.4896403166588,454.7491310682341,535.160668334604,537.8751231788419,424.7999081915237,537.4567052348839,465.35465844384197,397.32522781095815,426.0122501992517,579.8299883189067,551.4310606919521,542.8725782342735,450.61711714429276,543.3095533525589,592.1034267574457
17,503.7178019885707,48.29029708714624,449.2944775025064,585.103872135576,470.03135440908994,431.93631912408154,499.0084408425634,498.09172758439263,494.5100958860961,422.83578803516264,523.3177645621095,511.55567226871113,480.39523451137035,590.7674043777658,531.8673800555654,506.95340912663136,493.44659650530957,489.68422975052744,536.8028036865418,554.856172111679,488.594393580329,475.0954661956627,476.25840507452386,514.7402371014014,496.64142063440596,468.04985855418414,533.7928152340953,445.57188760236284,541.5082337459005,544.3461573449916,570.9646630273595,498.1088631709501,459.7561424321099,458.8539075968629,437.1397644893449,490.28002687028385,543.6775266869042,508.1227640093362,494.3690960267299,457.8041057139552,424.02428523125144,582.4356318263667,514.0281065790438,470.29232648328633,477.6131460357361,481.017204189757,572.1787532263944,537.717695525092,507.70053683291246,548.3639170716889,412.16334749011486,530.8973238275846,489.4728129004319,450.5687661733911,507.2558872070915,555.6433467198991,532.6953996659115,469.1111566737646,538.1770138363801,495.81096105993436,522.485016640163,624.6850915336227,505.84367589521713,443.69250808407907,520.3091686615749,567.2299264793431,522.4134186879775,558.076905178189,384.4468129332062,464.7690003767829,515.0967631990151,461.0016614787324,507.22670479950835,490.1899348133476,471.13694243049395,435.77914312093856,513.8586688108219,507.6513521218803,598.8258665042468,520.124710072947,473.33902757777463,525.1773129631353,476.7251370201054,614.3356253829368,536.1115852285053,469.77629425364813,499.54242290540697,531.4896403166588,454.7491310682341,533.6923203122868,537.8751231788419,426.24996740735065,537.4567052348839,465.61333555220546,397.32522781095815,426.0122501992517,579.8299883189067,551.4310606919521,542.8725782342735,450.61711714429276,543.3095533525589,592.1034267574457
18,504.36603091565433,49.73512279951928,449.2944775025064,585.103872135576,470.03135440908994,431.93631912408154,501.1341394394268,499.38243024736266,494.5100958860961,422.83578803516264,541.0917178324717,511.55567226871113,474.7259476069496,590.7674043777658,531.8673800555654,506.95340912663136,493.44659650530957,489.68422975052744,536.8028036865418,554.856172111679,488.594393580329,475.0954661956627,476.25840507452386,514.7402371014014,496.64142063440596,468.04985855418414,533.7928152340953,445.57188760236284,543.2795562495656,544.3461573449916,570.9646630273595,498.1088631709501,462.09839660592974,458.85337405085033,437.8760515162828,490.28002687028385,546.1876221819136,508.1227640093362,494.3690960267299,457.8041057139552,424.02428523125144,582.4356318263667,514.0281065790438,470.29232648328633,477.6131460357361,481.017204189757,570.5722915779727,578.1261486457511,508.2114043401666,548.3639170716889,412.16334749011486,530.8973238275846,489.4728129004319,442.1047804621115,507.2558872070915,553.8384058311395,532.6953996659115,469.1111566737646,538.7801387213768,495.81096105993436,522.485016640163,624.6850915336227,505.84367589521713,441.05245069441867,520.3091686615749,567.2299264793431,522.4134186879775,558.076905178189,385.086755624674,464.7690003767829,515.0967631990151,461.1377630923594,507.22670479950835,488.54085417406435,471.13694243049395,435.77914312093856,515.5155182294892,507.6513521218803,598.8258665042468,521.5865811497323,479.1284094511244,525.1773129631353,476.7251370201054,638.212505706712,536.1115852285053,469.77629425364813,499.26150425446156,531.4896403166588,438.52616688596686,533.6923203122868,537.8751231788419,426.24996740735065,537.4567052348839,465.61333555220546,397.32522781095815,425.01051234414496,579.8299883189067,551.4310606919521,542.8725782342735,450.61711714429276,543.8386272368397,592.1034267574457
19,504.52762914318157,49.61432247881225,449.2944775025064,585.103872135576,470.03135440908994,431.93631912408154,499.1681367265251,499.38243024736266,492.6273114465792,422.83578803516264,541.0917178324717,511.55567226871113,480.39523451137035,590.7674043777658,531.8673800555654,506.95340912663136,493.38262562403935,489.68422975052744,536.8028036865418,554.856172111679,506.9490037361746,475.0954661956627,476.25840507452386,514.7402371014014,496.64142063440596,466.5847106742427,533.7928152340953,445.57188760236284,543.2795562495656,544.3461573449916,570.9646630273595,496.7694235965817,462.09839660592974,458.8539075968629,423.28098501884045,490.28002687028385,546.1876221819136,508.1227640093362,494.3690960267299,457.8041057139552,424.02428523125144,582.4356318263667,514.0281065790438,470.29232648328633,477.6131460357361,498.059530790157,570.5722915779727,577.1511414965564,508.2114043401666,548.3639170716889,412.16334749011486,530.8973238275846,489.4728129004319,442.1047804621115,507.2558872070915,555.6433467198991,532.6953996659115,469.1111566737646,538.1770138363801,495.81096105993436,522.485016640163,624.6850915336227,505.84367589521713,441.05245069441867,520.3091686615749,567.2299264793431,522.4835775591459,558.076905178189,404.6994424902848,464.68995299093444,515.0967631990151,461.1435047260901,507.22670479950835,488.04912031746824,471.13694243049395,435.77914312093856,515.5155182294892,537.7424338056852,598.8258665042468,520.124710072947,479.1284094511244,525.1773129631353,476.7251370201054,624.7314345364272,538.7101275816076,467.5560538587039,499.26150425446156,531.4896403166588,414.93323435009165,533.6923203122868,537.8751231788419,421.06959851575294,537.4567052348839,465.61333555220546,397.32522781095815,425.01051234414496,579.8299883189067,551.4310606919521,542.8725782342735,450.61711714429276,534.1463498182604,592.1034267574457
