Iteration,Mean,Stdev,Run-0,Run-1,Run-2,Run-3,Run-4,Run-5,Run-6,Run-7,Run-8,Run-9,Run-10,Run-11,Run-12,Run-13,Run-14,Run-15,Run-16,Run-17,Run-18,Run-19,Run-20,Run-21,Run-22,Run-23,Run-24,Run-25,Run-26,Run-27,Run-28,Run-29,Run-30,Run-31,Run-32,Run-33,Run-34,Run-35,Run-36,Run-37,Run-38,Run-39,Run-40,Run-41,Run-42,Run-43,Run-44,Run-45,Run-46,Run-47,Run-48,Run-49,Run-50,Run-51,Run-52,Run-53,Run-54,Run-55,Run-56,Run-57,Run-58,Run-59,Run-60,Run-61,Run-62,Run-63,Run-64,Run-65,Run-66,Run-67,Run-68,Run-69,Run-70,Run-71,Run-72,Run-73,Run-74,Run-75,Run-76,Run-77,Run-78,Run-79,Run-80,Run-81,Run-82,Run-83,Run-84,Run-85,Run-86,Run-87,Run-88,Run-89,Run-90,Run-91,Run-92,Run-93,Run-94,Run-95,Run-96,Run-97,Run-98,Run-99
0,-946.2572437649553,38.814245184012016,-890.4859517748582,-945.0110315123217,-893.9054048515198,-911.3008449871405,-957.4080770744185,-1006.3359173372576,-927.9876797082386,-923.0307289260064,-880.5643920644559,-854.7927362831825,-934.3065455232652,-969.2763415375784,-986.4114947098534,-933.76655331664,-982.3544136534998,-911.1595245762993,-988.0701497230363,-943.7502976803291,-945.208977184327,-958.0101171605523,-1002.0846987225013,-943.8423096164248,-1003.0800531001157,-946.6336212768135,-942.3752259471037,-959.3741705032465,-936.0168583357221,-928.839978324317,-927.8744287705113,-986.1347693730561,-971.2907887130077,-877.3406547108297,-987.574816308552,-978.9646741402838,-949.9932352843763,-892.2230889464063,-981.1976294424455,-868.768912509802,-950.5892718569418,-933.8953428744462,-937.2410472843058,-927.4048025296789,-992.8529258201014,-936.376856475126,-957.8689586244025,-940.5543540359282,-952.0787068854679,-944.0820166629593,-950.6060584177859,-1010.6550672702873,-869.999242414239,-955.0493833581544,-985.2214800001092,-981.2018229985015,-996.871564416005,-979.4290371761192,-993.0897765711117,-951.7978419109676,-877.8326351893718,-964.8244179164195,-923.3672753975414,-980.475315117864,-942.5354444418783,-1032.9630112677885,-936.7576625192552,-962.9344064006955,-952.1029112019602,-923.8167869483885,-933.8488108591731,-929.4920646624345,-917.1336508599509,-932.349003983231,-937.5495960296336,-888.8700405256911,-891.5608242830782,-935.5236120714559,-1062.8164362143104,-934.7719064396733,-940.8544597120801,-943.767223441187,-955.7300231107389,-979.4206307481018,-937.0454172741586,-857.1867058828475,-997.1552058443705,-914.9681957609837,-905.0285575403532,-1043.7335817459696,-923.7769076442003,-959.8678849052206,-962.8695727496194,-965.3669419132519,-952.9237768928937,-983.6881203411776,-887.614742616661,-954.278165015472,-966.9655700644618,-914.7883335858932,-940.8188146851816,-902.7370814979594
1,-1139.3872132388874,53.47125438507418,-1088.0142571837514,-1127.629166141171,-1199.1036056559446,-1145.3944597532065,-1089.7387276768252,-1129.9710944628252,-1099.246499353179,-1132.5170485147285,-1130.9641981919967,-1132.6442811922054,-1233.0807029276095,-1116.8727415854662,-1131.601328781363,-1260.618553352754,-1170.8917092703036,-1141.1665394844395,-1140.4428945420025,-1126.6322879407032,-1156.1401513681615,-1285.1907681035027,-1154.2145467254445,-1088.9934787095847,-1163.5372793743513,-1155.0728982997455,-1070.8553729204532,-1120.1276217307898,-1092.119340371602,-1112.5126747139059,-1072.1857201619791,-1209.3412728014466,-1122.0869768000496,-1108.1548726137992,-1095.9510812163655,-1071.572338410207,-1217.0516405667945,-1109.769999263092,-1108.4077443850585,-1132.4832631028721,-1093.8301264545967,-1193.0371275830657,-1099.3127961142582,-1041.1826095412794,-1073.0250998067756,-1140.8722154594043,-1170.5355313479456,-1141.4689272903922,-1165.717121153672,-1166.7310990085596,-1154.740367694795,-1203.2871719112613,-1173.1198641691808,-1059.1146487081544,-1161.874198093738,-1166.0388752591214,-1163.735831344739,-1169.252424565952,-1154.4184041847238,-1094.9968390987458,-1150.379279233293,-1129.2473949016312,-1136.1044123722281,-1140.09312034414,-1131.3395709101528,-1074.2451427240662,-1131.6274594324498,-1170.4315954431406,-1122.4971502881333,-1122.5760363579782,-1126.6927863628412,-1159.3892096541083,-1205.1191787579514,-1154.8135285250912,-1199.0705158391136,-1072.953634924099,-1043.3198978840558,-1094.159186977548,-1135.3178635791012,-1157.2087983930685,-1159.4680038003228,-1031.0019096415701,-1130.4180421893304,-1106.5022534218185,-1148.9541835514437,-1310.5580631585647,-1130.0703364316332,-1200.626066309937,-1151.1630583716235,-1079.0797637282244,-1153.2024061812635,-1118.1996561838255,-1235.82098191385,-1280.131515340033,-1117.2292878514415,-1141.6652930413936,-997.0283583150995,-1055.0014492118407,-1137.9147330884596,-1250.341021085698,-1163.459236518039,-1155.7095252091367
2,-1209.2396628168974,53.388520697208605,-1249.7516176256663,-1269.405491054311,-1329.1296938503485,-1172.658622853467,-1182.3352133571386,-1341.721003526776,-1118.5599583380388,-1170.2106439385523,-1282.5753805700263,-1205.001768488833,-1246.9115731548034,-1258.6743316875193,-1229.2618436714133,-1235.238770432599,-1196.6336036246405,-1222.4223650887982,-1161.7103009197485,-1141.154703651566,-1222.6960264108382,-1178.4087664006856,-1144.6433766661848,-1246.5801433778156,-1153.3885702414077,-1274.2553808591044,-1228.621715632186,-1136.6739961287617,-1241.0117106198063,-1273.1912432041886,-1153.3745803694812,-1177.7732853278108,-1261.5520716340181,-1247.6413847164483,-1291.2416958416914,-1204.6746058764631,-1269.3824465033802,-1130.5237753592228,-1199.3954691130184,-1188.369890584691,-1089.2790088726708,-1151.9731398903623,-1147.6161284578213,-1189.1818044712386,-1210.3076301669553,-1241.446934357426,-1324.4364813560053,-1256.7815205841703,-1251.801200671281,-1227.251197612632,-1173.9037299959139,-1319.9842573685396,-1133.3170399405194,-1161.4006740049385,-1206.4001809986223,-1174.4620468744647,-1210.5227844715134,-1267.4548526129706,-1170.4187904716855,-1196.0394908063133,-1207.3734150012351,-1250.06811347148,-1166.0440998890729,-1188.8621404576436,-1195.2253636163477,-1181.2438838592225,-1133.142711674139,-1237.851296556326,-1190.565235732852,-1232.6743136803032,-1233.274438667715,-1264.1920589869217,-1152.8974931708838,-1203.2806305366173,-1214.8954388318193,-1214.1285762004068,-1169.8111786349032,-1212.28759946353,-1169.5361247529968,-1117.881666096921,-1222.5461915432095,-1198.514239401157,-1195.6187600728324,-1153.2009810542108,-1206.4162770301768,-1309.4567994130866,-1211.9983899799051,-1270.0994587434102,-1219.8252329492184,-1073.97826507389,-1334.790403448294,-1261.9163933188277,-1175.2185110750565,-1265.0863634095588,-1214.7441124448144,-1193.4552441206592,-1132.9091563046545,-1158.10293789577,-1240.4468294845833,-1199.0298909690362,-1223.0103252506087,-1187.6298247379386
3,-1232.851994520723,54.26383838100087,-1238.93928518869,-1220.0632594991853,-1202.0770429042927,-1257.382392883337,-1170.1298262728562,-1279.0979613797977,-1172.7503290242353,-1199.070308715117,-1275.1202816842917,-1205.5968973708216,-1312.8571483821827,-1303.4231089900843,-1212.8149723388872,-1168.5038818367534,-1279.3419084148456,-1201.6182979394944,-1157.159526272004,-1219.244311511506,-1252.831322326251,-1246.8182586447963,-1161.8626710377598,-1308.9145082068655,-1290.498383265054,-1215.563906962064,-1320.150733369364,-1250.5732377639724,-1230.5333284160547,-1236.8475298122937,-1160.853817752896,-1226.844269666375,-1260.0851339080673,-1197.5107664216443,-1412.1028275296394,-1170.4411772488384,-1296.8441275183254,-1159.8973929601686,-1310.7096443294927,-1216.4961486344587,-1088.4521603543963,-1221.86453025591,-1215.9308773700711,-1249.5821218985584,-1228.2498925086136,-1334.8160912993185,-1348.4768847173189,-1200.99336638469,-1247.2727986306052,-1204.6587009453833,-1204.089185828945,-1332.7520177466006,-1193.9407833657094,-1265.1049328000688,-1201.4919731490456,-1194.0105120642145,-1250.9507403731427,-1257.4778963722163,-1293.9678294070548,-1256.7268539344263,-1147.4785866321795,-1280.9795524205572,-1185.099543473174,-1242.1011938687705,-1279.902699525993,-1196.051458361407,-1162.9062880324032,-1207.8521408832294,-1158.3903266455443,-1182.889246956159,-1210.3851274183482,-1266.1699721680393,-1197.2085511533621,-1285.0915551646046,-1244.2510563778455,-1291.9764123407642,-1180.815591584758,-1277.576671107873,-1156.0537256563796,-1282.4403309926818,-1209.7070460500825,-1216.117808593313,-1256.2586114312016,-1261.5802720447466,-1144.0341187535857,-1373.2268844962364,-1247.948440291768,-1254.5415947018246,-1287.3315034506118,-1152.2474842587671,-1231.1219813063271,-1259.7447681827944,-1170.791593483558,-1198.34966000954,-1205.7456478900488,-1244.5331175203635,-1201.48779122218,-1214.4887925421513,-1262.0516929088665,-1214.4986522792092,-1184.709280451587,-1266.682603650422
4,-1240.8639581442553,52.11547184093637,-1257.7938683987984,-1265.9140960298357,-1172.9871653292976,-1305.1362699087492,-1211.6516377010153,-1311.6308640698123,-1299.676559181064,-1244.7414159374337,-1341.4016579923666,-1261.896222642304,-1294.3468480026215,-1300.6706479110187,-1205.5124560369552,-1168.668590607359,-1312.418805898556,-1299.9873068599688,-1202.8014989550197,-1203.3818402109969,-1248.3745770404971,-1228.7564373339205,-1168.834569189863,-1371.7838357116636,-1306.323269859516,-1216.82342113853,-1266.5341638837276,-1249.4626724981629,-1249.725571789695,-1283.3188082444015,-1186.6549442298092,-1214.8858654891203,-1302.5910308137536,-1207.0962889138152,-1377.7284672610979,-1160.8226230076448,-1257.1177879976099,-1201.9708192805854,-1290.0760359384597,-1228.454047734321,-1090.7511261833042,-1202.3010976741664,-1201.7610301429356,-1235.1472115945078,-1217.58110932638,-1215.089396385733,-1304.2410971400516,-1191.1604115031548,-1289.188316087128,-1214.1872293822594,-1203.8895190217288,-1305.5830302597465,-1210.9570974612568,-1271.8341437595277,-1205.4648257891442,-1178.075412490634,-1228.9572708183734,-1252.0630247137615,-1325.716555365824,-1248.4109230124286,-1181.789652952625,-1306.7704623254415,-1173.7601054786435,-1231.0383651413592,-1234.4229683712585,-1229.0601655412174,-1203.3649273615276,-1232.0576137294197,-1164.3790916720266,-1216.1101203013739,-1274.012440975465,-1304.6011721716313,-1199.8708611579111,-1326.7492883948112,-1258.5573109489833,-1346.157912011357,-1236.3469857533532,-1306.1499109339543,-1211.4343684760456,-1217.6190982615112,-1195.1088177770837,-1196.0610861109792,-1287.6055375745416,-1286.6806838034634,-1172.3053568063374,-1286.7298067557729,-1230.8861611520358,-1267.9718654574772,-1302.128176344122,-1134.0431481141482,-1203.1636468538989,-1230.1656810916495,-1205.4744146365422,-1231.4322242424246,-1229.214916314084,-1191.6892603975564,-1211.7449385626737,-1200.6360158165446,-1245.5359561149708,-1225.879903148961,-1197.781704743729,-1229.5908735052337
5,-1246.6411057132796,54.82553940304336,-1226.675598132088,-1251.3919406089656,-1244.6694450486264,-1278.252621558124,-1225.7417562498388,-1311.6308640698123,-1275.1398593322326,-1341.1364155168337,-1310.9337815653032,-1259.2254270484195,-1293.583266315073,-1336.7405982773037,-1157.3874712313045,-1206.8428340498565,-1309.851370433797,-1309.2413960346626,-1164.609642659252,-1258.0417359919413,-1262.806612219227,-1184.537789362734,-1244.8429317578561,-1390.1513161630062,-1321.8965010202755,-1196.7017203511568,-1288.5502941002721,-1201.3431323663774,-1268.3170095598518,-1300.9500283790353,-1167.9056877331154,-1201.1826561358946,-1315.5735200178074,-1205.6232572474207,-1341.6676640724086,-1155.4493556602397,-1304.0600129401523,-1203.1054726965292,-1299.8586811780594,-1218.5023970002117,-1143.8518749692325,-1207.6981862099224,-1197.401405936247,-1230.8021105822368,-1222.982200040262,-1246.6784206475875,-1314.2587941329841,-1179.1479746338446,-1273.5676314932934,-1199.2946698809094,-1211.904539011914,-1312.602760462623,-1233.0588245377153,-1291.7272803071376,-1194.3915700116393,-1190.2424417260831,-1228.9572708183734,-1256.637906664743,-1342.643724889768,-1259.8125343550407,-1192.8500289179044,-1370.4318694796727,-1237.4806956968657,-1226.2798742681566,-1231.3305199746042,-1234.960668193614,-1211.8626948656558,-1303.606778936019,-1217.6025940517088,-1202.0086252555623,-1262.4658478846782,-1325.6246157874596,-1248.859969043459,-1299.134684499653,-1230.6169625726832,-1294.0956821868165,-1239.295230953647,-1331.3865342647644,-1180.0231582560248,-1259.0667511150907,-1161.1708573197902,-1141.0505333732558,-1262.1639644843015,-1225.7429667802596,-1213.1050256488058,-1262.5032692521177,-1200.7771892227443,-1265.8059350565823,-1323.2677953649966,-1134.1909039035581,-1222.9899215608332,-1299.6924703564362,-1196.923657156883,-1254.4751511449501,-1315.6725068986652,-1213.6030182472502,-1198.219676522729,-1204.250422339876,-1278.5261357035597,-1228.1809218588874,-1193.5572236107705,-1197.4730539200234
6,-1246.7582188629326,53.828413057162074,-1231.5611593327772,-1253.805920627949,-1256.415293779787,-1232.8072695529177,-1261.019963999692,-1311.6308640698123,-1220.3301124136085,-1319.815525037499,-1329.4819786117234,-1259.2254270484195,-1293.583266315073,-1336.7405982773037,-1182.5288181457142,-1237.5682697920076,-1288.4752375182495,-1309.2413960346626,-1176.2788403710576,-1234.6029946671404,-1262.8634942612114,-1195.219686909964,-1248.5264885927743,-1399.8008391765986,-1286.2950321984029,-1202.4874301087198,-1329.688496676869,-1198.4173236060903,-1323.5166468208008,-1315.740413331288,-1169.1344191767469,-1201.3483574431668,-1309.9411882075817,-1192.463330637604,-1339.2359239059513,-1194.7557778263329,-1323.2466632736632,-1218.4897605604515,-1284.8608693921287,-1210.0595183153853,-1182.901032894774,-1205.5227168499289,-1201.73330840386,-1204.43112901341,-1188.2638913594437,-1246.5479692734004,-1339.3598779504912,-1198.6893998325609,-1238.8049061750476,-1201.3512982460013,-1178.971885785602,-1302.1997389018245,-1233.0588245377153,-1194.4924251029674,-1186.6651128797598,-1190.739214662759,-1228.9572708183734,-1249.7309331905992,-1337.399324612238,-1258.6264977331261,-1203.705199798192,-1338.2063370289138,-1237.4806956968657,-1189.2503080337244,-1230.3896812068272,-1234.56334392592,-1236.680916589765,-1301.3248051828755,-1224.6439050155273,-1187.7882499427815,-1262.4658478846782,-1317.1735751160893,-1297.0608331055093,-1300.6811911252369,-1257.2218859019174,-1281.979140066924,-1225.6734086680137,-1331.3865342647644,-1181.1624259392013,-1252.390492184448,-1159.943116045243,-1156.0522204157562,-1235.3156615736768,-1222.4351818615414,-1213.1050256488058,-1264.267472615543,-1209.0152778780105,-1274.3857096854922,-1337.671334204884,-1167.2821572777,-1222.9899215608332,-1299.6924703564362,-1191.1025643012708,-1249.5509800796171,-1350.00470337445,-1249.0886924091544,-1189.1549172594337,-1197.9216239127115,-1269.5162437395534,-1228.1809218588874,-1190.7925053950785,-1197.4730539200234
7,-1247.8016004045653,54.21391764049404,-1231.2177514873763,-1234.5338354966996,-1278.7482614135347,-1262.3574031157098,-1261.019963999692,-1311.6308640698123,-1209.967870216134,-1319.815525037499,-1268.815977099359,-1259.2254270484195,-1293.583266315073,-1336.7405982773037,-1182.5288181457142,-1237.5690302116345,-1236.995145363159,-1309.2413960346626,-1182.6613728962704,-1234.6029946671404,-1262.8634942612114,-1214.3308013169665,-1191.0562345368737,-1399.8008391765986,-1281.7122447668628,-1203.5748332703677,-1329.688496676869,-1198.4173236060903,-1323.5166468208008,-1315.2852273353767,-1164.5456682291397,-1194.8368644780273,-1309.9411882075817,-1189.7669353972376,-1347.5472588928403,-1197.1140626412457,-1297.2904126477167,-1188.938123557976,-1284.8608693921287,-1210.5756808615768,-1182.901032894774,-1205.5227168499289,-1201.73330840386,-1241.6695095839393,-1215.6572087487245,-1236.6464798002837,-1337.1716659383108,-1206.0181551897563,-1238.8049061750476,-1201.3512982460013,-1187.0855568681777,-1333.524558731559,-1238.3391770066232,-1194.4455685481348,-1186.6651128797598,-1219.524524808948,-1228.9572708183734,-1271.548237214187,-1337.399324612238,-1258.6264977331261,-1203.705199798192,-1385.0985234426068,-1238.572952935837,-1189.2503080337244,-1235.449576257252,-1230.2234410464973,-1239.702407935883,-1301.3248051828755,-1224.6439050155273,-1180.6521529312781,-1262.4658478846782,-1324.734142911695,-1297.0608331055093,-1299.134684499653,-1286.4618136708907,-1269.561505541355,-1233.0351916058733,-1331.3865342647644,-1181.1624259392013,-1263.8679700148539,-1153.7661246594873,-1158.8169386314482,-1244.2483937431305,-1202.6860697817406,-1213.1050256488058,-1303.1443894791448,-1232.8221417103,-1274.3857096854922,-1309.4826572409543,-1169.8983838434397,-1222.9899215608332,-1299.6924703564362,-1194.807014813979,-1233.5707831882776,-1354.4692985799322,-1274.9055999852446,-1200.1400990767831,-1197.9216239127115,-1262.0911551301542,-1228.1809218588874,-1193.5572236107705,-1197.4730539200234
8,-1250.258227275624,54.88808703104393,-1231.2177514873763,-1226.831081772075,-1286.803041965209,-1262.3574031157098,-1261.019963999692,-1309.60249110038,-1209.967870216134,-1319.815525037499,-1259.8466961163263,-1259.2254270484195,-1293.583266315073,-1336.7405982773037,-1182.5288181457142,-1237.5690302116345,-1236.995145363159,-1310.4701274782944,-1182.6613728962704,-1236.3543531517194,-1262.806612219227,-1214.3308013169665,-1191.0562345368737,-1399.8008391765986,-1281.7122447668628,-1209.5922047251236,-1329.688496676869,-1198.4173236060903,-1323.5166468208008,-1315.2852273353767,-1167.5386030361967,-1194.8368644780273,-1310.4573507537732,-1207.442496648918,-1349.6166563829188,-1224.6581208992773,-1302.6336777122926,-1254.710694097271,-1284.8608693921287,-1199.0494832337786,-1182.901032894774,-1207.6817841175964,-1201.73330840386,-1254.6346164170748,-1192.2808484973891,-1218.2987890708748,-1317.9850156047999,-1211.7229097756879,-1238.8049061750476,-1201.3512982460013,-1187.0855568681777,-1317.8298904665262,-1299.3541819537443,-1194.446328967762,-1186.6651128797598,-1219.524524808948,-1228.7535409592758,-1268.3172567867591,-1337.399324612238,-1258.6264977331261,-1203.705199798192,-1418.7759750555888,-1238.572952935837,-1189.2503080337244,-1235.449576257252,-1230.2234410464973,-1239.7031683555101,-1301.3248051828755,-1224.6439050155273,-1180.6521529312781,-1262.4658478846782,-1322.982784427116,-1297.0608331055093,-1301.9654512679801,-1293.0770051147451,-1269.561505541355,-1223.5280878595627,-1331.3865342647644,-1181.1624259392013,-1300.4380928221842,-1153.7661246594873,-1158.8169386314482,-1244.2483937431305,-1202.6860697817406,-1213.4499495055072,-1303.1443894791448,-1255.8431243385983,-1274.3857096854922,-1300.0580974650034,-1169.8983838434397,-1222.9899215608332,-1299.6924703564362,-1194.807014813979,-1297.0065812015525,-1354.4124165379478,-1274.9055999852446,-1200.1400990767831,-1197.9216239127115,-1251.5104300020562,-1228.1809218588874,-1193.5572236107705,-1197.4730539200234
9,-1250.7791047373619,54.52150734736831,-1231.2177514873763,-1240.4922809332927,-1288.4816786360068,-1262.3574031157098,-1261.019963999692,-1310.4880109024816,-1209.967870216134,-1319.815525037499,-1314.0354508277694,-1259.2254270484195,-1293.583266315073,-1336.7405982773037,-1182.5288181457142,-1237.5690302116345,-1237.4840548500108,-1309.2413960346626,-1182.6613728962704,-1236.3543531517194,-1262.8634942612114,-1214.3308013169665,-1183.8959495942447,-1399.8008391765986,-1281.7122447668628,-1195.5980079858311,-1329.688496676869,-1198.4173236060903,-1323.5166468208008,-1292.5387377794593,-1203.3487984118635,-1194.8368644780273,-1310.4573507537732,-1207.442496648918,-1330.7489743459864,-1240.493150299689,-1301.135294197442,-1252.6246228047894,-1284.8608693921287,-1199.0494832337786,-1182.901032894774,-1206.0116263367804,-1201.73330840386,-1254.6346164170748,-1209.9645556384553,-1218.2987890708748,-1317.9850156047999,-1211.7229097756879,-1238.8049061750476,-1201.3512982460013,-1187.0855568681777,-1329.8465613351404,-1299.3541819537443,-1194.446328967762,-1186.6651128797598,-1219.524524808948,-1228.7535409592758,-1268.3172567867591,-1337.399324612238,-1245.178073840549,-1203.705199798192,-1408.8828559298283,-1238.572952935837,-1189.2503080337244,-1235.449576257252,-1228.9291087799882,-1244.1516139916007,-1301.3248051828755,-1224.6439050155273,-1180.4484230721805,-1262.4658478846782,-1322.982784427116,-1297.0608331055093,-1301.9654512679801,-1311.4365034397629,-1269.561505541355,-1223.5280878595627,-1331.3865342647644,-1181.1624259392013,-1296.8811524941543,-1153.7661246594873,-1154.0221478841815,-1243.0550238475366,-1202.6860697817406,-1213.4499495055072,-1303.1443894791448,-1265.2757784232879,-1274.3857096854922,-1292.2003253640903,-1146.4853615644831,-1222.9899215608332,-1299.6924703564362,-1198.655855914603,-1285.0128124029418,-1354.4124165379478,-1274.9055999852446,-1200.1400990767831,-1197.9216239127115,-1258.124330156362,-1227.7462373230396,-1200.546422959421,-1194.8987079199892
10,-1251.3700536540227,55.244637790246756,-1231.2177514873763,-1240.6062416313634,-1288.4816786360068,-1262.3574031157098,-1261.019963999692,-1307.9742554966808,-1209.967870216134,-1319.815525037499,-1312.7748950009802,-1259.2254270484195,-1293.583266315073,-1336.7405982773037,-1182.5288181457142,-1237.5690302116345,-1236.995145363159,-1309.2413960346626,-1182.6613728962704,-1236.3543531517194,-1262.8634942612114,-1214.3308013169665,-1183.8959495942447,-1399.8008391765986,-1281.7122447668628,-1195.5980079858311,-1329.688496676869,-1198.4173236060903,-1323.5166468208008,-1374.295592936041,-1203.3487984118635,-1193.0855059934481,-1310.4573507537732,-1207.442496648918,-1330.7489743459864,-1240.493150299689,-1301.135294197442,-1253.8535267762015,-1284.8608693921287,-1199.0494832337786,-1182.901032894774,-1206.0116263367804,-1201.73330840386,-1254.6346164170748,-1243.6818430428568,-1218.2987890708748,-1317.9850156047999,-1211.7229097756879,-1238.8049061750476,-1201.3512982460013,-1187.0855568681777,-1329.8465613351404,-1299.3541819537443,-1194.446328967762,-1192.0740393378096,-1219.524524808948,-1228.7535409592758,-1246.4553770688137,-1337.399324612238,-1242.8961000874053,-1203.705199798192,-1408.8828559298283,-1238.572952935837,-1189.2503080337244,-1235.449576257252,-1251.2197610733995,-1244.1516139916007,-1303.606778936019,-1224.6439050155273,-1180.4484230721805,-1262.4658478846782,-1322.982784427116,-1297.0608331055093,-1301.9654512679801,-1311.4365034397629,-1269.561505541355,-1225.8100616127062,-1331.3865342647644,-1181.1624259392013,-1266.1961261800554,-1153.7661246594873,-1127.5468878273825,-1243.0550238475366,-1202.6860697817406,-1213.4499495055072,-1298.2202184138116,-1265.2757784232879,-1274.3857096854922,-1271.9982430174682,-1163.7564508226394,-1222.9899215608332,-1299.6924703564362,-1221.7355020256298,-1285.0128124029418,-1352.1304427848045,-1274.9055999852446,-1200.1400990767831,-1197.9216239127115,-1258.124330156362,-1215.336209094354,-1197.781704743729,-1194.4640233841417
11,-1251.3315772830779,53.92278681934912,-1231.5611593327772,-1278.1693857478824,-1276.7452827606028,-1262.3574031157098,-1261.019963999692,-1307.9742554966808,-1209.967870216134,-1264.169023919643,-1312.7748950009802,-1259.2254270484195,-1293.583266315073,-1336.7405982773037,-1182.5288181457142,-1237.5690302116345,-1236.995145363159,-1309.2413960346626,-1182.6613728962704,-1236.3543531517194,-1262.8634942612114,-1214.3308013169665,-1181.6139758411011,-1399.8008391765986,-1281.7122447668628,-1195.5980079858311,-1329.688496676869,-1198.4173236060903,-1323.5166468208008,-1374.295592936041,-1203.3487984118635,-1193.0855059934481,-1310.4573507537732,-1207.442496648918,-1330.7489743459864,-1240.493150299689,-1301.135294197442,-1242.6707658169241,-1284.8608693921287,-1199.0494832337786,-1182.901032894774,-1206.0116263367804,-1201.73330840386,-1254.6346164170748,-1243.6818430428568,-1218.2987890708748,-1317.9850156047999,-1211.7229097756879,-1238.8049061750476,-1201.3512982460013,-1187.0855568681777,-1329.8465613351404,-1299.3541819537443,-1194.446328967762,-1192.0740393378096,-1219.524524808948,-1228.7535409592758,-1242.9093412816387,-1337.6030544713358,-1272.7300504757857,-1201.4375713049556,-1409.3990184760198,-1238.572952935837,-1189.2503080337244,-1235.449576257252,-1251.2197610733995,-1244.1516139916007,-1301.3248051828755,-1224.6439050155273,-1180.4484230721805,-1262.4658478846782,-1322.982784427116,-1296.8571032464113,-1301.9654512679801,-1309.860913203507,-1269.561505541355,-1225.8100616127062,-1331.3865342647644,-1181.1624259392013,-1266.1961261800554,-1153.7661246594873,-1183.089186790484,-1243.0550238475366,-1202.6860697817406,-1213.4499495055072,-1298.2202184138116,-1265.2757784232879,-1274.3857096854922,-1238.1377902543286,-1163.7564508226394,-1222.9899215608332,-1299.6924703564362,-1221.7355020256298,-1285.0128124029418,-1352.1304427848045,-1274.9055999852446,-1194.5908371082116,-1200.203597665855,-1258.124330156362,-1215.336209094354,-1197.781704743729,-1194.4640233841417
12,-1251.266524711031,54.776873425661776,-1231.5611593327772,-1278.1693857478824,-1273.483861091577,-1262.3574031157098,-1262.7713224842712,-1307.9742554966808,-1219.8115326225745,-1264.169023919643,-1312.7748950009802,-1259.2254270484195,-1280.1816218271717,-1338.4919567618829,-1182.5288181457142,-1227.5600041652485,-1237.4840548500108,-1309.2413960346626,-1182.6613728962704,-1234.6029946671404,-1257.00953399874,-1214.3308013169665,-1187.9509107697224,-1399.8008391765986,-1281.7122447668628,-1195.5980079858311,-1329.688496676869,-1199.6106935016844,-1323.5166468208008,-1391.0776643627219,-1201.8891122914818,-1193.0855059934481,-1310.4573507537732,-1207.442496648918,-1330.7489743459864,-1240.493150299689,-1301.135294197442,-1238.1731711478492,-1284.8608693921287,-1199.0494832337786,-1182.901032894774,-1206.0116263367804,-1201.73330840386,-1256.9165901702183,-1243.6818430428568,-1218.2987890708748,-1317.9850156047999,-1211.7229097756879,-1238.8049061750476,-1201.3512982460013,-1178.971885785602,-1329.8465613351404,-1299.3541819537443,-1194.446328967762,-1192.0740393378096,-1219.524524808948,-1228.7535409592758,-1264.7712209995843,-1337.6030544713358,-1272.7300504757857,-1201.4375713049556,-1409.3990184760198,-1238.572952935837,-1191.532281786868,-1235.449576257252,-1251.2197610733995,-1244.1516139916007,-1301.3248051828755,-1224.6439050155273,-1180.4484230721805,-1262.4658478846782,-1322.982784427116,-1296.8571032464113,-1301.9654512679801,-1309.860913203507,-1269.561505541355,-1225.8100616127062,-1331.3865342647644,-1181.1624259392013,-1266.1961261800554,-1153.7661246594873,-1157.0163240234544,-1244.2483937431305,-1202.6860697817406,-1213.4499495055072,-1298.2202184138116,-1265.2757784232879,-1274.3857096854922,-1229.8951014526551,-1163.7564508226394,-1222.9899215608332,-1299.6924703564362,-1221.7355020256298,-1285.0128124029418,-1359.7575195223508,-1274.9055999852446,-1194.5908371082116,-1200.203597665855,-1258.124330156362,-1215.336209094354,-1200.546422959421,-1194.4640233841417
13,-1250.4377820196605,55.404098471023126,-1231.5611593327772,-1278.1693857478824,-1275.1624977623746,-1262.3574031157098,-1261.019963999692,-1307.9742554966808,-1219.8115326225745,-1264.169023919643,-1312.7748950009802,-1259.2254270484195,-1261.3509356204393,-1336.7405982773037,-1182.5288181457142,-1237.5690302116345,-1236.995145363159,-1309.2413960346626,-1182.6613728962704,-1234.6029946671404,-1254.7275602455961,-1214.3308013169665,-1187.9509107697224,-1399.8008391765986,-1281.7122447668628,-1195.5980079858311,-1329.688496676869,-1199.6106935016844,-1323.5166468208008,-1390.5823374552178,-1150.3707814768552,-1193.0855059934481,-1310.4573507537732,-1207.442496648918,-1330.7489743459864,-1240.493150299689,-1301.135294197442,-1236.6151083201019,-1284.8608693921287,-1199.0494832337786,-1182.901032894774,-1206.0116263367804,-1201.73330840386,-1256.9165901702183,-1246.5126098111834,-1218.2987890708748,-1317.9850156047999,-1211.7229097756879,-1238.8049061750476,-1201.3512982460013,-1178.971885785602,-1329.8465613351404,-1299.3541819537443,-1194.446328967762,-1192.0740393378096,-1219.524524808948,-1228.7535409592758,-1268.3172567867591,-1337.6030544713358,-1271.5366805801916,-1195.6601627775237,-1409.3990184760198,-1237.4806956968657,-1191.532281786868,-1235.449576257252,-1259.353215994501,-1241.016691374743,-1303.606778936019,-1224.6439050155273,-1180.4484230721805,-1260.7956901038622,-1322.982784427116,-1298.6084617309903,-1301.9654512679801,-1309.860913203507,-1277.2670694383432,-1225.8100616127062,-1331.3865342647644,-1181.1624259392013,-1267.9474846646347,-1153.7661246594873,-1155.4407337871985,-1244.2483937431305,-1202.6860697817406,-1213.4499495055072,-1298.2202184138116,-1265.2757784232879,-1274.3857096854922,-1238.6621790401982,-1155.3087246889615,-1222.9899215608332,-1299.6924703564362,-1221.7355020256298,-1285.0128124029418,-1343.7950746802994,-1274.9055999852446,-1194.060221839647,-1200.203597665855,-1252.3272519358748,-1215.336209094354,-1193.0744791482223,-1194.4640233841417
14,-1250.6428252629742,55.05841687297269,-1231.5611593327772,-1280.4513595010262,-1275.1624977623746,-1262.3574031157098,-1262.7713224842712,-1307.9742554966808,-1219.8115326225745,-1264.169023919643,-1312.7748950009802,-1259.2254270484195,-1261.3509356204393,-1336.7405982773037,-1182.5288181457142,-1237.5690302116345,-1237.4840548500108,-1310.4701274782944,-1182.6613728962704,-1234.6029946671404,-1254.7275602455961,-1214.3308013169665,-1190.232884522866,-1399.8008391765986,-1281.7122447668628,-1200.498670401008,-1329.688496676869,-1199.6106935016844,-1323.5166468208008,-1390.5823374552178,-1160.663783743878,-1194.8368644780273,-1310.4573507537732,-1207.442496648918,-1330.7489743459864,-1240.493150299689,-1301.135294197442,-1236.6151083201019,-1284.8608693921287,-1194.9872849004125,-1182.901032894774,-1206.0116263367804,-1201.73330840386,-1256.9165901702183,-1246.5126098111834,-1218.2987890708748,-1312.6244850337348,-1211.7229097756879,-1238.8049061750476,-1201.3512982460013,-1187.0855568681777,-1329.8465613351404,-1299.3541819537443,-1194.4455685481348,-1192.0740393378096,-1219.524524808948,-1228.7535409592758,-1268.3172567867591,-1337.6030544713358,-1269.254706827048,-1195.7124656975775,-1409.3990184760198,-1237.4806956968657,-1191.532281786868,-1235.449576257252,-1264.936277662279,-1241.0159309551161,-1301.3248051828755,-1224.6439050155273,-1180.4484230721805,-1260.7956901038622,-1322.982784427116,-1296.8571032464113,-1301.9654512679801,-1309.860913203507,-1278.4958008819747,-1225.8100616127062,-1331.3865342647644,-1181.1624259392013,-1267.4313221184434,-1156.641875430995,-1152.6760155715065,-1244.2483937431305,-1202.6860697817406,-1213.4499495055072,-1298.2202184138116,-1265.2757784232879,-1274.3857096854922,-1238.6621790401982,-1156.3439054927724,-1224.6600793416492,-1301.3626281372522,-1221.7355020256298,-1285.0128124029418,-1343.7950746802994,-1274.9055999852446,-1192.8839355630294,-1200.203597665855,-1252.3272519358748,-1208.8302718596465,-1193.0744791482223,-1194.4640233841417
15,-1251.0031747990918,54.20520729375758,-1231.5611593327772,-1280.4513595010262,-1275.1624977623746,-1262.3574031157098,-1279.8605322699757,-1307.9742554966808,-1219.8115326225745,-1264.169023919643,-1291.9197611568227,-1259.2254270484195,-1261.3509356204393,-1336.7405982773037,-1182.5288181457142,-1237.5690302116345,-1242.8907204395248,-1310.4701274782944,-1182.6613728962704,-1234.6029946671404,-1257.00953399874,-1214.3308013169665,-1190.232884522866,-1399.8008391765986,-1281.7122447668628,-1192.1287438412166,-1329.688496676869,-1199.6106935016844,-1323.5166468208008,-1373.8002660285367,-1160.663783743878,-1193.0855059934481,-1310.4573507537732,-1207.442496648918,-1330.7489743459864,-1240.493150299689,-1301.135294197442,-1236.6151083201019,-1284.8608693921287,-1194.9872849004125,-1182.901032894774,-1232.5488216661995,-1201.73330840386,-1256.9165901702183,-1246.5126098111834,-1218.2987890708748,-1312.6244850337348,-1211.7229097756879,-1238.8049061750476,-1201.3512982460013,-1188.8369153527567,-1329.8465613351404,-1299.3541819537443,-1194.4455685481348,-1192.0740393378096,-1219.524524808948,-1228.7535409592758,-1264.7712209995843,-1337.6030544713358,-1269.7500337345518,-1194.3622866774383,-1408.8828559298283,-1237.4806956968657,-1191.532281786868,-1230.557844120626,-1267.8938509212985,-1241.0159309551161,-1303.606778936019,-1224.6439050155273,-1180.4484230721805,-1260.7956901038622,-1322.982784427116,-1296.8571032464113,-1301.9654512679801,-1309.860913203507,-1278.4958008819747,-1225.8100616127062,-1331.3865342647644,-1171.88356466112,-1267.4313221184434,-1156.641875430995,-1155.4407337871985,-1232.8662601010078,-1202.6860697817406,-1213.4499495055072,-1303.1443894791448,-1265.2757784232879,-1274.3857096854922,-1238.6621790401982,-1175.123682659868,-1255.2174211031245,-1301.3626281372522,-1221.7355020256298,-1285.0128124029418,-1343.7950746802994,-1274.9055999852446,-1192.8839355630294,-1200.203597665855,-1242.7034028753355,-1213.531968778899,-1196.9278945551578,-1194.4640233841417
16,-1250.2244476957794,54.06995619507229,-1231.5611593327772,-1280.4513595010262,-1275.1624977623746,-1262.3574031157098,-1271.0315045090008,-1307.9742554966808,-1219.8115326225745,-1264.169023919643,-1278.5733829131746,-1259.2254270484195,-1261.3509356204393,-1336.7405982773037,-1182.5288181457142,-1237.5690302116345,-1242.8907204395248,-1310.4701274782944,-1182.6613728962704,-1234.6029946671404,-1258.6881706695374,-1214.3308013169665,-1190.232884522866,-1399.8008391765986,-1281.7122447668628,-1192.1287438412166,-1326.857729908542,-1199.6106935016844,-1323.5166468208008,-1373.8002660285367,-1160.663783743878,-1206.047427947644,-1310.4573507537732,-1207.442496648918,-1330.7489743459864,-1238.216294368028,-1301.135294197442,-1234.1294047078604,-1284.8608693921287,-1194.9872849004125,-1182.901032894774,-1216.7286575502135,-1201.73330840386,-1256.9165901702183,-1246.5126098111834,-1218.2987890708748,-1312.6244850337348,-1211.7229097756879,-1238.8049061750476,-1201.3512982460013,-1180.7232442701809,-1329.8465613351404,-1305.8558119228205,-1194.446328967762,-1192.0740393378096,-1219.524524808948,-1228.7535409592758,-1242.9093412816387,-1337.6030544713358,-1269.7500337345518,-1194.3622866774383,-1408.8828559298283,-1237.4806956968657,-1191.532281786868,-1236.3149118337567,-1268.379778315482,-1243.7137785262546,-1303.606778936019,-1224.6439050155273,-1185.865763159917,-1260.7956901038622,-1322.982784427116,-1296.8571032464113,-1294.4047596417101,-1309.860913203507,-1278.4958008819747,-1225.8100616127062,-1331.3865342647644,-1175.503668989007,-1265.6799636338642,-1156.4381455718974,-1157.7227075403423,-1241.7989922704617,-1202.6860697817406,-1213.4499495055072,-1303.1443894791448,-1265.2757784232879,-1274.3857096854922,-1238.6621790401982,-1175.123682659868,-1228.411597406694,-1301.3626281372522,-1221.7355020256298,-1285.0128124029418,-1343.7950746802994,-1274.9055999852446,-1192.8839355630294,-1200.203597665855,-1242.7034028753355,-1202.205642205179,-1191.931619667023,-1194.4640233841417
17,-1250.8669758721446,53.28098466387946,-1231.2177514873763,-1280.4513595010262,-1275.1624977623746,-1262.3574031157098,-1272.7828629935798,-1307.9742554966808,-1219.8115326225745,-1260.0622310454894,-1278.5733829131746,-1259.2254270484195,-1261.3509356204393,-1336.7405982773037,-1182.5288181457142,-1237.5690302116345,-1240.673979207278,-1310.4701274782944,-1182.6613728962704,-1234.6029946671404,-1258.6881706695374,-1214.3308013169665,-1190.232884522866,-1390.1513161630062,-1281.7122447668628,-1192.1287438412166,-1326.857729908542,-1199.6106935016844,-1323.5166468208008,-1373.8002660285367,-1159.4350523002463,-1206.047427947644,-1310.4573507537732,-1207.442496648918,-1330.7489743459864,-1240.493150299689,-1301.135294197442,-1234.1294047078604,-1284.8608693921287,-1199.0494832337786,-1182.901032894774,-1216.7294179698406,-1201.73330840386,-1256.9165901702183,-1246.5126098111834,-1218.2987890708748,-1312.6244850337348,-1211.7229097756879,-1238.8049061750476,-1201.3512982460013,-1188.8369153527567,-1329.8465613351404,-1305.856909601054,-1194.4455685481348,-1192.0740393378096,-1219.524524808948,-1228.7535409592758,-1246.4553770688137,-1337.6030544713358,-1269.254706827048,-1194.3622866774383,-1408.8828559298283,-1237.4806956968657,-1189.2503080337244,-1236.3149118337567,-1273.7408727504742,-1243.7137785262546,-1301.3248051828755,-1224.6439050155273,-1187.617121644496,-1260.7956901038622,-1322.982784427116,-1296.8571032464113,-1294.4047596417101,-1309.860913203507,-1268.462751462952,-1225.8100616127062,-1331.3865342647644,-1188.9100102960833,-1265.6799636338642,-1156.4381455718974,-1157.7227075403423,-1241.7989922704617,-1259.6562944657908,-1213.4499495055072,-1303.1443894791448,-1265.958930500621,-1274.3857096854922,-1238.6621790401982,-1175.123682659868,-1228.411597406694,-1301.3626281372522,-1221.7355020256298,-1285.0128124029418,-1343.7950746802994,-1274.9055999852446,-1192.8839355630294,-1200.203597665855,-1242.7034028753355,-1202.205642205179,-1190.8985692597905,-1194.4640233841417
18,-1249.9924095844551,52.93919510050171,-1231.2177514873763,-1280.4513595010262,-1276.3912292060063,-1262.3574031157098,-1271.0315045090008,-1307.9742554966808,-1219.8115326225745,-1275.9002486690165,-1278.5733829131746,-1259.2254270484195,-1261.3509356204393,-1336.7405982773037,-1182.3250882866166,-1237.5690302116345,-1240.673979207278,-1309.2413960346626,-1182.6613728962704,-1234.6029946671404,-1258.7450527115218,-1214.3308013169665,-1190.232884522866,-1390.1513161630062,-1281.7122447668628,-1191.6334169337129,-1292.4502285404703,-1199.6106935016844,-1323.5166468208008,-1373.8002660285367,-1160.663783743878,-1193.0855059934481,-1315.9789077059418,-1207.442496648918,-1330.7489743459864,-1240.493150299689,-1301.135294197442,-1234.1294047078604,-1284.8608693921287,-1195.9395781598948,-1185.1830066479179,-1216.7294179698406,-1201.73330840386,-1256.9165901702183,-1246.5126098111834,-1218.2987890708748,-1312.6244850337348,-1211.7229097756879,-1238.8049061750476,-1201.3512982460013,-1180.7232442701809,-1329.8465613351404,-1285.9556409787479,-1194.4455685481348,-1192.0740393378096,-1219.524524808948,-1228.7535409592758,-1246.4553770688137,-1337.6030544713358,-1271.5366805801916,-1194.3099837573845,-1408.8828559298283,-1238.572952935837,-1180.4425855290172,-1236.3149118337567,-1273.7408727504742,-1239.2653328901638,-1273.7349652027665,-1224.6439050155273,-1187.617121644496,-1260.7956901038622,-1322.982784427116,-1296.8571032464113,-1303.511957893564,-1311.4365034397629,-1268.462751462952,-1223.5280878595627,-1331.3865342647644,-1194.7855166416618,-1265.6799636338642,-1156.4381455718974,-1155.4407337871985,-1241.3036653629574,-1259.6562944657908,-1213.4499495055072,-1303.1443894791448,-1265.958930500621,-1262.8297290624505,-1238.6621790401982,-1181.265615680668,-1228.411597406694,-1301.3626281372522,-1221.7355020256298,-1285.0128124029418,-1343.7950746802994,-1274.9055999852446,-1192.8839355630294,-1200.203597665855,-1242.7034028753355,-1202.205642205179,-1190.8985692597905,-1194.4640233841417
19,-1249.65930900376,52.73802662441765,-1231.2177514873763,-1280.4513595010262,-1276.3912292060063,-1262.3574031157098,-1271.0315045090008,-1310.6917407615795,-1219.8115326225745,-1257.3936919566597,-1278.5733829131746,-1259.2254270484195,-1263.6329093735828,-1336.7405982773037,-1182.3250882866166,-1237.5690302116345,-1240.673979207278,-1310.4701274782944,-1182.6613728962704,-1234.6029946671404,-1258.6881706695374,-1214.3308013169665,-1183.8959495942447,-1390.1513161630062,-1281.7122447668628,-1191.6334169337129,-1295.280995308797,-1199.6106935016844,-1323.5166468208008,-1373.8002660285367,-1159.4350523002463,-1193.0855059934481,-1298.730005120548,-1207.442496648918,-1330.7489743459864,-1246.5300662684497,-1294.4377393024672,-1234.1294047078604,-1284.8608693921287,-1195.9395781598948,-1185.1830066479179,-1216.7294179698406,-1201.73330840386,-1256.9165901702183,-1244.2875181000243,-1218.2987890708748,-1312.6244850337348,-1211.7229097756879,-1238.8049061750476,-1201.3512982460013,-1178.971885785602,-1329.8465613351404,-1285.9556409787479,-1194.4455685481348,-1192.0740393378096,-1219.524524808948,-1228.9572708183734,-1246.4553770688137,-1337.6030544713358,-1271.5366805801916,-1194.3099837573845,-1408.8828559298283,-1238.572952935837,-1180.4425855290172,-1236.3149118337567,-1273.7408727504742,-1243.7137785262546,-1273.7349652027665,-1224.6439050155273,-1187.617121644496,-1260.7956901038622,-1317.2195838668263,-1296.8571032464113,-1301.9654512679801,-1309.860913203507,-1268.462751462952,-1223.5280878595627,-1331.3865342647644,-1194.7855166416618,-1265.6799636338642,-1156.4381455718974,-1156.617020063816,-1242.4970352585515,-1259.6562944657908,-1213.4499495055072,-1305.4263632322886,-1265.2757784232879,-1269.7937701723185,-1238.6621790401982,-1181.265615680668,-1229.1096403947838,-1301.3626281372522,-1221.7355020256298,-1285.0128124029418,-1343.7950746802994,-1274.9055999852446,-1191.1325770784504,-1200.203597665855,-1242.7034028753355,-1202.205642205179,-1190.8985692597905,-1194.4640233841417
