Iteration,Mean,Stdev,Run-0,Run-1,Run-2,Run-3,Run-4,Run-5,Run-6,Run-7,Run-8,Run-9,Run-10,Run-11,Run-12,Run-13,Run-14,Run-15,Run-16,Run-17,Run-18,Run-19,Run-20,Run-21,Run-22,Run-23,Run-24,Run-25,Run-26,Run-27,Run-28,Run-29,Run-30,Run-31,Run-32,Run-33,Run-34,Run-35,Run-36,Run-37,Run-38,Run-39,Run-40,Run-41,Run-42,Run-43,Run-44,Run-45,Run-46,Run-47,Run-48,Run-49,Run-50,Run-51,Run-52,Run-53,Run-54,Run-55,Run-56,Run-57,Run-58,Run-59,Run-60,Run-61,Run-62,Run-63,Run-64,Run-65,Run-66,Run-67,Run-68,Run-69,Run-70,Run-71,Run-72,Run-73,Run-74,Run-75,Run-76,Run-77,Run-78,Run-79,Run-80,Run-81,Run-82,Run-83,Run-84,Run-85,Run-86,Run-87,Run-88,Run-89,Run-90,Run-91,Run-92,Run-93,Run-94,Run-95,Run-96,Run-97,Run-98,Run-99
0,407.44842398257555,49.66086866494609,364.1456009173446,409.8369019151947,363.1771288905888,404.1624167320348,345.5166637054491,435.0015229295186,395.95657164403514,390.8505585157002,409.0198519779873,372.6363061174849,437.2202276610598,370.33166274318273,430.1081137672485,395.1104235145035,310.5660873028078,375.34430322598644,402.4527428297306,421.2266629833752,395.9732442128796,446.5585670647533,410.08677977970086,363.3323424515952,394.8582042438202,428.86385708465934,398.08468753163527,570.077883854396,437.92219690827426,395.79258169675177,415.7874353745026,433.0356059017277,376.2451512682456,319.6853003975262,397.8807481752728,435.6495183861786,375.70105288941426,459.957314063644,409.02801874806573,462.2192967140475,364.1554296403362,354.0240988798379,491.2040599163142,352.5308182002287,305.76712478413066,406.8702502567847,383.1576389077694,403.97914041015684,352.34217694860774,398.8373364951281,400.4443867535067,374.2227299253414,347.8990332521822,364.4675589126645,357.7597075669173,354.90501735127657,456.54014938380107,344.6165263653501,445.994414991779,370.63472168192277,440.83855746052484,376.9969826409719,532.2788617193926,404.5958889974898,473.3844620382824,506.7409636903285,460.84492725115996,380.24027419417166,398.2689733542644,448.2592644793371,375.27022189790125,475.6129674212713,441.5811489696098,551.9375269588752,350.0622899444603,354.6261839786034,389.9108398432364,462.41539469170374,461.5436823443707,394.4115208444134,311.3123706329384,421.3308340958539,449.0415003600791,377.22879784057835,413.62043630430725,447.336334090409,435.2409665181901,410.3553897944168,453.3102655573141,447.34837075958507,462.13077152487205,374.52301676586126,398.42725761393024,398.80055194916946,424.5573897806589,412.546435911042,427.01790476885486,379.316297002172,538.5607960937632,375.1144461298135,365.4167544219071,352.72872287709697
1,540.8013409636302,67.94843936165752,395.764507311469,648.1851095592626,544.8051067077965,561.0306069936728,628.9607974467423,572.6292795114483,565.165579240209,519.8740194600874,542.6421545671338,546.4552285743157,608.2124755873073,526.6270614701091,416.53000327372513,446.0580601385414,399.87621387760197,545.0103915079793,564.4296601103609,527.9937060557685,410.3931153873184,557.4893028373878,614.3667839817537,609.8834746317522,618.1488290923024,566.7150359064901,609.185156623396,637.9598473013351,691.3521138498905,696.5796600325594,584.2774791744498,422.4894126001542,491.88393531775074,438.8679701559423,583.1520216922039,544.6116576508882,632.2791320887842,518.3983850926467,475.6405083815201,551.8413381846801,476.3137131988222,566.40167767853,570.075160751592,452.24093050789384,487.667356184961,522.7994655950389,475.1703214833015,537.63411898878,399.8219943618458,537.3703596952821,637.1713154336358,451.84943343941944,561.1445791554123,622.4793266766233,547.8718952758206,476.4599128626159,521.1057966391858,493.30129197570494,635.8580017802494,531.4446089241354,570.9652617670127,459.4352981821701,568.2220289147996,603.2202335044678,469.61918070910986,637.8479690130084,539.5586150895815,681.1584815039407,524.7238600860659,477.41792358498293,592.9319216946094,528.0258344410732,566.9160394524267,687.7541726091006,492.4594354373084,533.3746997612162,561.8229786236602,497.5230376003681,546.1726421771755,468.9103032378754,596.6875402036275,538.7942676291858,543.1396309366711,540.8073787214629,515.2002867575433,544.5302962126423,566.1322949347256,460.28566470268953,541.2534692370771,442.52997255719424,555.324825616432,615.0021900225935,529.8852060289613,517.6280352596089,566.1668558544239,515.5470366637389,545.5734020574924,387.21144596785354,548.3001714973454,636.456573261492,493.7830007339136,551.888252130801
2,533.6333365255076,56.96850929905868,456.38420635116057,658.371570706073,565.5368377873803,547.7951967404421,561.8801729451282,546.4403554716273,459.67237985429256,501.46588069828596,545.9430926234614,503.14325375400756,582.2524093418073,516.9833662575707,450.25974295803246,530.3633600026463,385.50290273394484,493.1381643377653,575.4282527088893,565.522745460335,472.8169094464235,562.9600131958252,572.9331936222064,558.3648767825434,592.759772749991,522.9566062506769,588.0668972854388,617.6100316825049,650.2895728827554,604.9550682502286,502.5120914605979,419.4530428220136,536.5708263125472,504.0472914080031,600.3724771053106,541.5240594790316,517.0169879974086,532.9471192819103,467.1217647743393,516.6273431522034,532.5839936098474,546.5763228272928,563.1474230938502,492.95248643527293,527.7750897608043,533.7923682547587,507.011065770434,531.9575183992587,408.2251682885327,489.47260198188917,631.5949923400385,440.4818927918145,415.77275430713854,516.7218264707562,553.7236165011797,477.2909677988129,399.5435342239659,538.7657725629423,613.9011522607454,531.865627517033,586.9345078457164,589.483414846345,628.3642485749359,548.0623128632722,468.1786809125261,598.6812324911325,501.3490471666763,682.3126085330102,552.7550843659361,439.33221528011836,554.2776912193909,565.0450823672168,544.8634324549058,492.9015102642363,531.5305238284172,540.4659995139914,561.1896820592833,563.4211709651626,531.942630041873,489.02482717216475,570.5253092451874,546.2793615965559,583.4980976309564,493.26609591533895,518.3699898888309,579.1240061718619,494.65409934229723,545.1153386764348,545.0320450583803,521.5501365714645,573.8026097113112,621.527616643519,519.7630702386688,529.7156427245199,555.5661756154668,564.850884278103,506.52246796189974,406.4238313786653,443.2677248568679,580.1336755572478,565.2539759283039,547.8295829214196
3,523.4262506528484,53.842323057663194,442.3703061670289,664.6880025484579,579.0696230453591,511.9634592511194,575.3445957442403,540.4406273590857,482.0812668896447,507.1414428130381,477.5180237541476,453.26088209621224,575.0539794792302,562.1179540659422,491.0299377388065,526.8025683339332,385.09062931919317,492.4982424423105,570.2832604010782,503.564709316117,487.1587889417432,557.418400468573,600.1135669941433,526.8404674978435,603.0172170325774,516.57756573723,601.6036379118904,564.4438633952376,595.4220453268988,599.579804695015,478.19289927067035,451.13218503333945,565.8260123947628,489.035295546707,585.2140776043177,495.07240889239836,519.8207100261113,530.7742170045967,434.9368386031183,519.9008128446651,455.38344647055993,541.1409093644872,528.0514198447975,494.2804071635892,442.60866479215446,517.442654311865,509.3028597677704,535.889213743801,423.95995287240544,485.8092712585389,626.4536339650283,505.3430393868899,434.9662520334883,473.91497944888,482.26873011885334,461.974835091307,400.23338216724215,529.3308615507149,672.6943305303981,552.3839049296639,559.7385593130566,521.8769357919333,587.3049724112509,547.4172297136159,477.6152032616379,567.7613954967395,533.7228486334445,580.2285771632432,527.7645175393792,482.9708848160304,567.5625745244296,549.4800773758067,564.8781167576401,521.2824702161295,569.8091045404119,504.93351419758204,518.8298759542785,499.251113038983,486.25349369614355,509.7849342073494,497.9129893008955,535.8166606362673,590.920382765495,519.0326566606949,491.6621344740088,551.8586360123728,496.9773975677676,578.445322142016,441.8203094648016,577.5677146131728,593.2617938023643,613.5738181117887,523.7330263909813,501.5296515781782,502.9474695864416,548.2177524068803,491.83886558569185,446.92064139102973,438.2936391050962,521.5739647410272,560.013634329624,504.4071311699231
4,515.9370507236883,56.571192731885525,456.10686799909234,601.2883213488402,566.7681951982983,544.9824687817213,544.276509577419,541.951065226007,509.9288205990391,526.5692454869024,409.5135332535181,435.0803027542213,568.637978536316,564.9849730821293,496.4280442262921,524.3858176546855,379.84542056582416,495.0470481359961,560.9274136845266,488.5329316827048,517.9354334213757,539.8683684283277,661.321123411095,556.1632806294475,567.5351082324418,514.492678864326,604.8649868845619,563.0944764215811,540.8700868897739,619.8355839185408,503.4082032123369,455.5581120513337,532.2352175786166,498.40949449449204,537.8977096432758,471.05758501084455,547.2162893954846,489.01296560753303,438.0225896810309,535.0204983541415,460.8113351323521,548.6633555896876,528.6641720073688,497.31548222838336,399.50251016851087,485.78270620350804,488.14105728545445,482.17641866837056,376.91977081309705,486.6973222266413,644.6263380428791,485.4936996924839,478.10693444900454,486.69349320877177,545.9209729485048,467.02275935462035,460.37680617771895,531.0157734372144,620.0743622960939,419.4159454646186,554.3703080091248,472.78276610085464,613.6468605881424,551.2229386212911,475.7842276213468,568.1268521476517,520.2820956719207,577.2287444647454,534.7637901032188,496.963901361901,561.5843426080518,550.1891773370938,597.4198141618965,513.9565007588416,533.6091096339843,450.83880364124076,518.0235705155139,494.1560077163112,475.3645484089181,527.2144065510605,444.06655407805783,500.0674218003931,517.3119728463689,525.7341407938023,522.8262663677205,603.9124327675478,583.427095356915,596.5852827691074,409.9947694440035,563.5070350561083,559.1431444654451,596.877224108066,519.3630723264874,490.0455416594877,510.46991516357156,514.398653668351,462.9138129971473,450.74465990987323,462.4115595339625,446.9661376153779,487.38247117616305,435.5311771223881
5,512.2617643211123,49.86017310571308,481.5269218322974,585.6428910117885,566.7681951982983,574.5104396985639,535.8556309699271,582.2784451638066,495.6580513499682,517.9946549332178,452.9791456920938,437.4990831369764,521.3388586533276,577.2104368676303,483.77980674690485,483.9387192122811,412.46250335887646,445.8492315637523,560.5468418599983,493.7660280333467,520.6681956073182,481.4013739448555,622.5989343341445,599.2705797330311,577.8618151847278,510.48369631526293,560.3077215000807,554.5128399364169,548.2153428185954,589.2392759338762,507.24364986975564,453.2924711466996,531.6821516533639,491.4342410589986,525.7199270133003,530.9337242529883,542.0471973576473,485.6226587655777,476.7617259477432,514.3228321024366,440.6347507266819,522.3581082595713,510.3798769970736,503.1515098578059,373.0021590083723,493.5735376335917,488.80954670866834,471.14051787447727,456.890921320948,492.54604052679656,550.5033900302124,487.6132096508264,435.3964858962528,484.58476166698216,561.5015586311969,466.21254289699306,495.999991492693,478.54544477496404,588.0538645787528,493.07938650520464,561.6337810891391,471.3151147368401,581.8491151002402,549.3511171468034,470.6277186244598,633.346586272196,499.2510036998832,546.1123901698825,484.82167089689085,496.9900196369484,553.3258908040406,567.0700332432598,588.950517360611,508.8988489593066,532.0347500348081,452.8734093033649,533.7939434102568,489.28376142235896,480.5743773574198,515.403622469843,452.5159560447014,488.0690833447877,523.4021762761716,547.7945187521614,484.44468331439555,543.0748299066513,578.7543362843794,597.4871206963669,418.2953184226042,573.3587236643733,553.1981192165474,563.812085183798,514.5794177122373,488.4183632761464,510.9537999043856,508.4794421172421,466.1683772423733,457.80173914465075,464.0840630405576,447.94868571788385,465.6966397566445,433.12743655571364
6,510.5657067059224,49.287253438061164,474.2349099746395,576.3574424225548,566.7681951982983,578.0224826119606,535.4387783530619,584.1898606131333,493.0812348351225,519.0055113285821,478.2937980741339,437.4990831369764,521.3388586533276,594.5843298372743,484.6532173534846,500.38057995860635,395.63309901835026,442.07589999382367,511.30831126565516,511.79282324201625,535.0139192392894,481.59875120140214,585.9051704256166,542.6879931220645,575.3984059154867,509.5023135366481,559.1999586434072,571.1129632607939,539.952284399443,589.2392759338762,493.88733368764593,443.65432648914003,478.69530522536286,491.4342410589986,529.005017315802,492.35987376831343,550.0514143778086,485.6226587655777,489.15504009270336,500.11226569833883,443.8332697049137,529.1875540897906,514.0003876261483,501.05404984687584,373.0021590083723,493.5735376335917,441.5399338333691,455.87452337351203,467.3329217136034,492.884773252342,620.6057797219632,482.8392287333093,436.0257206709092,442.5884976259946,566.8672912966396,476.2558281636488,489.6192978340501,512.5526820827781,591.1871254507475,494.02170900519354,534.1019486993698,471.3151147368401,581.8491151002402,549.3511171468034,479.4470603371129,622.8144681999657,502.38929938169747,545.5948007086947,490.62109722215695,496.9900196369484,553.0673464507582,567.0700332432598,591.0596559982835,492.2119874606809,531.9656593546295,452.8734093033649,524.424845862553,489.28376142235896,492.1553139945217,509.16030058477565,459.25799760899514,484.17271609553205,523.4021762761716,558.1204298502362,476.0519346427042,532.5628303791777,577.0045674629765,544.6002856770378,420.7350825638726,573.3587236643733,559.8881535222158,563.3115472487095,514.6797241816881,488.2441035058758,516.4643675319169,514.3841673042666,467.08715535624725,443.58759782716714,477.2170427747246,513.7067840639528,467.06911179904773,430.82461771386363
7,509.6603657661586,51.08242154264264,468.45506693457367,574.2783187493854,566.7681951982983,583.4876814652819,541.5884807392571,584.1898606131333,492.97505201353084,519.0173945595076,478.3330957734781,437.4990831369764,521.3388586533276,591.5383557731724,484.6532173534846,499.67321547806864,395.63309901835026,442.07589999382367,511.3086826249344,491.6908053767997,534.6505651915983,431.27253502139007,585.9051704256166,560.53877798378,571.9035489370265,507.7009277251079,558.2100354045303,571.1129632607939,539.952284399443,589.2392759338762,485.6615286260376,445.8981434052124,478.77212627077466,491.4342410589986,529.005017315802,492.35987376831343,550.4747568130342,485.6226587655777,487.7232804812608,492.6208871695029,442.79179297763983,489.78418420759874,512.4011137869154,502.1758136418605,372.58975037645087,493.5735376335917,431.0454987397853,422.9999435700617,506.93446851127396,497.2612271944307,620.6057797219632,482.8392287333093,436.0257206709092,442.5884976259946,567.2874789874908,483.993123280501,484.60776295203283,513.3845020981266,591.1871254507475,494.02170900519354,526.4997695279079,471.3151147368401,581.8491151002402,550.1846060461307,480.43937182239284,587.8764756456708,502.38929938169747,545.8573804244672,486.8117375485784,497.3452597526688,519.1632958670097,567.0700332432598,578.1335008736035,497.8192235479304,531.9656593546295,452.8734093033649,518.5774085821009,489.28376142235896,491.9537455222161,471.5512211891291,468.01972131864767,482.5688124707756,523.4021762761716,555.3848858226155,476.0519346427042,638.9108356941357,578.5135427640225,548.8792290827191,431.3634669785659,573.3587236643733,560.3514683826583,568.4782829618864,514.3609011133849,488.2441035058758,525.2907058458508,513.933683913505,467.08715535624725,448.4020942515635,491.1114068760549,513.7067840639528,467.06911179904773,419.9269403599776
8,509.4177234929226,51.9264377978223,468.45506693457367,576.3574424225548,566.7681951982983,583.4876814652819,541.5884807392571,584.0124375347854,492.97505201353084,518.0063892965134,476.28873393389114,437.4990831369764,522.8380672153585,590.6868050935037,484.6532173534846,499.67321547806864,395.63309901835026,442.07589999382367,511.30831126565516,492.3283508856358,528.3268158910262,431.27253502139007,585.9051704256166,556.721775036254,588.2282488551795,501.8151566144025,558.2100354045303,571.1129632607939,539.952284399443,589.2392759338762,448.4238128244519,452.04809563680726,478.2313812050524,477.54200504678056,529.005017315802,492.35987376831343,550.4747568130342,485.6226587655777,488.92331662706863,492.6208871695029,442.79179297763983,489.78418420759874,512.4011137869154,501.4108949040227,372.58975037645087,493.25784226437696,439.17633228721974,432.6294476040849,528.594068848889,497.2612271944307,620.6057797219632,481.07123251306774,436.02529745339143,442.5884976259946,567.2874789874908,483.993123280501,484.60776295203283,513.3845020981266,591.1871254507475,495.40426722661266,526.4997695279079,471.3151147368401,581.8491151002402,550.1846060461307,479.88955699837237,587.8764756456708,502.38929938169747,546.1333542951925,486.8117375485784,496.9900196369484,519.1632958670097,567.0700332432598,578.4844886710249,497.8192235479304,531.9656593546295,400.11093919754325,521.2458049909885,489.28376142235896,492.2268396758795,474.6243040520797,468.01972131864767,482.5688124707756,524.3922681216649,555.3848858226155,479.1151458961356,634.4457136526019,578.5135427640225,547.3468624265971,471.9874409695977,573.0086128793754,577.2407726084708,570.6113572128638,514.6797241816881,488.4183632761464,525.2907058458508,513.933683913505,467.08715535624725,448.4020942515635,450.42778034313795,513.7067840639528,467.06911179904773,431.46509442145907
9,508.89331185217867,51.541342625371506,468.45506693457367,576.3574424225548,566.7681951982983,572.8859698173783,541.5884807392571,584.1898606131333,492.97505201353084,518.0063892965134,476.28873393389114,437.4990831369764,522.8380672153585,590.3723321519634,484.6532173534846,499.67358357927253,396.32204343198123,442.07589999382367,511.30831126565516,492.3283508856358,527.5459034564036,431.27253502139007,585.9051704256166,551.9479530418614,585.8027161422993,501.8151566144025,558.2100354045303,553.8283823649127,539.952284399443,589.2392759338762,443.7218410866061,452.04809563680726,466.84138225161973,493.2769289551782,529.005017315802,492.35987376831343,550.4747568130342,485.6226587655777,488.08444066228486,493.21015824162976,442.79179297763983,489.78418420759874,512.4011137869154,501.4108949040227,372.58975037645087,493.25784226437696,438.30367015213966,432.6294476040849,529.5798667614962,497.2612271944307,615.4837958066901,483.43596122174154,436.02529745339143,440.07953951713597,537.5236733256976,483.993123280501,484.60776295203283,513.3845020981266,591.1871254507475,497.48429706723863,526.4997695279079,471.3151147368401,581.8494123964847,550.1846060461307,470.23383799819396,587.8764756456708,502.38929938169747,544.872331294295,486.35598531592143,496.9900196369484,519.1632958670097,563.3761377193044,578.4844886710249,499.69808475182384,531.9656593546295,437.333971731272,521.2458049909885,489.28376142235896,494.45865720436865,486.62290309499895,468.01972131864767,482.5688124707756,524.3922681216649,555.3848858226155,476.0519346427042,652.1544487055389,578.5135427640225,548.8792290827191,472.1633443824017,573.3587236643733,578.8497172943282,570.4605495709737,514.3609011133849,488.4183632761464,525.2907058458508,513.933683913505,449.3054081566382,448.4020942515635,439.7876811339446,513.7067840639528,467.06911179904773,420.0941423478552
10,507.8962251917938,52.519353532077055,468.45506693457367,576.3574424225548,568.503921764665,522.6416419639771,541.5884807392571,584.1898606131333,492.97505201353084,519.0173945595076,476.28873393389114,437.4990831369764,521.3388586533276,590.6344730678827,484.6532173534846,499.67358357927253,396.79509547301774,442.07589999382367,511.30831126565516,491.6908053767997,528.3268158910262,431.27253502139007,585.9051704256166,551.9479530418614,584.5414351096822,501.8151566144025,558.2100354045303,553.8283823649127,539.952284399443,590.2950784980231,443.7218410866061,450.7966801269503,471.477122291512,492.31804684651075,529.005017315802,492.35987376831343,550.4747568130342,487.726099616356,488.08444066228486,493.21015824162976,442.79179297763983,487.48073416015535,512.4011137869154,501.639412449343,372.58975037645087,493.25784226437696,438.30367015213966,432.6294476040849,509.578467086852,497.2612271944307,617.7803014989021,478.6169255585011,436.02529745339143,440.07953951713597,535.3384741398166,483.993123280501,484.60776295203283,513.3845020981266,591.1871254507475,497.48429706723863,526.4997695279079,471.3151147368401,583.647752465477,550.1846060461307,473.53397446218963,587.8764756456708,502.56410582866056,544.872331294295,486.35598531592143,497.3452597526688,519.1632958670097,578.6818744447876,578.2494347856244,507.15054764199385,531.9656593546295,424.62730952638674,521.2458049909885,489.28376142235896,491.8484519882741,486.8526314758327,468.01972131864767,482.5688124707756,524.3922681216649,555.3848858226155,476.0519346427042,652.1544487055389,578.5135427640225,548.8792290827191,474.46965766872097,573.3587236643733,578.8497172943282,570.4605495709737,514.6797241816881,488.4183632761464,525.2907058458508,513.933683913505,449.6613698318046,450.4062535861131,439.7876811339446,513.7067840639528,467.06911179904773,372.9145903925686
11,507.5891267822499,52.890039634147314,468.45506693457367,574.0255251795148,568.503921764665,492.3610058435232,541.5884807392571,584.1898606131333,492.97505201353084,518.3951723967049,476.28873393389114,437.4990831369764,521.3388586533276,588.3792329598448,484.6532173534846,499.67358357927253,396.79509547301774,442.07589999382367,511.30831126565516,491.6908053767997,528.3268158910262,431.27253502139007,585.9051704256166,556.721775036254,584.5414351096822,501.8151566144025,558.2100354045303,553.8283823649127,539.952284399443,590.2950784980231,441.8448966361835,452.04809563680726,471.477122291512,492.31804684651075,541.9591172679764,492.35987376831343,550.4747568130342,455.37460078091266,491.1169040733651,493.21015824162976,442.79179297763983,487.48073416015535,512.4011137869154,501.639412449343,372.0266739578102,490.2081567846491,438.30367015213966,432.6294476040849,509.578467086852,497.2612271944307,619.3171421506534,479.6157073069925,446.8615063648393,440.358505096036,535.5467526107826,483.993123280501,484.60776295203283,514.7192442746617,591.1871254507475,497.3035629795358,526.4997695279079,471.3151147368401,583.647752465477,550.1846060461307,473.53397446218963,589.7689050788949,500.4900110868775,545.8573804244672,486.35598531592143,496.9900196369484,520.2078589838951,586.4445155118658,578.2494347856244,507.15054764199385,531.9656593546295,421.4074707248073,521.2458049909885,489.28376142235896,491.8484519882741,486.8526314758327,468.01972131864767,482.5688124707756,524.3922681216649,555.3848858226155,476.0519346427042,652.1544487055389,578.5135427640225,547.3468624265971,474.6454418001482,573.3587236643733,578.8497172943282,570.4605495709737,514.3609011133849,488.4183632761464,525.2907058458508,513.933683913505,448.01802028061684,450.46685590226235,442.33870014884144,515.4629432770613,465.581072857109,372.9145903925686
12,507.15771389409156,52.94197551329363,468.45506693457367,574.0255251795148,568.5035667997183,500.4978211365985,541.5884807392571,584.1898606131333,492.97505201353084,517.9946549332178,476.28873393389114,437.4990831369764,521.3388586533276,588.1353430246626,484.6532173534846,499.67358357927253,396.0798748362497,447.11791106452137,511.0841893940546,492.3283508856358,528.3268158910262,431.27253502139007,585.9051704256166,551.9479530418614,584.5414351096822,501.8151566144025,558.2100354045303,553.8283823649127,539.952284399443,589.2392759338762,441.8448966361835,452.04809563680726,471.477122291512,492.31804684651075,539.086449258417,492.35987376831343,550.4747568130342,452.11830955679767,478.08439066011437,493.21015824162976,442.79179297763983,487.48073416015535,512.4011137869154,501.639412449343,372.0266739578102,490.2081567846491,439.79784737797365,432.6294476040849,509.578467086852,497.2612271944307,619.3171421506534,480.07208934302565,439.61493159552293,440.358505096036,535.5467526107826,483.993123280501,484.60776295203283,514.4835418405725,593.5622606511245,497.3557636510371,526.4997695279079,471.3151147368401,583.6474583670648,550.1846060461307,470.23383799819396,589.7689050788949,500.4900110868775,545.8573804244672,486.35598531592143,496.9900196369484,520.2078589838951,576.3078081272193,578.1335008736035,499.69808475182384,533.993029046523,421.4074707248073,520.9175418007526,489.28376142235896,491.8484519882741,486.8526314758327,468.01972131864767,483.28926884840797,524.3922681216649,555.3848858226155,476.0519346427042,652.1544487055389,578.5135427640225,548.8792290827191,473.60532456155624,573.3587236643733,578.8497172943282,570.4605495709737,514.6797241816881,486.68730503468225,525.2907058458508,513.933683913505,442.4624899060824,450.46685590226235,439.7876811339446,515.4629432770613,465.581072857109,373.24902086626633
13,507.1945255805983,53.02031225788162,468.45506693457367,574.0255251795148,568.5035667997183,500.4978211365985,542.6480480078752,584.1898606131333,492.97505201353084,518.3951723967049,476.28873393389114,437.4990831369764,521.3388586533276,588.1353430246626,484.6532173534846,499.67358357927253,396.0798748362497,447.11791106452137,511.0841893940546,492.3283508856358,528.3268158910262,431.27253502139007,585.9051704256166,551.9479530418614,584.5414351096822,501.8151566144025,558.2100354045303,553.8283823649127,539.952284399443,590.2950784980231,441.8448966361835,452.04809563680726,471.477122291512,492.669603930928,543.944325372878,492.35987376831343,550.4747568130342,452.11830955679767,477.7284237572643,491.3301134057436,442.79179297763983,487.48073416015535,512.4011137869154,501.639412449343,371.7810223985437,490.2081567846491,439.79784737797365,432.6294476040849,509.578467086852,495.1969874782805,619.3171421506534,480.07208934302565,439.61493159552293,444.45975266277,537.5236733256976,483.993123280501,484.60776295203283,514.4835418405725,593.5622606511245,496.98960261024433,526.4997695279079,472.44330465973593,583.6474583670648,550.1846060461307,472.3353861217307,589.7689050788949,503.0989670978709,545.8573804244672,486.35598531592143,497.3452597526688,520.2078589838951,576.3078081272193,578.1335008736035,499.69808475182384,533.993029046523,421.4074707248073,520.9175418007526,489.28376142235896,492.1090191421393,486.8526314758327,468.01972131864767,483.28926884840797,524.3922681216649,555.3848858226155,462.524772900379,652.1544487055389,578.5135427640225,548.8792290827191,473.7847764323211,573.3587236643733,578.8497172943282,570.4605495709737,514.3609011133849,486.68730503468225,525.2907058458508,513.933683913505,441.91324643287345,450.46685590226235,442.33870014884144,515.4629432770613,465.581072857109,373.24902086626633
14,506.9807746034766,52.73687547347813,468.45506693457367,574.0255251795148,568.5035667997183,500.4978211365985,542.6480480078752,584.0124375347854,492.97505201353084,518.3951723967049,476.28873393389114,433.26146140555664,521.3388586533276,588.1353430246626,484.6532173534846,499.67358357927253,396.0798748362497,442.07589999382367,511.30831126565516,492.3283508856358,528.3268158910262,431.27253502139007,585.9051704256166,551.9479530418614,584.1538122169896,501.8151566144025,558.2100354045303,553.8283823649127,539.952284399443,589.2392759338762,444.69385882852055,452.04809563680726,471.477122291512,492.669603930928,543.944325372878,492.35987376831343,550.4747568130342,454.0913060046247,477.7284237572643,491.3301134057436,442.79179297763983,489.78418420759874,512.4011137869154,501.639412449343,371.7810223985437,490.2081567846491,439.79784737797365,432.6294476040849,503.5355157936101,495.1969874782805,619.3171421506534,480.07208934302565,439.61493159552293,444.82325675167294,537.5236733256976,483.993123280501,484.19947004248723,514.4835418405725,572.9039046022483,496.98960261024433,526.4997695279079,472.44330465973593,583.647752465477,550.1846060461307,472.3924579163796,590.129720902915,502.92346967702235,545.8573804244672,486.35598531592143,496.9900196369484,519.1632958670097,576.6092609615437,579.6356572693652,500.4662484119363,533.993029046523,421.4074707248073,520.9175418007526,489.28376142235896,492.1090191421393,486.8526314758327,468.01972131864767,483.28926884840797,524.3922681216649,555.3848858226155,472.4437159926023,652.1544487055389,578.5135427640225,548.8792290827191,473.60532456155624,573.3587236643733,578.8497172943282,570.4605495709737,514.6797241816881,486.68730503468225,525.2907058458508,513.933683913505,441.91324643287345,450.46685590226235,439.7876811339446,515.4629432770613,465.581072857109,373.24902086626633
15,507.0221141471611,51.83596350683374,468.45506693457367,576.3574424225548,566.7678355953012,500.4978211365985,542.6480480078752,584.0124375347854,492.97505201353084,518.3951723967049,476.28873393389114,433.26146140555664,521.3388586533276,588.1353430246626,478.95612402708394,499.67358357927253,396.0798748362497,442.07589999382367,511.3086826249344,494.52793743436274,528.3268158910262,431.27253502139007,585.9051704256166,551.4535797952096,584.1538122169896,501.8151566144025,559.1999586434072,557.6546248157658,539.952284399443,589.7195109831713,484.1752376176974,452.04809563680726,471.477122291512,492.669603930928,543.944325372878,492.35987376831343,550.4747568130342,456.7759541577796,477.7284237572643,491.3301134057436,442.79179297763983,489.78418420759874,512.4011137869154,501.639412449343,372.3439677819873,489.88462008081325,439.79784737797365,432.6294476040849,503.5355157936101,495.1969874782805,617.2344935944867,480.07208934302565,439.61493159552293,444.82325675167294,537.5236733256976,483.993123280501,484.19947004248723,534.3132112995793,539.0443642198701,497.2633806336412,526.4997695279079,472.44330465973593,583.647752465477,550.1846060461307,472.3924579163796,569.2424405962511,502.92346967702235,545.8573804244672,486.35598531592143,506.2727468430414,519.1632958670097,576.3078081272193,583.577460134196,500.4662484119363,533.993029046523,416.3992604188564,520.9175418007526,489.28376142235896,491.9442523444046,483.39044103954615,465.6334004195922,483.28926884840797,524.3922681216649,555.3848858226155,472.4437159926023,652.1544487055389,578.5135427640225,547.3468624265971,473.7847764323211,573.3587236643733,566.3991132311482,570.4605495709737,514.6797241816881,495.69427054086486,525.2907058458508,513.933683913505,441.91324643287345,447.3642638288662,442.33870014884144,515.4629432770613,465.581072857109,373.24902086626633
16,506.85493264835134,52.05411490044677,468.45506693457367,576.3574424225548,566.7678355953012,500.4978211365985,541.5884807392571,584.0124375347854,492.97505201353084,518.3951723967049,476.28873393389114,433.26146140555664,521.3388586533276,588.3792329598448,478.95612402708394,499.67358357927253,396.0798748362497,442.07589999382367,511.3086826249344,494.52793743436274,528.3268158910262,431.27253502139007,585.9051704256166,551.4535797952096,584.1538122169896,501.8151566144025,559.1999586434072,557.6546248157658,547.4082399785383,590.2950784980231,484.1752376176974,452.04809563680726,471.477122291512,492.669603930928,542.2476368879402,492.35987376831343,550.4747568130342,456.7759541577796,477.41679783562137,490.7257936176196,442.79179297763983,489.78418420759874,512.4011137869154,501.639412449343,372.3439677819873,489.88462008081325,439.79784737797365,432.6294476040849,504.0071660738757,495.1969874782805,615.8371380613997,480.07208934302565,439.61493159552293,444.82325675167294,537.5236733256976,483.993123280501,484.60776295203283,534.3132112995793,539.9491108406668,496.98960261024433,526.4997695279079,472.44330465973593,583.647752465477,549.3511171468034,472.3353861217307,568.3101937284455,502.38929938169747,545.8573804244672,486.35598531592143,506.2727468430414,519.1632958670097,576.3078081272193,574.3845907060877,500.4662484119363,533.993029046523,416.3992604188564,519.6494446615344,488.6169034460703,491.9442523444046,486.8526314758327,465.6334004195922,483.28926884840797,524.3922681216649,564.4055191807098,472.4437159926023,652.1544487055389,586.4121364827423,548.8792290827191,473.7847764323211,573.3587236643733,566.3991132311482,570.4605495709737,514.6797241816881,467.5865302845636,525.2907058458508,513.933683913505,441.91324643287345,447.3642638288662,442.33870014884144,513.7067840639528,465.581072857109,373.24902086626633
17,507.1012223006469,51.85843979986062,467.80605208642146,574.2783187493854,566.7678355953012,500.4978211365985,541.5884807392571,584.1898606131333,493.13129043415404,518.3951723967049,476.28873393389114,434.30135596036024,521.3388586533276,588.3792329598448,478.95612402708394,499.67358357927253,411.88242595745595,442.07589999382367,511.3086826249344,494.52793743436274,528.3268158910262,431.44483026426167,585.9051704256166,553.0046199855492,586.1686471828615,501.8151566144025,558.839377306062,557.6546248157658,547.4082399785383,589.2392759338762,484.1752376176974,452.04809563680726,471.477122291512,492.1995426232955,542.2476368879402,492.35987376831343,550.4747568130342,456.7759541577796,473.85594012585915,490.7257936176196,443.5247247746646,487.48073416015535,512.4011137869154,503.35858930515235,372.3439677819873,489.88462008081325,439.79784737797365,432.6294476040849,504.0200360624202,495.1969874782805,618.8604797601397,480.07208934302565,439.61493159552293,444.82325675167294,537.5236733256976,482.8665920397077,484.60776295203283,532.8469276052987,554.9203861815678,496.98960261024433,526.4997695279079,472.44330465973593,583.647752465477,549.3511171468034,472.3924579163796,571.779717467705,502.38929938169747,545.8576190658722,486.8117375485784,505.93437525034585,519.1632958670097,576.3078081272193,574.3845907060877,500.4662484119363,533.993029046523,421.4074707248073,519.6494446615344,488.6169034460703,491.6818445612306,483.39044103954615,465.6334004195922,483.28926884840797,523.8805788226798,556.0141317665456,470.61568841449275,653.3403261660882,586.4121364827423,548.8792290827191,473.60532456155624,573.3587236643733,566.3991132311482,570.4605495709737,514.6797241816881,470.7852404957192,525.2907058458508,513.933683913505,439.8381864186187,447.3642638288662,442.33870014884144,513.7067840639528,465.581072857109,373.24902086626633
18,507.2349202538865,51.79488527049868,467.80605208642146,576.3574424225548,566.7678355953012,500.4978211365985,541.5884807392571,584.1898606131333,493.13129043415404,518.3951723967049,476.28873393389114,434.30135596036024,521.3388586533276,588.1353430246626,478.95612402708394,499.67358357927253,416.7353274369272,442.07589999382367,511.3086826249344,494.52793743436274,527.5459034564036,431.27253502139007,585.9051704256166,553.0046199855492,586.1686471828615,501.8151566144025,558.839377306062,551.5968182116246,540.2942195910406,589.2392759338762,484.1752376176974,452.04809563680726,471.477122291512,492.1995426232955,541.4408315209259,492.35987376831343,550.4747568130342,456.7759541577796,490.3901896422017,490.7257936176196,443.5247247746646,487.48073416015535,512.4011137869154,501.639412449343,372.3439677819873,489.88462008081325,439.695967649713,432.21704814859936,505.05641255153716,495.1969874782805,618.8604797601397,480.07208934302565,439.61493159552293,444.45975266277,537.5236733256976,482.8665920397077,484.60776295203283,534.3132112995793,554.9203861815678,496.98960261024433,526.4997695279079,472.44330465973593,583.647752465477,549.3511171468034,472.3924579163796,571.779717467705,502.38929938169747,545.8576190658722,486.8117375485784,505.93437525034585,520.2078589838951,576.3078081272193,574.3845907060877,497.8192235479304,533.993029046523,426.3393214898683,519.6494446615344,488.6169034460703,491.6818445612306,483.39044103954615,463.8192301225091,483.28926884840797,524.3922681216649,574.2722281642624,471.5529237228932,653.3403261660882,586.4121364827423,547.3468624265971,473.60532456155624,571.4371471106285,564.5680882888512,570.4605495709737,514.6797241816881,460.021519493307,525.2907058458508,513.933683913505,439.8381864186187,447.3642638288662,442.33870014884144,513.7067840639528,465.581072857109,373.24902086626633
19,506.6214597060752,52.26569358760944,467.80605208642146,576.3574424225548,566.7678355953012,500.4978211365985,542.6480480078752,584.0124375347854,493.13129043415404,519.4090536446733,476.28873393389114,434.30135596036024,521.3813395818916,588.3792329598448,478.95612402708394,499.67358357927253,400.86079192585015,442.07589999382367,511.3086826249344,493.8971172849722,518.1354042863468,431.27253502139007,584.2416666692937,547.3495460901416,586.1686471828615,501.8151566144025,557.8473763013477,557.8510740121793,547.4082399785383,589.2392759338762,488.22786055362,452.04809563680726,471.477122291512,492.1995426232955,541.4408315209259,492.35987376831343,550.4747568130342,456.7759541577796,490.3901896422017,490.7257936176196,443.5247247746646,489.78418420759874,512.4011137869154,501.8407576103287,372.3439677819873,489.88462008081325,442.8325508430243,432.21704814859936,511.8174601257886,502.56550153140324,618.8604797601397,480.07208934302565,439.61493159552293,444.45975266277,537.5236733256976,482.8665920397077,461.1782458403966,532.8469276052987,554.9203861815678,497.2633806336412,526.4997695279079,472.44330465973593,583.6474583670648,549.3511171468034,472.3924579163796,571.779717467705,502.92346967702235,545.8576190658722,470.45188612956827,506.2727468430414,520.2078589838951,576.3078081272193,574.3845907060877,497.8192235479304,514.615144321024,426.3393214898683,519.6494446615344,488.6169034460703,491.6818445612306,483.39044103954615,463.8192301225091,465.7854656092609,524.3922681216649,572.3644546864635,488.20607112373216,653.3403261660882,586.4121364827423,548.8792290827191,473.7847764323211,571.4371471106285,564.5680882888512,570.4605495709737,514.6797241816881,454.0617846706948,525.2907058458508,513.933683913505,439.8381864186187,447.3642638288662,442.33870014884144,513.7067840639528,465.581072857109,373.24902086626633
