Iteration,Mean,Stdev,Run-0,Run-1,Run-2,Run-3,Run-4,Run-5,Run-6,Run-7,Run-8,Run-9,Run-10,Run-11,Run-12,Run-13,Run-14,Run-15,Run-16,Run-17,Run-18,Run-19,Run-20,Run-21,Run-22,Run-23,Run-24,Run-25,Run-26,Run-27,Run-28,Run-29,Run-30,Run-31,Run-32,Run-33,Run-34,Run-35,Run-36,Run-37,Run-38,Run-39,Run-40,Run-41,Run-42,Run-43,Run-44,Run-45,Run-46,Run-47,Run-48,Run-49,Run-50,Run-51,Run-52,Run-53,Run-54,Run-55,Run-56,Run-57,Run-58,Run-59,Run-60,Run-61,Run-62,Run-63,Run-64,Run-65,Run-66,Run-67,Run-68,Run-69,Run-70,Run-71,Run-72,Run-73,Run-74,Run-75,Run-76,Run-77,Run-78,Run-79,Run-80,Run-81,Run-82,Run-83,Run-84,Run-85,Run-86,Run-87,Run-88,Run-89,Run-90,Run-91,Run-92,Run-93,Run-94,Run-95,Run-96,Run-97,Run-98,Run-99
0,1.2433881682237056,0.11417222178741651,1.3670565231236658,1.1171716798944893,0.9906593237292063,1.091297257952854,1.1590127944058133,1.3974385378685474,1.543738725206011,1.1086139739831244,1.1256643289213237,1.1881501084762431,1.4311088576199504,1.3488888515318276,1.1993951612518985,1.2073095592606256,1.327538427558311,1.328767693303251,1.3418097908195596,0.980998611948044,1.2776111495416396,1.1507662831994823,1.2151724120180256,1.1753322490647529,1.2384614842911197,1.3275384275583104,1.2941171620162317,1.0467528886883106,1.3587375760070513,1.0558121182411866,1.4509360494181465,1.3275384275583109,1.2763326146857874,1.1672010437983642,1.2537472178105922,1.1590127944058128,1.2867368068013465,1.091297257952854,1.3232270044158794,1.3488888515318271,1.4177366907374034,1.3087530199087158,1.3058389715049614,1.194621354825828,1.2384614842911195,1.2461277892416098,1.191428190780648,1.2491811376814934,1.1507662831994823,1.1507662831994823,1.2688488185213553,1.3559309543020508,1.2911700822919872,1.1340933825984143,1.2807310837344175,1.1390412485886514,1.3699065628464255,1.4244384659614682,1.1507662831994832,1.3974385378685479,1.3933434234572661,1.3699065628464249,1.2461277892416096,1.2985252405916166,1.2491811376814936,1.2275743462251902,1.1834075860578332,1.1086139739831244,1.2353082184450253,1.1256643289213237,1.3131119672551743,1.2657712553018015,1.125664328921324,1.0558121182411868,1.3587375760070515,1.222984713713677,1.2183033442245628,1.1753322490647529,1.2461277892416098,1.2718476213297285,1.3203449009998764,1.3304049474739041,1.1834075860578337,1.191428190780648,1.1086139739831244,1.2073095592606256,1.372684610006522,1.298525240591617,1.0999896927985446,1.1120449590415424,1.1753322490647526,1.5524101662457135,1.1993951612518985,1.1638547259556282,1.2850439169463155,1.2151724120180252,1.3837410267188528,1.0558121182411866,1.1205764632443982,1.3906066475004948,1.3974385378685474,1.1374475144254186
1,0.750687859901152,0.08158119942160975,0.7616666294526546,0.696346148968796,0.7410233776734063,0.749058365799454,0.592928853953271,0.7621428199520965,0.8507699593953255,0.6169194186933962,0.6321686390581369,0.7302967433402214,0.8992816483133617,0.79829750817889,0.828078671210825,0.6830636600777555,0.8562958778281526,0.7161246170326656,0.984874268251049,0.6689755934794637,0.7302967433402214,0.7556889304715191,0.7607133541986991,0.7300483008280687,0.6898026271326408,0.7681883744790776,0.8770182425311499,0.7537660547584529,0.8218115049449375,0.7161246170326656,0.9202188441280886,0.6689755934794637,0.7362342129557208,0.7549684260040543,0.6075862060090123,0.7280577087091963,0.7362342129557207,0.7919092002280921,0.8278595737943131,0.7745381185275213,0.8669282703028779,0.6758550475889591,0.755688930471519,0.7231826859645566,0.8045223650263954,0.6758550475889591,0.716884162535574,0.7432233529572065,0.755688930471519,0.7026996855503517,0.7807200583588266,0.8835098013949791,0.8936155509135166,0.6616135022079394,0.7429792329463653,0.65291948575248,0.8890362689611399,0.8925999629607596,0.7037315505489968,0.7104021409131996,0.7104021409131995,0.8610492992225304,0.7300483008280687,0.894224350042323,0.7907630001770323,0.7236841996766801,0.8278595737943136,0.593540436224109,0.7098912439460648,0.7161246170326657,0.7429792329463653,0.7362342129557208,0.6473388749701496,0.675855047588959,0.8045223650263954,0.7621428199520965,0.6898026271326408,0.7422463911770945,0.7621428199520965,0.8278595737943136,0.6830636600777555,0.7616666294526546,0.6093749818303381,0.7429792329463653,0.7919092002280921,0.7300483008280687,0.8386361890571934,0.8782584292113143,0.7362342129557208,0.5677660404110054,0.6825322997016723,0.850556707114899,0.7480890242535418,0.7231826859645567,0.833754995361496,0.6898026271326408,0.7621428199520965,0.5517237469699141,0.6618876325292973,0.8101398216433038,0.7740695533796602,0.7422463911770945
2,0.5326744202849918,0.06107430570694308,0.5432746932172056,0.5677660404110054,0.5598833697790114,0.5690426379538917,0.3651483716701107,0.35173686309751223,0.6169194186933962,0.4765712763122596,0.4972486659888235,0.467928323677647,0.6248083606421602,0.5062870041905523,0.5687237572127093,0.5160463689197742,0.6398696012282209,0.507003110636425,0.5772717127882555,0.46792832367764675,0.4871128324778822,0.6087793072189284,0.533163238182035,0.5254519704431889,0.4871128324778821,0.4871128324778824,0.5605310083642719,0.6087793072189285,0.4878570847567875,0.4878570847567877,0.6545843915215068,0.46792832367764703,0.5687237572127093,0.5598833697790117,0.4573412268016371,0.5490870592533166,0.4679283236776471,0.5690426379538917,0.5341829966621015,0.5598833697790117,0.5855400437691199,0.4976133515281193,0.5855400437691199,0.4972486659888235,0.5254519704431888,0.5341829966621015,0.5062870041905525,0.5163977794943222,0.6075862060090123,0.4871128324778824,0.6015852075182383,0.5690426379538917,0.6169194186933962,0.48785708475678763,0.5254519704431887,0.46792832367764703,0.6830636600777555,0.5507364683733705,0.4777118553898841,0.4777118553898841,0.5605310083642723,0.6814683359999356,0.5345224838248488,0.6012835854348418,0.4972486659888235,0.5341829966621015,0.577271712788256,0.4573412268016371,0.46715232260688444,0.5247610405316533,0.5432746932172052,0.48711283247788245,0.45773770821706344,0.5426064584092991,0.5070031106364247,0.5605310083642722,0.47809144373375745,0.5160463689197742,0.5687237572127093,0.6616135022079395,0.5070031106364248,0.5772717127882562,0.44711217502116163,0.47809144373375745,0.5598833697790117,0.5605310083642718,0.6093749818303379,0.5687237572127093,0.5772717127882561,0.4972486659888235,0.5412675138431547,0.5772717127882557,0.5345224838248488,0.6003778099990286,0.6093749818303381,0.4972486659888235,0.4976133515281193,0.3651483716701107,0.4972486659888235,0.5062870041905526,0.5160463689197742,0.4972486659888235
3,0.42350600735207544,0.047318427898546726,0.41360096667825663,0.46559644044115467,0.43601992922893723,0.41360096667825663,0.3086066999241838,0.3517368630975122,0.45773770821706344,0.40135823820391386,0.43476998897193686,0.3517368630975122,0.4777118553898841,0.4013582382039138,0.5070031106364247,0.4022611825131974,0.4573412268016371,0.37784446523575954,0.47809144373375745,0.40226118251319753,0.41360096667825663,0.4671523226068843,0.4013582382039139,0.4679283236776471,0.4252783535574491,0.40226118251319753,0.3903600291794133,0.5254519704431887,0.3380617018914066,0.41360096667825663,0.5254519704431885,0.44629998148038,0.4679283236776472,0.4777118553898841,0.3898950379134996,0.3380617018914066,0.4022611825131977,0.4013582382039138,0.4022611825131976,0.5062870041905525,0.48785708475678763,0.40226118251319753,0.45773770821706344,0.4244243800982316,0.41360096667825663,0.4471121750211619,0.4462999814803801,0.4573412268016371,0.47771185538988403,0.38989503791349966,0.4777118553898841,0.4252783535574495,0.4972486659888235,0.4022611825131971,0.4022611825131976,0.4022611825131974,0.5432746932172055,0.4022611825131977,0.35173686309751223,0.41360096667825663,0.4777118553898841,0.5070031106364248,0.4022611825131976,0.46715232260688433,0.4140393356054125,0.45773770821706344,0.4878570847567878,0.3898950379134996,0.3903600291794133,0.41360096667825663,0.46792832367764703,0.401358238203914,0.35173686309751223,0.4364357804719847,0.43601992922893723,0.35173686309751223,0.3778444652357595,0.41360096667825663,0.40226118251319737,0.42527835355744964,0.4252783535574495,0.45773770821706344,0.3903600291794133,0.36465123274431727,0.4244243800982323,0.42442438009823213,0.4573412268016371,0.4573412268016371,0.4679283236776473,0.40135823820391386,0.4122830632745406,0.42527835355744925,0.467928323677647,0.41360096667825663,0.4022611825131976,0.37784446523575954,0.4140393356054125,0.32352929050405776,0.3380617018914066,0.3884967248451648,0.45773770821706344,0.32352929050405776
4,0.37601329723629817,0.03931309674731313,0.41360096667825663,0.4244243800982321,0.42527835355744914,0.37784446523575954,0.2926150761092804,0.3517368630975122,0.3651483716701107,0.35173686309751223,0.4022611825131974,0.2926150761092804,0.3651483716701107,0.3507038598004186,0.4140393356054125,0.3651483716701107,0.37784446523575954,0.32352929050405776,0.42527835355744953,0.2926150761092804,0.38989503791349966,0.4140393356054125,0.37688302737922647,0.4022611825131976,0.41360096667825663,0.3517368630975122,0.3898950379134996,0.4140393356054125,0.32352929050405776,0.37784446523575954,0.4022611825131977,0.41360096667825663,0.4364357804719847,0.42442438009823197,0.3646512327443173,0.2926150761092804,0.3651483716701107,0.3646512327443173,0.3651483716701107,0.4252783535574493,0.3903600291794133,0.3778444652357595,0.4364357804719847,0.35070385980041874,0.41360096667825663,0.41360096667825663,0.41360096667825663,0.4140393356054125,0.3903600291794133,0.37784446523575954,0.3651483716701107,0.3903600291794133,0.4136009666782566,0.4022611825131971,0.32352929050405776,0.3517368630975122,0.4252783535574493,0.35173686309751223,0.32352929050405776,0.37784446523575954,0.4462999814803801,0.42527835355744953,0.37784446523575954,0.35173686309751223,0.32352929050405776,0.37784446523575954,0.40226118251319753,0.25802318445988703,0.35173686309751223,0.35173686309751223,0.4140393356054125,0.3898950379134996,0.33752466946036874,0.4140393356054125,0.41360096667825663,0.3375246694603688,0.35173686309751223,0.3380617018914066,0.38989503791349966,0.38989503791349966,0.41360096667825663,0.4252783535574495,0.35173686309751223,0.2760262237369417,0.36315573266547857,0.40135823820391375,0.4022611825131977,0.41360096667825663,0.3903600291794133,0.3651483716701107,0.3507038598004184,0.37784446523575954,0.4364357804719847,0.38989503791349966,0.35173686309751223,0.3375246694603688,0.37784446523575954,0.32352929050405776,0.3380617018914066,0.3359084207342555,0.3903600291794133,0.32352929050405776
5,0.35479841146102714,0.044048943766608485,0.41360096667825663,0.3768830273792263,0.4252783535574491,0.35070385980041835,0.2926150761092804,0.3517368630975122,0.3086066999241838,0.2926150761092804,0.40226118251319715,0.2926150761092804,0.3651483716701107,0.3507038598004186,0.4140393356054125,0.32352929050405776,0.32352929050405776,0.32352929050405776,0.3651483716701107,0.2926150761092804,0.38989503791349966,0.3903600291794133,0.37688302737922647,0.4022611825131976,0.41360096667825663,0.33752466946036885,0.3898950379134996,0.3651483716701107,0.3086066999241838,0.3380617018914066,0.4022611825131976,0.3646512327443173,0.43601992922893723,0.41360096667825663,0.3646512327443173,0.23904572186687872,0.23904572186687872,0.3086066999241838,0.3651483716701107,0.37784446523575954,0.37784446523575954,0.3778444652357595,0.4364357804719847,0.3380617018914066,0.41360096667825663,0.35173686309751223,0.38989503791349966,0.3903600291794133,0.35173686309751223,0.3224059215202049,0.3507038598004185,0.37784446523575954,0.37784446523575954,0.4022611825131971,0.2760262237369417,0.3517368630975122,0.3898950379134996,0.2760262237369417,0.32352929050405776,0.3778444652357595,0.3778444652357595,0.41360096667825663,0.35173686309751223,0.32352929050405776,0.2926150761092804,0.35173686309751223,0.32352929050405776,0.25802318445988703,0.35173686309751223,0.35173686309751223,0.4140393356054125,0.3646512327443173,0.32352929050405776,0.40226118251319753,0.41360096667825663,0.3086066999241838,0.3517368630975122,0.3380617018914066,0.3898950379134996,0.38989503791349966,0.41360096667825663,0.4252783535574493,0.32352929050405776,0.25802318445988703,0.32352929050405776,0.35173686309751223,0.37784446523575954,0.33752466946036874,0.3380617018914066,0.3651483716701107,0.29137254363387316,0.32352929050405776,0.40226118251319765,0.38989503791349966,0.3380617018914066,0.3375246694603688,0.3651483716701107,0.32352929050405776,0.3380617018914066,0.308018316738976,0.3903600291794133,0.32352929050405776
6,0.3472619093843639,0.04479842315338337,0.41360096667825663,0.37688302737922613,0.3903600291794133,0.35070385980041835,0.2926150761092804,0.3517368630975122,0.3086066999241838,0.2580231844598871,0.35173686309751223,0.2926150761092804,0.3651483716701107,0.3507038598004186,0.4140393356054125,0.32352929050405776,0.3086066999241838,0.32352929050405776,0.3646512327443173,0.2926150761092804,0.38989503791349966,0.37784446523575954,0.37688302737922647,0.4022611825131976,0.37784446523575954,0.33752466946036885,0.3898950379134996,0.3651483716701107,0.2926150761092804,0.3380617018914066,0.40226118251319753,0.36465123274431727,0.43601992922893723,0.41360096667825663,0.3646512327443173,0.23904572186687872,0.23904572186687872,0.3086066999241838,0.3651483716701107,0.33752466946036885,0.37784446523575954,0.3778444652357595,0.40226118251319726,0.3380617018914066,0.41360096667825663,0.32352929050405776,0.38989503791349966,0.3651483716701107,0.3380617018914066,0.30801831673897606,0.3507038598004184,0.35173686309751223,0.3517368630975122,0.4022611825131971,0.2760262237369417,0.3517368630975122,0.36465123274431727,0.25802318445988703,0.32352929050405776,0.3778444652357595,0.3778444652357595,0.3778444652357595,0.35173686309751223,0.2760262237369417,0.2926150761092804,0.35173686309751223,0.32352929050405776,0.25802318445988703,0.35173686309751223,0.35173686309751223,0.4140393356054125,0.32352929050405776,0.32352929050405776,0.4022611825131974,0.41360096667825663,0.3086066999241838,0.3086066999241838,0.3380617018914066,0.3898950379134996,0.37784446523575954,0.41360096667825663,0.4252783535574493,0.32352929050405776,0.21800996461446856,0.32352929050405776,0.3517368630975122,0.35173686309751223,0.32352929050405776,0.3380617018914066,0.3651483716701107,0.29137254363387316,0.2926150761092804,0.3903600291794133,0.38989503791349966,0.3380617018914066,0.3375246694603688,0.3651483716701107,0.32352929050405776,0.3380617018914066,0.308018316738976,0.3903600291794133,0.32352929050405776
7,0.3451745900253618,0.04405818557335382,0.41360096667825663,0.37688302737922613,0.3517368630975122,0.35070385980041835,0.2926150761092804,0.3517368630975122,0.3086066999241838,0.25802318445988703,0.35173686309751223,0.2926150761092804,0.3651483716701107,0.3507038598004186,0.4140393356054125,0.32352929050405776,0.3086066999241838,0.32352929050405776,0.35173686309751223,0.2926150761092804,0.38989503791349966,0.37784446523575954,0.37688302737922647,0.4022611825131976,0.37784446523575954,0.33752466946036885,0.3898950379134996,0.3651483716701107,0.2926150761092804,0.3380617018914066,0.37784446523575954,0.35173686309751223,0.43601992922893723,0.41360096667825663,0.3646512327443173,0.23904572186687872,0.23904572186687872,0.3086066999241838,0.3651483716701107,0.3375246694603688,0.37784446523575954,0.3778444652357595,0.3903600291794133,0.3086066999241838,0.41360096667825663,0.32352929050405776,0.37784446523575954,0.3651483716701107,0.3380617018914066,0.30801831673897606,0.33752466946036885,0.35173686309751223,0.3380617018914066,0.4022611825131971,0.2760262237369417,0.3517368630975122,0.36465123274431727,0.25802318445988703,0.32352929050405776,0.3778444652357595,0.3778444652357595,0.3778444652357595,0.35173686309751223,0.2760262237369417,0.2926150761092804,0.35173686309751223,0.32352929050405776,0.25802318445988703,0.35173686309751223,0.35173686309751223,0.4140393356054125,0.32352929050405776,0.32352929050405776,0.4022611825131974,0.41360096667825663,0.3086066999241838,0.3086066999241838,0.3380617018914066,0.3898950379134996,0.37784446523575954,0.41360096667825663,0.4252783535574493,0.32352929050405776,0.21800996461446856,0.32352929050405776,0.3517368630975122,0.35173686309751223,0.32352929050405776,0.3380617018914066,0.3651483716701107,0.29137254363387316,0.2926150761092804,0.37784446523575954,0.38989503791349966,0.3380617018914066,0.3375246694603688,0.3380617018914066,0.32352929050405776,0.3380617018914066,0.308018316738976,0.3903600291794133,0.32352929050405776
8,0.34401025986526595,0.04342248882783628,0.41360096667825663,0.37688302737922613,0.3517368630975122,0.33752466946036874,0.2926150761092804,0.3517368630975122,0.3086066999241838,0.25802318445988703,0.35173686309751223,0.2926150761092804,0.3651483716701107,0.3507038598004186,0.4140393356054125,0.32352929050405776,0.3086066999241838,0.32352929050405776,0.35173686309751223,0.2926150761092804,0.38989503791349966,0.37784446523575954,0.37688302737922635,0.4022611825131976,0.3651483716701107,0.33752466946036885,0.3898950379134996,0.3651483716701107,0.2926150761092804,0.3380617018914066,0.37688302737922613,0.35173686309751223,0.43601992922893723,0.41360096667825663,0.3646512327443173,0.23904572186687872,0.23904572186687872,0.3086066999241838,0.3651483716701107,0.3375246694603688,0.35173686309751223,0.3778444652357595,0.3903600291794133,0.3086066999241838,0.41360096667825663,0.32352929050405776,0.37784446523575954,0.3380617018914066,0.3380617018914066,0.30801831673897606,0.3375246694603688,0.35173686309751223,0.3380617018914066,0.4022611825131971,0.2760262237369417,0.3517368630975122,0.36465123274431727,0.25802318445988703,0.32352929050405776,0.3778444652357595,0.3778444652357595,0.3778444652357595,0.35173686309751223,0.2760262237369417,0.2926150761092804,0.35173686309751223,0.32352929050405776,0.25802318445988703,0.35173686309751223,0.35173686309751223,0.4140393356054125,0.32352929050405776,0.32352929050405776,0.4022611825131974,0.41360096667825663,0.3086066999241838,0.3086066999241838,0.3380617018914066,0.3898950379134996,0.3651483716701107,0.38989503791349966,0.4252783535574493,0.32352929050405776,0.21800996461446856,0.32352929050405776,0.3517368630975122,0.35173686309751223,0.32352929050405776,0.3380617018914066,0.3651483716701107,0.29137254363387316,0.2926150761092804,0.3778444652357595,0.38989503791349966,0.3380617018914066,0.3375246694603688,0.3380617018914066,0.32352929050405776,0.3380617018914066,0.308018316738976,0.3903600291794133,0.32352929050405776
9,0.34317415278420976,0.04242351740595922,0.41360096667825663,0.37688302737922613,0.3517368630975122,0.33752466946036874,0.2926150761092804,0.3517368630975122,0.3086066999241838,0.25802318445988703,0.35173686309751223,0.2926150761092804,0.3651483716701107,0.3507038598004186,0.4022611825131977,0.32352929050405776,0.3086066999241838,0.32352929050405776,0.35173686309751223,0.2926150761092804,0.38989503791349966,0.37784446523575954,0.37688302737922624,0.4022611825131976,0.3651483716701107,0.33752466946036885,0.36465123274431727,0.3651483716701107,0.2926150761092804,0.3380617018914066,0.3646512327443173,0.35173686309751223,0.43601992922893723,0.41360096667825663,0.3646512327443173,0.23904572186687872,0.23904572186687872,0.3086066999241838,0.3651483716701107,0.3375246694603688,0.35173686309751223,0.3778444652357595,0.3903600291794133,0.3086066999241838,0.41360096667825663,0.32352929050405776,0.37784446523575954,0.3380617018914066,0.3380617018914066,0.30801831673897606,0.3375246694603688,0.35173686309751223,0.3380617018914066,0.4022611825131971,0.2760262237369417,0.3517368630975122,0.36465123274431727,0.25802318445988703,0.32352929050405776,0.3778444652357595,0.3778444652357595,0.3778444652357595,0.35173686309751223,0.2760262237369417,0.2926150761092804,0.35173686309751223,0.32352929050405776,0.25802318445988703,0.35173686309751223,0.35173686309751223,0.4140393356054125,0.32352929050405776,0.32352929050405776,0.4022611825131974,0.4022611825131974,0.3086066999241838,0.3086066999241838,0.3380617018914066,0.3898950379134996,0.3651483716701107,0.38989503791349966,0.4022611825131977,0.32352929050405776,0.21800996461446856,0.32352929050405776,0.3517368630975122,0.35173686309751223,0.32352929050405776,0.3380617018914066,0.3651483716701107,0.29137254363387316,0.2926150761092804,0.3778444652357595,0.38989503791349966,0.3380617018914066,0.3375246694603688,0.3380617018914066,0.32352929050405776,0.3380617018914066,0.308018316738976,0.3903600291794133,0.32352929050405776
10,0.3422036332391366,0.04239520810236983,0.41360096667825663,0.37688302737922613,0.3517368630975122,0.33752466946036874,0.2926150761092804,0.3517368630975122,0.3086066999241838,0.25802318445988703,0.35173686309751223,0.2926150761092804,0.3651483716701107,0.3507038598004186,0.4022611825131976,0.32352929050405776,0.3086066999241838,0.32352929050405776,0.35173686309751223,0.2926150761092804,0.38989503791349966,0.37784446523575954,0.37688302737922624,0.4022611825131976,0.3651483716701107,0.33752466946036885,0.36465123274431727,0.3651483716701107,0.2926150761092804,0.3380617018914066,0.36465123274431727,0.35173686309751223,0.43601992922893723,0.41360096667825663,0.36465123274431727,0.23904572186687872,0.23904572186687872,0.3086066999241838,0.3651483716701107,0.32352929050405776,0.35173686309751223,0.3778444652357595,0.3903600291794133,0.3086066999241838,0.41360096667825663,0.32352929050405776,0.37784446523575954,0.3380617018914066,0.2926150761092804,0.30801831673897606,0.3375246694603688,0.35173686309751223,0.3380617018914066,0.4022611825131971,0.2760262237369417,0.3517368630975122,0.36465123274431727,0.25802318445988703,0.32352929050405776,0.3778444652357595,0.3778444652357595,0.3778444652357595,0.35173686309751223,0.2760262237369417,0.2926150761092804,0.35173686309751223,0.32352929050405776,0.25802318445988703,0.35173686309751223,0.35173686309751223,0.4140393356054125,0.32352929050405776,0.32352929050405776,0.4022611825131974,0.3646512327443173,0.3086066999241838,0.3086066999241838,0.3380617018914066,0.3898950379134996,0.3651483716701107,0.38989503791349966,0.4022611825131977,0.32352929050405776,0.21800996461446856,0.32352929050405776,0.3517368630975122,0.35173686309751223,0.32352929050405776,0.3380617018914066,0.3651483716701107,0.29137254363387316,0.2926150761092804,0.3778444652357595,0.38989503791349966,0.3380617018914066,0.3375246694603688,0.3380617018914066,0.32352929050405776,0.3380617018914066,0.308018316738976,0.3903600291794133,0.32352929050405776
11,0.3414124394949534,0.04196850821644977,0.41360096667825663,0.37688302737922613,0.3517368630975122,0.33752466946036874,0.2926150761092804,0.3517368630975122,0.3086066999241838,0.25802318445988703,0.32352929050405776,0.2926150761092804,0.3646512327443173,0.3507038598004186,0.37784446523575954,0.32352929050405776,0.3086066999241838,0.32352929050405776,0.35173686309751223,0.2926150761092804,0.38989503791349966,0.37784446523575954,0.37688302737922624,0.4022611825131976,0.3651483716701107,0.33752466946036885,0.36465123274431727,0.3651483716701107,0.2926150761092804,0.3380617018914066,0.36465123274431727,0.35173686309751223,0.43601992922893723,0.41360096667825663,0.36465123274431727,0.23904572186687872,0.23904572186687872,0.3086066999241838,0.3651483716701107,0.32352929050405776,0.35173686309751223,0.3778444652357595,0.3903600291794133,0.3086066999241838,0.41360096667825663,0.32352929050405776,0.37784446523575954,0.3380617018914066,0.2926150761092804,0.30801831673897606,0.3375246694603688,0.35173686309751223,0.3380617018914066,0.4022611825131971,0.2760262237369417,0.3517368630975122,0.36465123274431727,0.25802318445988703,0.32352929050405776,0.3778444652357595,0.3778444652357595,0.3778444652357595,0.35173686309751223,0.2760262237369417,0.2926150761092804,0.35173686309751223,0.32352929050405776,0.25802318445988703,0.35173686309751223,0.35173686309751223,0.4140393356054125,0.32352929050405776,0.32352929050405776,0.4022611825131974,0.3507038598004187,0.3086066999241838,0.3086066999241838,0.3380617018914066,0.3898950379134996,0.3651483716701107,0.37784446523575954,0.4022611825131977,0.32352929050405776,0.21800996461446856,0.32352929050405776,0.3517368630975122,0.35173686309751223,0.32352929050405776,0.3380617018914066,0.3651483716701107,0.29137254363387316,0.2926150761092804,0.3778444652357595,0.3898950379134996,0.3380617018914066,0.3375246694603688,0.3380617018914066,0.32352929050405776,0.3380617018914066,0.308018316738976,0.3903600291794133,0.32352929050405776
12,0.34004033092443414,0.041761248978327066,0.41360096667825663,0.37688302737922613,0.3517368630975122,0.33752466946036874,0.2926150761092804,0.3517368630975122,0.3086066999241838,0.25802318445988703,0.32352929050405776,0.2926150761092804,0.30801831673897595,0.3507038598004186,0.3778444652357595,0.32352929050405776,0.3086066999241838,0.32352929050405776,0.35173686309751223,0.2926150761092804,0.38989503791349966,0.37784446523575954,0.37688302737922624,0.4022611825131976,0.3651483716701107,0.33752466946036885,0.36465123274431727,0.3651483716701107,0.2926150761092804,0.3380617018914066,0.36465123274431727,0.35173686309751223,0.43601992922893723,0.41360096667825663,0.36465123274431727,0.23904572186687872,0.23904572186687872,0.3086066999241838,0.3651483716701107,0.32352929050405776,0.35173686309751223,0.3778444652357595,0.3903600291794133,0.3086066999241838,0.41360096667825663,0.32352929050405776,0.37784446523575954,0.3380617018914066,0.2926150761092804,0.30801831673897606,0.3375246694603688,0.32352929050405776,0.3380617018914066,0.4022611825131971,0.2760262237369417,0.3517368630975122,0.36465123274431727,0.25802318445988703,0.32352929050405776,0.3778444652357595,0.3778444652357595,0.3778444652357595,0.35173686309751223,0.2760262237369417,0.2926150761092804,0.3375246694603688,0.32352929050405776,0.25802318445988703,0.35173686309751223,0.35173686309751223,0.4140393356054125,0.32352929050405776,0.32352929050405776,0.4022611825131974,0.3507038598004187,0.3086066999241838,0.3086066999241838,0.3380617018914066,0.3778444652357595,0.3651483716701107,0.35173686309751223,0.4022611825131977,0.32352929050405776,0.21800996461446856,0.32352929050405776,0.3517368630975122,0.35173686309751223,0.32352929050405776,0.3380617018914066,0.3651483716701107,0.29137254363387316,0.2926150761092804,0.3778444652357595,0.3898950379134996,0.3380617018914066,0.3375246694603688,0.3380617018914066,0.32352929050405776,0.3380617018914066,0.308018316738976,0.3903600291794133,0.32352929050405776
13,0.33918969000997534,0.04190222390049853,0.41360096667825663,0.37688302737922613,0.3517368630975122,0.33752466946036874,0.2926150761092804,0.3517368630975122,0.3086066999241838,0.25802318445988703,0.32352929050405776,0.2926150761092804,0.2760262237369417,0.3507038598004186,0.3778444652357595,0.32352929050405776,0.3086066999241838,0.32352929050405776,0.35173686309751223,0.2926150761092804,0.38989503791349966,0.3651483716701107,0.37688302737922624,0.4022611825131976,0.3651483716701107,0.33752466946036885,0.36465123274431727,0.3651483716701107,0.2926150761092804,0.3380617018914066,0.36465123274431727,0.35173686309751223,0.43601992922893723,0.41360096667825663,0.36465123274431727,0.23904572186687872,0.23904572186687872,0.3086066999241838,0.3651483716701107,0.32352929050405776,0.35173686309751223,0.3778444652357595,0.3903600291794133,0.3086066999241838,0.41360096667825663,0.32352929050405776,0.37784446523575954,0.3380617018914066,0.2926150761092804,0.30801831673897606,0.3375246694603688,0.32352929050405776,0.3380617018914066,0.4022611825131971,0.2760262237369417,0.3517368630975122,0.36465123274431727,0.25802318445988703,0.32352929050405776,0.3778444652357595,0.3778444652357595,0.3778444652357595,0.35173686309751223,0.2760262237369417,0.2926150761092804,0.3375246694603688,0.32352929050405776,0.25802318445988703,0.35173686309751223,0.35173686309751223,0.4022611825131974,0.32352929050405776,0.32352929050405776,0.4022611825131974,0.3507038598004187,0.3086066999241838,0.3086066999241838,0.3380617018914066,0.3778444652357595,0.3651483716701107,0.3380617018914066,0.4022611825131977,0.32352929050405776,0.21800996461446856,0.32352929050405776,0.3517368630975122,0.35173686309751223,0.3086066999241838,0.3380617018914066,0.3651483716701107,0.29137254363387316,0.2926150761092804,0.3778444652357595,0.3898950379134996,0.3380617018914066,0.3375246694603688,0.3380617018914066,0.32352929050405776,0.3380617018914066,0.308018316738976,0.3903600291794133,0.32352929050405776
14,0.33845890346458984,0.04211787431422893,0.41360096667825663,0.37688302737922613,0.3517368630975122,0.33752466946036874,0.2926150761092804,0.3517368630975122,0.3086066999241838,0.25802318445988703,0.32352929050405776,0.2926150761092804,0.2760262237369417,0.3507038598004186,0.3778444652357595,0.32352929050405776,0.3086066999241838,0.32352929050405776,0.35173686309751223,0.2926150761092804,0.38989503791349966,0.3651483716701107,0.37688302737922624,0.4022611825131976,0.3651483716701107,0.33752466946036885,0.36465123274431727,0.35173686309751223,0.2926150761092804,0.3380617018914066,0.36465123274431727,0.3517368630975122,0.43601992922893723,0.41360096667825663,0.36465123274431727,0.23904572186687872,0.23904572186687872,0.3086066999241838,0.3651483716701107,0.32352929050405776,0.35173686309751223,0.3778444652357595,0.3903600291794133,0.3086066999241838,0.41360096667825663,0.32352929050405776,0.37784446523575954,0.3380617018914066,0.2926150761092804,0.30801831673897606,0.3375246694603688,0.32352929050405776,0.3380617018914066,0.4022611825131971,0.2760262237369417,0.3517368630975122,0.36465123274431727,0.25802318445988703,0.32352929050405776,0.3778444652357595,0.3778444652357595,0.3778444652357595,0.35173686309751223,0.2760262237369417,0.2926150761092804,0.3375246694603688,0.32352929050405776,0.25802318445988703,0.35173686309751223,0.35173686309751223,0.4022611825131974,0.32352929050405776,0.32352929050405776,0.4022611825131974,0.3507038598004187,0.3086066999241838,0.3086066999241838,0.3380617018914066,0.3778444652357595,0.3380617018914066,0.3380617018914066,0.4022611825131977,0.32352929050405776,0.21800996461446856,0.32352929050405776,0.3517368630975122,0.35173686309751223,0.2760262237369417,0.3380617018914066,0.3651483716701107,0.29137254363387316,0.2926150761092804,0.3778444652357595,0.3898950379134996,0.3380617018914066,0.3375246694603688,0.3380617018914066,0.32352929050405776,0.3380617018914066,0.308018316738976,0.3903600291794133,0.32352929050405776
15,0.33770988718709644,0.04246503575426987,0.41360096667825663,0.37688302737922613,0.3517368630975122,0.33752466946036874,0.2926150761092804,0.3517368630975122,0.3086066999241838,0.25802318445988703,0.32352929050405776,0.2926150761092804,0.2760262237369417,0.3507038598004186,0.3778444652357595,0.32352929050405776,0.3086066999241838,0.32352929050405776,0.35173686309751223,0.2926150761092804,0.38989503791349966,0.3651483716701107,0.37688302737922624,0.4022611825131976,0.3651483716701107,0.33752466946036885,0.36465123274431727,0.35173686309751223,0.2926150761092804,0.3380617018914066,0.36465123274431727,0.3517368630975122,0.43601992922893723,0.41360096667825663,0.36465123274431727,0.23904572186687872,0.23904572186687872,0.3086066999241838,0.3651483716701107,0.32352929050405776,0.35173686309751223,0.3778444652357595,0.3903600291794133,0.3086066999241838,0.41360096667825663,0.32352929050405776,0.37784446523575954,0.3380617018914066,0.2926150761092804,0.30801831673897606,0.3375246694603688,0.32352929050405776,0.3380617018914066,0.4022611825131971,0.2760262237369417,0.3517368630975122,0.36465123274431727,0.25802318445988703,0.32352929050405776,0.3778444652357595,0.3778444652357595,0.3778444652357595,0.35173686309751223,0.2760262237369417,0.2926150761092804,0.3375246694603688,0.32352929050405776,0.25802318445988703,0.35173686309751223,0.35173686309751223,0.4022611825131974,0.32352929050405776,0.32352929050405776,0.4022611825131974,0.3507038598004187,0.3086066999241838,0.3086066999241838,0.2926150761092804,0.3778444652357595,0.3086066999241838,0.3380617018914066,0.4022611825131977,0.32352929050405776,0.21800996461446856,0.32352929050405776,0.3517368630975122,0.35173686309751223,0.2760262237369417,0.3380617018914066,0.3651483716701107,0.29137254363387316,0.2926150761092804,0.3778444652357595,0.3898950379134996,0.3380617018914066,0.3375246694603688,0.3380617018914066,0.32352929050405776,0.3380617018914066,0.308018316738976,0.3903600291794133,0.32352929050405776
16,0.3367273697969557,0.04238558528621476,0.41360096667825663,0.37688302737922613,0.3517368630975122,0.33752466946036874,0.2926150761092804,0.3517368630975122,0.3086066999241838,0.25802318445988703,0.32352929050405776,0.2926150761092804,0.2760262237369417,0.3507038598004186,0.3778444652357595,0.32352929050405776,0.3086066999241838,0.32352929050405776,0.35173686309751223,0.2926150761092804,0.38989503791349966,0.3651483716701107,0.37688302737922624,0.4022611825131976,0.3651483716701107,0.33752466946036885,0.36465123274431727,0.35173686309751223,0.2926150761092804,0.3380617018914066,0.36465123274431727,0.3517368630975122,0.4252783535574495,0.41360096667825663,0.36465123274431727,0.23904572186687872,0.23904572186687872,0.3086066999241838,0.3651483716701107,0.32352929050405776,0.35173686309751223,0.3778444652357595,0.3651483716701107,0.3086066999241838,0.41360096667825663,0.32352929050405776,0.37784446523575954,0.3380617018914066,0.2926150761092804,0.30801831673897606,0.3375246694603688,0.32352929050405776,0.3380617018914066,0.4022611825131971,0.2760262237369417,0.3517368630975122,0.36465123274431727,0.25802318445988703,0.32352929050405776,0.3778444652357595,0.3778444652357595,0.3778444652357595,0.35173686309751223,0.2760262237369417,0.2926150761092804,0.3375246694603688,0.32352929050405776,0.25802318445988703,0.35173686309751223,0.35173686309751223,0.4022611825131974,0.32352929050405776,0.3086066999241838,0.4022611825131974,0.3359084207342555,0.3086066999241838,0.3086066999241838,0.2926150761092804,0.3778444652357595,0.2760262237369417,0.3380617018914066,0.4022611825131977,0.32352929050405776,0.21800996461446856,0.32352929050405776,0.3517368630975122,0.35173686309751223,0.2760262237369417,0.3380617018914066,0.3651483716701107,0.29137254363387316,0.2926150761092804,0.3778444652357595,0.3898950379134996,0.3380617018914066,0.3375246694603688,0.3380617018914066,0.32352929050405776,0.3380617018914066,0.308018316738976,0.3903600291794133,0.32352929050405776
17,0.33534590250036117,0.043250009455970684,0.41360096667825663,0.37688302737922613,0.3517368630975122,0.33752466946036874,0.2580231844598871,0.3517368630975122,0.3086066999241838,0.25802318445988703,0.32352929050405776,0.2926150761092804,0.2760262237369417,0.3507038598004186,0.3778444652357595,0.32352929050405776,0.3086066999241838,0.32352929050405776,0.35173686309751223,0.2926150761092804,0.38989503791349966,0.3651483716701107,0.37688302737922624,0.4022611825131976,0.3651483716701107,0.33752466946036885,0.36465123274431727,0.35173686309751223,0.2926150761092804,0.3380617018914066,0.36465123274431727,0.3517368630975122,0.4022611825131977,0.41360096667825663,0.36465123274431727,0.23904572186687872,0.23904572186687872,0.3086066999241838,0.3651483716701107,0.32352929050405776,0.35173686309751223,0.3778444652357595,0.3651483716701107,0.3086066999241838,0.41360096667825663,0.32352929050405776,0.37784446523575954,0.3380617018914066,0.2926150761092804,0.30801831673897606,0.3375246694603688,0.32352929050405776,0.3380617018914066,0.4022611825131971,0.2760262237369417,0.3517368630975122,0.36465123274431727,0.21800996461446862,0.32352929050405776,0.3778444652357595,0.3778444652357595,0.3778444652357595,0.35173686309751223,0.2760262237369417,0.2926150761092804,0.33752466946036874,0.32352929050405776,0.25802318445988703,0.35173686309751223,0.35173686309751223,0.4022611825131974,0.32352929050405776,0.308018316738976,0.4022611825131974,0.32240592152020503,0.3086066999241838,0.3086066999241838,0.2926150761092804,0.3778444652357595,0.2760262237369417,0.32352929050405776,0.3903600291794133,0.32352929050405776,0.21800996461446856,0.32352929050405776,0.3517368630975122,0.35173686309751223,0.2760262237369417,0.3380617018914066,0.3651483716701107,0.29137254363387316,0.2926150761092804,0.3778444652357595,0.3898950379134996,0.3380617018914066,0.3375246694603688,0.3380617018914066,0.32352929050405776,0.3380617018914066,0.308018316738976,0.3903600291794133,0.32352929050405776
18,0.33459240582270994,0.043548226632876934,0.41360096667825663,0.37688302737922613,0.3517368630975122,0.33752466946036874,0.25802318445988703,0.3517368630975122,0.3086066999241838,0.25802318445988703,0.32352929050405776,0.2926150761092804,0.2760262237369417,0.3507038598004186,0.3778444652357595,0.32352929050405776,0.3086066999241838,0.32352929050405776,0.35173686309751223,0.2926150761092804,0.38989503791349966,0.3651483716701107,0.37688302737922624,0.4022611825131976,0.3651483716701107,0.33752466946036885,0.36465123274431727,0.35173686309751223,0.2926150761092804,0.3380617018914066,0.36465123274431727,0.3517368630975122,0.4022611825131977,0.41360096667825663,0.36465123274431727,0.23904572186687872,0.23904572186687872,0.3086066999241838,0.3651483716701107,0.32352929050405776,0.35173686309751223,0.3778444652357595,0.3651483716701107,0.3086066999241838,0.41360096667825663,0.32352929050405776,0.37784446523575954,0.3380617018914066,0.2926150761092804,0.30801831673897606,0.3375246694603688,0.32352929050405776,0.3380617018914066,0.4022611825131971,0.2760262237369417,0.3517368630975122,0.36465123274431727,0.21800996461446862,0.32352929050405776,0.3778444652357595,0.36465123274431727,0.3778444652357595,0.35173686309751223,0.2760262237369417,0.2926150761092804,0.27536823418668516,0.32352929050405776,0.25802318445988703,0.35173686309751223,0.35173686309751223,0.4022611825131974,0.32352929050405776,0.308018316738976,0.4022611825131974,0.32240592152020503,0.3086066999241838,0.3086066999241838,0.2926150761092804,0.3778444652357595,0.2760262237369417,0.32352929050405776,0.3903600291794133,0.32352929050405776,0.21800996461446856,0.32352929050405776,0.3517368630975122,0.35173686309751223,0.2760262237369417,0.3380617018914066,0.3651483716701107,0.29137254363387316,0.2926150761092804,0.3778444652357595,0.3898950379134996,0.3380617018914066,0.3375246694603688,0.3380617018914066,0.32352929050405776,0.3380617018914066,0.308018316738976,0.3903600291794133,0.32352929050405776
19,0.33446326212624183,0.043477987052847306,0.41360096667825663,0.37688302737922613,0.3517368630975122,0.33752466946036874,0.25802318445988703,0.3517368630975122,0.3086066999241838,0.25802318445988703,0.32352929050405776,0.2926150761092804,0.2760262237369417,0.3507038598004186,0.3778444652357595,0.32352929050405776,0.3086066999241838,0.32352929050405776,0.35173686309751223,0.2926150761092804,0.38989503791349966,0.3651483716701107,0.37688302737922624,0.4022611825131976,0.3651483716701107,0.33752466946036885,0.36465123274431727,0.35173686309751223,0.2926150761092804,0.3380617018914066,0.36465123274431727,0.3517368630975122,0.4022611825131977,0.41360096667825663,0.36465123274431727,0.23904572186687872,0.23904572186687872,0.3086066999241838,0.3651483716701107,0.32352929050405776,0.35173686309751223,0.3778444652357595,0.3651483716701107,0.3086066999241838,0.41360096667825663,0.32352929050405776,0.37784446523575954,0.3380617018914066,0.2926150761092804,0.30801831673897606,0.3375246694603688,0.32352929050405776,0.3380617018914066,0.4022611825131971,0.2760262237369417,0.3517368630975122,0.36465123274431727,0.21800996461446862,0.32352929050405776,0.3778444652357595,0.3517368630975122,0.3778444652357595,0.35173686309751223,0.2760262237369417,0.2926150761092804,0.27536823418668516,0.32352929050405776,0.25802318445988703,0.35173686309751223,0.35173686309751223,0.4022611825131974,0.32352929050405776,0.308018316738976,0.4022611825131974,0.32240592152020503,0.3086066999241838,0.3086066999241838,0.2926150761092804,0.3778444652357595,0.2760262237369417,0.32352929050405776,0.3903600291794133,0.32352929050405776,0.21800996461446856,0.32352929050405776,0.3517368630975122,0.35173686309751223,0.2760262237369417,0.3380617018914066,0.3651483716701107,0.29137254363387316,0.2926150761092804,0.3778444652357595,0.3898950379134996,0.3380617018914066,0.3375246694603688,0.3380617018914066,0.32352929050405776,0.3380617018914066,0.308018316738976,0.3903600291794133,0.32352929050405776
