Iteration,Mean,Stdev,Run-0,Run-1,Run-2,Run-3,Run-4,Run-5,Run-6,Run-7,Run-8,Run-9,Run-10,Run-11,Run-12,Run-13,Run-14,Run-15,Run-16,Run-17,Run-18,Run-19,Run-20,Run-21,Run-22,Run-23,Run-24,Run-25,Run-26,Run-27,Run-28,Run-29,Run-30,Run-31,Run-32,Run-33,Run-34,Run-35,Run-36,Run-37,Run-38,Run-39,Run-40,Run-41,Run-42,Run-43,Run-44,Run-45,Run-46,Run-47,Run-48,Run-49,Run-50,Run-51,Run-52,Run-53,Run-54,Run-55,Run-56,Run-57,Run-58,Run-59,Run-60,Run-61,Run-62,Run-63,Run-64,Run-65,Run-66,Run-67,Run-68,Run-69,Run-70,Run-71,Run-72,Run-73,Run-74,Run-75,Run-76,Run-77,Run-78,Run-79,Run-80,Run-81,Run-82,Run-83,Run-84,Run-85,Run-86,Run-87,Run-88,Run-89,Run-90,Run-91,Run-92,Run-93,Run-94,Run-95,Run-96,Run-97,Run-98,Run-99
0,0.9656678358153491,0.06596689223921418,1.0573079021741976,1.0285426583277923,1.0274239631233055,1.023474474522936,1.0248902380255158,0.9152048950918048,0.9951884243699777,0.9420721840708386,1.0136567466356647,1.0219589032832965,1.0037429949942365,1.0359054010864124,0.8449260322655472,1.0371113729971337,1.1294246322796397,0.9568698971124546,0.9672641831474996,0.8837986195961163,1.002197585309403,0.8252878285786118,1.0049875621120887,0.9236341266973629,1.1608186766243902,0.8742997197757757,0.8792610533851708,1.0632027088001603,0.9630680142129112,0.9061456836513653,0.9420721840708387,0.8645808232895293,0.955562661472287,1.074988372030135,0.8151073548925936,0.9348261870529736,1.0186265262597483,0.9221713506718795,0.9645724441429991,0.8818163074019446,0.8856635930193809,0.9343982020530649,0.9718024490605072,0.9877246579892596,0.9803570778037966,0.9329523031752475,1.016415269464209,1.0051865498503243,1.1652896635600958,0.9951884243699778,0.9645724441429989,0.9205976319760987,1.0550355444249264,0.896883492991146,0.9888882646689674,0.9297311439335566,1.0051865498503243,1.0274239631233055,0.8818163074019448,0.9965440281292143,1.0051865498503243,0.9733961166965893,1.0104949282406117,0.9492628719169413,0.9474175425861617,0.9454628496138817,1.0051865498503245,0.9017205775626951,0.9297311439335564,0.9492628719169417,0.9762684057163792,0.8777243302996671,0.9614572273377524,0.9236341266973631,0.9888882646689674,0.8819863944528858,0.9820386957752728,1.1065260954898433,0.959739548002477,0.8890444308357142,0.9864583113340373,0.986458311334037,0.9682974749528173,0.9659710140578756,0.9597395480024773,0.9436100889668354,1.0150862032359609,0.9205976319760985,0.9987992791347026,0.8818163074019446,1.0371113729971337,0.9357350052231665,1.023474474522936,0.8777243302996672,0.9329523031752478,0.8905616205518856,0.9701030873056735,0.8837986195961155,1.016415269464209,0.9002221947941513,0.9096702699330126,0.9701030873056735
1,0.6916320257151269,0.056188441918153524,0.8047359815492291,0.7748548251124207,0.739932429347437,0.6770524351924307,0.7426977851050861,0.6884039511798286,0.7399324293474367,0.6167657578043709,0.6982120021884468,0.6538348415311014,0.6477653896280654,0.7141428428542851,0.562494444417009,0.7956758133813044,0.7246378405796923,0.6647555941848098,0.7301369734508725,0.653834841531101,0.7573638491504597,0.6617401302626277,0.7262919523166974,0.6569627082262739,0.795989949685296,0.6523802572120034,0.6489221833163047,0.7490660852020997,0.6647555941848097,0.648382603097893,0.7426977851050862,0.5878775382679621,0.7262919523166971,0.7163099887618489,0.6114736298484178,0.6327716807822549,0.6770524351924305,0.672011904656458,0.658483105326173,0.6173329733620261,0.664153596692813,0.7208328516376036,0.6368673331236262,0.7520638270785268,0.679043444854598,0.673721010508059,0.726360791893396,0.8062257748298551,0.8761278445523808,0.6925315877272311,0.7172168430816435,0.6790434448545981,0.7520638270785266,0.6431174076325409,0.6339558344238181,0.6796322535018473,0.5996665740225975,0.7855571271397137,0.6237788069500281,0.7251896303726356,0.7922120928135351,0.6689544080129826,0.7110555533852472,0.6766830868286859,0.653834841531101,0.7445804187594507,0.7246378405796923,0.6677574409918619,0.6333245613427604,0.7168681887209111,0.6878226515607058,0.6489221833163047,0.6790434448545982,0.7262919523166975,0.7652450587883595,0.5953150426454887,0.6468384651518495,0.7483314773547881,0.6823488843692794,0.6384355879804953,0.7709734106958546,0.757891812859856,0.5986651818838308,0.6993568473962347,0.658483105326173,0.6557438524302003,0.7410128204019147,0.6982120021884469,0.696850055607374,0.6945502141674137,0.7141428428542849,0.7575618786607466,0.6689544080129824,0.6433506042586732,0.6907242575731652,0.6982120021884468,0.6755738301621813,0.6968500556073738,0.6269768735766895,0.6437390775772429,0.6740919818541083,0.5916079783099617
2,0.5260038926553026,0.04425951775007013,0.6403124237432848,0.5969924622639718,0.5078385570237851,0.5653317610041025,0.5257375771237965,0.5271622141238882,0.5915234568468102,0.4974937185533102,0.5276362383309168,0.4950757517794621,0.49507575177946206,0.555967624956706,0.4786439177509729,0.5361902647381807,0.5276362383309169,0.39799497484264784,0.562494444417009,0.4918333050943172,0.5083306010855534,0.5413871073455665,0.5567764362830026,0.5196152422706636,0.6321392251711639,0.4862098312457285,0.5444263035526475,0.538423625038872,0.4862098312457285,0.4833218389437825,0.5840376700179536,0.4467661580737735,0.5458021619598077,0.5095095681142796,0.4974937185533102,0.5035871324805664,0.5172040216394305,0.5230678732248804,0.5196152422706635,0.5000000000000004,0.5230678732248805,0.6147357155721473,0.4673328578219168,0.565685424949238,0.5187484939737176,0.5276362383309168,0.5878775382679624,0.6112282715974448,0.573672380370539,0.5095095681142798,0.5969924622639717,0.5172040216394304,0.5444263035526475,0.4882622246293481,0.4990991885387112,0.5458021619598078,0.4651881339845201,0.5775811631277457,0.46733285782191686,0.5230678732248805,0.5946427498927399,0.49909918853871127,0.5083306010855534,0.45552167895721507,0.4431703961232066,0.4651881339845202,0.5736723803705391,0.5230678732248804,0.511761663276959,0.5361902647381809,0.4769696007084732,0.5271622141238882,0.5653317610041025,0.5782732917920388,0.5744562646538032,0.4749736834815165,0.476969600708473,0.5196152422706637,0.5339475629684994,0.5078385570237851,0.5775811631277457,0.5722761571129802,0.5083306010855534,0.5257375771237963,0.5566866263886711,0.4673328578219168,0.5599999999999995,0.5271622141238882,0.528772162656091,0.5425863986500218,0.5095095681142796,0.5599999999999996,0.4112177038990415,0.507838557023785,0.5117616632769592,0.5523585791856586,0.5230678732248804,0.5817215828899597,0.4833218389437825,0.530942558098331,0.538423625038872,0.4882622246293481
3,0.4291486228645902,0.040093135240659064,0.5063595560468861,0.47444704657105785,0.43588989435406744,0.4894895300208166,0.434856298103178,0.4023679907746144,0.4572745346069471,0.43023249528597873,0.4092676385936226,0.3693237062523877,0.41121770389904155,0.46518813398452,0.3736308338453884,0.4223742416388574,0.3458323293158117,0.3720215047547653,0.4242640687119285,0.3840572873934304,0.38405728739343037,0.45825756949558416,0.40926763859362225,0.43023249528597873,0.5276362383309168,0.42379240200834206,0.4330127018922193,0.4112177038990416,0.42,0.39191835884530807,0.46216880033165314,0.3871692136521186,0.45727453460694717,0.39949968710876393,0.43577517139001837,0.434856298103178,0.4237924020083422,0.4651881339845201,0.41999999999999976,0.4448595283907046,0.46861498055439943,0.47696960070847305,0.37202150475476525,0.4673328578219168,0.4431703961232068,0.4166533331199928,0.49507575177946206,0.5083306010855534,0.4112177038990418,0.38716921365211865,0.4454211490264016,0.4348562981031781,0.4357751713900183,0.42,0.3979949748426478,0.45825756949558427,0.40926763859362236,0.4581484475582121,0.3593048844644334,0.46216880033165336,0.40926763859362236,0.39547439866570405,0.3861346915261562,0.35707142142714243,0.3155946767611902,0.4166533331199926,0.4431703961232067,0.4651881339845202,0.4264973622427225,0.4330127018922192,0.3840572873934301,0.4063249930782004,0.478643917750973,0.49507575177946206,0.4882622246293481,0.4166533331199928,0.38613469152615626,0.4199999999999999,0.45287967496896975,0.4572745346069472,0.4121892769104988,0.45727453460694745,0.42237424163885734,0.42000000000000004,0.46861498055439904,0.38405728739343015,0.47864391775097287,0.4302324952859785,0.4357751713900183,0.4667976006793523,0.3736308338453885,0.46518813398452,0.3458323293158121,0.40926763859362253,0.43301270189221946,0.4744470465710579,0.4330127018922193,0.511761663276959,0.41999999999999993,0.4710626285325548,0.4431703961232065,0.3693237062523879
4,0.3685796647451379,0.034598131977922005,0.35930488446443326,0.3693237062523879,0.4023679907746141,0.42379240200834206,0.399499687108764,0.3411744421846396,0.3440930106817049,0.3979949748426478,0.37202150475476525,0.29849623113198587,0.395474398665704,0.37202150475476525,0.34583232931581187,0.3720215047547653,0.31622776601683794,0.3593048844644334,0.3155946767611902,0.32787192621510003,0.27999999999999975,0.3979949748426478,0.3155946767611905,0.3809199390948178,0.3994996871087638,0.36041642581880184,0.37202150475476525,0.3315116890850154,0.3871692136521186,0.3570714214271424,0.3840572873934303,0.36041642581880173,0.3871692136521186,0.31622776601683794,0.380919939094818,0.37202150475476525,0.35930488446443337,0.3954743986657038,0.35707142142714265,0.40236799077461427,0.4200000000000001,0.4112177038990416,0.34409301068170484,0.3994996871087639,0.35707142142714227,0.33030289129827467,0.4166533331199928,0.4302324952859788,0.35930488446443326,0.34409301068170484,0.39949968710876393,0.39547439866570394,0.3736308338453885,0.3720215047547653,0.34583232931581187,0.4123105625617661,0.35930488446443337,0.37363083384538853,0.33030289129827467,0.40926763859362253,0.34641016151377546,0.3458323293158124,0.29983328701129885,0.29849623113198576,0.29849623113198576,0.35707142142714243,0.38091993909481797,0.34583232931581204,0.395474398665704,0.3411744421846398,0.32419130154894654,0.32787192621510003,0.3994996871087642,0.4302324952859788,0.39547439866570394,0.35707142142714265,0.3593048844644333,0.34583232931581204,0.40926763859362236,0.4121892769104988,0.34583232931581215,0.34641016151377546,0.37363083384538853,0.37363083384538837,0.4357751713900183,0.3278719262150999,0.4121892769104989,0.3861346915261562,0.37416573867739417,0.4063249930782008,0.3155946767611903,0.4063249930782007,0.3155946767611906,0.35707142142714254,0.3979949748426478,0.4200000000000001,0.38613469152615615,0.4023679907746143,0.3840572873934302,0.37363083384538837,0.4092676385936224,0.3440930106817049
5,0.33700506819874576,0.03294820189871723,0.282842712474619,0.3693237062523878,0.365513337649941,0.3861346915261561,0.36041642581880184,0.3278719262150999,0.32787192621510003,0.34641016151377546,0.35930488446443354,0.2821347195933176,0.3693237062523877,0.3440930106817049,0.29983328701129897,0.3278719262150999,0.2998332870112989,0.34583232931581187,0.2643860813280456,0.31368774282716216,0.27999999999999975,0.3440930106817049,0.2821347195933176,0.3536947836765474,0.3315116890850153,0.3440930106817049,0.3303028912982746,0.31622776601683794,0.3871692136521186,0.34117444218463977,0.3840572873934303,0.3458323293158118,0.31622776601683794,0.282842712474619,0.34117444218463966,0.37202150475476525,0.3315116890850153,0.37202150475476525,0.35707142142714243,0.36551333764994093,0.39547439866570394,0.35930488446443337,0.31368774282716216,0.3440930106817049,0.31368774282716216,0.31559467676119024,0.3570714214271423,0.38405728739343026,0.3136877428271622,0.2984962311319858,0.31622776601683794,0.34409301068170484,0.31559467676119013,0.32787192621509986,0.34583232931581187,0.39799497484264784,0.3440930106817049,0.34641016151377546,0.32787192621510003,0.3693237062523878,0.2998332870112988,0.3155946767611909,0.2643860813280456,0.29849623113198565,0.2628687885618981,0.34409301068170484,0.34409301068170484,0.3458323293158118,0.37202150475476525,0.27999999999999986,0.32419130154894654,0.2984962311319857,0.34409301068170484,0.36551333764994115,0.35930488446443326,0.31622776601683794,0.33030289129827467,0.34409301068170484,0.3440930106817049,0.35707142142714227,0.3155946767611901,0.31622776601683794,0.31622776601683794,0.3440930106817049,0.41218927691049884,0.2958039891549808,0.31622776601683794,0.3570714214271426,0.34641016151377546,0.3693237062523877,0.2643860813280456,0.3720215047547653,0.2998332870112989,0.3440930106817049,0.3861346915261562,0.38405728739343026,0.3720215047547653,0.35369478367654755,0.38091993909481797,0.33151168908501527,0.38613469152615615,0.3440930106817049
6,0.3194956785778938,0.03342919936299751,0.2643860813280456,0.29849623113198576,0.365513337649941,0.3720215047547653,0.36041642581880173,0.3136877428271622,0.32787192621510003,0.3155946767611903,0.34409301068170484,0.2821347195933176,0.32787192621510003,0.3136877428271623,0.28213471959331765,0.3278719262150999,0.2998332870112989,0.3315116890850154,0.2643860813280456,0.31368774282716216,0.27999999999999975,0.3136877428271623,0.2233830790368868,0.3411744421846393,0.31622776601683794,0.31559467676119013,0.3303028912982746,0.31622776601683794,0.37416573867739417,0.32787192621509986,0.3840572873934303,0.3315116890850153,0.2821347195933176,0.282842712474619,0.32787192621510014,0.34583232931581187,0.33151168908501527,0.3440930106817049,0.3411744421846394,0.3411744421846396,0.3570714214271422,0.3303028912982746,0.2821347195933176,0.33030289129827456,0.2628687885618982,0.3155946767611901,0.3155946767611903,0.3411744421846396,0.3136877428271622,0.2821347195933176,0.2998332870112988,0.34409301068170484,0.31559467676119013,0.32787192621509986,0.34583232931581187,0.3570714214271424,0.32787192621510003,0.3315116890850154,0.3278719262150999,0.3693237062523878,0.26286878856189805,0.29849623113198565,0.26438608132804553,0.29849623113198565,0.2628687885618981,0.34409301068170484,0.34409301068170484,0.33151168908501527,0.34409301068170484,0.22158519806160348,0.32419130154894654,0.2821347195933176,0.32787192621510003,0.34409301068170484,0.34409301068170484,0.31622776601683794,0.26286878856189805,0.3315116890850153,0.3136877428271622,0.2958039891549809,0.29983328701129897,0.3155946767611903,0.31622776601683794,0.282842712474619,0.38613469152615615,0.2958039891549808,0.25980762113533185,0.3411744421846394,0.31622776601683794,0.3593048844644334,0.2643860813280455,0.3458323293158118,0.29983328701129874,0.3136877428271623,0.37363083384538837,0.3570714214271425,0.34409301068170484,0.3278719262150998,0.3570714214271425,0.31622776601683794,0.38405728739343015,0.3440930106817049
7,0.31120194043618443,0.033605836825668194,0.2643860813280456,0.2821347195933176,0.365513337649941,0.3720215047547653,0.34641016151377546,0.3136877428271622,0.32787192621510003,0.3155946767611903,0.34409301068170484,0.2821347195933176,0.29849623113198587,0.2799999999999998,0.2821347195933176,0.3278719262150999,0.2998332870112989,0.282842712474619,0.2643860813280456,0.29849623113198587,0.27999999999999975,0.3136877428271622,0.2233830790368868,0.3278719262151002,0.3155946767611902,0.29983328701129874,0.3303028912982746,0.31622776601683794,0.37416573867739417,0.31368774282716216,0.3840572873934303,0.3315116890850153,0.2821347195933176,0.282842712474619,0.31368774282716216,0.2998332870112988,0.31622776601683794,0.3440930106817049,0.34117444218463927,0.3136877428271623,0.3136877428271622,0.3303028912982746,0.2821347195933176,0.2821347195933176,0.2628687885618981,0.3155946767611901,0.29849623113198576,0.31048349392520047,0.3136877428271622,0.244131112314674,0.2998332870112988,0.34409301068170484,0.31559467676119013,0.32787192621509986,0.34583232931581187,0.34409301068170484,0.32787192621510003,0.3303028912982746,0.3278719262150999,0.3693237062523878,0.26286878856189805,0.2984962311319856,0.26438608132804553,0.29849623113198565,0.2628687885618981,0.34409301068170484,0.34409301068170484,0.33151168908501527,0.31368774282716216,0.22158519806160348,0.32419130154894654,0.2821347195933176,0.3136877428271622,0.3411744421846395,0.34409301068170484,0.31622776601683794,0.262868788561898,0.31559467676119013,0.29580398915498096,0.2799999999999998,0.2998332870112989,0.29849623113198553,0.31622776601683794,0.2449489742783178,0.38613469152615615,0.2958039891549808,0.2598076211353318,0.3411744421846394,0.2643860813280455,0.34409301068170495,0.2643860813280455,0.33030289129827456,0.29983328701129874,0.3136877428271623,0.37363083384538837,0.3570714214271423,0.33030289129827456,0.29849623113198565,0.34117444218463944,0.31622776601683794,0.34409301068170484,0.3440930106817049
8,0.3065170669875765,0.035061198572402245,0.2643860813280456,0.2821347195933176,0.365513337649941,0.3720215047547653,0.31622776601683794,0.3136877428271622,0.32787192621510003,0.3155946767611903,0.34409301068170484,0.2821347195933176,0.2628687885618982,0.2799999999999998,0.2821347195933176,0.3278719262150999,0.2998332870112989,0.2821347195933176,0.2643860813280456,0.2628687885618981,0.27999999999999975,0.3136877428271622,0.2233830790368868,0.31368774282716216,0.29849623113198565,0.29983328701129874,0.3303028912982746,0.31622776601683794,0.37416573867739417,0.3104834939252004,0.3840572873934303,0.31622776601683794,0.2821347195933176,0.282842712474619,0.2764054992217049,0.2984962311319856,0.282842712474619,0.3440930106817049,0.34117444218463927,0.2958039891549809,0.27999999999999975,0.3303028912982746,0.2821347195933176,0.2821347195933176,0.2628687885618981,0.3155946767611901,0.29849623113198565,0.2958039891549813,0.3136877428271622,0.244131112314674,0.2998332870112988,0.34409301068170484,0.31559467676119013,0.32787192621509986,0.34583232931581187,0.34409301068170484,0.3278719262150999,0.31559467676119,0.3278719262150999,0.3693237062523878,0.26286878856189805,0.2984962311319856,0.26438608132804553,0.29849623113198565,0.2628687885618981,0.34409301068170484,0.34409301068170484,0.33151168908501527,0.31368774282716216,0.22158519806160348,0.32419130154894654,0.2821347195933176,0.2984962311319857,0.3278719262151001,0.34409301068170484,0.31622776601683794,0.262868788561898,0.31559467676119013,0.2958039891549809,0.262868788561898,0.2998332870112989,0.29849623113198553,0.31622776601683794,0.2449489742783178,0.38613469152615615,0.2958039891549808,0.22158519806160334,0.3411744421846394,0.2449489742783178,0.3440930106817049,0.2643860813280455,0.3136877428271623,0.29983328701129874,0.3136877428271623,0.37363083384538837,0.3570714214271422,0.33030289129827456,0.2984962311319856,0.32787192621510003,0.31622776601683794,0.3136877428271622,0.3440930106817049
9,0.3031814600898849,0.03565111860468713,0.2643860813280456,0.2821347195933176,0.365513337649941,0.3720215047547653,0.31622776601683794,0.3136877428271622,0.32787192621510003,0.3155946767611903,0.34409301068170484,0.2821347195933176,0.2628687885618982,0.2799999999999998,0.2821347195933176,0.3278719262150999,0.2998332870112989,0.24413111231467396,0.2643860813280456,0.2628687885618981,0.27999999999999975,0.3136877428271622,0.2233830790368868,0.2984962311319857,0.29849623113198565,0.29983328701129874,0.3303028912982746,0.31622776601683794,0.37416573867739417,0.31048349392520036,0.3840572873934303,0.31622776601683794,0.2821347195933176,0.282842712474619,0.2764054992217049,0.2984962311319856,0.2821347195933176,0.3136877428271623,0.34117444218463927,0.2958039891549809,0.27999999999999975,0.3303028912982746,0.2821347195933176,0.2821347195933176,0.2628687885618981,0.3155946767611901,0.29849623113198565,0.27999999999999975,0.3136877428271622,0.244131112314674,0.2998332870112988,0.34409301068170484,0.3136877428271622,0.32787192621509986,0.34583232931581187,0.34409301068170484,0.31368774282716233,0.31559467676119,0.3278719262150999,0.3693237062523878,0.26286878856189805,0.2984962311319856,0.26438608132804553,0.29849623113198565,0.2628687885618981,0.34409301068170484,0.32787192621510014,0.33151168908501527,0.31368774282716216,0.22158519806160348,0.32419130154894654,0.2821347195933176,0.2984962311319857,0.3104834939252004,0.34409301068170484,0.31622776601683794,0.262868788561898,0.31559467676119013,0.2598076211353317,0.22158519806160326,0.2998332870112989,0.29849623113198553,0.31622776601683794,0.2449489742783178,0.38613469152615615,0.2958039891549808,0.2215851980616033,0.3411744421846394,0.2449489742783178,0.3440930106817049,0.2643860813280455,0.29849623113198565,0.29983328701129874,0.2984962311319857,0.37363083384538837,0.3136877428271622,0.33030289129827456,0.2984962311319856,0.2958039891549809,0.31559467676119013,0.3136877428271622,0.3440930106817049
10,0.30199799556308826,0.0359751396922494,0.2643860813280456,0.2821347195933176,0.365513337649941,0.3720215047547653,0.31622776601683794,0.3136877428271622,0.32787192621510003,0.3155946767611903,0.34409301068170484,0.2821347195933176,0.2628687885618982,0.2799999999999998,0.2821347195933176,0.3278719262150999,0.2998332870112988,0.24413111231467396,0.2643860813280456,0.2628687885618981,0.27999999999999975,0.3136877428271622,0.2233830790368868,0.2984962311319857,0.29849623113198565,0.29983328701129874,0.3303028912982746,0.31622776601683794,0.37416573867739417,0.31048349392520036,0.3840572873934303,0.31622776601683794,0.2821347195933176,0.282842712474619,0.2764054992217049,0.2984962311319856,0.26438608132804586,0.3136877428271623,0.34117444218463927,0.2958039891549809,0.2628687885618983,0.3303028912982746,0.2821347195933176,0.2821347195933176,0.2628687885618981,0.3155946767611901,0.29849623113198565,0.27999999999999975,0.3136877428271622,0.244131112314674,0.2998332870112988,0.34409301068170484,0.3136877428271622,0.32787192621509986,0.34583232931581187,0.34409301068170484,0.3136877428271623,0.31559467676119,0.3278719262150999,0.3693237062523878,0.26286878856189805,0.2984962311319856,0.26438608132804553,0.29849623113198565,0.2628687885618981,0.34409301068170484,0.2958039891549808,0.33151168908501527,0.31368774282716216,0.22158519806160348,0.32419130154894654,0.2821347195933176,0.2799999999999998,0.31048349392520025,0.34409301068170484,0.31622776601683794,0.262868788561898,0.31559467676119013,0.2598076211353317,0.22158519806160326,0.2998332870112989,0.29849623113198553,0.31622776601683794,0.2449489742783178,0.38613469152615615,0.2958039891549808,0.2215851980616033,0.3411744421846394,0.2449489742783178,0.3440930106817049,0.2643860813280455,0.29849623113198565,0.29983328701129874,0.2984962311319857,0.37363083384538837,0.3136877428271622,0.33030289129827456,0.2984962311319856,0.2799999999999997,0.29849623113198587,0.3136877428271622,0.3440930106817049
11,0.3002136190150254,0.0371050260463606,0.2643860813280456,0.2821347195933176,0.365513337649941,0.3720215047547653,0.31622776601683794,0.3136877428271622,0.32787192621510003,0.3155946767611903,0.34409301068170484,0.2821347195933176,0.2628687885618982,0.2799999999999998,0.2821347195933176,0.3278719262150999,0.2984962311319856,0.24413111231467396,0.2643860813280456,0.2628687885618981,0.27999999999999975,0.3136877428271622,0.2233830790368868,0.2984962311319857,0.29849623113198565,0.29983328701129874,0.3303028912982746,0.31622776601683794,0.37416573867739417,0.31048349392520036,0.3840572873934303,0.31622776601683794,0.2821347195933176,0.282842712474619,0.2764054992217049,0.2984962311319856,0.26438608132804564,0.3136877428271623,0.34117444218463927,0.2958039891549809,0.24166091947189125,0.3303028912982746,0.2821347195933176,0.2821347195933176,0.2628687885618981,0.3155946767611901,0.29849623113198565,0.27999999999999975,0.3136877428271622,0.244131112314674,0.2998332870112988,0.34409301068170484,0.3136877428271622,0.32787192621509986,0.34583232931581187,0.34409301068170484,0.3136877428271623,0.31559467676119,0.3278719262150999,0.3693237062523878,0.26286878856189805,0.2821347195933176,0.26438608132804553,0.29849623113198565,0.2628687885618981,0.34409301068170484,0.2958039891549808,0.33151168908501527,0.31368774282716216,0.22158519806160348,0.32419130154894654,0.2821347195933176,0.2628687885618981,0.2598076211353318,0.34409301068170484,0.31622776601683794,0.262868788561898,0.31559467676119013,0.2598076211353317,0.22158519806160326,0.2998332870112989,0.29849623113198553,0.282842712474619,0.2449489742783178,0.38613469152615615,0.2958039891549808,0.2215851980616033,0.3411744421846394,0.2449489742783178,0.3440930106817049,0.2643860813280455,0.29849623113198565,0.29983328701129874,0.2984962311319857,0.37363083384538837,0.3136877428271622,0.33030289129827456,0.2984962311319856,0.2416609194718912,0.29849623113198576,0.3136877428271622,0.34409301068170484
12,0.2989670935572843,0.03800890645506571,0.2643860813280456,0.2821347195933176,0.365513337649941,0.3720215047547653,0.31622776601683794,0.3136877428271622,0.32787192621510003,0.3155946767611903,0.34409301068170484,0.2821347195933176,0.2628687885618982,0.2799999999999998,0.2821347195933176,0.3278719262150999,0.2821347195933176,0.24413111231467396,0.2643860813280456,0.2628687885618981,0.27999999999999975,0.3136877428271622,0.2233830790368868,0.2984962311319857,0.29849623113198565,0.29983328701129874,0.3303028912982746,0.31622776601683794,0.37416573867739417,0.31048349392520036,0.3840572873934303,0.2998332870112988,0.2821347195933176,0.282842712474619,0.2764054992217049,0.2984962311319856,0.2449489742783178,0.3136877428271623,0.34117444218463927,0.2958039891549809,0.24166091947189125,0.3303028912982746,0.2821347195933176,0.2821347195933176,0.2628687885618981,0.3155946767611901,0.29849623113198565,0.27999999999999975,0.3136877428271622,0.244131112314674,0.2998332870112988,0.34409301068170484,0.3136877428271622,0.32787192621509986,0.34583232931581187,0.34409301068170484,0.3136877428271623,0.31559467676119,0.3278719262150999,0.3693237062523878,0.26286878856189805,0.2821347195933176,0.26438608132804553,0.29849623113198565,0.2628687885618981,0.34409301068170484,0.2958039891549808,0.33151168908501527,0.31368774282716216,0.22158519806160348,0.3104834939252004,0.26438608132804553,0.2628687885618981,0.25980762113533173,0.34409301068170484,0.31622776601683794,0.262868788561898,0.31559467676119013,0.2598076211353317,0.22158519806160326,0.2998332870112989,0.29849623113198553,0.282842712474619,0.2449489742783178,0.38613469152615615,0.2958039891549808,0.2215851980616033,0.3411744421846394,0.2449489742783178,0.3440930106817049,0.22338307903688676,0.29849623113198565,0.29983328701129874,0.2984962311319857,0.37363083384538837,0.3136877428271622,0.33030289129827456,0.2984962311319856,0.2416609194718912,0.29849623113198576,0.3136877428271622,0.34409301068170484
13,0.29879010788310445,0.038045649307150986,0.2643860813280456,0.2821347195933176,0.365513337649941,0.3720215047547653,0.31622776601683794,0.3136877428271622,0.32787192621510003,0.3155946767611903,0.34409301068170484,0.2821347195933176,0.2628687885618982,0.2799999999999998,0.2821347195933176,0.3278719262150999,0.2821347195933176,0.24413111231467396,0.2643860813280456,0.2628687885618981,0.27999999999999975,0.3136877428271622,0.2233830790368868,0.2984962311319857,0.29849623113198565,0.29983328701129874,0.3303028912982746,0.31622776601683794,0.37416573867739417,0.31048349392520036,0.3840572873934303,0.2821347195933176,0.2821347195933176,0.282842712474619,0.2764054992217049,0.2984962311319856,0.2449489742783178,0.3136877428271623,0.34117444218463927,0.2958039891549809,0.24166091947189125,0.3303028912982746,0.2821347195933176,0.2821347195933176,0.2628687885618981,0.3155946767611901,0.29849623113198565,0.27999999999999975,0.3136877428271622,0.244131112314674,0.2998332870112988,0.34409301068170484,0.3136877428271622,0.32787192621509986,0.34583232931581187,0.34409301068170484,0.3136877428271623,0.31559467676119,0.3278719262150999,0.3693237062523878,0.26286878856189805,0.2821347195933176,0.26438608132804553,0.29849623113198565,0.2628687885618981,0.34409301068170484,0.2958039891549808,0.33151168908501527,0.31368774282716216,0.22158519806160348,0.3104834939252004,0.26438608132804536,0.2628687885618981,0.25980762113533173,0.34409301068170484,0.31622776601683794,0.262868788561898,0.31559467676119013,0.2598076211353317,0.22158519806160326,0.2998332870112989,0.29849623113198553,0.282842712474619,0.2449489742783178,0.38613469152615615,0.2958039891549808,0.2215851980616033,0.3411744421846394,0.2449489742783178,0.3440930106817049,0.22338307903688676,0.29849623113198565,0.29983328701129874,0.2984962311319857,0.37363083384538837,0.3136877428271622,0.33030289129827456,0.2984962311319856,0.2416609194718912,0.29849623113198576,0.3136877428271622,0.34409301068170484
14,0.2983166959503948,0.03767159297454285,0.2643860813280456,0.2821347195933176,0.365513337649941,0.3720215047547653,0.31622776601683794,0.3136877428271622,0.32787192621510003,0.3155946767611903,0.34409301068170484,0.2821347195933176,0.2628687885618982,0.2799999999999998,0.2821347195933176,0.3278719262150999,0.2821347195933176,0.24413111231467396,0.2643860813280456,0.2628687885618981,0.27999999999999975,0.3136877428271622,0.2233830790368868,0.2984962311319857,0.29849623113198565,0.29983328701129874,0.3303028912982746,0.31622776601683794,0.3604164258188018,0.31048349392520036,0.3840572873934303,0.2628687885618982,0.2821347195933176,0.282842712474619,0.2764054992217049,0.2984962311319856,0.2449489742783178,0.3136877428271623,0.34117444218463927,0.2958039891549809,0.24166091947189125,0.3303028912982746,0.2821347195933176,0.2821347195933176,0.2628687885618981,0.3155946767611901,0.29849623113198565,0.27999999999999975,0.3136877428271622,0.244131112314674,0.2998332870112988,0.34409301068170484,0.3136877428271622,0.32787192621509986,0.34583232931581187,0.34409301068170484,0.3136877428271623,0.31559467676119,0.3278719262150999,0.3693237062523878,0.26286878856189805,0.2821347195933176,0.26438608132804553,0.29849623113198565,0.2628687885618981,0.34409301068170484,0.2958039891549808,0.33151168908501527,0.31368774282716216,0.22158519806160348,0.3104834939252004,0.26438608132804536,0.2628687885618981,0.25980762113533173,0.34409301068170484,0.31622776601683794,0.262868788561898,0.31559467676119013,0.2598076211353317,0.22158519806160326,0.2998332870112989,0.29849623113198553,0.282842712474619,0.2449489742783178,0.38613469152615615,0.2958039891549808,0.2215851980616033,0.3411744421846394,0.2449489742783178,0.3440930106817049,0.22338307903688676,0.29849623113198565,0.29983328701129874,0.2984962311319857,0.35930488446443326,0.3136877428271622,0.33030289129827456,0.2984962311319856,0.2416609194718912,0.29849623113198576,0.3136877428271622,0.34409301068170484
15,0.2976172075582917,0.038078836185007785,0.2643860813280456,0.2821347195933176,0.365513337649941,0.3720215047547653,0.31622776601683794,0.3136877428271622,0.32787192621510003,0.3155946767611903,0.34409301068170484,0.2821347195933176,0.2628687885618982,0.2799999999999998,0.2821347195933176,0.3278719262150999,0.2821347195933176,0.24413111231467396,0.2643860813280454,0.2628687885618981,0.27999999999999975,0.3136877428271622,0.2233830790368868,0.2984962311319857,0.29849623113198565,0.282842712474619,0.3303028912982746,0.31622776601683794,0.3604164258188018,0.31048349392520036,0.3840572873934303,0.2233830790368868,0.2821347195933176,0.282842712474619,0.2764054992217049,0.2984962311319856,0.2449489742783178,0.3136877428271622,0.34117444218463927,0.2958039891549809,0.24166091947189125,0.3303028912982746,0.2821347195933176,0.2821347195933176,0.2628687885618981,0.3155946767611901,0.29849623113198565,0.27999999999999975,0.3136877428271622,0.244131112314674,0.2998332870112988,0.34409301068170484,0.3136877428271622,0.32787192621509986,0.34583232931581187,0.34409301068170484,0.3136877428271623,0.31559467676119,0.3278719262150999,0.36932370625238775,0.26286878856189805,0.2821347195933176,0.26438608132804553,0.29849623113198565,0.2628687885618981,0.34409301068170484,0.2958039891549808,0.33151168908501527,0.31368774282716216,0.22158519806160348,0.3104834939252004,0.26438608132804536,0.2628687885618981,0.25980762113533173,0.34409301068170484,0.31622776601683794,0.262868788561898,0.31559467676119013,0.2598076211353317,0.22158519806160326,0.2998332870112989,0.29849623113198553,0.282842712474619,0.2449489742783178,0.38613469152615615,0.2958039891549808,0.2215851980616033,0.3411744421846394,0.2449489742783178,0.3440930106817049,0.22338307903688676,0.29849623113198565,0.29983328701129874,0.2984962311319857,0.34583232931581176,0.3136877428271622,0.33030289129827456,0.2984962311319856,0.2416609194718912,0.29849623113198576,0.3136877428271622,0.34409301068170484
16,0.29603802066533974,0.03966724493266193,0.2643860813280456,0.2821347195933176,0.365513337649941,0.3720215047547653,0.31622776601683794,0.3136877428271622,0.32787192621510003,0.3155946767611903,0.34409301068170484,0.2821347195933176,0.2628687885618982,0.2799999999999998,0.2821347195933176,0.3278719262150999,0.2821347195933176,0.24413111231467396,0.2,0.2628687885618981,0.27999999999999975,0.3136877428271622,0.2233830790368868,0.2984962311319857,0.29849623113198565,0.24413111231467396,0.3303028912982746,0.31622776601683794,0.3604164258188018,0.31048349392520036,0.3840572873934303,0.2233830790368868,0.2821347195933176,0.282842712474619,0.2764054992217049,0.2984962311319856,0.2449489742783178,0.3136877428271622,0.34117444218463927,0.2958039891549809,0.24166091947189125,0.3303028912982746,0.26286878856189805,0.2821347195933176,0.2628687885618981,0.3155946767611901,0.29849623113198565,0.27999999999999975,0.3136877428271622,0.244131112314674,0.2998332870112988,0.34409301068170484,0.3136877428271622,0.32787192621509986,0.34583232931581187,0.34409301068170484,0.3136877428271622,0.31559467676119,0.3278719262150999,0.3693237062523877,0.26286878856189805,0.2821347195933176,0.26438608132804553,0.29849623113198565,0.2628687885618981,0.34409301068170484,0.2958039891549808,0.33151168908501527,0.31368774282716216,0.22158519806160348,0.3104834939252004,0.26438608132804536,0.2628687885618981,0.25980762113533173,0.34409301068170484,0.31622776601683794,0.262868788561898,0.29849623113198576,0.2598076211353317,0.22158519806160326,0.2998332870112989,0.29849623113198553,0.2643860813280458,0.2449489742783178,0.38613469152615615,0.2958039891549808,0.2215851980616033,0.3411744421846394,0.2449489742783178,0.3440930106817049,0.22338307903688676,0.29849623113198565,0.29983328701129874,0.2984962311319857,0.34583232931581176,0.3136877428271622,0.33030289129827456,0.2984962311319856,0.2416609194718912,0.29849623113198576,0.3136877428271622,0.34409301068170484
17,0.2955206407218372,0.03998188223876814,0.2643860813280456,0.2821347195933176,0.365513337649941,0.3720215047547653,0.31622776601683794,0.3136877428271622,0.32787192621510003,0.3155946767611903,0.34409301068170484,0.2821347195933176,0.2628687885618982,0.2799999999999998,0.2821347195933176,0.3278719262150999,0.2821347195933176,0.24413111231467396,0.2,0.2628687885618981,0.27999999999999975,0.3136877428271622,0.2233830790368868,0.2984962311319857,0.29849623113198565,0.22338307903688676,0.3303028912982746,0.31622776601683794,0.3604164258188018,0.31048349392520036,0.3840572873934303,0.2233830790368868,0.2821347195933176,0.282842712474619,0.2764054992217049,0.2984962311319856,0.2449489742783178,0.3136877428271622,0.34117444218463927,0.2958039891549809,0.24166091947189125,0.3303028912982746,0.24413111231467396,0.2821347195933176,0.2628687885618981,0.3155946767611901,0.29849623113198565,0.27999999999999975,0.3136877428271622,0.244131112314674,0.2998332870112988,0.34409301068170484,0.3136877428271622,0.32787192621509986,0.34583232931581187,0.34409301068170484,0.3136877428271622,0.31559467676119,0.3278719262150999,0.3570714214271426,0.26286878856189805,0.2821347195933176,0.26438608132804553,0.29849623113198565,0.2628687885618981,0.34409301068170484,0.2958039891549808,0.33151168908501527,0.31368774282716216,0.22158519806160348,0.3104834939252004,0.26438608132804536,0.2628687885618981,0.25980762113533173,0.34409301068170484,0.31622776601683794,0.262868788561898,0.29849623113198565,0.2598076211353317,0.2215851980616032,0.2998332870112989,0.29849623113198553,0.26438608132804564,0.2449489742783178,0.38613469152615615,0.2958039891549808,0.2215851980616033,0.3411744421846394,0.2449489742783178,0.3440930106817049,0.22338307903688676,0.29849623113198565,0.29983328701129874,0.2984962311319857,0.34583232931581176,0.3136877428271622,0.33030289129827456,0.2984962311319856,0.2416609194718912,0.29849623113198576,0.3136877428271622,0.34409301068170484
18,0.2950488889925807,0.039801420882221224,0.2643860813280456,0.2821347195933176,0.365513337649941,0.3720215047547653,0.31622776601683794,0.3136877428271622,0.32787192621510003,0.3155946767611903,0.34409301068170484,0.2821347195933176,0.2628687885618982,0.2799999999999998,0.2821347195933176,0.3278719262150999,0.2821347195933176,0.24413111231467396,0.2,0.2628687885618981,0.27999999999999975,0.3136877428271622,0.2233830790368868,0.2984962311319857,0.29849623113198565,0.22338307903688676,0.3303028912982746,0.31622776601683794,0.3604164258188018,0.31048349392520036,0.3840572873934303,0.2233830790368868,0.2821347195933176,0.282842712474619,0.2764054992217049,0.2984962311319856,0.2449489742783178,0.3136877428271622,0.34117444218463927,0.2958039891549809,0.24166091947189125,0.3303028912982746,0.24413111231467396,0.2821347195933176,0.2628687885618981,0.3155946767611901,0.29849623113198565,0.27999999999999975,0.3136877428271622,0.244131112314674,0.2998332870112988,0.34409301068170484,0.3136877428271622,0.32787192621509986,0.34583232931581187,0.3303028912982748,0.3136877428271622,0.31559467676119,0.3278719262150999,0.3570714214271424,0.26286878856189805,0.2821347195933176,0.26438608132804553,0.29849623113198565,0.2628687885618981,0.34409301068170484,0.2958039891549808,0.33151168908501527,0.31368774282716216,0.22158519806160348,0.3104834939252004,0.26438608132804536,0.2628687885618981,0.25980762113533173,0.34409301068170484,0.282842712474619,0.262868788561898,0.29849623113198565,0.2598076211353317,0.2215851980616032,0.2998332870112989,0.29849623113198553,0.26438608132804564,0.2449489742783178,0.38613469152615615,0.2958039891549808,0.2215851980616033,0.3411744421846394,0.2449489742783178,0.3440930106817049,0.22338307903688676,0.29849623113198565,0.29983328701129874,0.2984962311319857,0.34583232931581176,0.3136877428271622,0.33030289129827456,0.2984962311319856,0.2416609194718912,0.29849623113198576,0.3136877428271622,0.34409301068170484
19,0.29457878659279724,0.0393235106458612,0.2643860813280456,0.2821347195933176,0.365513337649941,0.3720215047547653,0.31622776601683794,0.3136877428271622,0.32787192621510003,0.3155946767611903,0.34409301068170484,0.2821347195933176,0.2628687885618982,0.2799999999999998,0.2821347195933176,0.3278719262150999,0.2821347195933176,0.24413111231467396,0.2,0.2628687885618981,0.27999999999999975,0.3136877428271622,0.2233830790368868,0.2984962311319857,0.29849623113198565,0.22338307903688676,0.3303028912982746,0.31622776601683794,0.3604164258188018,0.31048349392520036,0.3840572873934303,0.2233830790368868,0.2821347195933176,0.282842712474619,0.2764054992217049,0.2984962311319856,0.2449489742783178,0.3136877428271622,0.34117444218463927,0.2958039891549809,0.24166091947189125,0.3303028912982746,0.24413111231467396,0.2821347195933176,0.2628687885618981,0.3155946767611901,0.29849623113198565,0.27999999999999975,0.3136877428271622,0.244131112314674,0.2998332870112988,0.34409301068170484,0.3136877428271622,0.32787192621509986,0.34583232931581187,0.33030289129827456,0.31368774282716216,0.31559467676119,0.3278719262150999,0.3411744421846395,0.26286878856189805,0.2821347195933176,0.26438608132804553,0.29849623113198565,0.2628687885618981,0.3136877428271622,0.2958039891549808,0.33151168908501527,0.31368774282716216,0.22158519806160348,0.3104834939252004,0.26438608132804536,0.2628687885618981,0.25980762113533173,0.34409301068170484,0.2821347195933176,0.262868788561898,0.29849623113198565,0.2598076211353317,0.2215851980616032,0.2998332870112989,0.29849623113198553,0.26438608132804564,0.2449489742783178,0.38613469152615615,0.2958039891549808,0.2215851980616033,0.3411744421846394,0.2449489742783178,0.3440930106817049,0.22338307903688676,0.29849623113198565,0.29983328701129874,0.2984962311319857,0.34583232931581176,0.3136877428271622,0.33030289129827456,0.2984962311319856,0.2416609194718912,0.29849623113198576,0.3136877428271622,0.34409301068170484
