Run,Iteration,agent-0,agent-1,agent-2,agent-3,agent-4
0,0,58,34,49,99,54
0,1,58,34,96,99,40
0,2,32,34,96,99,69
0,3,32,34,96,99,69
0,4,32,34,96,99,99
0,5,32,34,19,99,99
0,6,49,34,19,99,99
0,7,49,34,26,99,99
0,8,49,34,26,99,99
0,9,49,34,56,99,99
0,10,49,34,56,99,99
0,11,49,34,56,99,99
0,12,49,34,19,99,99
0,13,33,34,19,99,99
0,14,33,34,19,99,99
0,15,49,34,19,99,99
0,16,49,34,56,99,99
0,17,49,34,56,99,99
0,18,49,34,56,99,99
0,19,49,34,26,99,99
1,0,32,34,49,77,53
1,1,28,34,0,99,99
1,2,69,34,56,99,99
1,3,34,34,56,99,99
1,4,99,34,56,99,99
1,5,34,34,56,99,99
1,6,69,34,56,99,99
1,7,49,34,56,99,99
1,8,28,34,26,99,99
1,9,34,34,26,99,99
1,10,49,34,26,99,99
1,11,28,34,26,99,99
1,12,83,34,26,99,99
1,13,69,34,19,99,99
1,14,34,34,19,99,99
1,15,69,34,19,99,99
1,16,83,34,19,99,99
1,17,33,34,19,99,99
1,18,99,34,19,99,99
1,19,33,34,19,99,99
2,0,3,34,49,99,99
2,1,33,34,76,99,99
2,2,33,34,26,99,99
2,3,33,34,26,99,99
2,4,33,34,26,99,99
2,5,33,34,26,99,99
2,6,99,34,56,99,99
2,7,33,34,19,99,99
2,8,33,34,19,99,99
2,9,33,34,19,99,99
2,10,28,34,56,99,99
2,11,28,34,56,99,99
2,12,28,34,56,99,99
2,13,28,34,56,99,99
2,14,28,34,26,99,99
2,15,28,34,26,99,99
2,16,28,34,26,99,99
2,17,28,34,26,99,99
2,18,28,34,26,99,99
2,19,28,34,26,99,99
3,0,44,84,49,77,27
3,1,44,15,47,77,27
3,2,44,15,47,16,66
3,3,3,15,47,16,27
3,4,3,15,47,16,98
3,5,44,15,47,16,27
3,6,44,46,47,16,8
3,7,68,46,47,16,8
3,8,68,46,47,16,60
3,9,68,15,47,16,66
3,10,68,15,47,16,66
3,11,68,15,47,16,27
3,12,44,15,47,16,66
3,13,3,15,47,16,8
3,14,44,15,47,16,98
3,15,44,15,47,16,98
3,16,44,15,47,16,8
3,17,44,15,47,16,13
3,18,44,15,47,16,8
3,19,44,15,47,16,13
4,0,85,53,49,77,25
4,1,85,53,49,95,25
4,2,74,53,49,95,40
4,3,74,53,49,95,40
4,4,73,53,49,95,40
4,5,92,53,49,95,40
4,6,23,53,49,95,40
4,7,73,53,49,95,40
4,8,92,53,49,95,40
4,9,85,53,49,95,40
4,10,23,53,49,95,40
4,11,85,53,49,95,40
4,12,23,53,49,95,40
4,13,73,53,49,95,40
4,14,85,53,49,95,40
4,15,73,53,49,95,40
4,16,92,53,49,95,40
4,17,74,53,49,95,40
4,18,73,53,49,95,40
4,19,23,53,49,95,40
5,0,44,34,49,58,47
5,1,44,49,0,58,67
5,2,44,63,0,91,17
5,3,44,63,26,91,17
5,4,68,63,26,91,17
5,5,68,63,57,91,67
5,6,3,63,57,58,67
5,7,68,63,57,58,17
5,8,68,63,57,91,17
5,9,58,63,57,91,17
5,10,58,63,57,91,17
5,11,3,63,57,91,17
5,12,68,63,57,91,17
5,13,3,63,57,58,17
5,14,3,63,37,58,67
5,15,3,63,37,58,67
5,16,3,63,37,91,67
5,17,44,63,37,91,67
5,18,91,63,70,91,67
5,19,58,63,70,58,67
6,0,91,34,33,33,16
6,1,34,34,83,33,16
6,2,99,28,83,33,21
6,3,99,28,33,33,33
6,4,99,28,33,33,33
6,5,99,28,83,33,33
6,6,99,28,83,33,33
6,7,28,28,83,33,33
6,8,28,33,83,33,33
6,9,83,28,33,33,33
6,10,83,28,33,33,33
6,11,83,28,83,33,33
6,12,83,28,83,33,33
6,13,83,33,83,33,33
6,14,83,33,33,33,33
6,15,83,33,33,33,33
6,16,83,33,83,33,33
6,17,28,33,33,33,33
6,18,28,33,83,33,33
6,19,28,33,83,33,33
7,0,59,19,49,77,52
7,1,62,19,26,77,52
7,2,59,19,26,77,52
7,3,59,19,26,77,52
7,4,26,19,19,77,62
7,5,26,19,19,77,35
7,6,26,19,19,77,35
7,7,62,19,19,77,62
7,8,62,19,19,77,62
7,9,29,19,19,77,35
7,10,29,19,19,77,25
7,11,19,19,26,77,77
7,12,62,19,26,77,77
7,13,18,19,26,77,77
7,14,18,19,26,77,77
7,15,18,19,26,77,25
7,16,19,19,19,77,16
7,17,19,19,19,77,51
7,18,19,19,19,77,35
7,19,19,19,19,77,59
8,0,96,97,49,77,62
8,1,71,97,27,77,46
8,2,96,2,27,27,27
8,3,96,2,27,27,27
8,4,96,7,27,27,27
8,5,96,16,27,27,46
8,6,96,2,27,27,46
8,7,96,23,27,27,46
8,8,96,23,27,27,46
8,9,71,23,27,27,46
8,10,27,27,27,27,46
8,11,27,16,27,27,46
8,12,27,38,27,27,27
8,13,27,2,27,27,27
8,14,71,97,27,27,98
8,15,27,7,27,27,60
8,16,27,23,27,27,60
8,17,27,97,27,27,60
8,18,27,2,27,27,60
8,19,27,16,27,27,60
9,0,58,93,57,77,16
9,1,58,93,22,35,16
9,2,3,35,22,35,16
9,3,3,93,22,35,16
9,4,58,93,22,35,16
9,5,58,61,22,35,16
9,6,58,93,22,35,80
9,7,58,93,22,35,80
9,8,58,35,22,35,80
9,9,91,35,22,35,80
9,10,91,61,28,35,52
9,11,44,61,28,35,52
9,12,44,61,28,35,19
9,13,44,93,28,35,19
9,14,44,61,28,93,23
9,15,44,93,79,93,23
9,16,91,35,79,75,20
9,17,91,61,79,75,17
9,18,44,61,79,75,17
9,19,3,61,79,75,67
10,0,58,34,76,99,35
10,1,32,34,19,99,99
10,2,32,34,19,99,99
10,3,32,34,56,99,99
10,4,32,34,19,99,99
10,5,32,34,26,99,99
10,6,28,34,26,99,99
10,7,32,34,19,99,99
10,8,28,34,56,99,99
10,9,28,34,19,99,99
10,10,28,34,19,99,99
10,11,28,34,26,99,99
10,12,28,34,56,99,99
10,13,28,34,26,99,99
10,14,49,34,56,99,99
10,15,49,34,19,99,99
10,16,99,34,19,99,99
10,17,99,34,26,99,99
10,18,99,34,19,99,99
10,19,99,34,56,99,99
11,0,91,34,49,99,52
11,1,83,34,76,99,99
11,2,83,34,19,99,99
11,3,83,34,19,99,99
11,4,83,34,19,99,99
11,5,83,34,19,99,99
11,6,83,34,19,99,99
11,7,83,34,19,99,99
11,8,83,34,19,99,99
11,9,83,34,19,99,99
11,10,83,34,19,99,99
11,11,83,34,56,99,99
11,12,83,34,56,99,99
11,13,83,34,56,99,99
11,14,83,34,26,99,99
11,15,83,34,26,99,99
11,16,83,34,26,99,99
11,17,83,34,26,99,99
11,18,83,34,26,99,99
11,19,83,34,26,99,99
12,0,71,34,76,77,62
12,1,89,82,76,77,60
12,2,65,60,76,77,60
12,3,65,60,76,27,60
12,4,1,60,76,77,60
12,5,1,60,76,60,27
12,6,1,60,76,97,27
12,7,89,30,76,97,27
12,8,89,30,76,97,27
12,9,1,30,76,97,27
12,10,1,30,76,14,27
12,11,1,30,76,14,27
12,12,1,30,76,14,27
12,13,1,30,76,14,27
12,14,89,30,76,14,27
12,15,1,30,76,14,98
12,16,1,30,76,14,98
12,17,89,30,76,38,98
12,18,89,30,76,38,98
12,19,65,30,76,38,60
13,0,44,34,49,99,63
13,1,83,91,49,99,99
13,2,32,99,99,99,99
13,3,32,99,99,99,99
13,4,32,99,75,99,99
13,5,32,99,99,99,99
13,6,32,99,99,99,99
13,7,32,99,99,99,99
13,8,32,99,99,99,99
13,9,32,99,99,99,99
13,10,32,99,99,99,99
13,11,32,99,99,99,99
13,12,32,99,75,99,99
13,13,33,99,75,99,99
13,14,33,99,75,99,99
13,15,33,99,75,99,99
13,16,33,99,75,99,99
13,17,33,99,99,99,99
13,18,33,99,99,99,99
13,19,33,99,99,99,99
14,0,61,34,44,77,25
14,1,39,34,44,3,25
14,2,93,39,44,3,64
14,3,9,39,44,3,97
14,4,61,39,44,3,97
14,5,14,78,44,3,14
14,6,14,78,44,3,14
14,7,14,78,44,3,97
14,8,24,78,44,3,12
14,9,78,78,44,3,64
14,10,60,78,44,3,9
14,11,48,78,44,3,97
14,12,35,39,44,3,97
14,13,9,39,44,3,14
14,14,78,39,44,3,14
14,15,35,39,44,3,12
14,16,67,39,44,3,12
14,17,9,39,44,3,12
14,18,78,39,44,3,12
14,19,61,39,44,3,12
15,0,68,32,18,77,35
15,1,62,95,18,77,35
15,2,62,32,18,77,35
15,3,59,49,77,77,35
15,4,99,32,77,77,35
15,5,99,32,77,77,32
15,6,83,32,77,77,32
15,7,83,49,87,77,32
15,8,83,49,87,77,32
15,9,33,32,87,77,32
15,10,33,49,87,77,32
15,11,33,32,87,77,32
15,12,99,32,87,77,32
15,13,83,32,87,77,32
15,14,83,32,77,77,32
15,15,28,32,77,77,32
15,16,28,49,77,77,57
15,17,49,32,77,77,57
15,18,32,32,77,77,57
15,19,34,32,77,77,57
16,0,96,34,49,54,29
16,1,52,25,49,31,29
16,2,2,31,90,31,41
16,3,2,31,90,31,41
16,4,10,21,85,31,41
16,5,10,21,85,31,0
16,6,10,55,85,31,31
16,7,55,21,85,31,31
16,8,55,55,85,31,31
16,9,55,55,85,31,6
16,10,7,55,31,31,6
16,11,7,55,31,31,6
16,12,2,55,31,31,15
16,13,51,31,31,31,11
16,14,51,31,31,31,78
16,15,10,31,31,31,42
16,16,10,31,31,31,89
16,17,52,31,90,31,36
16,18,52,31,90,31,36
16,19,2,55,90,31,55
17,0,27,7,49,77,12
17,1,27,7,49,71,12
17,2,71,23,61,71,12
17,3,71,38,61,71,12
17,4,71,97,61,71,12
17,5,71,97,61,71,38
17,6,71,7,61,71,38
17,7,71,65,61,71,38
17,8,71,27,61,71,38
17,9,71,27,61,71,38
17,10,96,2,23,71,97
17,11,27,65,23,71,97
17,12,27,38,23,71,97
17,13,27,7,23,71,97
17,14,27,97,61,71,38
17,15,27,38,61,71,38
17,16,27,97,61,71,38
17,17,27,2,61,71,38
17,18,71,16,61,71,97
17,19,96,7,61,71,64
18,0,27,34,76,77,9
18,1,27,34,56,71,9
18,2,71,39,18,71,38
18,3,71,39,18,71,38
18,4,71,39,18,71,38
18,5,27,39,18,71,38
18,6,27,78,18,71,38
18,7,27,78,18,71,38
18,8,96,39,18,71,38
18,9,96,78,18,71,38
18,10,71,78,18,71,14
18,11,71,78,18,71,14
18,12,96,78,18,71,14
18,13,27,78,18,71,64
18,14,27,78,18,71,12
18,15,27,78,18,71,12
18,16,71,78,18,71,12
18,17,71,78,18,71,38
18,18,96,78,18,71,38
18,19,96,78,18,71,38
19,0,44,49,49,77,40
19,1,44,49,88,77,40
19,2,3,49,88,77,40
19,3,3,49,88,77,40
19,4,3,49,88,77,40
19,5,3,32,88,27,40
19,6,3,32,88,27,40
19,7,3,49,88,27,40
19,8,3,49,88,27,40
19,9,3,49,88,77,40
19,10,3,49,88,77,40
19,11,3,49,88,77,40
19,12,3,49,88,27,40
19,13,3,49,88,27,40
19,14,3,49,88,27,40
19,15,91,32,88,77,40
19,16,91,32,88,77,40
19,17,91,32,88,27,40
19,18,44,49,88,27,40
19,19,44,49,88,77,40
20,0,3,46,49,98,64
20,1,3,46,80,98,64
20,2,91,15,80,44,70
20,3,3,46,80,32,74
20,4,3,15,97,25,23
20,5,3,46,97,44,34
20,6,3,46,97,44,34
20,7,3,15,97,25,34
20,8,3,15,97,25,34
20,9,44,15,97,32,34
20,10,44,15,97,32,34
20,11,44,15,97,32,34
20,12,44,15,97,25,34
20,13,44,46,97,44,34
20,14,44,46,97,44,34
20,15,44,15,97,44,34
20,16,68,46,97,25,34
20,17,68,46,97,25,34
20,18,68,46,97,25,34
20,19,68,15,97,25,34
21,0,68,53,49,42,59
21,1,30,53,49,95,59
21,2,23,53,49,95,59
21,3,23,53,49,95,40
21,4,74,53,49,95,40
21,5,23,53,49,95,40
21,6,23,53,49,95,40
21,7,92,53,49,95,40
21,8,92,53,49,95,40
21,9,85,53,49,95,40
21,10,85,53,49,95,40
21,11,85,53,49,95,40
21,12,74,53,49,95,40
21,13,74,53,49,95,40
21,14,85,53,49,95,40
21,15,85,53,49,95,40
21,16,85,53,49,95,40
21,17,73,53,49,95,40
21,18,23,53,49,95,40
21,19,23,53,49,95,40
22,0,97,34,49,77,15
22,1,90,94,49,78,44
22,2,13,65,23,78,0
22,3,13,65,23,78,78
22,4,66,38,23,78,7
22,5,82,38,23,78,7
22,6,13,38,61,78,7
22,7,56,38,61,78,53
22,8,90,38,61,78,2
22,9,66,38,23,78,2
22,10,82,38,61,78,7
22,11,56,38,23,78,7
22,12,82,38,61,78,6
22,13,66,38,61,78,15
22,14,87,38,23,78,36
22,15,90,38,23,78,36
22,16,87,38,61,78,36
22,17,8,38,61,78,36
22,18,82,38,61,78,36
22,19,56,38,61,78,36
23,0,3,49,88,77,35
23,1,3,49,88,48,35
23,2,91,49,88,48,19
23,3,91,49,88,48,94
23,4,44,32,88,48,19
23,5,44,32,88,48,19
23,6,44,49,88,48,19
23,7,44,49,88,48,19
23,8,44,32,88,48,61
23,9,44,32,88,48,61
23,10,44,32,88,48,61
23,11,91,32,88,48,61
23,12,91,32,88,48,61
23,13,68,32,88,48,47
23,14,58,49,88,48,47
23,15,44,32,88,48,47
23,16,68,32,88,48,47
23,17,68,49,88,48,61
23,18,68,49,88,48,61
23,19,68,49,88,48,61
24,0,91,34,49,99,40
24,1,91,58,76,99,40
24,2,91,93,76,3,40
24,3,3,93,76,3,40
24,4,3,93,76,3,40
24,5,3,93,76,3,40
24,6,3,93,76,3,40
24,7,3,93,76,3,40
24,8,3,93,76,85,40
24,9,3,93,71,85,40
24,10,3,93,71,85,40
24,11,68,61,71,72,92
24,12,68,61,71,61,92
24,13,68,61,71,61,22
24,14,68,61,71,61,24
24,15,68,61,71,61,88
24,16,68,61,82,61,23
24,17,68,61,82,39,76
24,18,68,35,82,61,39
24,19,68,35,82,61,24
25,0,3,44,49,44,52
25,1,19,44,49,34,52
25,2,19,41,49,34,52
25,3,19,44,49,34,52
25,4,19,44,49,34,52
25,5,29,44,49,34,51
25,6,29,44,49,34,51
25,7,29,41,49,34,51
25,8,29,41,49,34,51
25,9,29,44,49,34,51
25,10,29,44,49,34,51
25,11,19,44,49,34,51
25,12,19,44,49,34,51
25,13,19,44,49,34,51
25,14,62,41,49,34,77
25,15,62,41,49,34,77
25,16,59,41,49,34,35
25,17,59,44,49,34,35
25,18,19,44,49,34,35
25,19,19,41,49,34,35
26,0,93,48,49,77,62
26,1,93,48,36,77,62
26,2,93,48,36,77,5
26,3,35,48,36,77,45
26,4,61,48,36,77,45
26,5,24,48,36,77,63
26,6,93,48,36,77,45
26,7,24,48,36,77,45
26,8,60,48,36,77,45
26,9,60,48,36,77,45
26,10,14,48,36,77,45
26,11,14,48,36,77,45
26,12,14,48,36,77,45
26,13,24,48,36,77,5
26,14,14,48,36,77,5
26,15,14,48,36,77,5
26,16,14,48,36,77,5
26,17,14,48,36,77,5
26,18,93,48,36,77,5
26,19,14,48,36,77,5
27,0,91,34,49,1,39
27,1,91,34,44,1,39
27,2,58,34,44,1,47
27,3,58,34,44,1,76
27,4,44,34,44,1,47
27,5,44,34,44,1,47
27,6,44,34,44,1,94
27,7,44,34,44,1,74
27,8,44,34,44,1,74
27,9,44,34,44,1,74
27,10,44,34,44,1,74
27,11,68,34,44,1,47
27,12,68,34,44,1,47
27,13,68,34,44,1,47
27,14,68,34,44,1,47
27,15,68,34,44,1,23
27,16,68,34,44,1,47
27,17,3,34,44,1,19
27,18,91,34,44,1,94
27,19,68,34,44,1,23
28,0,44,34,78,77,36
28,1,44,45,44,77,27
28,2,44,44,44,77,27
28,3,44,44,44,32,60
28,4,44,44,44,32,60
28,5,44,44,44,32,60
28,6,58,41,44,32,60
28,7,58,41,44,32,60
28,8,58,44,44,32,46
28,9,58,44,44,32,98
28,10,91,44,44,32,27
28,11,58,44,44,32,98
28,12,58,41,44,32,60
28,13,68,44,44,25,98
28,14,68,44,44,25,98
28,15,91,44,44,25,98
28,16,91,41,44,25,98
28,17,58,41,44,32,46
28,18,58,41,44,32,46
28,19,58,41,44,32,46
29,0,3,15,49,77,34
29,1,9,46,97,77,32
29,2,9,15,97,60,9
29,3,24,46,97,14,64
29,4,24,46,97,14,38
29,5,24,46,97,14,9
29,6,61,15,97,14,12
29,7,61,15,97,14,12
29,8,61,15,97,24,38
29,9,61,15,97,24,12
29,10,61,15,97,24,64
29,11,61,15,97,24,64
29,12,39,15,97,24,14
29,13,78,15,97,24,14
29,14,78,15,97,14,9
29,15,78,15,97,14,12
29,16,78,15,97,38,14
29,17,46,15,97,38,9
29,18,46,15,97,97,64
29,19,46,15,97,24,12
30,0,48,34,24,77,25
30,1,67,67,29,77,25
30,2,39,67,29,77,4
30,3,39,67,29,77,4
30,4,60,67,29,77,96
30,5,39,67,24,77,96
30,6,39,67,24,77,96
30,7,39,67,29,77,96
30,8,93,67,29,77,37
30,9,24,67,29,77,96
30,10,60,67,29,77,96
30,11,60,67,24,77,96
30,12,60,67,24,77,96
30,13,78,67,29,77,96
30,14,78,67,24,77,96
30,15,78,67,24,77,96
30,16,78,67,24,77,96
30,17,35,67,24,77,96
30,18,9,67,24,77,32
30,19,93,67,24,77,32
31,0,58,34,49,99,25
31,1,32,34,76,99,99
31,2,28,34,56,99,99
31,3,28,34,56,99,99
31,4,28,34,19,99,99
31,5,28,34,19,99,99
31,6,99,34,19,99,99
31,7,99,34,19,99,99
31,8,99,34,19,99,99
31,9,32,34,19,99,99
31,10,32,34,56,99,99
31,11,32,34,56,99,99
31,12,32,34,56,99,99
31,13,32,34,56,99,99
31,14,32,34,56,99,99
31,15,69,34,56,99,99
31,16,69,34,56,99,99
31,17,69,34,56,99,99
31,18,69,34,56,99,99
31,19,69,34,56,99,99
32,0,96,65,49,77,14
32,1,96,27,27,77,27
32,2,96,2,27,27,27
32,3,96,16,27,27,46
32,4,96,65,27,27,46
32,5,96,16,27,27,46
32,6,96,27,27,27,46
32,7,96,65,27,27,46
32,8,96,23,27,27,46
32,9,96,23,27,27,46
32,10,27,27,27,27,27
32,11,27,16,27,27,27
32,12,27,65,27,27,27
32,13,71,23,27,27,46
32,14,27,97,27,27,60
32,15,27,2,27,27,60
32,16,27,65,27,27,60
32,17,27,16,27,27,60
32,18,27,2,27,27,60
32,19,27,27,27,27,98
33,0,71,34,49,84,77
33,1,27,23,49,84,77
33,2,71,2,52,84,77
33,3,27,2,52,84,29
33,4,71,2,52,84,29
33,5,27,2,52,84,29
33,6,71,7,52,84,29
33,7,27,7,52,84,29
33,8,27,7,52,67,29
33,9,71,38,52,71,14
33,10,71,38,61,71,38
33,11,71,38,61,71,38
33,12,27,38,61,71,38
33,13,27,38,61,71,38
33,14,27,27,23,71,64
33,15,96,7,23,71,64
33,16,71,7,23,71,64
33,17,71,7,23,71,64
33,18,96,97,23,71,64
33,19,96,97,23,71,12
34,0,58,34,49,99,40
34,1,58,91,76,99,40
34,2,58,93,76,3,40
34,3,91,61,76,85,40
34,4,91,61,71,85,54
34,5,91,61,71,92,54
34,6,44,61,92,92,54
34,7,44,61,92,92,54
34,8,44,61,92,92,54
34,9,44,61,92,92,54
34,10,44,61,92,92,54
34,11,44,61,92,92,54
34,12,44,61,92,92,54
34,13,58,61,92,92,54
34,14,58,61,92,92,54
34,15,44,35,92,92,54
34,16,44,93,92,92,54
34,17,44,93,92,92,54
34,18,44,93,92,92,54
34,19,44,93,92,92,54
35,0,44,99,78,77,12
35,1,91,3,78,82,12
35,2,91,58,78,82,80
35,3,91,91,78,82,80
35,4,91,91,78,82,80
35,5,91,91,78,82,80
35,6,68,91,78,82,80
35,7,3,58,78,82,1
35,8,3,91,78,82,1
35,9,3,91,78,82,43
35,10,3,58,78,82,43
35,11,3,58,78,82,43
35,12,44,58,78,82,43
35,13,3,58,78,82,43
35,14,3,58,78,82,43
35,15,58,3,78,82,43
35,16,3,3,78,82,43
35,17,68,3,78,82,43
35,18,68,3,78,82,22
35,19,68,3,78,82,22
36,0,9,34,29,77,51
36,1,9,77,33,77,51
36,2,9,77,33,77,51
36,3,9,77,83,77,51
36,4,46,77,33,86,51
36,5,61,77,83,86,51
36,6,61,77,83,86,51
36,7,61,77,58,86,51
36,8,46,77,58,86,18
36,9,78,77,91,26,18
36,10,78,77,91,26,18
36,11,78,77,91,26,18
36,12,46,25,58,26,18
36,13,46,25,58,26,18
36,14,46,25,58,26,18
36,15,46,25,58,26,18
36,16,46,25,91,26,18
36,17,14,25,91,26,26
36,18,14,25,91,26,26
36,19,14,25,58,26,26
37,0,39,34,49,99,25
37,1,9,24,49,99,25
37,2,60,24,75,99,96
37,3,61,24,75,99,31
37,4,48,24,99,99,53
37,5,39,24,99,99,78
37,6,93,24,99,99,89
37,7,14,24,75,99,55
37,8,14,24,75,99,55
37,9,14,24,75,99,55
37,10,39,24,99,99,55
37,11,60,24,99,99,53
37,12,39,24,99,99,53
37,13,39,24,99,99,53
37,14,39,24,99,99,53
37,15,35,67,75,99,53
37,16,35,67,75,99,53
37,17,35,67,75,99,53
37,18,35,67,75,99,53
37,19,35,67,75,99,53
38,0,71,34,49,13,59
38,1,96,34,19,96,59
38,2,27,78,19,96,15
38,3,27,78,18,96,7
38,4,27,39,18,96,7
38,5,71,39,18,96,7
38,6,71,78,18,96,42
38,7,71,39,18,96,42
38,8,96,39,18,96,42
38,9,96,39,18,96,42
38,10,71,39,18,96,7
38,11,27,39,18,96,7
38,12,96,39,18,96,7
38,13,96,39,18,96,7
38,14,71,78,18,96,7
38,15,71,78,18,96,15
38,16,27,78,18,96,15
38,17,27,78,18,96,55
38,18,71,39,18,96,55
38,19,71,78,18,96,55
39,0,50,34,49,77,52
39,1,88,77,49,33,21
39,2,17,77,49,33,21
39,3,86,77,49,33,21
39,4,77,77,49,33,21
39,5,50,77,49,33,81
39,6,17,77,49,33,81
39,7,86,77,49,33,81
39,8,25,77,49,33,81
39,9,25,77,49,33,81
39,10,25,77,49,33,81
39,11,40,77,49,33,81
39,12,17,77,49,33,21
39,13,25,77,49,33,21
39,14,17,25,49,33,85
39,15,25,77,49,33,21
39,16,40,77,49,33,21
39,17,25,77,49,33,85
39,18,50,77,49,33,21
39,19,86,77,49,33,21
40,0,28,34,83,77,14
40,1,49,99,24,77,14
40,2,49,99,24,77,32
40,3,34,99,24,77,32
40,4,99,99,24,77,32
40,5,99,99,29,77,32
40,6,32,99,29,77,32
40,7,28,99,29,77,4
40,8,28,99,29,77,4
40,9,28,99,29,77,4
40,10,83,99,24,77,32
40,11,83,99,24,77,32
40,12,34,99,29,77,32
40,13,34,99,29,77,32
40,14,34,99,29,77,37
40,15,83,99,24,77,37
40,16,83,99,24,77,32
40,17,83,99,24,77,32
40,18,83,99,24,77,32
40,19,83,99,24,77,37
41,0,71,34,49,77,46
41,1,27,85,76,77,60
41,2,71,85,56,27,98
41,3,71,85,56,27,60
41,4,96,85,56,27,46
41,5,96,85,56,27,60
41,6,96,85,56,27,60
41,7,96,85,56,27,60
41,8,96,85,56,27,60
41,9,27,85,26,27,27
41,10,27,85,26,27,27
41,11,71,85,56,27,46
41,12,71,85,56,27,27
41,13,71,85,56,27,98
41,14,71,85,56,27,46
41,15,27,85,26,27,46
41,16,96,74,26,27,27
41,17,96,74,26,27,27
41,18,96,74,26,27,46
41,19,27,74,19,27,98
42,0,91,49,49,77,45
42,1,91,32,88,77,40
42,2,44,32,88,77,40
42,3,44,32,88,77,40
42,4,44,49,88,77,40
42,5,91,32,88,77,40
42,6,91,32,88,77,40
42,7,91,49,88,77,40
42,8,3,49,88,77,40
42,9,91,32,88,77,40
42,10,3,49,88,77,40
42,11,3,49,88,77,40
42,12,44,49,88,27,40
42,13,44,63,88,27,40
42,14,3,49,88,27,40
42,15,3,32,88,27,40
42,16,68,63,88,27,40
42,17,68,32,88,27,40
42,18,68,32,88,77,40
42,19,3,32,88,77,40
43,0,44,49,49,40,29
43,1,59,19,49,49,29
43,2,29,19,85,29,16
43,3,29,19,85,49,16
43,4,29,19,74,29,35
43,5,29,19,74,49,35
43,6,29,19,85,29,35
43,7,29,19,90,49,35
43,8,29,19,90,29,59
43,9,29,19,90,29,25
43,10,29,19,90,29,59
43,11,29,19,74,29,52
43,12,29,19,74,29,52
43,13,29,19,74,29,25
43,14,18,19,31,49,51
43,15,26,19,85,49,51
43,16,26,19,85,49,51
43,17,26,19,85,49,59
43,18,26,19,85,49,59
43,19,26,19,85,49,59
44,0,3,34,49,99,6
44,1,83,34,76,99,99
44,2,32,34,19,99,99
44,3,32,34,19,99,99
44,4,32,34,56,99,99
44,5,34,34,56,99,99
44,6,99,34,56,99,99
44,7,28,34,19,99,99
44,8,28,34,26,99,99
44,9,99,34,26,99,99
44,10,32,34,26,99,99
44,11,32,34,26,99,99
44,12,32,34,26,99,99
44,13,32,34,26,99,99
44,14,32,34,26,99,99
44,15,32,34,26,99,99
44,16,32,34,26,99,99
44,17,32,34,26,99,99
44,18,69,34,26,99,99
44,19,69,34,26,99,99
45,0,44,34,49,99,0
45,1,28,34,76,99,34
45,2,28,34,18,99,99
45,3,99,34,26,99,99
45,4,99,34,56,99,99
45,5,83,34,56,99,99
45,6,49,34,26,99,99
45,7,69,34,26,99,99
45,8,83,34,26,99,99
45,9,83,34,26,99,99
45,10,32,34,26,99,99
45,11,28,34,26,99,99
45,12,28,34,26,99,99
45,13,28,34,26,99,99
45,14,28,34,26,99,99
45,15,28,34,26,99,99
45,16,83,34,26,99,99
45,17,83,34,26,99,99
45,18,83,34,19,99,99
45,19,83,34,19,99,99
46,0,91,84,49,77,46
46,1,91,15,79,77,98
46,2,91,15,47,16,13
46,3,58,15,47,16,27
46,4,58,46,47,16,98
46,5,3,46,47,16,66
46,6,58,46,47,16,60
46,7,44,46,47,16,66
46,8,44,15,47,16,60
46,9,44,15,47,16,66
46,10,44,15,47,16,66
46,11,44,15,47,16,27
46,12,44,15,47,16,66
46,13,44,46,5,16,98
46,14,91,46,5,16,46
46,15,91,15,5,16,8
46,16,91,15,5,16,8
46,17,58,15,5,16,8
46,18,68,15,5,16,13
46,19,68,15,47,16,13
47,0,91,91,49,99,51
47,1,91,91,60,3,51
47,2,91,91,60,3,1
47,3,58,91,60,3,71
47,4,58,58,60,3,71
47,5,58,58,3,3,58
47,6,58,3,3,3,58
47,7,68,91,3,3,58
47,8,68,58,3,3,58
47,9,68,58,3,3,92
47,10,68,3,3,3,92
47,11,44,58,3,3,92
47,12,44,91,3,3,3
47,13,3,58,60,3,3
47,14,3,58,60,3,3
47,15,3,91,3,3,91
47,16,58,91,3,3,1
47,17,58,58,3,3,1
47,18,58,91,3,3,3
47,19,58,58,3,3,3
48,0,78,34,49,99,9
48,1,78,34,68,99,9
48,2,78,78,68,99,90
48,3,67,78,68,99,90
48,4,67,78,68,99,90
48,5,67,78,68,99,90
48,6,78,78,68,99,90
48,7,78,78,68,99,90
48,8,46,78,68,99,90
48,9,46,78,68,99,90
48,10,48,39,68,99,90
48,11,48,39,68,99,90
48,12,48,39,68,99,90
48,13,48,39,68,99,90
48,14,48,39,68,99,90
48,15,14,39,68,99,90
48,16,14,39,68,99,90
48,17,14,39,68,99,90
48,18,14,39,68,99,90
48,19,14,39,68,99,90
49,0,44,63,49,58,97
49,1,44,63,72,91,97
49,2,58,63,72,91,87
49,3,58,63,72,91,10
49,4,58,63,72,91,10
49,5,58,63,72,58,10
49,6,58,63,72,58,10
49,7,58,63,72,58,10
49,8,58,63,72,91,93
49,9,58,63,72,58,93
49,10,44,63,72,58,93
49,11,44,63,72,58,93
49,12,44,63,72,58,93
49,13,3,63,72,58,93
49,14,3,63,72,58,93
49,15,3,63,72,91,73
49,16,3,63,72,58,73
49,17,3,63,82,91,73
49,18,3,63,82,58,10
49,19,3,63,72,91,10
50,0,91,34,78,44,62
50,1,91,44,44,44,62
50,2,44,44,44,44,15
50,3,44,41,44,44,15
50,4,44,41,44,44,15
50,5,44,41,44,44,15
50,6,44,41,44,44,15
50,7,58,41,44,44,15
50,8,68,41,44,44,15
50,9,68,41,44,44,15
50,10,68,44,44,44,15
50,11,68,44,44,44,15
50,12,58,44,44,44,78
50,13,44,44,44,44,7
50,14,44,44,44,44,7
50,15,44,44,44,44,7
50,16,44,44,44,44,7
50,17,44,44,44,44,7
50,18,44,44,44,44,2
50,19,44,44,44,44,2
51,0,68,34,37,5,16
51,1,29,34,37,5,16
51,2,29,1,13,5,16
51,3,59,1,13,5,16
51,4,59,1,13,5,16
51,5,59,1,37,5,16
51,6,19,1,37,5,16
51,7,29,1,8,5,62
51,8,29,1,70,5,62
51,9,18,1,70,5,62
51,10,18,1,70,5,62
51,11,18,1,70,5,62
51,12,18,70,13,5,51
51,13,59,70,70,5,52
51,14,59,12,37,5,51
51,15,59,22,57,5,51
51,16,29,22,57,5,51
51,17,19,22,57,5,51
51,18,62,22,57,5,51
51,19,62,1,8,5,77
52,0,91,63,49,77,40
52,1,91,32,88,77,40
52,2,91,49,88,27,40
52,3,91,49,88,27,40
52,4,91,49,88,77,40
52,5,91,32,88,77,40
52,6,91,32,88,77,40
52,7,91,32,88,27,40
52,8,91,32,88,27,40
52,9,91,32,88,77,40
52,10,44,49,88,77,40
52,11,44,49,88,77,40
52,12,68,49,88,77,40
52,13,68,49,88,77,40
52,14,68,49,88,77,40
52,15,68,49,88,77,40
52,16,68,49,88,77,40
52,17,68,49,88,77,40
52,18,68,49,88,77,40
52,19,68,49,88,77,40
53,0,75,34,49,77,64
53,1,77,25,88,77,51
53,2,17,77,77,77,62
53,3,86,77,77,77,25
53,4,40,77,77,77,25
53,5,77,77,77,77,25
53,6,88,77,87,77,62
53,7,86,77,87,77,62
53,8,25,77,87,77,62
53,9,77,77,87,77,62
53,10,40,77,87,77,62
53,11,50,25,87,77,51
53,12,40,25,87,77,51
53,13,40,25,87,77,35
53,14,25,25,87,77,35
53,15,25,25,77,77,16
53,16,25,25,77,77,29
53,17,17,77,87,77,16
53,18,75,77,87,77,62
53,19,40,77,87,77,62
54,0,96,34,49,62,38
54,1,51,74,49,62,38
54,2,2,21,74,62,49
54,3,21,21,74,62,49
54,4,51,21,74,59,98
54,5,7,21,74,59,98
54,6,55,31,74,59,98
54,7,36,31,74,59,98
54,8,21,31,74,31,98
54,9,31,55,85,31,42
54,10,21,55,85,31,11
54,11,10,55,85,31,11
54,12,21,55,85,31,11
54,13,21,31,85,31,11
54,14,31,31,85,31,11
54,15,55,31,85,31,78
54,16,31,21,85,31,78
54,17,31,21,85,31,78
54,18,2,21,90,31,78
54,19,2,21,74,31,78
55,0,58,34,68,99,38
55,1,60,34,68,99,38
55,2,78,78,68,99,90
55,3,78,78,68,99,90
55,4,78,78,68,99,90
55,5,78,78,68,99,90
55,6,78,78,68,99,90
55,7,78,78,68,99,90
55,8,39,78,68,99,90
55,9,35,78,68,99,90
55,10,35,78,68,99,90
55,11,35,39,68,99,90
55,12,39,39,68,99,90
55,13,46,39,68,99,90
55,14,24,39,68,99,90
55,15,24,39,68,99,90
55,16,24,78,68,99,90
55,17,93,78,68,99,90
55,18,93,78,68,99,90
55,19,93,78,68,99,90
56,0,44,46,49,82,12
56,1,44,46,72,82,12
56,2,44,46,72,82,10
56,3,44,15,82,82,82
56,4,44,15,82,82,82
56,5,44,46,82,82,82
56,6,44,46,82,82,82
56,7,44,46,82,82,87
56,8,44,15,82,82,87
56,9,91,46,82,82,87
56,10,91,46,82,82,82
56,11,91,46,82,82,20
56,12,91,15,82,82,20
56,13,91,15,82,82,20
56,14,91,15,82,82,20
56,15,91,15,82,82,73
56,16,91,15,82,82,93
56,17,91,15,72,82,93
56,18,91,46,82,82,73
56,19,91,46,82,82,73
57,0,3,46,49,77,22
57,1,3,15,80,77,83
57,2,3,15,80,87,83
57,3,3,15,80,87,83
57,4,3,46,80,87,83
57,5,3,15,80,87,83
57,6,68,15,80,87,83
57,7,68,15,80,87,83
57,8,68,15,80,87,83
57,9,68,46,80,87,83
57,10,68,46,80,87,83
57,11,68,15,80,87,83
57,12,68,15,80,87,83
57,13,68,15,80,87,83
57,14,58,15,80,87,83
57,15,58,46,80,87,83
57,16,58,15,80,87,83
57,17,58,46,80,87,83
57,18,58,46,80,87,83
57,19,58,15,80,87,83
58,0,91,34,49,99,7
58,1,49,34,76,99,99
58,2,34,34,56,99,99
58,3,34,34,56,99,99
58,4,69,34,56,99,99
58,5,32,34,56,99,99
58,6,32,34,56,99,99
58,7,32,34,26,99,99
58,8,32,34,56,99,99
58,9,32,34,56,99,99
58,10,32,34,56,99,99
58,11,49,34,19,99,99
58,12,49,34,19,99,99
58,13,49,34,19,99,99
58,14,49,34,19,99,99
58,15,49,34,19,99,99
58,16,49,34,19,99,99
58,17,49,34,19,99,99
58,18,49,34,19,99,99
58,19,49,34,19,99,99
59,0,91,61,37,77,77
59,1,91,93,79,35,77
59,2,44,61,79,35,77
59,3,44,61,6,35,52
59,4,44,61,6,35,52
59,5,58,35,5,35,62
59,6,58,35,5,35,62
59,7,68,93,22,35,62
59,8,44,61,6,35,3
59,9,68,93,6,35,3
59,10,68,35,6,35,3
59,11,68,35,6,35,3
59,12,68,35,6,35,3
59,13,68,93,22,93,3
59,14,68,61,22,93,3
59,15,44,35,6,35,3
59,16,44,93,5,35,25
59,17,44,93,5,35,25
59,18,44,61,5,35,29
59,19,44,61,28,35,77
60,0,68,34,49,1,88
60,1,68,34,44,1,88
60,2,91,34,44,1,23
60,3,91,34,44,1,23
60,4,3,34,44,1,94
60,5,3,34,44,1,94
60,6,3,34,44,1,94
60,7,3,34,44,1,94
60,8,91,34,44,1,19
60,9,91,34,44,1,61
60,10,44,34,44,1,74
60,11,44,34,44,1,61
60,12,44,34,44,1,61
60,13,44,34,44,1,61
60,14,44,34,44,1,70
60,15,44,34,44,1,76
60,16,3,34,44,1,19
60,17,3,34,44,1,61
60,18,3,34,44,1,61
60,19,3,34,44,1,61
61,0,70,34,13,77,52
61,1,22,71,47,77,52
61,2,16,72,47,16,52
61,3,72,72,47,16,52
61,4,72,72,47,16,52
61,5,22,72,47,16,52
61,6,22,43,5,16,52
61,7,16,43,5,16,52
61,8,22,43,5,16,52
61,9,16,43,5,16,52
61,10,72,43,5,16,52
61,11,72,43,5,16,52
61,12,70,43,5,16,52
61,13,30,43,5,16,52
61,14,56,43,47,16,19
61,15,82,43,47,16,13
61,16,82,43,47,16,13
61,17,56,43,5,16,13
61,18,90,43,47,16,13
61,19,13,43,47,16,13
62,0,78,34,78,77,38
62,1,67,34,78,82,38
62,2,93,39,78,82,38
62,3,14,39,78,82,38
62,4,61,39,78,82,38
62,5,61,39,78,82,97
62,6,24,39,78,82,14
62,7,67,39,78,82,9
62,8,24,39,78,82,12
62,9,67,39,78,82,12
62,10,35,39,78,82,12
62,11,46,78,78,82,14
62,12,48,78,78,82,14
62,13,35,78,78,82,97
62,14,24,78,78,82,97
62,15,60,78,78,82,14
62,16,48,78,78,82,9
62,17,48,78,78,82,9
62,18,60,78,78,82,64
62,19,9,78,78,82,64
63,0,30,99,49,77,35
63,1,16,99,46,77,35
63,2,70,7,46,46,16
63,3,30,7,93,46,16
63,4,70,65,93,16,62
63,5,70,65,65,16,62
63,6,72,38,93,16,62
63,7,70,38,16,16,62
63,8,30,38,16,16,62
63,9,22,38,16,16,62
63,10,72,65,16,16,59
63,11,72,7,65,16,16
63,12,70,7,16,16,16
63,13,30,7,16,16,16
63,14,16,16,16,16,52
63,15,72,27,16,16,59
63,16,16,23,93,16,59
63,17,16,2,93,16,59
63,18,72,2,16,16,59
63,19,16,2,16,16,59
64,0,96,34,49,54,29
64,1,96,77,49,54,29
64,2,36,77,49,31,59
64,3,2,31,90,31,59
64,4,31,31,90,31,89
64,5,10,31,90,31,89
64,6,31,31,90,31,36
64,7,51,31,90,31,36
64,8,52,21,31,31,36
64,9,21,21,31,31,0
64,10,21,21,31,31,0
64,11,21,21,31,31,0
64,12,21,55,31,31,0
64,13,21,55,31,31,0
64,14,21,31,31,31,0
64,15,21,31,31,31,0
64,16,21,31,31,31,0
64,17,21,31,31,31,0
64,18,10,31,31,31,78
64,19,36,31,74,31,78
65,0,58,34,44,77,7
65,1,58,94,44,77,60
65,2,58,94,78,60,66
65,3,58,94,78,16,98
65,4,58,45,78,16,27
65,5,91,45,78,16,27
65,6,91,45,78,16,27
65,7,91,45,78,16,27
65,8,68,45,78,16,60
65,9,68,45,78,16,60
65,10,68,45,78,16,60
65,11,68,45,78,16,66
65,12,58,45,78,16,66
65,13,3,45,78,16,66
65,14,3,45,78,16,66
65,15,58,45,78,16,66
65,16,58,45,78,16,66
65,17,58,45,78,16,66
65,18,44,45,78,16,66
65,19,68,45,78,16,66
66,0,93,34,29,77,35
66,1,93,24,29,77,35
66,2,48,24,29,77,96
66,3,60,24,29,77,96
66,4,39,24,29,77,96
66,5,39,67,29,77,96
66,6,39,67,24,77,96
66,7,39,67,29,77,96
66,8,39,67,24,77,96
66,9,39,67,29,77,57
66,10,39,67,24,77,57
66,11,93,67,29,77,4
66,12,67,67,24,77,96
66,13,48,67,24,77,37
66,14,48,67,24,77,37
66,15,48,67,29,77,37
66,16,48,67,29,77,37
66,17,48,67,24,77,37
66,18,14,67,29,77,32
66,19,48,67,29,77,32
67,0,14,34,29,77,52
67,1,14,67,24,77,52
67,2,14,67,24,77,57
67,3,14,67,24,77,57
67,4,35,67,29,77,57
67,5,35,24,24,77,57
67,6,46,24,24,77,57
67,7,60,24,24,77,96
67,8,60,24,24,77,96
67,9,93,24,29,77,4
67,10,93,24,29,77,4
67,11,93,24,24,77,4
67,12,93,24,24,77,4
67,13,14,67,29,77,4
67,14,14,67,29,77,4
67,15,24,67,29,77,4
67,16,35,24,24,77,57
67,17,35,24,24,77,57
67,18,60,24,29,77,57
67,19,46,67,29,77,57
68,0,91,15,49,84,25
68,1,91,15,5,87,25
68,2,91,46,66,87,84
68,3,3,15,66,87,84
68,4,3,15,66,87,84
68,5,3,46,66,87,84
68,6,58,15,66,87,84
68,7,58,46,66,87,84
68,8,58,46,66,87,84
68,9,3,46,66,87,84
68,10,3,46,66,87,84
68,11,44,15,66,87,84
68,12,44,46,66,87,84
68,13,44,15,13,87,84
68,14,44,15,13,87,84
68,15,44,15,13,87,84
68,16,58,46,13,87,84
68,17,3,46,13,87,84
68,18,3,46,13,87,84
68,19,3,46,66,87,84
69,0,93,34,78,77,77
69,1,61,34,78,78,60
69,2,46,78,78,78,2
69,3,39,78,78,78,2
69,4,48,78,78,78,53
69,5,48,39,78,78,53
69,6,93,39,78,78,41
69,7,78,39,78,78,41
69,8,24,39,78,78,41
69,9,67,39,78,78,36
69,10,14,39,78,78,11
69,11,39,39,78,78,0
69,12,35,39,78,78,36
69,13,46,39,78,78,36
69,14,61,39,78,78,36
69,15,24,39,78,78,53
69,16,14,39,78,78,6
69,17,46,39,78,78,55
69,18,61,39,78,78,11
69,19,67,39,78,78,0
70,0,3,34,49,99,42
70,1,34,34,76,99,34
70,2,32,34,87,99,99
70,3,32,34,19,99,99
70,4,32,34,56,99,99
70,5,32,34,26,99,99
70,6,32,34,26,99,99
70,7,32,34,26,99,99
70,8,32,34,26,99,99
70,9,32,34,26,99,99
70,10,32,34,26,99,99
70,11,99,34,56,99,99
70,12,99,34,56,99,99
70,13,99,34,19,99,99
70,14,99,34,19,99,99
70,15,99,34,19,99,99
70,16,99,34,19,99,99
70,17,99,34,56,99,99
70,18,99,34,56,99,99
70,19,99,34,56,99,99
71,0,58,15,49,77,22
71,1,61,46,49,82,37
71,2,61,15,61,82,37
71,3,61,15,61,82,12
71,4,14,15,61,82,97
71,5,14,15,61,82,97
71,6,14,46,61,82,97
71,7,14,15,61,82,97
71,8,14,15,23,82,97
71,9,14,46,23,82,97
71,10,67,46,23,82,64
71,11,67,46,23,82,97
71,12,67,46,23,82,38
71,13,67,15,23,82,38
71,14,14,46,23,82,64
71,15,14,15,23,82,64
71,16,14,15,23,82,64
71,17,93,15,61,82,38
71,18,93,15,23,82,38
71,19,93,46,23,82,38
72,0,44,3,49,99,97
72,1,44,91,3,3,97
72,2,44,3,3,3,91
72,3,44,58,3,3,91
72,4,44,58,3,3,91
72,5,44,91,3,3,30
72,6,44,3,3,3,22
72,7,3,3,3,3,22
72,8,68,58,3,3,1
72,9,68,3,3,3,1
72,10,68,3,3,3,1
72,11,58,91,3,3,43
72,12,58,58,3,3,43
72,13,58,91,3,3,91
72,14,58,91,3,3,91
72,15,58,91,3,3,91
72,16,58,91,3,3,91
72,17,58,91,3,3,92
72,18,44,91,3,3,92
72,19,44,91,3,3,91
73,0,70,34,57,77,77
73,1,72,43,28,77,77
73,2,22,43,28,16,77
73,3,16,43,79,16,77
73,4,72,43,79,16,77
73,5,30,43,22,16,62
73,6,22,71,28,16,62
73,7,72,71,28,16,62
73,8,16,71,28,16,62
73,9,22,71,28,16,62
73,10,72,71,28,16,62
73,11,70,71,28,16,62
73,12,72,71,28,16,62
73,13,70,71,79,16,25
73,14,22,71,79,16,25
73,15,16,71,79,16,25
73,16,72,71,79,16,25
73,17,72,71,79,16,25
73,18,22,71,79,16,25
73,19,30,71,79,16,25
74,0,91,34,83,33,62
74,1,83,34,33,33,62
74,2,99,33,33,33,85
74,3,99,33,33,33,33
74,4,99,28,33,33,33
74,5,99,28,33,33,33
74,6,33,28,33,33,33
74,7,33,28,83,33,33
74,8,33,28,33,33,33
74,9,33,28,33,33,33
74,10,83,28,83,33,33
74,11,83,28,33,33,33
74,12,83,28,83,33,33
74,13,28,28,83,33,33
74,14,32,28,33,33,33
74,15,32,83,33,33,33
74,16,32,83,33,33,33
74,17,49,28,33,33,33
74,18,49,28,83,33,33
74,19,49,28,33,33,33
75,0,68,34,76,99,52
75,1,99,34,26,99,99
75,2,99,34,19,99,99
75,3,99,34,26,99,99
75,4,99,34,19,99,99
75,5,34,34,56,99,99
75,6,69,34,26,99,99
75,7,69,34,19,99,99
75,8,69,34,56,99,99
75,9,69,34,19,99,99
75,10,69,34,19,99,99
75,11,69,34,19,99,99
75,12,69,34,26,99,99
75,13,69,34,26,99,99
75,14,33,34,19,99,99
75,15,33,34,19,99,99
75,16,33,34,19,99,99
75,17,33,34,56,99,99
75,18,34,34,26,99,99
75,19,34,34,56,99,99
76,0,38,34,96,77,64
76,1,12,34,96,3,64
76,2,64,96,70,3,64
76,3,43,96,70,3,64
76,4,43,96,70,3,64
76,5,98,96,26,3,64
76,6,38,39,18,3,64
76,7,64,39,18,3,64
76,8,38,39,18,3,64
76,9,98,39,18,3,64
76,10,64,39,18,3,64
76,11,38,39,18,3,12
76,12,12,39,18,3,12
76,13,12,78,18,3,14
76,14,98,78,18,3,14
76,15,98,78,18,3,14
76,16,38,78,18,3,64
76,17,64,78,18,3,64
76,18,98,78,18,3,64
76,19,64,78,18,3,9
77,0,96,34,49,54,16
77,1,96,25,49,54,16
77,2,2,77,49,31,16
77,3,31,21,90,31,16
77,4,52,21,85,31,44
77,5,52,31,85,31,44
77,6,10,31,85,31,44
77,7,55,31,85,31,78
77,8,21,31,85,31,78
77,9,51,31,85,31,36
77,10,10,55,85,31,7
77,11,10,55,31,31,7
77,12,10,55,31,31,7
77,13,10,55,31,31,7
77,14,10,55,31,31,7
77,15,10,55,31,31,7
77,16,10,55,31,31,7
77,17,10,55,31,31,7
77,18,10,55,31,31,7
77,19,10,31,31,31,7
78,0,91,15,5,77,38
78,1,91,46,13,87,38
78,2,91,46,70,87,84
78,3,58,46,66,87,84
78,4,58,46,13,87,84
78,5,58,15,37,87,84
78,6,58,15,57,87,84
78,7,68,46,8,87,84
78,8,68,15,57,87,84
78,9,68,15,66,87,84
78,10,44,46,13,87,84
78,11,44,46,37,87,84
78,12,58,46,57,87,84
78,13,3,15,70,87,84
78,14,91,15,8,87,84
78,15,91,15,70,87,84
78,16,91,15,57,87,84
78,17,68,46,13,87,84
78,18,68,46,8,87,84
78,19,68,46,37,87,84
79,0,34,34,49,99,9
79,1,69,34,19,99,9
79,2,49,34,19,99,99
79,3,99,34,19,99,99
79,4,49,34,56,99,99
79,5,34,34,56,99,99
79,6,32,34,56,99,99
79,7,99,34,56,99,99
79,8,32,34,56,99,99
79,9,69,34,56,99,99
79,10,69,34,56,99,99
79,11,49,34,56,99,99
79,12,28,34,19,99,99
79,13,69,34,19,99,99
79,14,33,34,56,99,99
79,15,32,34,56,99,99
79,16,83,34,56,99,99
79,17,99,34,56,99,99
79,18,49,34,56,99,99
79,19,69,34,56,99,99
80,0,58,34,44,77,89
80,1,58,94,44,77,98
80,2,58,44,44,77,83
80,3,68,44,44,44,98
80,4,68,44,44,44,36
80,5,3,44,44,44,42
80,6,3,44,44,44,42
80,7,3,44,44,44,42
80,8,3,44,44,44,31
80,9,3,44,44,44,31
80,10,3,44,44,44,31
80,11,3,44,44,44,7
80,12,3,44,44,44,7
80,13,3,44,44,44,11
80,14,3,44,44,44,11
80,15,3,44,44,44,11
80,16,58,44,44,44,89
80,17,58,44,44,44,89
80,18,58,44,44,44,89
80,19,58,44,44,44,55
81,0,34,49,49,77,25
81,1,69,32,87,77,33
81,2,28,32,87,77,4
81,3,33,49,87,77,4
81,4,33,49,87,77,96
81,5,33,32,87,77,32
81,6,28,49,77,77,32
81,7,83,49,77,77,32
81,8,28,32,87,77,32
81,9,32,32,87,77,57
81,10,69,49,87,77,57
81,11,69,49,87,77,57
81,12,69,32,87,77,57
81,13,69,32,87,77,57
81,14,69,49,87,77,57
81,15,69,49,87,77,57
81,16,69,49,87,77,57
81,17,69,49,87,77,37
81,18,69,32,87,77,4
81,19,69,49,87,77,96
82,0,58,15,49,82,14
82,1,58,15,71,82,14
82,2,58,15,71,82,43
82,3,58,15,71,82,43
82,4,58,15,71,82,43
82,5,58,15,71,82,43
82,6,44,46,71,82,43
82,7,44,46,71,82,43
82,8,44,46,71,82,43
82,9,44,46,71,82,43
82,10,44,46,71,82,43
82,11,58,46,71,82,43
82,12,3,15,71,82,58
82,13,3,15,71,82,58
82,14,3,15,71,82,91
82,15,3,15,71,82,91
82,16,3,15,71,82,91
82,17,3,15,71,82,91
82,18,3,46,71,82,58
82,19,3,46,71,82,58
83,0,86,34,49,77,83
83,1,50,55,49,77,83
83,2,40,31,49,33,5
83,3,86,31,49,33,21
83,4,88,77,49,33,21
83,5,88,77,49,33,81
83,6,88,77,49,33,81
83,7,86,77,49,33,81
83,8,88,77,49,33,85
83,9,75,77,49,33,81
83,10,75,77,49,33,21
83,11,75,77,49,33,81
83,12,75,77,49,33,21
83,13,75,77,49,33,85
83,14,25,77,49,33,81
83,15,25,77,49,33,21
83,16,75,25,49,33,21
83,17,25,25,49,33,21
83,18,17,77,49,33,81
83,19,17,77,49,33,21
84,0,82,34,49,77,55
84,1,90,34,47,78,2
84,2,66,34,56,78,41
84,3,90,78,56,78,89
84,4,13,78,18,78,11
84,5,8,78,18,78,11
84,6,13,39,18,78,11
84,7,87,39,18,78,11
84,8,13,39,18,78,55
84,9,97,78,18,78,11
84,10,13,78,18,78,11
84,11,97,78,18,78,11
84,12,82,78,18,78,36
84,13,97,78,18,78,36
84,14,8,78,18,78,36
84,15,87,39,18,78,31
84,16,82,39,18,78,42
84,17,87,39,18,78,53
84,18,13,39,18,78,53
84,19,82,39,18,78,53
85,0,34,34,49,99,64
85,1,34,34,56,99,64
85,2,34,34,56,99,99
85,3,49,34,56,99,99
85,4,28,34,56,99,99
85,5,28,34,56,99,99
85,6,28,34,26,99,99
85,7,69,34,26,99,99
85,8,49,34,26,99,99
85,9,49,34,26,99,99
85,10,34,34,26,99,99
85,11,99,34,26,99,99
85,12,33,34,26,99,99
85,13,28,34,26,99,99
85,14,83,34,26,99,99
85,15,99,34,26,99,99
85,16,32,34,26,99,99
85,17,83,34,26,99,99
85,18,99,34,26,99,99
85,19,34,34,26,99,99
86,0,91,32,49,77,40
86,1,91,49,88,77,40
86,2,91,49,88,77,40
86,3,91,49,88,27,40
86,4,91,49,88,27,40
86,5,91,49,88,27,40
86,6,91,32,88,77,40
86,7,3,49,88,77,40
86,8,3,32,88,77,40
86,9,3,32,88,77,40
86,10,3,49,88,77,40
86,11,3,49,88,77,40
86,12,3,32,88,77,40
86,13,58,32,88,27,40
86,14,58,32,88,27,40
86,15,58,32,88,27,40
86,16,58,32,88,77,40
86,17,58,32,88,77,40
86,18,58,32,88,77,40
86,19,58,32,88,77,40
87,0,3,15,49,33,12
87,1,3,15,71,72,98
87,2,91,15,71,72,98
87,3,44,15,71,72,98
87,4,44,46,71,72,98
87,5,58,15,71,72,98
87,6,58,15,71,72,98
87,7,58,46,71,72,98
87,8,68,15,71,72,98
87,9,91,46,71,72,98
87,10,91,15,71,72,98
87,11,44,15,71,72,98
87,12,44,46,71,72,98
87,13,44,46,71,72,98
87,14,44,15,71,72,98
87,15,44,15,71,72,98
87,16,44,46,71,72,98
87,17,44,46,71,72,98
87,18,68,15,82,72,98
87,19,3,46,82,72,98
88,0,91,34,49,99,83
88,1,91,34,68,99,83
88,2,91,3,68,99,1
88,3,91,3,68,99,22
88,4,3,3,68,99,1
88,5,3,58,68,99,92
88,6,68,58,68,99,80
88,7,58,58,68,99,22
88,8,91,58,68,99,22
88,9,3,58,68,99,71
88,10,91,58,68,99,58
88,11,58,58,68,99,22
88,12,44,58,68,99,3
88,13,91,58,68,99,22
88,14,91,58,68,99,92
88,15,91,58,68,99,80
88,16,91,3,68,99,92
88,17,91,91,68,99,3
88,18,44,91,68,99,30
88,19,44,91,68,99,58
89,0,91,15,80,77,77
89,1,91,46,80,77,83
89,2,44,15,80,87,83
89,3,68,46,80,87,83
89,4,68,46,80,87,83
89,5,68,15,80,87,83
89,6,68,46,80,87,83
89,7,68,46,80,87,83
89,8,68,15,80,87,83
89,9,68,46,80,87,83
89,10,68,46,80,87,83
89,11,44,46,80,87,83
89,12,44,15,80,87,83
89,13,91,15,80,87,83
89,14,91,15,80,87,83
89,15,91,46,80,87,83
89,16,91,15,80,87,83
89,17,91,46,80,87,83
89,18,91,46,80,87,83
89,19,91,15,80,87,83
90,0,48,48,49,77,14
90,1,48,48,36,77,14
90,2,14,48,36,77,79
90,3,14,48,36,77,79
90,4,67,48,36,77,79
90,5,67,48,36,77,79
90,6,61,48,36,77,45
90,7,61,48,36,77,45
90,8,39,48,36,77,45
90,9,39,48,36,77,45
90,10,39,48,36,77,45
90,11,9,48,36,77,79
90,12,9,48,36,77,79
90,13,9,48,36,77,5
90,14,9,48,36,77,5
90,15,60,48,36,77,5
90,16,60,48,36,77,5
90,17,60,48,36,77,5
90,18,60,48,36,77,5
90,19,48,48,36,77,45
91,0,3,34,44,77,60
91,1,3,44,44,77,60
91,2,91,44,44,32,27
91,3,91,44,44,32,98
91,4,91,44,44,32,27
91,5,91,41,44,32,46
91,6,91,41,44,32,46
91,7,91,41,44,32,46
91,8,91,41,44,32,46
91,9,91,44,44,25,60
91,10,44,44,44,25,27
91,11,44,44,44,25,98
91,12,91,44,44,25,27
91,13,3,44,44,25,46
91,14,3,44,44,25,46
91,15,44,44,44,32,98
91,16,44,44,44,32,46
91,17,58,44,44,32,60
91,18,68,44,44,32,27
91,19,68,44,44,32,60
92,0,68,34,44,77,92
92,1,60,34,44,3,9
92,2,60,39,44,3,9
92,3,60,39,44,3,9
92,4,35,39,44,3,12
92,5,35,39,44,3,14
92,6,35,39,44,3,14
92,7,35,39,44,3,14
92,8,35,39,44,3,14
92,9,35,39,44,3,97
92,10,35,39,44,3,97
92,11,35,39,44,3,97
92,12,24,78,44,3,64
92,13,24,78,44,3,64
92,14,24,78,44,3,64
92,15,24,78,44,3,64
92,16,24,39,44,3,12
92,17,24,39,44,3,38
92,18,24,39,44,3,38
92,19,24,78,44,3,14
93,0,88,34,49,77,54
93,1,17,75,87,77,54
93,2,50,77,87,77,52
93,3,50,77,87,77,77
93,4,50,77,87,77,51
93,5,50,77,77,77,16
93,6,50,77,77,77,29
93,7,50,77,77,77,16
93,8,50,77,77,77,52
93,9,75,77,77,77,62
93,10,86,77,77,77,25
93,11,40,25,77,77,52
93,12,40,25,87,77,29
93,13,40,25,87,77,29
93,14,77,25,87,77,59
93,15,77,25,87,77,35
93,16,77,25,77,77,35
93,17,77,25,77,77,52
93,18,88,25,87,77,25
93,19,25,25,87,77,51
94,0,68,15,49,77,41
94,1,68,46,47,77,41
94,2,3,46,5,87,84
94,3,3,15,70,87,84
94,4,3,46,8,87,84
94,5,3,15,8,87,84
94,6,3,15,8,87,84
94,7,3,15,8,87,84
94,8,3,15,4,87,84
94,9,91,15,4,87,84
94,10,91,15,66,87,84
94,11,91,15,66,87,84
94,12,91,15,57,87,84
94,13,3,15,57,87,84
94,14,3,15,57,87,84
94,15,3,46,57,87,84
94,16,3,15,70,87,84
94,17,3,15,70,87,84
94,18,44,15,70,87,84
94,19,44,15,66,87,84
95,0,68,46,5,77,29
95,1,68,46,47,77,98
95,2,68,46,47,16,98
95,3,68,15,5,16,66
95,4,68,46,47,16,60
95,5,68,46,47,16,98
95,6,68,46,5,16,98
95,7,68,15,5,16,98
95,8,44,15,5,16,66
95,9,44,15,47,16,66
95,10,44,15,5,16,46
95,11,68,15,47,16,46
95,12,68,15,5,16,46
95,13,68,46,47,16,46
95,14,68,15,47,16,66
95,15,68,15,47,16,66
95,16,91,15,5,16,27
95,17,91,15,47,16,27
95,18,3,15,5,16,66
95,19,3,15,5,16,66
96,0,58,34,44,77,46
96,1,58,41,44,77,27
96,2,58,41,44,32,27
96,3,58,41,44,25,46
96,4,58,41,44,25,60
96,5,58,41,44,32,60
96,6,58,41,44,32,46
96,7,58,41,44,32,27
96,8,58,41,44,32,46
96,9,58,41,44,25,46
96,10,68,41,44,25,46
96,11,68,41,44,25,27
96,12,68,44,44,25,60
96,13,68,44,44,25,46
96,14,3,44,44,25,46
96,15,3,44,44,32,27
96,16,3,44,44,25,27
96,17,91,44,44,25,46
96,18,91,44,44,25,98
96,19,91,44,44,25,46
97,0,44,34,44,77,21
97,1,44,41,44,77,83
97,2,3,41,44,44,27
97,3,91,41,44,44,15
97,4,3,44,44,44,55
97,5,3,41,44,44,89
97,6,3,41,44,44,89
97,7,58,41,44,44,7
97,8,68,41,44,44,41
97,9,68,41,44,44,6
97,10,68,41,44,44,6
97,11,68,41,44,44,6
97,12,44,44,44,44,78
97,13,44,44,44,44,31
97,14,58,44,44,44,31
97,15,91,44,44,44,36
97,16,91,44,44,44,36
97,17,68,41,44,44,78
97,18,3,41,44,44,7
97,19,3,41,44,44,6
98,0,14,84,49,77,9
98,1,24,84,43,77,9
98,2,78,84,43,97,90
98,3,35,84,43,97,90
98,4,93,84,43,97,90
98,5,39,84,43,97,90
98,6,14,84,43,14,90
98,7,9,84,43,14,90
98,8,78,84,43,14,90
98,9,67,84,43,14,90
98,10,39,84,43,14,90
98,11,78,84,43,14,90
98,12,14,84,43,38,90
98,13,46,84,43,38,90
98,14,14,84,43,38,90
98,15,93,84,43,38,90
98,16,39,84,43,38,90
98,17,61,84,43,38,90
98,18,78,84,43,14,90
98,19,60,84,43,14,90
99,0,3,34,78,77,27
99,1,3,45,44,77,27
99,2,3,44,44,77,46
99,3,58,44,44,32,46
99,4,58,41,44,25,46
99,5,58,41,44,25,46
99,6,58,41,44,25,27
99,7,58,41,44,25,98
99,8,58,44,44,25,98
99,9,68,41,44,25,98
99,10,68,41,44,25,98
99,11,91,44,44,25,98
99,12,58,44,44,25,60
99,13,58,44,44,25,60
99,14,58,44,44,25,60
99,15,58,44,44,32,60
99,16,91,44,44,32,98
99,17,44,41,44,32,46
99,18,44,41,44,32,98
99,19,44,41,44,25,98
