Iteration,Mean,Stdev,Run-0,Run-1,Run-2,Run-3,Run-4,Run-5,Run-6,Run-7,Run-8,Run-9,Run-10,Run-11,Run-12,Run-13,Run-14,Run-15,Run-16,Run-17,Run-18,Run-19,Run-20,Run-21,Run-22,Run-23,Run-24,Run-25,Run-26,Run-27,Run-28,Run-29,Run-30,Run-31,Run-32,Run-33,Run-34,Run-35,Run-36,Run-37,Run-38,Run-39,Run-40,Run-41,Run-42,Run-43,Run-44,Run-45,Run-46,Run-47,Run-48,Run-49,Run-50,Run-51,Run-52,Run-53,Run-54,Run-55,Run-56,Run-57,Run-58,Run-59,Run-60,Run-61,Run-62,Run-63,Run-64,Run-65,Run-66,Run-67,Run-68,Run-69,Run-70,Run-71,Run-72,Run-73,Run-74,Run-75,Run-76,Run-77,Run-78,Run-79,Run-80,Run-81,Run-82,Run-83,Run-84,Run-85,Run-86,Run-87,Run-88,Run-89,Run-90,Run-91,Run-92,Run-93,Run-94,Run-95,Run-96,Run-97,Run-98,Run-99
0,1.0268165643172273,0.07727705509247183,1.10358506695225,1.0359054010864124,1.0346013725102043,1.0442221985765279,1.081850266903881,1.1462547709824387,0.9630680142129113,1.1346805717910218,0.931396800509858,1.0988630487917956,0.9368030742904303,1.1447270417003341,0.974679434480896,0.9141115905621148,1.0346013725102043,1.06320270880016,1.026206606877972,1.0523782589924595,1.1406577050105782,1.0316976301223135,0.9579144011862446,1.0331989159885915,0.9096702699330127,1.0346013725102043,0.9850888284819792,1.1447270417003343,1.0300970828033633,1.0087616170334803,1.0455142275454699,0.9221713506718794,1.0346013725102043,1.044222198576528,1.0300970828033638,1.081665382639196,0.9474175425861617,1.3001538370516008,1.0248902380255156,1.0897247358851685,1.0759182125050224,0.9937303457175897,0.8910106621135357,0.9526279441628827,1.1947803145348523,0.9937303457175896,1.0897247358851685,1.0346013725102041,1.1791522378386938,0.9386692708297206,1.0164152694642092,1.0428326807307107,1.076057619275103,1.0712142642814277,1.0077698149875296,1.060377291344924,1.0442221985765283,0.9450396817065413,1.0630145812734642,1.0300970828033635,0.9951884243699773,0.9718024490605066,1.0883014288330217,1.0234744745229363,1.094349121624357,1.0362914647916397,1.020343079557067,0.9096702699330128,0.9297311439335563,1.004987562112089,1.0830974102083344,1.1124747188138713,0.9061456836513648,1.0988630487917956,0.9659710140578757,1.118212859879548,0.8627861844049197,1.1651609330903616,0.9131812525451896,1.116915395184434,1.0749883720301348,0.8444524853418339,1.0665833300778715,1.0523782589924593,0.9905049217444603,1.0632027088001603,1.0790736768172955,0.9279547402756235,0.8837986195961158,1.0265963179361215,1.0037429949942367,1.0467091286503618,1.0283968105745962,1.026206606877972,0.9509994742374988,0.9614572273377523,1.0509043724335714,1.0136567466356647,1.0818502669038808,0.9221713506718795,0.9921693403849962,0.9579144011862445
1,0.729882452825785,0.05439306074321895,0.7986864215698167,0.7652450587883599,0.6982120021884471,0.7469270379361017,0.714142842854285,0.721387551874857,0.7251896303726355,0.7809609465267779,0.7200000000000004,0.7570336848516056,0.683739716558867,0.7936623967405793,0.711055553385247,0.6790434448545981,0.7345747068882779,0.7549834435270749,0.7622991538759566,0.6701492371106605,0.8011866199581713,0.7123903424387502,0.6324555320336757,0.6495382975621987,0.6928203230275507,0.7172168430816435,0.7622991538759567,0.8301204731844651,0.6837397165588672,0.7400000000000011,0.7838367176906162,0.6982836100038444,0.7706490770772387,0.7337574531137663,0.7748548251124202,0.7810249675906655,0.6244197306299669,0.7931582439841371,0.7383088784512883,0.7880989785553585,0.793158243984137,0.6396092557178955,0.6855654600401044,0.6878226515607058,0.8333066662399852,0.6689544080129824,0.7931582439841371,0.7279423054061362,0.7279423054061362,0.7224264668462799,0.7124605252222761,0.6785278181474951,0.8257723657279888,0.7578918128598552,0.7578918128598559,0.7986864215698167,0.7701298591796063,0.6636264009214823,0.7652450587883599,0.6675327707311453,0.778203058333749,0.6982120021884469,0.7860661549767923,0.7410128204019147,0.739932429347437,0.775822144566652,0.6855654600401044,0.6327716807822548,0.6825686778632607,0.7838367176906164,0.7964923100695939,0.7323933369440221,0.648382603097893,0.7110555533852473,0.7045565981523415,0.7517313349861102,0.6327716807822549,0.8011866199581713,0.6884039511798283,0.8126499861564013,0.8236504112789603,0.6224949798994367,0.7886063656856945,0.7334166619323556,0.7664854858377942,0.721387551874857,0.7874007874011811,0.696850055607374,0.6383572667401853,0.6042350536008312,0.7,0.7704544113703291,0.7782030583337488,0.6630233781700308,0.6796322535018473,0.6311893535223805,0.7485986908885158,0.7218725649309574,0.7680494775728974,0.7022107945624306,0.7622991538759566,0.6931089380465381
2,0.549519387128884,0.05076852538232322,0.5830951894845301,0.6082762530298219,0.49749371855331015,0.5817215828899597,0.5257375771237963,0.4581484475582121,0.5607138307550479,0.5230678732248804,0.5916079783099618,0.6237788069500279,0.4581484475582121,0.6015812497078008,0.5444263035526479,0.5462600113499065,0.5996665740225978,0.591607978309962,0.5673623181001709,0.5083306010855534,0.6075360071633615,0.48774993593028815,0.4431703961232065,0.5567764362830027,0.5172040216394304,0.5225897052181568,0.5942221806698232,0.651996932508121,0.5458021619598077,0.5339475629684992,0.6,0.4950757517794619,0.5148786264742397,0.5462600113499065,0.5986651818838308,0.5743692192309751,0.4769696007084731,0.6307931515164061,0.5444263035526478,0.5545268253204712,0.6112282715974446,0.4528796749689698,0.5187484939737178,0.5195190083144214,0.573672380370539,0.5225897052181568,0.6468384651518497,0.5567764362830024,0.5444263035526477,0.5494542747126457,0.5172040216394304,0.4092676385936224,0.6015812497078008,0.5567764362830026,0.5969924622639716,0.6075360071633616,0.5642694391866355,0.5063595560468864,0.495075751779462,0.5230678732248804,0.5523585791856584,0.49989998999799934,0.6015812497078009,0.5775811631277455,0.5473572873361601,0.582752091373338,0.5376802023508028,0.5425863986500219,0.5295280917949493,0.6082762530298221,0.5339475629684992,0.5462600113499065,0.5083306010855534,0.48620983124572853,0.574369219230975,0.5444263035526479,0.511761663276959,0.5653317610041023,0.5385164807134507,0.5230678732248802,0.648074069840786,0.5361902647381805,0.6151422599691884,0.5195190083144214,0.6082762530298221,0.5473572873361601,0.6584831053261729,0.5035871324805665,0.5030904491242106,0.5195190083144213,0.5874521257089801,0.6,0.5523585791856584,0.495075751779462,0.5385164807134506,0.3736308338453883,0.5986651818838312,0.5775811631277458,0.5230678732248802,0.5817215828899596,0.5743692192309753,0.5361902647381807
3,0.4361967210137611,0.03928639175138104,0.42000000000000026,0.47947888378947395,0.423792402008342,0.43485629810317805,0.4302324952859788,0.36041642581880184,0.43588989435406766,0.3840572873934303,0.4862098312457284,0.5172040216394302,0.4121892769104988,0.4918333050943174,0.40632499307820064,0.45287967496896964,0.5035871324805664,0.4651881339845202,0.4651881339845199,0.4454211490264016,0.4794788837894739,0.38613469152615626,0.35369478367654766,0.469041575982343,0.43588989435406744,0.4264973622427225,0.455521678957215,0.511761663276959,0.4472135954999579,0.4121892769104988,0.4686149805543993,0.3693237062523877,0.39949968710876405,0.4330127018922193,0.47864391775097287,0.399499687108764,0.35930488446443337,0.4862098312457285,0.4431703961232068,0.43301270189221974,0.511761663276959,0.3954743986657039,0.4199999999999997,0.43485629810317794,0.4472135954999579,0.43999999999999956,0.518748493973718,0.455521678957215,0.4786439177509733,0.43301270189221924,0.37416573867739417,0.37202150475476525,0.43577517139001837,0.4330127018922194,0.4882622246293481,0.4950757517794621,0.4399999999999995,0.40926763859362236,0.3979949748426478,0.42,0.46733285782191686,0.41121770389904166,0.45552167895721496,0.3979949748426478,0.41121770389904155,0.4686149805543992,0.43485629810317794,0.4616275555033515,0.4123105625617661,0.4673328578219168,0.43301270189221935,0.4431703961232065,0.42237424163885734,0.3919183588453081,0.4092676385936224,0.42379240200834184,0.40926763859362236,0.3840572873934303,0.4223742416388574,0.4121892769104988,0.5095095681142797,0.46733285782191686,0.4454211490264017,0.42379240200834173,0.4955804677345545,0.3871692136521187,0.46861498055439904,0.40632499307820064,0.40632499307820064,0.4357751713900183,0.40632499307820064,0.4786439177509728,0.4223742416388574,0.42237424163885734,0.43023249528597884,0.33151168908501544,0.46518813398451986,0.47864391775097265,0.38716921365211865,0.49183330509431705,0.423792402008342,0.43301270189221924
4,0.370259347656851,0.03358594159351513,0.3861346915261561,0.3315116890850153,0.34641016151377546,0.3593048844644334,0.33030289129827467,0.31622776601683794,0.39736632972611063,0.3136877428271622,0.4063249930782004,0.42,0.3979949748426478,0.38613469152615615,0.3440930106817049,0.3840572873934302,0.3861346915261562,0.3720215047547653,0.3766961640367476,0.36041642581880184,0.42379240200834195,0.33151168908501527,0.3104834939252005,0.41121770389904194,0.4217819341792629,0.3655133376499412,0.3979949748426478,0.43023249528597873,0.3994996871087638,0.3458323293158119,0.4242640687119285,0.34117444218463944,0.34641016151377546,0.3303028912982746,0.3720215047547653,0.3458323293158117,0.3136877428271622,0.40926763859362236,0.39799497484264784,0.3593048844644334,0.3954743986657039,0.3720215047547653,0.29849623113198576,0.36041642581880184,0.39949968710876405,0.38405728739343026,0.4769696007084732,0.37416573867739417,0.3994996871087638,0.3570714214271424,0.345832329315812,0.3303028912982745,0.3604164258188018,0.3840572873934303,0.38405728739343026,0.3979949748426478,0.365513337649941,0.3840572873934301,0.37202150475476525,0.34583232931581187,0.42379240200834184,0.34641016151377546,0.36932370625238775,0.31559467676119013,0.3720215047547653,0.37416573867739417,0.37363083384538837,0.42178193417926285,0.3303028912982748,0.3861346915261561,0.3871692136521186,0.36041642581880173,0.38405728739343037,0.3411744421846396,0.34409301068170495,0.3840572873934303,0.33151168908501544,0.3303028912982746,0.3693237062523876,0.35930488446443337,0.4242640687119285,0.4199999999999998,0.3736308338453885,0.34117444218463966,0.4063249930782007,0.34641016151377546,0.399499687108764,0.3693237062523879,0.365513337649941,0.36041642581880173,0.3536947836765477,0.38613469152615615,0.3440930106817049,0.35930488446443326,0.3570714214271423,0.3315116890850153,0.37202150475476525,0.3736308338453885,0.29983328701129885,0.45287967496896964,0.3303028912982747,0.3736308338453885
5,0.336603383852521,0.030694657174048255,0.35930488446443326,0.33030289129827456,0.34641016151377546,0.29849623113198576,0.2958039891549807,0.2998332870112989,0.3872983346207416,0.27999999999999975,0.34409301068170484,0.3593048844644335,0.3979949748426478,0.3458323293158118,0.34409301068170484,0.3411744421846396,0.29849623113198576,0.3278719262150999,0.34117444218463977,0.3303028912982747,0.3536947836765477,0.31622776601683794,0.3104834939252005,0.36041642581880184,0.40632499307820047,0.3536947836765477,0.3720215047547653,0.35930488446443337,0.34641016151377546,0.3303028912982746,0.34583232931581176,0.3278719262151002,0.31622776601683794,0.2799999999999998,0.35930488446443337,0.3303028912982747,0.27999999999999975,0.29849623113198576,0.3720215047547653,0.29849623113198587,0.36551333764994115,0.3655133376499413,0.26438608132804553,0.3315116890850154,0.3736308338453884,0.3536947836765476,0.41665333311999275,0.345832329315812,0.3861346915261562,0.3303028912982745,0.3155946767611904,0.3155946767611902,0.34409301068170484,0.3720215047547653,0.34409301068170495,0.34641016151377546,0.2998332870112988,0.37202150475476525,0.3570714214271425,0.33030289129827467,0.37416573867739417,0.3278719262151001,0.33704599092705406,0.299833287011299,0.34641016151377546,0.31622776601683794,0.3458323293158119,0.3973663297261106,0.32787192621510003,0.33151168908501544,0.3570714214271424,0.34583232931581187,0.36932370625238786,0.32787192621510003,0.32787192621510003,0.33151168908501527,0.282842712474619,0.29849623113198565,0.32787192621510003,0.3303028912982747,0.37416573867739417,0.35707142142714254,0.34583232931581187,0.3136877428271622,0.37669616403674727,0.29983328701129885,0.34583232931581204,0.34409301068170495,0.34117444218463944,0.33151168908501527,0.3278719262151,0.3303028912982745,0.3136877428271622,0.3136877428271622,0.2984962311319858,0.3315116890850153,0.34409301068170484,0.3315116890850153,0.26438608132804564,0.3979949748426478,0.29849623113198576,0.2998332870112988
6,0.3206625440146151,0.032504351494454034,0.3458323293158124,0.33030289129827456,0.31622776601683794,0.2821347195933176,0.2628687885618981,0.2998332870112989,0.38729833462074154,0.27999999999999975,0.3136877428271622,0.3440930106817049,0.3979949748426478,0.3440930106817049,0.3136877428271622,0.31048349392520036,0.2821347195933176,0.3104834939252004,0.32419130154894626,0.3155946767611901,0.34117444218463966,0.31622776601683794,0.2958039891549805,0.3315116890850154,0.39191835884530823,0.32419130154894654,0.31559467676119,0.3303028912982746,0.3458323293158118,0.3303028912982746,0.3278719262151002,0.3278719262151002,0.299833287011299,0.26286878856189794,0.34409301068170484,0.3155946767611903,0.22158519806160326,0.2821347195933176,0.3570714214271424,0.28213471959331765,0.31048349392520025,0.3241913015489466,0.22338307903688667,0.3315116890850154,0.33151168908501544,0.35369478367654755,0.35930488446443337,0.3458323293158118,0.38613469152615615,0.3155946767611903,0.31559467676119024,0.3155946767611902,0.34409301068170484,0.3411744421846397,0.2799999999999999,0.34641016151377546,0.2821347195933176,0.34409301068170484,0.34409301068170495,0.3303028912982746,0.34641016151377546,0.3155946767611901,0.33704599092705406,0.2643860813280456,0.34583232931581176,0.31622776601683794,0.3315116890850153,0.3872983346207416,0.3278719262150999,0.2449489742783178,0.34409301068170484,0.34583232931581187,0.34117444218463944,0.32787192621510003,0.3278719262150999,0.33151168908501527,0.282842712474619,0.2984962311319856,0.31368774282716216,0.32787192621510003,0.34641016151377546,0.32787192621510003,0.29983328701129874,0.29580398915498096,0.3491418050019218,0.2821347195933176,0.34583232931581204,0.34409301068170484,0.34117444218463944,0.3155946767611901,0.29849623113198587,0.29983328701129874,0.3136877428271622,0.31368774282716216,0.29849623113198576,0.3315116890850153,0.3136877428271622,0.33151168908501527,0.26438608132804564,0.3840572873934304,0.29849623113198576,0.2821347195933176
7,0.3122190808023389,0.0346734132000657,0.34409301068170484,0.33030289129827456,0.29983328701129885,0.2821347195933176,0.2628687885618981,0.2998332870112989,0.38091993909481797,0.27999999999999975,0.3136877428271622,0.33030289129827456,0.38613469152615615,0.31559467676119013,0.3136877428271622,0.27999999999999975,0.2821347195933176,0.3104834939252004,0.32419130154894626,0.3155946767611901,0.3411744421846395,0.31622776601683794,0.2958039891549805,0.31622776601683794,0.3919183588453081,0.32419130154894654,0.282842712474619,0.3303028912982746,0.3155946767611901,0.3303028912982746,0.32787192621510003,0.32787192621510014,0.2821347195933176,0.26286878856189794,0.31559467676119,0.3155946767611903,0.22158519806160326,0.2821347195933176,0.3278719262151002,0.2821347195933176,0.29580398915498113,0.3241913015489465,0.22338307903688667,0.3315116890850154,0.3315116890850153,0.34117444218463977,0.345832329315812,0.34583232931581176,0.3720215047547653,0.31559467676118996,0.2998332870112988,0.3155946767611902,0.34409301068170484,0.3155946767611903,0.26286878856189805,0.34641016151377546,0.2821347195933176,0.3303028912982746,0.3440930106817049,0.31559467676119,0.3458323293158119,0.3155946767611901,0.33704599092705406,0.2233830790368868,0.3458323293158117,0.31622776601683794,0.3136877428271622,0.3872983346207416,0.31368774282716233,0.2449489742783178,0.34409301068170484,0.34583232931581187,0.34117444218463944,0.32787192621510003,0.2958039891549809,0.33151168908501527,0.282842712474619,0.2628687885618979,0.31368774282716216,0.29849623113198565,0.3315116890850154,0.3278719262150999,0.2643860813280457,0.29580398915498096,0.3370459909270543,0.2821347195933176,0.345832329315812,0.3303028912982746,0.34117444218463944,0.2821347195933176,0.27999999999999975,0.2449489742783178,0.3136877428271622,0.31368774282716216,0.244131112314674,0.3315116890850153,0.3136877428271622,0.29983328701129897,0.26438608132804564,0.3840572873934301,0.29849623113198576,0.2821347195933176
8,0.30625460084751943,0.034016458659396974,0.34409301068170484,0.3303028912982745,0.29983328701129885,0.2821347195933176,0.2628687885618981,0.2998332870112989,0.34914180500192193,0.27999999999999975,0.3136877428271622,0.33030289129827456,0.38613469152615615,0.2998332870112988,0.3136877428271622,0.27999999999999975,0.2821347195933176,0.3104834939252004,0.32419130154894626,0.3155946767611901,0.3136877428271623,0.31622776601683794,0.2958039891549805,0.31622776601683794,0.3536947836765476,0.32419130154894654,0.26438608132804575,0.3303028912982746,0.31559467676119,0.3303028912982746,0.32787192621510003,0.3136877428271622,0.2821347195933176,0.26286878856189794,0.31559467676119,0.3155946767611903,0.22158519806160326,0.2821347195933176,0.3278719262151002,0.244131112314674,0.2958039891549808,0.3241913015489465,0.22338307903688667,0.3315116890850154,0.3315116890850153,0.34117444218463966,0.3303028912982746,0.31622776601683794,0.3303028912982746,0.31559467676118996,0.2643860813280457,0.3155946767611902,0.34409301068170484,0.2821347195933176,0.24413111231467396,0.34641016151377546,0.2821347195933176,0.3303028912982746,0.3440930106817049,0.31559467676119,0.3458323293158118,0.3155946767611901,0.33704599092705406,0.2233830790368868,0.3315116890850155,0.31622776601683794,0.2958039891549811,0.3872983346207416,0.2799999999999999,0.2449489742783178,0.34409301068170484,0.34583232931581187,0.34117444218463944,0.32787192621510003,0.2958039891549809,0.33151168908501527,0.282842712474619,0.24413111231467396,0.31368774282716216,0.2821347195933176,0.3315116890850154,0.2799999999999998,0.2643860813280454,0.29580398915498096,0.31048349392520047,0.26438608132804553,0.345832329315812,0.3278719262150999,0.34117444218463944,0.2821347195933176,0.27999999999999975,0.2449489742783178,0.3136877428271622,0.31368774282716216,0.24413111231467396,0.3315116890850153,0.3136877428271622,0.2821347195933176,0.26438608132804564,0.35930488446443337,0.29849623113198576,0.2821347195933176
9,0.30422883411298235,0.03455164966040532,0.34409301068170484,0.3303028912982745,0.29983328701129885,0.2821347195933176,0.2628687885618981,0.2998332870112989,0.34914180500192193,0.27999999999999975,0.3136877428271622,0.33030289129827456,0.38613469152615615,0.2998332870112988,0.3136877428271622,0.27999999999999975,0.2821347195933176,0.3104834939252004,0.32419130154894626,0.3155946767611901,0.3136877428271623,0.31622776601683794,0.2958039891549805,0.31622776601683794,0.32419130154894643,0.32419130154894654,0.26438608132804553,0.3303028912982746,0.29849623113198576,0.3303028912982746,0.32787192621510003,0.3136877428271622,0.2821347195933176,0.26286878856189794,0.31559467676119,0.3155946767611903,0.22158519806160326,0.2821347195933176,0.3278719262151002,0.24413111231467396,0.29580398915498074,0.3241913015489465,0.22338307903688667,0.3315116890850154,0.3315116890850153,0.34117444218463966,0.3303028912982746,0.2998332870112988,0.3303028912982746,0.31559467676118996,0.2643860813280455,0.3155946767611902,0.34409301068170484,0.2821347195933176,0.24413111231467396,0.34641016151377546,0.2821347195933176,0.3303028912982746,0.3440930106817049,0.31559467676119,0.3458323293158118,0.3155946767611901,0.33704599092705406,0.2233830790368868,0.3315116890850153,0.31622776601683794,0.29580398915498096,0.3872983346207416,0.2799999999999999,0.2449489742783178,0.34409301068170484,0.34583232931581187,0.34117444218463944,0.32787192621510003,0.2958039891549809,0.33151168908501527,0.282842712474619,0.24413111231467396,0.31368774282716216,0.22338307903688673,0.3315116890850154,0.27999999999999975,0.2643860813280454,0.29580398915498096,0.27640549922170493,0.26438608132804553,0.345832329315812,0.3278719262150999,0.34117444218463944,0.2821347195933176,0.27999999999999975,0.2449489742783178,0.3136877428271622,0.31368774282716216,0.24413111231467396,0.3315116890850153,0.31368774282716216,0.2643860813280456,0.26438608132804564,0.3303028912982746,0.29849623113198576,0.2821347195933176
10,0.3032008563397022,0.034759757117552144,0.34409301068170484,0.3303028912982745,0.29983328701129885,0.2821347195933176,0.2628687885618981,0.2998332870112989,0.34914180500192193,0.27999999999999975,0.3136877428271622,0.33030289129827456,0.38613469152615615,0.2998332870112988,0.3136877428271622,0.27999999999999975,0.2821347195933176,0.3104834939252004,0.32419130154894626,0.3155946767611901,0.3136877428271623,0.31622776601683794,0.2958039891549805,0.31622776601683794,0.32419130154894643,0.32419130154894654,0.26438608132804553,0.3136877428271623,0.29849623113198576,0.3303028912982746,0.32787192621510003,0.3136877428271622,0.2821347195933176,0.26286878856189794,0.31559467676119,0.3155946767611903,0.22158519806160326,0.2821347195933176,0.3278719262151002,0.22338307903688684,0.29580398915498074,0.3241913015489465,0.22338307903688667,0.3315116890850154,0.3315116890850153,0.34117444218463966,0.3303028912982746,0.2998332870112987,0.3303028912982746,0.2984962311319857,0.2643860813280455,0.3155946767611902,0.34409301068170484,0.2821347195933176,0.24413111231467396,0.34641016151377546,0.2821347195933176,0.3303028912982746,0.3440930106817049,0.31559467676119,0.3458323293158118,0.3155946767611901,0.33704599092705406,0.2233830790368868,0.3155946767611901,0.31622776601683794,0.27999999999999975,0.3872983346207416,0.2799999999999999,0.2449489742783178,0.34409301068170484,0.34583232931581187,0.3411744421846394,0.32787192621510003,0.2958039891549809,0.33151168908501527,0.282842712474619,0.24413111231467396,0.31368774282716216,0.22338307903688664,0.3315116890850154,0.27999999999999975,0.2643860813280454,0.29580398915498096,0.27640549922170493,0.26438608132804553,0.345832329315812,0.3278719262150999,0.34117444218463944,0.2821347195933176,0.27999999999999975,0.2449489742783178,0.3136877428271622,0.31368774282716216,0.24413111231467396,0.3315116890850153,0.31368774282716216,0.26438608132804553,0.26438608132804564,0.3136877428271622,0.29849623113198576,0.2821347195933176
11,0.3030386454950361,0.03460605924594367,0.34409301068170484,0.3303028912982745,0.29983328701129885,0.2821347195933176,0.2628687885618981,0.2998332870112989,0.34914180500192193,0.27999999999999975,0.3136877428271622,0.33030289129827456,0.38613469152615615,0.2998332870112988,0.3136877428271622,0.27999999999999975,0.2821347195933176,0.3104834939252004,0.32419130154894626,0.3155946767611901,0.3136877428271623,0.31622776601683794,0.2958039891549805,0.31622776601683794,0.32419130154894643,0.32419130154894654,0.26438608132804553,0.3136877428271623,0.29849623113198576,0.3303028912982746,0.32787192621510003,0.3136877428271622,0.2821347195933176,0.26286878856189794,0.31559467676119,0.3155946767611903,0.22158519806160326,0.2821347195933176,0.32787192621510003,0.22338307903688684,0.29580398915498074,0.3241913015489465,0.22338307903688667,0.3315116890850154,0.3315116890850153,0.34117444218463966,0.3303028912982746,0.2998332870112987,0.3303028912982746,0.2984962311319857,0.2643860813280455,0.3155946767611902,0.34409301068170484,0.2821347195933176,0.24413111231467396,0.34641016151377546,0.2821347195933176,0.3303028912982746,0.3440930106817049,0.31559467676119,0.3458323293158118,0.3155946767611901,0.33704599092705406,0.2233830790368868,0.3155946767611901,0.31622776601683794,0.27999999999999975,0.3872983346207416,0.2799999999999999,0.2449489742783178,0.3278719262150998,0.34583232931581187,0.3411744421846394,0.32787192621510003,0.2958039891549809,0.33151168908501527,0.282842712474619,0.24413111231467396,0.31368774282716216,0.22338307903688664,0.3315116890850154,0.27999999999999975,0.2643860813280454,0.29580398915498096,0.27640549922170493,0.26438608132804553,0.345832329315812,0.3278719262150999,0.34117444218463944,0.2821347195933176,0.27999999999999975,0.2449489742783178,0.3136877428271622,0.31368774282716216,0.24413111231467396,0.3315116890850153,0.31368774282716216,0.26438608132804553,0.26438608132804564,0.3136877428271622,0.29849623113198576,0.2821347195933176
12,0.3023630545882287,0.0342721931028019,0.34409301068170484,0.3303028912982745,0.29983328701129885,0.2821347195933176,0.2628687885618981,0.2998332870112989,0.34914180500192193,0.27999999999999975,0.3136877428271622,0.33030289129827456,0.3861346915261561,0.2998332870112988,0.3136877428271622,0.27999999999999975,0.2821347195933176,0.3104834939252004,0.32419130154894626,0.3155946767611901,0.3136877428271623,0.31622776601683794,0.2958039891549805,0.31622776601683794,0.32419130154894643,0.32419130154894654,0.26438608132804553,0.3136877428271623,0.29849623113198576,0.3303028912982746,0.32787192621510003,0.31048349392520025,0.2821347195933176,0.26286878856189794,0.31559467676119,0.3155946767611903,0.22158519806160326,0.2821347195933176,0.295803989154981,0.22338307903688684,0.29580398915498074,0.3241913015489465,0.22338307903688667,0.3315116890850154,0.3315116890850153,0.34117444218463966,0.3303028912982746,0.2998332870112987,0.3303028912982746,0.2984962311319857,0.2643860813280455,0.3155946767611902,0.34409301068170484,0.2821347195933176,0.24413111231467396,0.3315116890850153,0.2821347195933176,0.3303028912982746,0.3440930106817049,0.31559467676119,0.3458323293158118,0.3155946767611901,0.33704599092705406,0.2233830790368868,0.3155946767611901,0.31622776601683794,0.27999999999999975,0.3872983346207416,0.2799999999999999,0.2449489742783178,0.3104834939252004,0.34583232931581187,0.3411744421846394,0.32787192621510003,0.2958039891549809,0.33151168908501527,0.282842712474619,0.24413111231467396,0.31368774282716216,0.22338307903688664,0.3315116890850154,0.27999999999999975,0.2643860813280454,0.29580398915498096,0.27640549922170493,0.26438608132804553,0.345832329315812,0.3278719262150999,0.34117444218463944,0.2821347195933176,0.27999999999999975,0.2449489742783178,0.3136877428271622,0.31368774282716216,0.24413111231467396,0.3315116890850153,0.31368774282716216,0.26438608132804553,0.26438608132804564,0.3136877428271622,0.29849623113198576,0.2821347195933176
13,0.30191947493303084,0.03393568411219781,0.33030289129827445,0.3303028912982745,0.29983328701129885,0.2821347195933176,0.2628687885618981,0.2998332870112989,0.34914180500192193,0.27999999999999975,0.3136877428271622,0.33030289129827456,0.3861346915261561,0.2998332870112988,0.3136877428271622,0.27999999999999975,0.2821347195933176,0.3104834939252004,0.32419130154894626,0.3155946767611901,0.3136877428271623,0.31622776601683794,0.2958039891549805,0.31622776601683794,0.32419130154894643,0.32419130154894654,0.26438608132804553,0.3136877428271623,0.29849623113198576,0.3303028912982746,0.32787192621510003,0.31048349392520025,0.2821347195933176,0.26286878856189794,0.31559467676119,0.3155946767611903,0.22158519806160326,0.2821347195933176,0.295803989154981,0.22338307903688684,0.29580398915498074,0.3241913015489465,0.22338307903688667,0.3315116890850154,0.3315116890850153,0.34117444218463966,0.3303028912982746,0.2998332870112987,0.3303028912982746,0.2984962311319857,0.2643860813280455,0.3155946767611902,0.34409301068170484,0.2821347195933176,0.24413111231467396,0.31622776601683794,0.2821347195933176,0.3303028912982746,0.3440930106817049,0.31559467676119,0.3458323293158118,0.3155946767611901,0.33704599092705406,0.2233830790368868,0.3155946767611901,0.31622776601683794,0.27999999999999975,0.3872983346207416,0.2799999999999999,0.2449489742783178,0.3104834939252004,0.34583232931581187,0.3411744421846394,0.32787192621510003,0.2958039891549809,0.33151168908501527,0.282842712474619,0.24413111231467396,0.31368774282716216,0.22338307903688664,0.31622776601683794,0.27999999999999975,0.2643860813280454,0.29580398915498096,0.27640549922170493,0.26438608132804553,0.345832329315812,0.3278719262150999,0.34117444218463944,0.2821347195933176,0.27999999999999975,0.2449489742783178,0.3136877428271622,0.31368774282716216,0.24413111231467396,0.3315116890850153,0.31368774282716216,0.26438608132804553,0.26438608132804564,0.3136877428271622,0.29849623113198576,0.2821347195933176
14,0.3010604992524362,0.03392013841177233,0.27999999999999975,0.3303028912982745,0.29983328701129885,0.2821347195933176,0.2628687885618981,0.2998332870112989,0.34914180500192193,0.27999999999999975,0.3136877428271622,0.33030289129827456,0.3861346915261561,0.2998332870112988,0.3136877428271622,0.27999999999999975,0.2821347195933176,0.3104834939252004,0.32419130154894626,0.3155946767611901,0.27999999999999986,0.31622776601683794,0.2958039891549805,0.31622776601683794,0.32419130154894643,0.32419130154894654,0.26438608132804553,0.3136877428271623,0.29849623113198576,0.3303028912982746,0.32787192621510003,0.31048349392520025,0.2821347195933176,0.26286878856189794,0.31559467676119,0.3155946767611903,0.22158519806160326,0.2821347195933176,0.295803989154981,0.22338307903688684,0.29580398915498074,0.3241913015489465,0.22338307903688667,0.3315116890850154,0.3315116890850153,0.34117444218463966,0.3303028912982746,0.2998332870112987,0.3303028912982746,0.2984962311319857,0.2643860813280455,0.3155946767611902,0.34409301068170484,0.2821347195933176,0.24413111231467396,0.31622776601683794,0.2821347195933176,0.3303028912982746,0.3440930106817049,0.31559467676119,0.3458323293158118,0.3136877428271622,0.33704599092705406,0.2233830790368868,0.3155946767611901,0.31622776601683794,0.27999999999999975,0.3872983346207416,0.2799999999999999,0.2449489742783178,0.3104834939252004,0.34583232931581187,0.3411744421846394,0.32787192621510003,0.2958039891549809,0.33151168908501527,0.282842712474619,0.24413111231467396,0.31368774282716216,0.22338307903688664,0.31622776601683794,0.27999999999999975,0.2643860813280454,0.29580398915498096,0.27640549922170493,0.26438608132804553,0.345832329315812,0.3278719262150999,0.34117444218463944,0.2821347195933176,0.27999999999999975,0.2449489742783178,0.3136877428271622,0.31368774282716216,0.24413111231467396,0.3315116890850153,0.31368774282716216,0.26438608132804553,0.26438608132804564,0.3136877428271622,0.29849623113198576,0.2821347195933176
15,0.30039098687439236,0.033841616460041815,0.27999999999999975,0.3303028912982745,0.29983328701129885,0.2821347195933176,0.2628687885618981,0.2998332870112989,0.34914180500192193,0.27999999999999975,0.3136877428271622,0.33030289129827456,0.3861346915261561,0.2998332870112988,0.3136877428271622,0.27999999999999975,0.2821347195933176,0.3104834939252004,0.32419130154894626,0.3155946767611901,0.27999999999999986,0.31622776601683794,0.2958039891549805,0.31622776601683794,0.32419130154894643,0.32419130154894654,0.26438608132804553,0.3136877428271623,0.29849623113198576,0.3303028912982746,0.32787192621510003,0.31048349392520025,0.2821347195933176,0.26286878856189794,0.31559467676119,0.3155946767611903,0.22158519806160326,0.2821347195933176,0.295803989154981,0.22338307903688684,0.29580398915498074,0.3241913015489465,0.22338307903688667,0.3315116890850154,0.3315116890850153,0.34117444218463966,0.3303028912982746,0.2998332870112987,0.3303028912982746,0.2984962311319857,0.2643860813280455,0.3155946767611902,0.34409301068170484,0.2821347195933176,0.24413111231467396,0.2998332870112988,0.262868788561898,0.3303028912982746,0.3440930106817049,0.29983328701129885,0.3458323293158118,0.3136877428271622,0.33704599092705406,0.2233830790368868,0.3155946767611901,0.31622776601683794,0.27999999999999975,0.3872983346207416,0.2799999999999999,0.2449489742783178,0.3104834939252004,0.34583232931581187,0.3411744421846394,0.32787192621510003,0.2958039891549809,0.33151168908501527,0.282842712474619,0.24413111231467396,0.31368774282716216,0.22338307903688664,0.31622776601683794,0.27999999999999975,0.2643860813280454,0.29580398915498096,0.27640549922170493,0.26438608132804553,0.3303028912982746,0.3278719262150999,0.34117444218463944,0.2821347195933176,0.27999999999999975,0.2449489742783178,0.3136877428271622,0.31368774282716216,0.24413111231467396,0.3315116890850153,0.31368774282716216,0.26438608132804553,0.26438608132804564,0.3136877428271622,0.29849623113198576,0.2821347195933176
16,0.29980731261664195,0.03354959465607691,0.27999999999999975,0.3303028912982745,0.29983328701129885,0.2821347195933176,0.2628687885618981,0.2998332870112989,0.34914180500192193,0.27999999999999975,0.3136877428271622,0.33030289129827456,0.3861346915261561,0.2998332870112988,0.3136877428271622,0.27999999999999975,0.2821347195933176,0.3104834939252004,0.32419130154894626,0.3155946767611901,0.27999999999999986,0.31622776601683794,0.2958039891549805,0.31622776601683794,0.3104834939252004,0.32419130154894654,0.26438608132804553,0.3136877428271623,0.29849623113198576,0.3303028912982746,0.32787192621510003,0.31048349392520025,0.2821347195933176,0.26286878856189794,0.31559467676119,0.3155946767611903,0.22158519806160326,0.2821347195933176,0.295803989154981,0.22338307903688684,0.29580398915498074,0.3241913015489465,0.22338307903688667,0.3315116890850154,0.3315116890850153,0.34117444218463966,0.3303028912982746,0.2998332870112987,0.3303028912982746,0.2984962311319857,0.2643860813280455,0.3155946767611902,0.34409301068170484,0.2821347195933176,0.24413111231467396,0.2998332870112988,0.262868788561898,0.3303028912982746,0.3440930106817049,0.2998332870112988,0.3458323293158118,0.2984962311319858,0.33704599092705406,0.2233830790368868,0.3155946767611901,0.31622776601683794,0.27999999999999975,0.3872983346207416,0.2799999999999999,0.2449489742783178,0.3104834939252004,0.34583232931581187,0.3411744421846394,0.32787192621510003,0.2958039891549809,0.31622776601683794,0.282842712474619,0.24413111231467396,0.31368774282716216,0.22338307903688664,0.31622776601683794,0.27999999999999975,0.2643860813280454,0.29580398915498096,0.27640549922170493,0.26438608132804553,0.3303028912982746,0.3136877428271623,0.34117444218463944,0.2821347195933176,0.27999999999999975,0.2449489742783178,0.3136877428271622,0.31368774282716216,0.24413111231467396,0.3315116890850153,0.31368774282716216,0.26438608132804553,0.26438608132804564,0.3136877428271622,0.29849623113198576,0.2821347195933176
17,0.29980731261664195,0.03354959465607671,0.27999999999999975,0.3303028912982745,0.29983328701129885,0.2821347195933176,0.2628687885618981,0.2998332870112989,0.34914180500192193,0.27999999999999975,0.3136877428271622,0.33030289129827456,0.3861346915261561,0.2998332870112988,0.3136877428271622,0.27999999999999975,0.2821347195933176,0.3104834939252004,0.32419130154894626,0.3155946767611901,0.27999999999999986,0.31622776601683794,0.2958039891549805,0.31622776601683794,0.3104834939252001,0.32419130154894654,0.26438608132804553,0.3136877428271623,0.29849623113198576,0.3303028912982746,0.32787192621510003,0.31048349392520025,0.2821347195933176,0.26286878856189794,0.31559467676119,0.3155946767611903,0.22158519806160326,0.2821347195933176,0.295803989154981,0.22338307903688684,0.29580398915498074,0.3241913015489465,0.22338307903688667,0.3315116890850154,0.3315116890850153,0.34117444218463966,0.3303028912982746,0.2998332870112987,0.3303028912982746,0.2984962311319857,0.2643860813280455,0.3155946767611902,0.34409301068170484,0.2821347195933176,0.24413111231467396,0.2998332870112988,0.262868788561898,0.3303028912982746,0.3440930106817049,0.2998332870112988,0.3458323293158118,0.29849623113198576,0.33704599092705406,0.2233830790368868,0.3155946767611901,0.31622776601683794,0.27999999999999975,0.3872983346207416,0.2799999999999999,0.2449489742783178,0.3104834939252004,0.34583232931581187,0.3411744421846394,0.32787192621510003,0.2958039891549809,0.31622776601683794,0.282842712474619,0.24413111231467396,0.31368774282716216,0.22338307903688664,0.31622776601683794,0.27999999999999975,0.2643860813280454,0.29580398915498096,0.27640549922170493,0.26438608132804553,0.3303028912982746,0.3136877428271622,0.34117444218463944,0.2821347195933176,0.27999999999999975,0.2449489742783178,0.3136877428271622,0.31368774282716216,0.24413111231467396,0.3315116890850153,0.31368774282716216,0.26438608132804553,0.26438608132804564,0.3136877428271622,0.29849623113198576,0.2821347195933176
18,0.2994272765438555,0.033960360150172335,0.27999999999999975,0.3303028912982745,0.29983328701129885,0.2821347195933176,0.2628687885618981,0.2998332870112989,0.34914180500192193,0.27999999999999975,0.3136877428271622,0.33030289129827456,0.3861346915261561,0.2998332870112988,0.3136877428271622,0.27999999999999975,0.2821347195933176,0.3104834939252004,0.32419130154894626,0.3155946767611901,0.27999999999999986,0.31622776601683794,0.2958039891549805,0.31622776601683794,0.3104834939252001,0.32419130154894654,0.26438608132804553,0.3136877428271623,0.29849623113198576,0.3303028912982746,0.32787192621510003,0.31048349392520025,0.2821347195933176,0.26286878856189794,0.31559467676119,0.3155946767611903,0.22158519806160326,0.2821347195933176,0.295803989154981,0.22338307903688684,0.29580398915498074,0.3241913015489465,0.22338307903688667,0.3315116890850154,0.3315116890850153,0.34117444218463966,0.3303028912982746,0.2998332870112987,0.3303028912982746,0.2984962311319857,0.2643860813280455,0.3155946767611902,0.34409301068170484,0.2821347195933176,0.24413111231467396,0.2998332870112988,0.262868788561898,0.3303028912982746,0.3440930106817049,0.2998332870112988,0.3458323293158118,0.29849623113198576,0.33704599092705406,0.2233830790368868,0.3155946767611901,0.31622776601683794,0.27999999999999975,0.3872983346207416,0.2799999999999999,0.2449489742783178,0.3104834939252004,0.34583232931581187,0.3411744421846394,0.32787192621510003,0.2958039891549809,0.31622776601683794,0.282842712474619,0.24413111231467396,0.31368774282716216,0.22338307903688664,0.31622776601683794,0.27999999999999975,0.2643860813280454,0.29580398915498096,0.27640549922170493,0.26438608132804553,0.3303028912982746,0.3136877428271622,0.34117444218463944,0.24413111231467396,0.27999999999999975,0.2449489742783178,0.3136877428271622,0.31368774282716216,0.24413111231467396,0.3315116890850153,0.31368774282716216,0.26438608132804553,0.26438608132804564,0.3136877428271622,0.29849623113198576,0.2821347195933176
19,0.2988660379768685,0.03461345611187838,0.27999999999999975,0.3303028912982745,0.29983328701129885,0.2821347195933176,0.2628687885618981,0.2998332870112989,0.34914180500192193,0.27999999999999975,0.3136877428271622,0.33030289129827456,0.3861346915261561,0.2998332870112988,0.3136877428271622,0.27999999999999975,0.2821347195933176,0.3104834939252004,0.32419130154894626,0.3155946767611901,0.27999999999999986,0.31622776601683794,0.2958039891549805,0.31622776601683794,0.3104834939252001,0.32419130154894654,0.26438608132804553,0.3136877428271623,0.29849623113198576,0.3303028912982746,0.32787192621510003,0.31048349392520025,0.2821347195933176,0.26286878856189794,0.31559467676119,0.3155946767611903,0.22158519806160326,0.2821347195933176,0.295803989154981,0.22338307903688684,0.29580398915498074,0.3241913015489465,0.22338307903688667,0.3315116890850154,0.3315116890850153,0.34117444218463966,0.3303028912982746,0.2998332870112987,0.3303028912982746,0.2984962311319857,0.24413111231467396,0.3155946767611902,0.34409301068170484,0.2821347195933176,0.24413111231467396,0.2998332870112988,0.262868788561898,0.3303028912982746,0.3440930106817049,0.2998332870112988,0.3458323293158118,0.29849623113198576,0.33704599092705406,0.2233830790368868,0.3155946767611901,0.31622776601683794,0.27999999999999975,0.3872983346207416,0.2799999999999999,0.2449489742783178,0.3104834939252004,0.34583232931581187,0.3411744421846394,0.32787192621510003,0.2958039891549809,0.31622776601683794,0.282842712474619,0.24413111231467396,0.31368774282716216,0.22338307903688664,0.31622776601683794,0.27999999999999975,0.2643860813280454,0.29580398915498096,0.27640549922170493,0.26438608132804553,0.3303028912982746,0.3136877428271622,0.34117444218463944,0.24413111231467396,0.244131112314674,0.2449489742783178,0.3136877428271622,0.31368774282716216,0.24413111231467396,0.3315116890850153,0.31368774282716216,0.26438608132804553,0.26438608132804564,0.3136877428271622,0.29849623113198576,0.2821347195933176
