Run,Terminal Iteration
0,15
1,9
2,8
3,7
4,7
5,6
6,9
7,6
8,7
9,8
10,13
11,9
12,7
13,8
14,7
15,7
16,7
17,7
18,15
19,6
20,7
21,8
22,18
23,7
24,10
25,11
26,10
27,6
28,8
29,13
30,8
31,7
32,8
33,7
34,7
35,7
36,13
37,11
38,10
39,8
40,7
41,6
42,8
43,9
44,9
45,11
46,9
47,11
48,20
49,6
50,6
51,9
52,9
53,16
54,16
55,8
56,8
57,17
58,9
59,18
60,6
61,8
62,11
63,6
64,11
65,7
66,9
67,7
68,13
69,6
70,11
71,6
72,8
73,17
74,6
75,9
76,7
77,11
78,14
79,10
80,9
81,7
82,10
83,9
84,16
85,18
86,6
87,19
88,20
89,8
90,6
91,7
92,9
93,5
94,10
95,11
96,6
97,11
98,6
99,7
