Run,Iteration,agent-0,agent-1,agent-2,agent-3,agent-4
0,0,55,82,13,81,49
0,1,83,82,13,81,49
0,2,83,82,82,81,52
0,3,59,82,82,82,15
0,4,59,82,82,82,82
0,5,59,82,82,82,21
0,6,59,54,82,82,63
0,7,59,54,82,82,15
0,8,59,82,82,82,21
0,9,59,82,82,82,63
0,10,59,82,82,82,21
0,11,59,82,82,82,15
0,12,65,82,82,82,21
0,13,10,82,82,82,15
0,14,44,54,82,82,82
0,15,44,54,82,82,15
0,16,9,54,82,82,15
0,17,9,82,82,82,21
0,18,10,82,82,82,15
0,19,59,54,82,82,21
1,0,41,54,49,95,57
1,1,41,54,80,78,52
1,2,41,54,80,49,52
1,3,80,42,80,49,52
1,4,13,42,80,49,52
1,5,13,42,80,49,52
1,6,41,42,80,49,52
1,7,49,42,80,49,52
1,8,49,42,80,49,49
1,9,80,42,80,49,49
1,10,80,42,80,49,49
1,11,80,42,80,49,13
1,12,78,42,80,49,13
1,13,41,42,80,49,13
1,14,13,42,80,49,52
1,15,13,42,80,49,52
1,16,78,42,80,49,52
1,17,49,42,80,49,52
1,18,49,42,80,49,52
1,19,49,42,80,49,52
2,0,55,82,41,81,13
2,1,55,82,81,81,13
2,2,55,81,81,81,12
2,3,55,81,81,81,29
2,4,55,81,81,81,42
2,5,55,81,81,81,42
2,6,55,81,81,81,39
2,7,55,81,81,81,12
2,8,81,81,81,81,39
2,9,81,81,81,81,81
2,10,81,81,81,81,42
2,11,81,81,81,81,12
2,12,81,81,81,81,39
2,13,81,81,81,81,12
2,14,81,81,81,81,81
2,15,81,81,81,81,39
2,16,81,81,81,81,39
2,17,81,81,81,81,39
2,18,81,81,81,81,39
2,19,81,81,81,81,39
3,0,55,90,41,62,90
3,1,55,8,42,62,45
3,2,81,8,42,62,26
3,3,81,8,42,62,26
3,4,81,8,42,62,45
3,5,55,8,42,62,86
3,6,55,8,42,95,45
3,7,81,8,42,95,26
3,8,81,8,42,95,45
3,9,81,8,42,95,26
3,10,81,8,42,95,90
3,11,81,8,42,95,26
3,12,55,8,42,95,90
3,13,55,8,42,95,90
3,14,55,8,42,95,86
3,15,81,8,42,95,86
3,16,81,8,42,95,90
3,17,81,8,42,95,26
3,18,81,8,42,90,86
3,19,81,8,59,90,45
4,0,29,75,41,62,8
4,1,35,29,37,62,8
4,2,67,29,37,37,8
4,3,1,75,37,37,97
4,4,75,75,37,37,97
4,5,43,75,37,37,97
4,6,29,75,60,37,70
4,7,16,29,4,37,70
4,8,23,29,4,37,70
4,9,67,29,4,37,70
4,10,23,29,4,37,70
4,11,31,29,4,37,70
4,12,75,75,60,37,97
4,13,23,75,60,37,97
4,14,29,75,60,37,97
4,15,39,75,60,37,4
4,16,35,29,60,37,4
4,17,23,29,60,37,4
4,18,67,29,37,37,27
4,19,39,29,37,37,27
5,0,81,82,49,81,57
5,1,79,82,77,81,35
5,2,79,82,72,81,81
5,3,79,82,51,81,94
5,4,65,54,51,81,94
5,5,65,54,51,81,94
5,6,65,54,51,81,94
5,7,82,54,51,81,81
5,8,36,54,51,81,81
5,9,36,54,51,81,39
5,10,36,54,93,81,81
5,11,36,54,93,81,81
5,12,36,54,93,81,81
5,13,82,54,93,81,42
5,14,65,54,93,81,42
5,15,10,54,93,81,42
5,16,10,54,93,81,42
5,17,10,54,93,81,42
5,18,10,54,93,81,42
5,19,82,82,93,81,29
6,0,81,82,67,41,67
6,1,81,82,67,12,26
6,2,81,54,67,12,26
6,3,81,54,67,12,90
6,4,81,54,67,12,90
6,5,55,54,67,12,86
6,6,55,54,67,12,86
6,7,81,54,67,12,86
6,8,55,54,67,12,86
6,9,55,54,67,12,86
6,10,55,54,67,12,86
6,11,81,82,67,12,86
6,12,81,82,67,12,86
6,13,55,82,67,12,90
6,14,81,82,67,12,90
6,15,81,54,67,12,90
6,16,81,82,67,12,26
6,17,81,82,67,12,26
6,18,81,82,67,12,26
6,19,81,82,67,12,26
7,0,70,56,49,93,95
7,1,30,85,49,26,95
7,2,70,56,64,26,95
7,3,70,56,64,26,95
7,4,70,85,64,26,95
7,5,70,56,64,26,95
7,6,70,85,64,26,95
7,7,70,85,64,26,20
7,8,70,85,64,26,95
7,9,30,85,64,26,95
7,10,30,85,64,26,0
7,11,30,56,64,26,31
7,12,30,56,64,26,31
7,13,30,56,64,26,35
7,14,30,56,64,26,35
7,15,27,56,64,26,35
7,16,27,85,64,26,89
7,17,70,56,64,26,89
7,18,70,85,64,26,89
7,19,70,56,64,26,89
8,0,58,74,49,62,68
8,1,76,30,76,62,68
8,2,76,5,76,62,14
8,3,76,5,76,72,14
8,4,5,30,76,72,7
8,5,5,76,76,39,7
8,6,5,24,76,72,7
8,7,58,24,76,11,14
8,8,5,74,76,11,14
8,9,5,76,76,11,91
8,10,58,5,76,72,91
8,11,5,46,76,39,91
8,12,5,74,76,39,91
8,13,5,76,76,11,91
8,14,58,5,76,11,7
8,15,58,24,76,11,7
8,16,76,37,76,39,7
8,17,76,74,76,11,7
8,18,76,30,76,72,7
8,19,76,89,76,72,7
9,0,81,34,22,95,91
9,1,55,8,22,87,50
9,2,55,8,22,87,30
9,3,81,8,22,87,30
9,4,81,8,22,87,30
9,5,81,8,22,87,30
9,6,81,8,22,87,30
9,7,81,8,0,87,36
9,8,81,8,0,87,36
9,9,81,8,0,87,36
9,10,81,8,0,87,69
9,11,81,8,0,87,69
9,12,55,8,0,87,69
9,13,55,8,0,87,69
9,14,55,8,22,87,69
9,15,55,8,0,87,69
9,16,81,8,0,87,69
9,17,81,8,0,87,69
9,18,81,8,0,87,69
9,19,81,8,0,87,69
10,0,81,82,77,81,19
10,1,10,82,93,81,19
10,2,10,82,51,81,12
10,3,10,82,51,81,12
10,4,10,82,72,81,12
10,5,10,54,51,81,12
10,6,83,54,93,81,94
10,7,83,54,51,81,94
10,8,83,54,93,81,12
10,9,83,54,72,81,42
10,10,83,54,93,81,42
10,11,83,54,51,81,94
10,12,83,54,51,81,29
10,13,65,54,72,81,29
10,14,65,54,93,81,29
10,15,10,54,72,81,94
10,16,79,54,93,81,94
10,17,79,54,51,81,94
10,18,36,54,51,81,94
10,19,36,82,51,81,12
11,0,55,54,13,13,55
11,1,13,54,13,13,52
11,2,13,13,13,13,52
11,3,13,13,13,13,52
11,4,13,13,13,13,13
11,5,80,13,13,13,13
11,6,80,92,13,13,49
11,7,41,13,13,13,49
11,8,41,13,13,13,49
11,9,41,13,13,13,13
11,10,41,13,13,13,13
11,11,13,13,13,13,13
11,12,13,13,13,13,13
11,13,13,33,13,13,13
11,14,13,33,13,13,49
11,15,49,92,13,13,13
11,16,49,33,13,13,13
11,17,49,33,13,13,49
11,18,49,33,13,13,49
11,19,80,92,13,13,49
12,0,47,54,67,93,91
12,1,47,54,67,67,91
12,2,31,19,67,67,91
12,3,8,19,67,67,99
12,4,8,19,67,67,99
12,5,8,19,67,67,99
12,6,16,67,67,67,99
12,7,8,67,67,67,99
12,8,67,67,67,67,99
12,9,67,67,67,67,99
12,10,1,67,67,67,99
12,11,75,67,67,67,99
12,12,75,67,67,67,99
12,13,75,67,67,67,99
12,14,75,67,67,67,99
12,15,1,67,67,67,99
12,16,39,67,67,67,99
12,17,39,67,67,67,99
12,18,39,67,67,67,99
12,19,39,67,67,67,99
13,0,55,82,41,81,64
13,1,55,82,81,81,64
13,2,55,81,81,81,81
13,3,55,81,81,81,81
13,4,81,81,81,81,94
13,5,81,81,81,81,94
13,6,81,81,81,81,94
13,7,81,81,81,81,94
13,8,81,81,81,81,94
13,9,81,81,81,81,94
13,10,81,81,81,81,94
13,11,81,81,81,81,12
13,12,81,81,81,81,12
13,13,81,81,81,81,12
13,14,81,81,81,81,12
13,15,81,81,81,81,12
13,16,81,81,81,81,12
13,17,81,81,81,81,81
13,18,81,81,81,81,81
13,19,81,81,81,81,81
14,0,39,54,67,62,73
14,1,75,54,67,67,73
14,2,31,19,67,67,74
14,3,75,19,67,67,14
14,4,19,67,67,67,14
14,5,75,67,67,67,14
14,6,47,19,67,67,14
14,7,19,19,67,67,14
14,8,47,19,67,67,14
14,9,35,19,67,67,57
14,10,73,19,67,67,14
14,11,29,19,67,67,14
14,12,16,19,67,67,14
14,13,73,19,67,67,14
14,14,8,19,67,67,7
14,15,73,19,67,67,74
14,16,16,19,67,67,74
14,17,31,19,67,67,74
14,18,43,19,67,67,91
14,19,8,43,67,67,74
15,0,81,29,26,95,89
15,1,81,29,21,31,89
15,2,55,29,65,98,89
15,3,55,75,65,98,97
15,4,55,75,65,98,97
15,5,55,29,65,98,97
15,6,55,29,65,98,97
15,7,81,29,59,98,97
15,8,81,29,59,98,97
15,9,81,29,65,98,60
15,10,55,75,42,98,97
15,11,55,29,42,98,97
15,12,55,29,42,98,97
15,13,55,29,42,98,97
15,14,55,29,42,98,97
15,15,55,75,42,98,97
15,16,55,29,59,98,97
15,17,81,75,59,98,97
15,18,55,29,59,98,32
15,19,81,75,21,98,70
16,0,78,82,13,13,14
16,1,13,13,13,13,52
16,2,41,13,13,13,52
16,3,41,13,13,13,52
16,4,13,92,13,13,52
16,5,80,13,13,13,52
16,6,49,13,13,13,13
16,7,49,13,13,13,13
16,8,41,13,13,13,52
16,9,41,13,13,13,52
16,10,49,13,13,13,52
16,11,49,13,13,13,52
16,12,49,13,13,13,52
16,13,41,13,13,13,52
16,14,41,13,13,13,13
16,15,13,13,13,13,49
16,16,13,13,13,13,49
16,17,13,13,13,13,49
16,18,13,13,13,13,49
16,19,13,13,13,13,49
17,0,58,6,49,95,3
17,1,58,74,49,66,3
17,2,58,62,49,66,3
17,3,58,74,49,66,3
17,4,58,24,49,66,3
17,5,58,95,49,66,3
17,6,58,30,49,66,3
17,7,58,37,49,66,3
17,8,58,89,49,66,3
17,9,5,46,49,66,3
17,10,76,24,16,66,20
17,11,76,24,16,66,62
17,12,58,76,49,66,62
17,13,58,6,16,66,62
17,14,58,62,16,66,62
17,15,58,30,16,66,62
17,16,58,37,16,66,62
17,17,58,89,16,66,3
17,18,5,76,49,66,3
17,19,5,62,49,66,3
18,0,11,82,62,93,89
18,1,39,35,62,93,89
18,2,39,35,39,93,89
18,3,75,35,62,93,89
18,4,75,35,39,93,89
18,5,75,35,39,93,89
18,6,1,35,62,93,89
18,7,31,35,62,95,24
18,8,31,35,62,62,24
18,9,31,35,62,95,24
18,10,31,35,39,95,24
18,11,31,35,95,95,24
18,12,35,35,39,95,24
18,13,39,35,39,95,24
18,14,39,35,62,95,24
18,15,39,35,39,93,24
18,16,75,73,95,93,24
18,17,75,73,62,93,24
18,18,75,73,62,93,24
18,19,23,73,62,93,0
19,0,55,91,13,62,45
19,1,55,14,17,62,90
19,2,55,14,17,24,86
19,3,55,14,17,24,26
19,4,55,14,17,24,86
19,5,55,34,17,24,26
19,6,55,34,17,24,86
19,7,55,34,17,24,45
19,8,55,34,17,24,45
19,9,55,91,17,24,90
19,10,55,91,17,24,86
19,11,55,91,17,24,90
19,12,55,57,26,24,90
19,13,55,34,26,24,45
19,14,55,34,26,24,90
19,15,55,34,26,24,26
19,16,81,34,26,24,90
19,17,81,34,26,24,90
19,18,81,34,26,24,90
19,19,81,34,26,24,45
20,0,55,29,13,40,95
20,1,55,75,65,40,95
20,2,55,29,59,40,3
20,3,81,75,59,3,89
20,4,55,29,59,40,20
20,5,81,29,59,3,20
20,6,81,29,59,3,35
20,7,81,29,59,3,35
20,8,81,75,59,3,35
20,9,81,29,59,3,35
20,10,55,75,65,3,95
20,11,55,29,65,3,95
20,12,55,75,65,3,95
20,13,55,29,65,3,20
20,14,55,29,59,3,20
20,15,81,75,65,3,93
20,16,81,29,65,40,0
20,17,81,75,59,40,0
20,18,55,29,59,3,31
20,19,81,75,65,3,31
21,0,81,75,41,12,31
21,1,81,75,53,12,2
21,2,71,75,53,71,2
21,3,98,98,53,71,2
21,4,98,98,53,71,2
21,5,90,98,53,71,2
21,6,90,98,53,71,2
21,7,90,98,53,71,2
21,8,90,98,53,71,2
21,9,98,98,53,71,62
21,10,98,98,53,71,62
21,11,98,98,53,71,93
21,12,71,98,53,71,40
21,13,71,98,53,71,40
21,14,71,98,53,71,40
21,15,71,98,53,71,35
21,16,71,98,53,71,35
21,17,71,98,53,71,35
21,18,71,98,53,71,35
21,19,90,98,53,71,35
22,0,87,54,13,93,21
22,1,46,54,13,69,30
22,2,45,17,13,58,68
22,3,72,17,13,58,17
22,4,45,17,13,58,25
22,5,72,26,13,58,17
22,6,17,15,13,58,72
22,7,17,15,13,69,17
22,8,25,15,13,69,17
22,9,45,15,13,69,17
22,10,45,15,13,69,72
22,11,72,15,13,69,72
22,12,45,15,13,69,72
22,13,25,17,13,69,17
22,14,17,17,13,69,72
22,15,17,15,13,69,25
22,16,72,17,13,69,17
22,17,45,17,13,69,17
22,18,17,17,13,69,17
22,19,72,17,13,69,17
23,0,55,91,26,62,19
23,1,55,91,87,67,19
23,2,55,91,87,67,4
23,3,55,91,87,67,4
23,4,55,14,87,67,78
23,5,55,91,87,67,32
23,6,81,57,87,67,27
23,7,81,57,87,67,27
23,8,81,57,87,67,78
23,9,81,57,87,67,4
23,10,81,57,87,67,4
23,11,81,57,87,67,4
23,12,81,57,87,67,4
23,13,81,57,87,67,4
23,14,55,34,87,67,37
23,15,55,34,87,67,37
23,16,55,34,87,67,37
23,17,55,34,87,67,37
23,18,55,34,87,67,37
23,19,55,57,87,67,4
24,0,55,54,13,81,13
24,1,65,54,13,81,52
24,2,65,54,82,81,52
24,3,65,54,82,82,15
24,4,79,82,82,82,82
24,5,79,82,82,82,21
24,6,79,82,82,82,82
24,7,82,54,82,82,63
24,8,82,54,82,82,63
24,9,82,54,82,82,21
24,10,82,54,82,82,63
24,11,59,54,82,82,63
24,12,59,54,82,82,63
24,13,59,54,82,82,21
24,14,59,54,82,82,82
24,15,79,82,82,82,63
24,16,79,54,82,82,63
24,17,65,54,82,82,63
24,18,65,54,82,82,82
24,19,65,54,82,82,82
25,0,55,57,49,90,24
25,1,55,14,49,12,45
25,2,55,57,64,12,45
25,3,81,91,64,12,90
25,4,81,57,53,12,90
25,5,81,34,64,12,45
25,6,81,34,53,12,45
25,7,81,14,53,12,45
25,8,81,91,64,12,45
25,9,81,34,64,12,45
25,10,81,91,53,12,45
25,11,55,34,53,12,26
25,12,55,91,53,12,26
25,13,55,34,64,12,26
25,14,55,57,64,12,26
25,15,55,91,53,12,26
25,16,81,91,53,12,90
25,17,81,34,53,12,90
25,18,55,91,53,12,45
25,19,55,14,53,12,45
26,0,8,47,49,93,35
26,1,8,35,39,93,35
26,2,35,73,62,93,35
26,3,35,73,62,93,35
26,4,11,73,39,95,0
26,5,11,47,62,95,0
26,6,11,35,39,95,0
26,7,16,73,39,62,0
26,8,8,47,95,93,73
26,9,8,73,95,93,73
26,10,8,35,95,93,73
26,11,8,47,62,62,73
26,12,8,73,39,62,73
26,13,75,35,95,93,71
26,14,75,47,95,93,71
26,15,75,73,95,93,71
26,16,75,47,62,93,6
26,17,75,73,62,93,6
26,18,11,35,62,93,0
26,19,11,73,62,93,0
27,0,55,54,13,82,39
27,1,83,54,13,82,15
27,2,83,54,82,82,15
27,3,65,54,82,82,82
27,4,65,54,82,82,82
27,5,65,54,82,82,21
27,6,65,54,82,82,21
27,7,65,54,82,82,21
27,8,65,54,82,82,82
27,9,65,54,82,82,82
27,10,65,82,82,82,63
27,11,10,82,82,82,82
27,12,10,82,82,82,82
27,13,10,82,82,82,82
27,14,10,82,82,82,15
27,15,10,82,82,82,15
27,16,83,82,82,82,63
27,17,83,82,82,82,63
27,18,83,82,82,82,63
27,19,83,82,82,82,63
28,0,55,54,67,95,38
28,1,75,54,67,67,13
28,2,75,67,67,67,14
28,3,75,19,67,67,19
28,4,75,19,67,67,19
28,5,75,19,67,67,19
28,6,19,19,67,67,19
28,7,19,19,67,67,8
28,8,19,19,67,67,57
28,9,31,67,67,67,19
28,10,43,43,67,67,7
28,11,43,43,67,67,7
28,12,43,43,67,67,7
28,13,43,43,67,67,67
28,14,11,43,67,67,67
28,15,8,19,67,67,8
28,16,8,19,67,67,8
28,17,73,19,67,67,8
28,18,35,19,67,67,8
28,19,73,19,67,67,8
29,0,55,14,13,95,26
29,1,55,14,17,95,86
29,2,55,14,17,24,90
29,3,55,14,17,24,86
29,4,55,34,17,24,26
29,5,55,14,17,24,90
29,6,55,14,17,24,45
29,7,55,57,17,24,90
29,8,55,34,26,24,45
29,9,55,34,17,24,90
29,10,55,14,17,24,26
29,11,81,57,17,24,45
29,12,81,14,17,24,86
29,13,81,91,26,24,45
29,14,81,91,26,24,45
29,15,81,91,26,24,90
29,16,81,91,26,24,90
29,17,81,57,26,24,86
29,18,81,57,26,24,45
29,19,81,91,17,24,45
30,0,31,54,67,93,8
30,1,31,54,67,67,8
30,2,39,67,67,67,14
30,3,47,67,67,67,14
30,4,47,67,67,67,14
30,5,47,67,67,67,14
30,6,47,67,67,67,14
30,7,47,67,67,67,14
30,8,47,67,67,67,14
30,9,16,43,67,67,14
30,10,23,43,67,67,14
30,11,23,43,67,67,14
30,12,23,43,67,67,14
30,13,29,43,67,67,99
30,14,47,43,67,67,99
30,15,47,43,67,67,99
30,16,47,43,67,67,99
30,17,29,43,67,67,99
30,18,29,43,67,67,99
30,19,29,43,67,67,99
31,0,81,82,13,82,31
31,1,83,82,65,82,91
31,2,83,54,82,82,63
31,3,83,54,82,82,63
31,4,59,54,82,82,15
31,5,59,54,82,82,15
31,6,79,54,82,82,82
31,7,59,54,82,82,15
31,8,59,82,82,82,15
31,9,10,54,82,82,21
31,10,10,82,82,82,21
31,11,10,82,82,82,82
31,12,10,82,82,82,82
31,13,36,54,82,82,82
31,14,83,82,82,82,63
31,15,82,82,82,82,63
31,16,82,54,82,82,21
31,17,82,54,82,82,15
31,18,79,54,82,82,21
31,19,59,54,82,82,82
32,0,97,62,13,93,95
32,1,60,62,60,93,68
32,2,60,30,60,37,68
32,3,37,95,37,37,83
32,4,97,6,4,37,83
32,5,97,30,4,37,83
32,6,97,30,4,37,83
32,7,60,5,4,37,83
32,8,37,37,37,37,83
32,9,37,5,37,37,83
32,10,15,74,37,37,83
32,11,15,76,37,37,83
32,12,15,6,37,37,83
32,13,97,6,37,37,37
32,14,97,5,37,37,37
32,15,97,76,37,37,37
32,16,53,6,4,37,97
32,17,32,30,4,37,70
32,18,15,37,4,37,4
32,19,15,89,4,37,4
33,0,38,54,13,40,57
33,1,24,54,30,54,24
33,2,30,54,30,54,57
33,3,24,54,30,54,57
33,4,38,54,30,54,19
33,5,38,54,30,54,19
33,6,24,82,30,54,8
33,7,30,82,30,54,28
33,8,30,82,38,54,28
33,9,38,15,38,12,39
33,10,27,58,38,12,39
33,11,24,58,27,12,12
33,12,70,58,27,12,42
33,13,38,58,27,12,42
33,14,30,58,27,12,42
33,15,70,58,38,12,42
33,16,38,42,38,12,81
33,17,30,58,38,12,81
33,18,70,58,38,12,81
33,19,70,58,38,12,81
34,0,81,54,41,81,13
34,1,81,54,81,81,49
34,2,81,81,81,81,29
34,3,81,81,81,81,29
34,4,55,81,81,81,94
34,5,55,81,81,81,29
34,6,81,81,81,81,29
34,7,81,81,81,81,29
34,8,55,81,81,81,81
34,9,55,81,81,81,39
34,10,55,81,81,81,94
34,11,55,81,81,81,94
34,12,55,81,81,81,39
34,13,55,81,81,81,94
34,14,55,81,81,81,39
34,15,55,81,81,81,94
34,16,55,81,81,81,94
34,17,55,81,81,81,39
34,18,55,81,81,81,39
34,19,81,81,81,81,42
35,0,81,83,95,95,2
35,1,95,83,62,95,2
35,2,95,95,39,95,31
35,3,95,95,39,95,31
35,4,40,95,95,95,31
35,5,40,95,62,95,31
35,6,40,76,39,95,31
35,7,40,37,95,95,6
35,8,40,46,62,95,23
35,9,40,46,95,95,23
35,10,3,46,62,95,23
35,11,40,46,62,95,23
35,12,62,30,39,62,24
35,13,95,30,62,62,20
35,14,42,5,62,62,31
35,15,42,30,95,95,31
35,16,42,30,39,95,31
35,17,95,30,39,95,31
35,18,42,30,95,95,31
35,19,89,30,95,95,31
36,0,11,82,95,93,93
36,1,11,73,39,93,93
36,2,11,47,62,93,93
36,3,75,73,62,95,93
36,4,75,73,39,95,93
36,5,43,73,95,95,93
36,6,19,73,95,62,62
36,7,19,73,39,62,62
36,8,43,73,95,62,2
36,9,19,47,39,62,0
36,10,19,47,95,62,0
36,11,39,47,39,93,95
36,12,39,47,39,93,95
36,13,39,47,62,93,95
36,14,39,47,62,93,95
36,15,39,47,95,93,95
36,16,8,47,39,62,95
36,17,8,47,95,62,95
36,18,8,35,62,62,95
36,19,31,47,95,95,95
37,0,23,82,49,81,68
37,1,23,82,80,81,68
37,2,11,82,80,81,29
37,3,47,82,80,81,42
37,4,47,82,80,81,42
37,5,43,82,80,81,29
37,6,43,82,80,81,29
37,7,43,82,80,81,29
37,8,1,82,80,81,29
37,9,35,82,80,81,29
37,10,35,82,80,81,29
37,11,35,82,80,81,29
37,12,39,82,80,81,29
37,13,67,82,80,81,39
37,14,67,82,80,81,39
37,15,67,82,80,81,39
37,16,23,82,80,81,39
37,17,23,82,80,81,39
37,18,23,82,80,81,39
37,19,23,82,80,81,39
38,0,24,82,13,3,93
38,1,83,82,82,90,2
38,2,9,82,82,82,45
38,3,36,82,82,82,63
38,4,54,82,82,82,63
38,5,65,54,82,82,82
38,6,82,54,82,82,21
38,7,79,54,82,82,21
38,8,59,54,82,82,21
38,9,79,54,82,82,21
38,10,10,82,82,82,21
38,11,82,54,82,82,21
38,12,36,54,82,82,21
38,13,10,54,82,82,21
38,14,82,54,82,82,21
38,15,82,54,82,82,21
38,16,9,54,82,82,21
38,17,82,82,82,82,21
38,18,44,82,82,82,21
38,19,83,82,82,82,21
39,0,80,54,41,93,58
39,1,41,51,41,41,22
39,2,41,51,41,41,77
39,3,49,51,49,41,77
39,4,41,51,49,41,60
39,5,41,49,49,41,41
39,6,13,49,41,41,41
39,7,49,49,49,41,41
39,8,41,49,49,41,41
39,9,49,41,49,41,41
39,10,13,41,49,41,41
39,11,13,41,49,41,41
39,12,49,49,49,41,41
39,13,80,49,49,41,41
39,14,49,49,41,41,41
39,15,13,49,41,41,41
39,16,13,49,49,41,41
39,17,78,49,49,41,41
39,18,41,41,49,41,41
39,19,49,49,49,41,41
40,0,27,82,88,62,73
40,1,30,31,88,62,73
40,2,38,31,88,24,73
40,3,27,31,88,24,0
40,4,27,31,88,24,24
40,5,27,31,88,24,68
40,6,24,31,88,24,68
40,7,70,31,88,24,68
40,8,38,31,88,24,31
40,9,24,31,88,24,3
40,10,38,31,88,24,24
40,11,24,31,88,24,24
40,12,24,31,88,24,62
40,13,24,31,88,24,62
40,14,24,31,88,24,89
40,15,24,31,88,24,89
40,16,24,31,88,24,89
40,17,70,31,88,24,23
40,18,27,31,88,24,23
40,19,38,31,88,24,93
41,0,5,54,41,95,90
41,1,76,97,77,95,26
41,2,76,97,51,95,45
41,3,5,97,93,95,86
41,4,76,97,93,1,90
41,5,4,97,93,47,86
41,6,63,51,93,47,86
41,7,63,51,93,47,86
41,8,63,51,93,47,90
41,9,63,51,93,1,90
41,10,92,51,93,47,90
41,11,6,51,93,47,86
41,12,6,51,93,47,90
41,13,51,51,93,47,45
41,14,51,51,93,47,45
41,15,51,51,93,47,90
41,16,4,51,51,47,45
41,17,4,51,51,47,45
41,18,4,51,51,47,45
41,19,4,51,51,47,45
42,0,81,14,49,62,53
42,1,81,34,68,62,52
42,2,55,8,68,87,13
42,3,55,8,87,87,33
42,4,81,8,87,87,51
42,5,81,8,87,87,92
42,6,81,8,87,87,34
42,7,81,8,87,87,87
42,8,81,8,87,87,51
42,9,55,8,87,87,51
42,10,55,8,87,87,34
42,11,55,8,87,87,66
42,12,81,8,87,87,5
42,13,55,8,87,87,5
42,14,55,8,87,87,5
42,15,55,8,87,87,5
42,16,55,8,87,87,33
42,17,55,8,87,87,92
42,18,81,8,87,87,87
42,19,81,8,87,87,87
43,0,55,91,49,67,14
43,1,55,34,87,67,14
43,2,81,57,87,67,97
43,3,81,14,87,67,97
43,4,81,14,87,67,97
43,5,81,14,87,67,78
43,6,81,14,87,67,78
43,7,81,91,87,67,83
43,8,81,57,87,67,83
43,9,81,57,87,67,37
43,10,81,57,87,67,78
43,11,81,57,87,67,32
43,12,55,91,87,67,37
43,13,55,91,87,67,37
43,14,55,91,87,67,37
43,15,55,91,87,67,78
43,16,55,91,87,67,27
43,17,55,91,87,67,27
43,18,55,91,87,67,27
43,19,55,91,87,67,27
44,0,81,82,41,81,12
44,1,79,82,77,81,39
44,2,65,82,51,81,81
44,3,44,82,51,81,39
44,4,44,82,51,81,81
44,5,44,54,51,81,81
44,6,44,54,51,81,81
44,7,44,54,93,81,12
44,8,44,54,93,81,12
44,9,44,54,93,81,94
44,10,44,54,93,81,94
44,11,44,54,93,81,94
44,12,44,54,93,81,94
44,13,44,54,93,81,94
44,14,44,82,93,81,81
44,15,44,82,93,81,42
44,16,36,82,93,81,12
44,17,36,82,93,81,94
44,18,82,82,93,81,94
44,19,82,54,93,81,94
45,0,81,54,41,81,0
45,1,82,81,41,81,18
45,2,82,56,49,65,81
45,3,82,56,49,65,81
45,4,82,56,49,59,94
45,5,83,56,49,65,42
45,6,83,56,49,65,42
45,7,36,56,49,65,81
45,8,36,56,49,36,81
45,9,36,56,41,65,81
45,10,36,56,41,59,81
45,11,83,56,49,36,12
45,12,83,85,41,65,12
45,13,9,56,41,65,29
45,14,9,85,49,36,39
45,15,9,85,41,65,39
45,16,9,85,41,59,39
45,17,9,85,41,65,39
45,18,9,85,41,36,39
45,19,9,85,41,59,94
46,0,81,90,13,62,90
46,1,81,8,42,90,26
46,2,81,8,59,40,86
46,3,81,8,59,40,45
46,4,81,8,59,40,90
46,5,81,8,59,40,45
46,6,81,8,59,40,90
46,7,81,8,59,40,90
46,8,81,8,59,40,86
46,9,81,8,59,40,86
46,10,81,8,59,40,86
46,11,81,8,59,40,45
46,12,55,8,59,40,86
46,13,55,8,59,40,90
46,14,55,8,59,40,90
46,15,55,8,59,40,90
46,16,55,8,59,40,26
46,17,55,8,59,90,26
46,18,55,8,59,90,45
46,19,55,8,59,90,45
47,0,81,7,13,82,74
47,1,61,12,65,82,74
47,2,22,12,65,82,22
47,3,22,12,59,82,22
47,4,22,12,59,82,77
47,5,48,12,59,82,85
47,6,22,12,59,82,85
47,7,22,12,59,82,77
47,8,22,12,59,82,58
47,9,22,12,59,82,58
47,10,22,12,59,82,58
47,11,22,12,59,82,58
47,12,22,12,59,82,22
47,13,22,12,59,82,22
47,14,22,12,59,82,22
47,15,21,12,59,82,85
47,16,99,12,65,82,85
47,17,99,12,65,82,85
47,18,50,12,65,82,85
47,19,50,12,65,82,85
48,0,75,82,49,81,0
48,1,75,82,80,81,0
48,2,35,82,80,81,29
48,3,35,82,80,81,29
48,4,35,82,80,81,29
48,5,35,82,80,81,29
48,6,35,82,80,81,29
48,7,35,82,80,81,29
48,8,35,82,80,81,29
48,9,35,82,80,81,29
48,10,35,82,80,81,29
48,11,35,82,80,81,29
48,12,23,54,80,81,12
48,13,11,82,80,81,94
48,14,16,82,80,81,94
48,15,75,82,80,81,94
48,16,11,82,80,81,94
48,17,19,82,80,81,42
48,18,47,82,80,81,81
48,19,47,82,80,81,81
49,0,81,96,41,79,62
49,1,40,79,41,79,40
49,2,40,79,49,10,40
49,3,3,96,49,79,40
49,4,42,96,41,9,40
49,5,42,96,49,10,40
49,6,42,96,49,10,40
49,7,42,96,49,79,40
49,8,42,79,49,9,40
49,9,42,79,49,79,40
49,10,42,79,49,9,40
49,11,93,79,49,79,40
49,12,93,79,41,79,40
49,13,93,79,41,10,40
49,14,93,96,49,9,40
49,15,95,96,41,79,40
49,16,95,96,41,9,40
49,17,95,96,49,10,40
49,18,95,96,49,10,40
49,19,95,96,49,9,71
50,0,55,82,67,90,67
50,1,55,64,55,90,67
50,2,55,64,55,90,96
50,3,55,64,55,90,96
50,4,55,64,55,90,96
50,5,55,64,55,90,96
50,6,55,64,55,90,96
50,7,55,64,55,90,96
50,8,81,64,55,90,96
50,9,81,64,55,90,96
50,10,81,64,55,90,96
50,11,81,64,55,90,96
50,12,81,64,55,90,96
50,13,81,64,55,90,96
50,14,81,64,55,90,96
50,15,81,64,55,90,96
50,16,81,64,55,90,96
50,17,81,64,55,90,96
50,18,81,64,55,90,96
50,19,81,64,55,90,96
51,0,55,54,93,81,7
51,1,36,54,93,81,7
51,2,9,82,72,81,42
51,3,65,82,72,81,29
51,4,65,82,72,81,29
51,5,65,82,93,81,29
51,6,65,82,93,81,29
51,7,83,54,93,81,12
51,8,83,54,51,81,29
51,9,59,82,93,81,39
51,10,59,54,72,81,94
51,11,44,54,72,81,94
51,12,79,54,72,81,94
51,13,79,54,72,81,94
51,14,79,54,72,81,94
51,15,79,54,72,81,94
51,16,79,54,93,81,94
51,17,44,82,93,81,94
51,18,54,82,93,81,94
51,19,54,54,93,81,39
52,0,55,57,13,93,86
52,1,55,34,17,93,90
52,2,81,57,26,24,86
52,3,81,14,26,24,26
52,4,81,14,26,24,86
52,5,81,34,26,24,45
52,6,81,57,17,24,26
52,7,81,57,17,24,26
52,8,81,14,17,24,45
52,9,55,34,26,24,90
52,10,55,34,26,24,26
52,11,55,34,26,24,90
52,12,55,34,26,24,26
52,13,55,34,26,24,45
52,14,55,34,26,24,26
52,15,81,57,17,24,45
52,16,81,57,17,24,26
52,17,81,57,17,24,26
52,18,81,57,17,24,45
52,19,81,91,26,24,26
53,0,41,82,49,93,67
53,1,49,41,49,78,49
53,2,49,41,49,49,49
53,3,41,41,41,49,52
53,4,78,41,41,49,52
53,5,80,41,41,49,52
53,6,41,41,41,49,52
53,7,49,41,41,49,52
53,8,78,41,49,49,13
53,9,49,41,41,49,52
53,10,78,41,41,49,52
53,11,80,41,41,49,52
53,12,41,41,41,49,52
53,13,49,41,41,49,49
53,14,49,41,41,49,49
53,15,78,41,41,49,13
53,16,80,41,41,49,13
53,17,78,41,41,49,13
53,18,80,41,41,49,13
53,19,41,41,41,49,13
54,0,30,82,13,90,95
54,1,70,26,13,90,95
54,2,70,26,13,90,95
54,3,24,26,13,90,95
54,4,30,17,13,90,95
54,5,70,17,13,90,95
54,6,38,26,13,90,95
54,7,30,26,13,90,95
54,8,70,17,13,90,95
54,9,24,15,13,90,95
54,10,30,15,13,90,89
54,11,38,15,13,90,89
54,12,30,15,13,90,89
54,13,24,15,13,90,89
54,14,30,17,13,90,89
54,15,70,17,13,90,89
54,16,24,17,13,90,71
54,17,38,17,13,90,71
54,18,24,17,13,90,71
54,19,24,15,13,90,95
55,0,55,54,77,81,20
55,1,65,54,93,81,20
55,2,54,54,51,81,12
55,3,54,54,93,81,81
55,4,36,54,51,81,39
55,5,79,54,72,81,39
55,6,79,54,93,81,39
55,7,79,54,72,81,39
55,8,79,54,72,81,39
55,9,79,54,93,81,39
55,10,79,54,51,81,42
55,11,79,54,72,81,42
55,12,79,54,93,81,81
55,13,9,54,72,81,81
55,14,9,54,72,81,81
55,15,9,82,93,81,81
55,16,9,82,72,81,12
55,17,9,82,51,81,12
55,18,9,82,51,81,12
55,19,9,82,93,81,12
56,0,81,57,41,67,0
56,1,81,57,87,67,0
56,2,81,34,87,67,4
56,3,81,34,87,67,27
56,4,55,91,87,67,27
56,5,55,91,87,67,27
56,6,55,57,87,67,27
56,7,55,91,87,67,27
56,8,55,91,87,67,37
56,9,55,91,87,67,78
56,10,81,14,87,67,78
56,11,81,14,87,67,97
56,12,81,34,87,67,27
56,13,81,57,87,67,27
56,14,81,57,87,67,83
56,15,81,57,87,67,4
56,16,81,57,87,67,32
56,17,55,34,87,67,32
56,18,55,34,87,67,32
56,19,55,91,87,67,75
57,0,55,57,41,95,28
57,1,55,91,68,95,13
57,2,81,57,68,87,49
57,3,81,57,68,87,49
57,4,81,91,68,87,49
57,5,81,57,68,87,49
57,6,81,34,68,87,49
57,7,81,57,68,87,49
57,8,81,34,68,87,52
57,9,81,14,68,87,13
57,10,81,57,68,87,13
57,11,81,57,68,87,13
57,12,81,57,68,87,13
57,13,81,91,68,87,49
57,14,81,14,68,87,49
57,15,81,34,68,87,49
57,16,55,14,68,87,13
57,17,55,57,68,87,13
57,18,55,57,68,87,13
57,19,55,34,68,87,52
58,0,81,54,49,81,15
58,1,81,54,81,81,49
58,2,81,81,81,81,49
58,3,81,81,81,81,12
58,4,81,81,81,81,12
58,5,81,81,81,81,12
58,6,81,81,81,81,12
58,7,81,81,81,81,94
58,8,81,81,81,81,94
58,9,81,81,81,81,29
58,10,81,81,81,81,29
58,11,81,81,81,81,29
58,12,55,81,81,81,94
58,13,55,81,81,81,94
58,14,81,81,81,81,39
58,15,81,81,81,81,39
58,16,81,81,81,81,94
58,17,81,81,81,81,94
58,18,81,81,81,81,94
58,19,81,81,81,81,12
59,0,81,34,93,93,91
59,1,81,57,87,67,91
59,2,81,14,87,67,97
59,3,81,14,87,67,97
59,4,81,91,87,67,97
59,5,55,91,87,67,97
59,6,55,14,87,67,70
59,7,55,91,87,67,70
59,8,55,34,87,67,70
59,9,55,57,87,67,27
59,10,81,34,87,67,27
59,11,81,57,87,67,27
59,12,81,14,87,67,27
59,13,81,57,87,67,27
59,14,81,34,87,67,97
59,15,55,14,87,67,37
59,16,81,57,87,67,37
59,17,81,34,87,67,37
59,18,81,57,87,67,78
59,19,55,57,87,67,78
60,0,55,54,13,13,87
60,1,13,54,13,13,49
60,2,13,33,13,13,49
60,3,13,33,13,13,49
60,4,41,92,13,13,52
60,5,41,92,13,13,52
60,6,41,92,13,13,13
60,7,41,92,13,13,13
60,8,41,92,13,13,13
60,9,41,92,13,13,13
60,10,13,92,13,13,13
60,11,13,33,13,13,52
60,12,13,33,13,13,52
60,13,78,33,13,13,52
60,14,13,33,13,13,52
60,15,13,92,13,13,49
60,16,13,92,13,13,49
60,17,13,92,13,13,49
60,18,13,92,13,13,49
60,19,13,13,13,13,49
61,0,87,54,22,95,74
61,1,26,54,22,87,74
61,2,46,58,0,87,74
61,3,26,58,0,87,74
61,4,46,58,0,74,74
61,5,46,58,0,74,8
61,6,88,58,17,74,14
61,7,87,58,17,14,14
61,8,25,58,17,14,14
61,9,17,58,26,14,17
61,10,17,58,26,14,17
61,11,45,58,17,14,72
61,12,72,58,17,14,72
61,13,45,58,17,14,72
61,14,72,58,17,14,72
61,15,17,58,17,57,72
61,16,72,58,17,14,72
61,17,25,58,17,57,17
61,18,17,58,17,14,17
61,19,25,58,26,14,25
62,0,47,54,67,62,20
62,1,31,54,67,67,20
62,2,35,43,67,67,99
62,3,39,43,67,67,74
62,4,47,67,67,67,74
62,5,8,67,67,67,8
62,6,31,67,67,67,7
62,7,1,67,67,67,7
62,8,39,43,67,67,7
62,9,16,43,67,67,7
62,10,73,43,67,67,7
62,11,73,43,67,67,14
62,12,35,43,67,67,74
62,13,23,43,67,67,74
62,14,35,43,67,67,74
62,15,29,43,67,67,74
62,16,39,67,67,67,74
62,17,47,43,67,67,74
62,18,35,43,67,67,74
62,19,19,19,67,67,74
63,0,38,83,41,93,68
63,1,27,83,30,93,68
63,2,38,5,30,93,68
63,3,70,5,30,93,68
63,4,27,46,30,93,68
63,5,30,30,30,93,68
63,6,70,30,30,93,68
63,7,38,30,30,93,68
63,8,38,95,30,93,68
63,9,38,95,30,93,68
63,10,30,74,30,46,68
63,11,30,24,30,46,24
63,12,70,62,30,46,24
63,13,38,62,30,46,24
63,14,27,6,30,46,24
63,15,27,6,30,30,69
63,16,30,24,30,30,76
63,17,38,24,30,30,76
63,18,38,95,30,30,76
63,19,70,5,30,30,76
64,0,70,82,13,90,89
64,1,70,26,13,90,89
64,2,70,17,13,90,89
64,3,27,17,13,90,89
64,4,27,15,13,90,89
64,5,27,15,13,90,89
64,6,27,15,13,90,89
64,7,27,26,13,90,89
64,8,27,17,13,90,89
64,9,27,17,13,90,89
64,10,27,15,13,90,89
64,11,38,15,13,90,89
64,12,38,15,13,90,89
64,13,38,15,13,90,89
64,14,38,17,13,90,89
64,15,38,17,13,90,89
64,16,30,15,13,90,89
64,17,30,17,13,90,89
64,18,30,15,13,90,89
64,19,30,15,13,90,89
65,0,55,82,67,62,92
65,1,55,85,67,62,90
65,2,55,56,67,24,90
65,3,81,56,67,24,90
65,4,81,56,67,24,90
65,5,81,56,67,24,90
65,6,81,56,67,24,26
65,7,81,56,67,24,26
65,8,81,56,67,24,26
65,9,81,56,67,24,26
65,10,55,56,67,24,26
65,11,55,56,67,24,26
65,12,55,56,67,24,26
65,13,55,56,67,24,26
65,14,81,56,67,24,26
65,15,81,56,67,24,90
65,16,81,56,67,24,90
65,17,81,56,67,24,86
65,18,81,56,67,24,86
65,19,55,56,67,24,26
66,0,73,54,62,93,71
66,1,73,47,95,93,71
66,2,73,47,62,93,71
66,3,73,47,62,93,71
66,4,73,47,39,93,71
66,5,73,47,95,93,71
66,6,73,73,39,93,71
66,7,67,73,62,93,71
66,8,43,73,95,93,0
66,9,73,73,39,95,0
66,10,73,73,62,93,73
66,11,73,73,95,93,73
66,12,73,73,95,93,73
66,13,73,73,62,93,73
66,14,73,73,95,93,73
66,15,73,35,95,93,73
66,16,23,73,39,93,73
66,17,23,73,39,93,73
66,18,23,73,95,93,73
66,19,23,73,95,93,73
67,0,11,82,95,62,24
67,1,11,73,95,62,24
67,2,11,47,95,62,24
67,3,29,73,95,62,71
67,4,19,35,39,93,71
67,5,19,35,39,93,71
67,6,19,35,39,93,71
67,7,19,73,39,93,71
67,8,73,73,39,93,23
67,9,73,47,62,93,23
67,10,73,47,62,95,23
67,11,11,47,95,95,31
67,12,11,47,62,95,31
67,13,11,35,39,95,31
67,14,11,35,39,95,31
67,15,23,35,62,95,93
67,16,35,73,39,93,95
67,17,35,35,62,93,95
67,18,35,35,39,93,95
67,19,35,35,39,93,95
68,0,55,91,13,80,8
68,1,14,34,7,80,8
68,2,14,14,7,96,8
68,3,91,34,7,96,14
68,4,84,14,7,96,14
68,5,91,57,7,96,74
68,6,91,14,7,96,74
68,7,57,14,7,96,67
68,8,57,8,7,96,67
68,9,57,57,7,96,67
68,10,91,91,7,96,67
68,11,91,91,7,96,67
68,12,96,34,7,96,67
68,13,91,57,7,96,19
68,14,84,14,7,96,19
68,15,84,57,7,96,19
68,16,34,34,99,96,19
68,17,14,34,99,96,19
68,18,14,8,99,96,19
68,19,91,8,99,96,19
69,0,47,54,67,95,8
69,1,47,54,67,67,8
69,2,1,43,67,67,8
69,3,43,43,67,67,8
69,4,31,43,67,67,8
69,5,39,43,67,67,8
69,6,23,43,67,67,8
69,7,29,67,67,67,8
69,8,19,43,67,67,8
69,9,73,43,67,67,14
69,10,67,43,67,67,14
69,11,16,43,67,67,8
69,12,1,43,67,67,67
69,13,16,43,67,67,74
69,14,19,43,67,67,19
69,15,35,43,67,67,67
69,16,11,19,67,67,67
69,17,31,19,67,67,67
69,18,1,19,67,67,14
69,19,75,19,67,67,19
70,0,81,82,41,81,42
70,1,59,81,41,81,44
70,2,10,83,41,81,29
70,3,10,83,16,81,29
70,4,36,83,16,81,29
70,5,36,83,16,81,29
70,6,36,83,16,81,29
70,7,36,83,16,81,39
70,8,79,83,16,81,29
70,9,79,83,16,81,29
70,10,10,83,16,81,94
70,11,44,83,16,81,39
70,12,44,83,16,81,39
70,13,44,83,16,81,81
70,14,9,83,16,81,29
70,15,9,83,16,81,29
70,16,9,83,16,81,12
70,17,9,83,16,81,12
70,18,9,83,16,81,12
70,19,9,83,16,81,12
71,0,81,14,49,62,28
71,1,35,14,49,67,14
71,2,35,34,8,67,14
71,3,35,14,8,67,14
71,4,43,91,8,67,67
71,5,1,14,8,67,8
71,6,1,57,8,67,74
71,7,1,91,8,67,67
71,8,73,91,8,67,74
71,9,73,14,8,67,74
71,10,73,34,8,67,74
71,11,73,57,29,67,74
71,12,43,57,8,67,67
71,13,43,14,8,67,19
71,14,43,91,74,67,8
71,15,73,14,74,67,57
71,16,73,91,29,67,67
71,17,1,14,74,67,91
71,18,29,14,74,67,57
71,19,29,57,6,67,57
72,0,81,81,49,81,95
72,1,81,81,81,81,39
72,2,81,81,81,81,39
72,3,81,81,81,81,39
72,4,81,81,81,81,29
72,5,81,81,81,81,29
72,6,81,81,81,81,29
72,7,81,81,81,81,29
72,8,81,81,81,81,29
72,9,81,81,81,81,12
72,10,81,81,81,81,39
72,11,81,81,81,81,81
72,12,55,81,81,81,42
72,13,55,81,81,81,12
72,14,55,81,81,81,12
72,15,55,81,81,81,12
72,16,55,81,81,81,12
72,17,55,81,81,81,12
72,18,55,81,81,81,12
72,19,55,81,81,81,12
73,0,38,82,17,62,95
73,1,30,87,42,62,95
73,2,27,87,42,24,71
73,3,27,87,21,24,40
73,4,70,87,36,24,71
73,5,27,87,36,24,71
73,6,27,87,36,24,24
73,7,30,87,59,24,24
73,8,38,87,59,3,24
73,9,24,87,59,3,24
73,10,24,87,59,3,24
73,11,30,87,59,3,24
73,12,30,87,59,40,24
73,13,27,87,59,3,24
73,14,30,87,65,3,24
73,15,24,87,65,3,95
73,16,24,87,59,40,35
73,17,70,87,65,40,35
73,18,70,87,65,40,35
73,19,70,87,65,40,0
74,0,55,82,71,41,35
74,1,59,82,54,41,35
74,2,83,65,9,99,54
74,3,83,59,10,25,16
74,4,9,59,9,25,16
74,5,9,10,54,99,16
74,6,9,10,54,99,16
74,7,9,10,54,99,16
74,8,9,10,54,7,16
74,9,9,59,54,99,16
74,10,9,59,9,99,16
74,11,79,59,9,7,43
74,12,65,59,54,7,16
74,13,65,59,10,7,16
74,14,65,59,54,7,16
74,15,65,10,10,7,43
74,16,65,10,9,99,16
74,17,65,10,10,99,16
74,18,9,10,9,99,16
74,19,83,10,9,25,16
75,0,55,82,77,81,24
75,1,79,82,93,81,24
75,2,79,82,51,81,94
75,3,79,82,93,81,81
75,4,79,82,93,81,81
75,5,79,82,51,81,81
75,6,79,82,93,81,94
75,7,79,82,93,81,12
75,8,79,82,93,81,81
75,9,79,82,72,81,29
75,10,79,82,72,81,12
75,11,79,82,51,81,12
75,12,79,82,51,81,29
75,13,79,82,51,81,29
75,14,36,82,72,81,12
75,15,36,82,51,81,39
75,16,36,82,72,81,39
75,17,36,82,93,81,39
75,18,36,82,72,81,39
75,19,36,82,93,81,39
76,0,30,54,26,95,40
76,1,27,87,42,95,40
76,2,30,87,42,24,20
76,3,38,87,42,24,20
76,4,24,87,65,24,20
76,5,27,87,65,40,20
76,6,70,87,65,40,20
76,7,70,87,59,40,20
76,8,27,87,65,40,20
76,9,27,87,59,3,20
76,10,27,87,59,3,20
76,11,30,87,59,3,20
76,12,30,87,65,3,95
76,13,70,87,65,40,95
76,14,24,87,65,40,95
76,15,27,87,65,3,35
76,16,70,87,65,3,35
76,17,38,87,65,40,35
76,18,70,87,65,40,24
76,19,27,87,65,3,24
77,0,5,82,41,61,7
77,1,76,82,76,54,7
77,2,76,82,76,54,65
77,3,76,82,76,54,65
77,4,5,82,76,54,65
77,5,58,82,76,54,65
77,6,58,82,76,54,65
77,7,58,82,76,54,65
77,8,58,82,76,54,65
77,9,58,82,76,54,65
77,10,5,82,76,54,65
77,11,5,82,76,54,65
77,12,5,82,76,54,65
77,13,58,54,76,54,65
77,14,5,82,76,54,65
77,15,5,82,76,54,65
77,16,5,82,76,54,65
77,17,5,54,76,54,65
77,18,58,82,76,54,98
77,19,58,82,76,54,64
78,0,55,57,0,93,91
78,1,55,8,0,87,50
78,2,55,8,0,87,36
78,3,81,8,22,87,36
78,4,81,8,0,87,36
78,5,55,8,22,87,30
78,6,55,8,0,87,30
78,7,55,8,0,87,30
78,8,55,8,22,87,69
78,9,55,8,0,87,69
78,10,55,8,0,87,69
78,11,55,8,22,87,69
78,12,81,8,22,87,36
78,13,81,8,0,87,30
78,14,55,8,0,87,30
78,15,55,8,0,87,30
78,16,55,8,0,87,30
78,17,55,8,0,87,30
78,18,55,8,22,87,30
78,19,55,8,0,87,30
79,0,92,54,41,6,2
79,1,4,54,88,6,2
79,2,51,43,88,6,71
79,3,33,67,88,6,71
79,4,33,19,88,6,40
79,5,4,19,88,6,40
79,6,33,19,88,6,23
79,7,63,19,88,6,0
79,8,63,19,88,6,0
79,9,33,19,88,6,0
79,10,6,19,88,6,0
79,11,4,19,88,6,2
79,12,33,19,88,6,2
79,13,6,19,88,6,2
79,14,92,19,88,6,2
79,15,92,19,88,6,2
79,16,92,19,88,6,2
79,17,6,19,88,6,35
79,18,51,67,88,6,35
79,19,6,67,88,6,71
80,0,55,82,28,93,89
80,1,55,85,67,93,77
80,2,55,85,67,93,86
80,3,55,85,67,24,86
80,4,55,85,67,24,86
80,5,81,85,67,24,86
80,6,81,85,67,24,26
80,7,55,85,67,24,45
80,8,55,85,67,24,45
80,9,81,56,67,24,86
80,10,81,56,67,24,86
80,11,81,56,67,24,86
80,12,81,85,67,24,26
80,13,81,85,67,24,26
80,14,81,85,67,24,26
80,15,81,85,67,24,26
80,16,81,85,67,24,45
80,17,81,85,67,24,26
80,18,81,85,67,24,86
80,19,81,85,67,24,86
81,0,45,72,49,95,8
81,1,25,25,49,25,72
81,2,45,25,25,25,25
81,3,17,72,25,25,72
81,4,72,25,25,25,72
81,5,72,72,25,25,72
81,6,45,72,25,25,72
81,7,45,72,25,25,72
81,8,45,25,25,25,25
81,9,25,25,25,25,25
81,10,25,72,25,25,17
81,11,25,25,25,25,72
81,12,25,72,25,25,25
81,13,25,72,25,25,25
81,14,45,72,25,25,17
81,15,45,72,25,99,72
81,16,17,25,25,99,17
81,17,17,25,25,99,17
81,18,17,25,25,99,17
81,19,72,25,25,99,25
82,0,55,79,41,9,0
82,1,62,79,41,79,24
82,2,62,79,49,9,24
82,3,3,96,49,10,73
82,4,3,79,41,10,68
82,5,3,79,41,10,68
82,6,93,96,49,79,68
82,7,93,96,41,10,68
82,8,93,96,41,79,6
82,9,89,96,49,9,23
82,10,3,79,49,10,6
82,11,3,79,49,79,6
82,12,3,79,49,79,6
82,13,3,79,49,10,6
82,14,62,96,41,9,95
82,15,62,96,49,9,95
82,16,62,96,49,9,95
82,17,62,79,49,10,6
82,18,62,79,49,10,6
82,19,40,79,49,10,6
83,0,87,54,49,95,86
83,1,87,54,42,95,90
83,2,46,87,42,95,26
83,3,46,87,42,95,26
83,4,74,87,42,40,26
83,5,74,87,65,40,90
83,6,74,87,59,40,90
83,7,74,87,59,40,45
83,8,74,87,65,40,45
83,9,46,87,59,40,26
83,10,87,87,59,90,45
83,11,87,87,59,90,90
83,12,87,87,59,90,90
83,13,88,87,65,90,86
83,14,88,87,65,3,45
83,15,26,87,59,3,26
83,16,26,87,59,3,45
83,17,26,87,59,3,45
83,18,26,87,59,3,86
83,19,26,87,59,3,90
84,0,41,82,49,93,58
84,1,78,82,80,41,64
84,2,80,82,80,41,64
84,3,80,82,80,41,64
84,4,49,82,80,41,64
84,5,13,82,80,41,65
84,6,41,82,80,41,65
84,7,49,54,80,41,60
84,8,49,54,80,41,55
84,9,13,54,80,41,64
84,10,78,54,80,41,64
84,11,41,82,80,41,98
84,12,49,82,80,41,59
84,13,41,54,80,41,28
84,14,13,54,80,41,60
84,15,41,54,80,41,28
84,16,80,54,80,41,48
84,17,13,54,80,41,60
84,18,78,54,80,41,59
84,19,49,54,80,41,59
85,0,54,82,13,82,73
85,1,82,82,82,82,82
85,2,10,82,82,82,21
85,3,59,82,82,82,15
85,4,82,82,82,82,15
85,5,9,82,82,82,82
85,6,9,82,82,82,82
85,7,44,54,82,82,82
85,8,54,54,82,82,82
85,9,79,54,82,82,82
85,10,54,54,82,82,15
85,11,59,54,82,82,15
85,12,82,54,82,82,21
85,13,54,54,82,82,21
85,14,82,82,82,82,21
85,15,59,82,82,82,21
85,16,44,82,82,82,21
85,17,54,82,82,82,21
85,18,59,82,82,82,21
85,19,54,82,82,82,63
86,0,81,14,41,95,90
86,1,81,34,17,95,86
86,2,81,57,17,24,26
86,3,81,57,17,24,86
86,4,81,57,17,24,26
86,5,81,14,17,24,90
86,6,81,14,17,24,86
86,7,81,14,17,24,45
86,8,81,14,17,24,90
86,9,55,34,17,24,90
86,10,55,34,17,24,86
86,11,55,34,17,24,45
86,12,55,34,17,24,90
86,13,81,14,26,24,45
86,14,81,14,26,24,86
86,15,81,14,26,24,45
86,16,81,14,26,24,26
86,17,55,57,26,24,86
86,18,55,91,26,24,86
86,19,55,91,26,24,26
87,0,55,29,13,80,73
87,1,55,29,48,31,6
87,2,55,29,48,31,13
87,3,55,29,48,31,13
87,4,55,75,48,31,13
87,5,55,75,48,31,13
87,6,55,75,48,31,13
87,7,81,29,48,31,13
87,8,81,75,48,31,13
87,9,81,75,48,31,13
87,10,81,75,48,31,13
87,11,81,75,48,31,52
87,12,81,29,48,31,49
87,13,81,75,48,31,49
87,14,81,29,48,31,49
87,15,55,75,48,31,49
87,16,55,75,48,31,49
87,17,55,75,48,31,49
87,18,55,29,48,31,52
87,19,55,75,48,31,52
88,0,81,82,13,82,85
88,1,81,7,59,82,30
88,2,55,8,59,82,46
88,3,55,8,59,82,36
88,4,55,8,65,82,75
88,5,55,8,59,90,45
88,6,55,8,59,3,86
88,7,55,8,59,40,90
88,8,55,8,59,40,86
88,9,81,8,59,40,45
88,10,55,8,59,40,90
88,11,81,8,59,90,90
88,12,55,8,59,90,26
88,13,55,8,59,90,90
88,14,55,8,59,90,86
88,15,55,8,59,90,26
88,16,81,8,59,40,90
88,17,55,8,59,3,45
88,18,55,8,59,90,90
88,19,55,8,59,40,86
89,0,81,84,84,95,68
89,1,81,81,84,19,68
89,2,81,81,19,19,4
89,3,81,81,19,19,4
89,4,81,81,19,19,4
89,5,81,81,19,19,4
89,6,81,81,19,19,4
89,7,81,81,19,19,4
89,8,81,81,19,19,75
89,9,55,81,19,19,75
89,10,55,81,19,19,75
89,11,55,81,19,19,97
89,12,55,81,19,19,97
89,13,55,81,19,19,97
89,14,55,81,19,19,75
89,15,55,81,19,19,75
89,16,55,81,19,19,75
89,17,55,81,19,19,75
89,18,81,81,19,19,70
89,19,55,81,19,19,70
90,0,35,29,13,95,6
90,1,35,29,37,95,6
90,2,67,75,4,37,6
90,3,75,29,4,37,97
90,4,8,29,4,37,97
90,5,16,29,4,37,75
90,6,16,29,4,37,75
90,7,31,75,4,37,75
90,8,29,75,4,37,37
90,9,11,75,37,37,37
90,10,11,75,37,37,37
90,11,11,75,60,37,37
90,12,11,29,60,37,37
90,13,35,29,60,37,97
90,14,35,75,60,37,97
90,15,35,75,4,37,97
90,16,35,29,37,37,97
90,17,35,75,37,37,97
90,18,29,29,37,37,97
90,19,29,29,37,37,97
91,0,55,54,67,62,49
91,1,75,54,67,67,19
91,2,75,43,67,67,74
91,3,75,43,67,67,8
91,4,75,43,67,67,99
91,5,8,43,67,67,8
91,6,8,43,67,67,91
91,7,1,43,67,67,91
91,8,67,43,67,67,7
91,9,75,67,67,67,57
91,10,31,43,67,67,7
91,11,35,19,67,67,99
91,12,75,19,67,67,91
91,13,75,19,67,67,19
91,14,75,19,67,67,8
91,15,75,19,67,67,19
91,16,75,43,67,67,74
91,17,1,43,67,67,7
91,18,1,19,67,67,57
91,19,67,19,67,67,19
92,0,81,82,67,95,92
92,1,81,85,67,95,92
92,2,81,85,67,24,86
92,3,81,85,67,24,86
92,4,81,56,67,24,86
92,5,81,56,67,24,86
92,6,81,56,67,24,86
92,7,81,56,67,24,26
92,8,81,56,67,24,26
92,9,55,56,67,24,90
92,10,55,56,67,24,90
92,11,55,56,67,24,90
92,12,55,56,67,24,90
92,13,55,56,67,24,26
92,14,55,85,67,24,26
92,15,55,56,67,24,86
92,16,81,56,67,24,45
92,17,81,85,67,24,90
92,18,81,85,67,24,90
92,19,55,85,67,24,45
93,0,10,82,49,95,11
93,1,44,82,22,16,43
93,2,54,82,93,16,16
93,3,54,82,93,16,11
93,4,10,54,93,16,43
93,5,44,54,93,16,43
93,6,83,54,93,16,11
93,7,65,54,51,16,11
93,8,65,54,93,16,16
93,9,65,54,72,16,11
93,10,79,54,72,16,16
93,11,65,54,72,16,11
93,12,79,54,51,16,11
93,13,79,54,51,16,11
93,14,65,54,51,16,43
93,15,65,54,72,16,16
93,16,79,54,72,16,43
93,17,79,54,72,16,16
93,18,59,54,51,16,16
93,19,59,54,51,16,16
94,0,55,34,41,62,48
94,1,16,57,41,67,57
94,2,39,57,29,67,14
94,3,39,34,29,67,99
94,4,39,91,29,67,99
94,5,43,34,29,67,67
94,6,43,34,29,67,67
94,7,43,57,29,67,67
94,8,43,14,6,67,67
94,9,43,34,6,67,67
94,10,43,34,6,67,8
94,11,43,34,6,67,8
94,12,43,34,6,67,8
94,13,43,91,6,67,14
94,14,43,57,6,67,14
94,15,43,34,6,67,14
94,16,43,57,6,67,14
94,17,43,91,74,67,19
94,18,43,57,29,67,19
94,19,8,91,29,67,7
95,0,55,91,26,93,71
95,1,55,34,87,67,71
95,2,55,34,87,67,83
95,3,55,14,87,67,75
95,4,55,14,87,67,78
95,5,55,57,87,67,78
95,6,55,57,87,67,78
95,7,55,57,87,67,32
95,8,55,57,87,67,32
95,9,55,57,87,67,32
95,10,55,57,87,67,32
95,11,55,57,87,67,70
95,12,55,57,87,67,70
95,13,55,14,87,67,75
95,14,81,14,87,67,37
95,15,81,14,87,67,37
95,16,55,34,87,67,37
95,17,55,57,87,67,37
95,18,55,57,87,67,37
95,19,55,57,87,67,4
96,0,55,54,84,62,1
96,1,55,54,84,86,1
96,2,9,54,10,86,96
96,3,9,54,10,54,54
96,4,9,54,10,54,54
96,5,9,54,10,54,54
96,6,9,54,10,54,54
96,7,83,54,10,54,54
96,8,44,54,54,54,54
96,9,44,54,9,54,54
96,10,44,54,9,54,54
96,11,44,54,10,54,54
96,12,44,54,10,54,54
96,13,44,82,9,54,54
96,14,44,82,9,54,54
96,15,44,82,9,54,54
96,16,44,82,9,54,54
96,17,65,54,10,54,54
96,18,65,54,10,54,54
96,19,65,54,9,54,54
97,0,55,82,68,93,24
97,1,55,34,68,93,13
97,2,55,57,68,87,13
97,3,55,57,68,87,13
97,4,55,57,68,87,13
97,5,55,14,68,87,49
97,6,55,14,68,87,49
97,7,55,14,68,87,49
97,8,55,57,68,87,52
97,9,55,57,68,87,52
97,10,55,14,68,87,49
97,11,55,14,68,87,49
97,12,55,14,68,87,49
97,13,55,34,68,87,49
97,14,55,34,68,87,52
97,15,55,34,68,87,52
97,16,55,57,68,87,49
97,17,55,57,68,87,13
97,18,55,57,68,87,49
97,19,55,57,68,87,49
98,0,11,90,41,62,2
98,1,47,35,46,62,2
98,2,23,73,95,62,2
98,3,8,73,95,62,2
98,4,29,73,95,62,20
98,5,8,35,95,95,95
98,6,11,35,95,95,95
98,7,67,35,39,95,95
98,8,29,73,39,95,95
98,9,67,73,39,95,95
98,10,8,73,39,95,40
98,11,39,47,39,62,40
98,12,19,73,39,93,40
98,13,11,73,39,93,3
98,14,23,73,39,93,40
98,15,35,73,39,93,68
98,16,29,35,39,93,68
98,17,73,47,39,93,68
98,18,73,47,39,93,68
98,19,47,47,39,62,68
99,0,81,82,67,62,90
99,1,81,85,67,62,26
99,2,81,85,67,24,26
99,3,81,56,67,24,86
99,4,81,56,67,24,86
99,5,81,56,67,24,90
99,6,81,56,67,24,26
99,7,81,56,67,24,86
99,8,55,56,67,24,90
99,9,55,56,67,24,26
99,10,55,56,67,24,86
99,11,55,56,67,24,86
99,12,81,56,67,24,90
99,13,81,56,67,24,45
99,14,81,56,67,24,90
99,15,81,56,67,24,86
99,16,81,56,67,24,86
99,17,81,56,67,24,45
99,18,81,85,67,24,90
99,19,81,85,67,24,45
