Run,agent-0,agent-1,agent-2,agent-3,agent-4,agent-5,agent-6,agent-7,agent-8,agent-9,agent-10,agent-11,agent-12,agent-13,agent-14,agent-15,agent-16,agent-17,agent-18,agent-19,agent-20,agent-21,agent-22,agent-23,agent-24,agent-25,agent-26,agent-27
1,0,1,2,3,4,5,6,7,8,9,10,11,12,13,14,15,16,17,18,19,20,21,22,23,24,25,26,27,
2,0,17,24,20,11,4,10,12,5,21,9,8,22,2,3,15,23,27,19,18,26,6,16,14,13,7,1,25,
3,17,23,8,19,1,14,4,25,5,2,15,18,3,7,21,26,11,24,16,12,20,10,9,6,27,0,13,22,
4,20,2,7,24,22,25,11,5,23,16,21,6,26,9,1,0,8,19,27,12,15,10,14,17,4,3,18,13,
5,5,26,20,10,4,14,19,27,24,3,17,2,13,15,25,6,18,1,11,7,12,16,22,0,23,9,8,21,
6,8,12,6,17,26,25,24,3,13,27,21,18,2,19,9,4,15,1,10,16,22,20,14,11,23,5,7,0,
7,6,23,2,14,19,27,8,26,7,11,1,25,5,22,24,13,0,16,9,21,3,20,15,12,17,10,4,18,
8,12,7,22,4,8,10,3,27,9,16,6,11,26,25,13,20,23,5,18,15,24,0,1,19,21,14,2,17,
9,19,17,18,7,20,2,8,13,16,4,11,15,21,23,24,12,5,14,1,25,22,10,6,26,0,3,27,9,
10,7,3,19,6,2,13,17,18,1,12,21,24,14,15,9,22,20,16,8,23,4,25,0,26,27,5,11,10,
11,27,11,14,1,13,10,19,7,18,9,2,4,25,20,6,15,5,23,8,3,21,16,26,0,22,24,17,12,
12,7,13,4,0,15,24,1,11,27,12,22,25,3,17,8,19,18,14,6,20,23,2,5,9,10,16,21,26,
13,20,6,13,22,4,16,26,12,15,19,0,3,2,25,11,23,17,21,14,5,24,7,9,18,27,10,8,1,
14,8,2,14,15,7,12,10,26,16,20,1,4,21,13,0,11,22,27,25,9,3,23,17,5,18,19,6,24,
15,3,22,1,10,23,9,13,4,24,17,8,25,27,11,16,5,6,20,15,12,0,21,7,14,19,2,18,26,
16,2,3,19,10,1,24,26,0,8,17,22,4,27,13,5,18,6,14,15,23,12,9,7,11,20,16,25,21,
17,11,21,25,1,9,26,20,18,5,8,6,15,13,14,4,12,27,24,16,22,19,17,7,3,2,10,0,23,
18,0,14,22,13,11,12,21,7,26,1,10,24,5,6,20,15,19,18,16,25,8,3,2,23,27,4,17,9,
19,13,27,1,11,2,6,3,17,19,25,20,21,14,10,5,15,4,0,7,16,23,22,12,24,9,26,18,8,
20,10,3,24,15,22,21,11,27,9,1,14,16,0,13,18,19,5,2,17,20,26,4,8,12,25,7,23,6,
21,9,23,22,3,25,0,1,26,15,19,20,6,5,14,10,17,24,18,27,13,11,8,12,21,16,4,7,2,
22,20,21,23,0,19,11,7,26,4,16,13,10,27,17,25,24,8,18,3,14,6,9,12,15,2,1,5,22,
23,9,27,11,17,23,0,8,6,22,1,4,10,16,20,18,19,26,12,25,21,15,14,13,24,7,5,2,3,
24,7,21,3,24,8,22,6,19,9,11,1,23,12,18,26,20,0,14,5,27,15,16,4,25,13,2,10,17,
25,17,19,26,5,10,27,21,25,24,9,14,22,15,16,18,2,11,6,23,8,4,7,1,3,13,12,0,20,
26,15,6,18,3,9,17,26,0,21,1,23,14,22,4,20,27,8,24,25,11,7,2,10,13,16,12,5,19,
27,11,14,3,23,22,12,9,15,0,21,18,2,26,17,10,1,20,6,13,4,16,5,19,7,25,24,27,8,
28,9,4,13,17,12,19,11,5,2,18,6,24,15,21,1,16,26,23,10,22,27,25,20,7,0,14,8,3,
29,23,2,22,13,15,20,17,7,14,1,9,0,27,19,6,4,18,25,16,8,3,10,26,11,24,12,5,21,
30,11,24,10,27,23,12,15,3,16,20,22,13,14,1,19,26,17,18,6,7,8,0,5,25,2,4,9,21,
31,26,11,5,16,14,6,9,2,3,0,1,10,8,18,13,7,21,4,27,25,24,22,12,17,23,20,15,19,
32,25,5,0,3,7,22,4,6,11,8,1,23,14,13,19,2,10,18,27,21,9,17,12,16,20,15,24,26,
33,14,4,21,3,13,18,24,26,27,2,23,1,22,11,17,19,25,16,0,20,5,9,7,6,10,8,12,15,
34,19,4,15,6,12,17,0,21,18,7,14,3,24,22,13,8,10,5,16,25,27,11,9,23,26,20,2,1,
35,10,24,6,13,0,12,16,18,8,19,21,27,23,20,15,3,25,4,26,1,11,9,14,5,7,22,17,2,
36,15,14,0,27,18,17,20,22,24,16,19,2,6,1,3,26,5,13,9,25,4,12,21,11,10,7,8,23,
37,2,3,24,7,18,25,21,9,16,10,20,13,5,6,8,23,15,12,4,22,17,26,19,27,0,14,1,11,
38,23,19,11,0,15,17,1,21,25,13,9,26,6,7,3,14,27,12,24,22,20,16,18,8,4,5,2,10,
39,18,26,12,17,16,14,6,24,22,11,19,21,13,0,10,23,15,9,2,25,3,5,27,7,20,1,8,4,
40,9,27,14,26,2,6,13,16,5,24,10,20,23,3,17,4,12,0,11,22,25,7,1,18,21,15,8,19,
41,6,15,14,17,11,19,0,27,21,8,9,25,4,26,10,18,16,13,23,7,24,20,12,5,3,22,2,1,
42,20,16,7,6,17,26,1,14,24,13,4,18,5,21,0,15,19,2,8,12,10,3,9,25,22,11,23,27,
43,1,0,18,15,4,25,3,14,21,23,22,20,11,24,19,26,5,7,10,12,2,16,17,8,13,27,6,9,
44,12,2,0,15,10,3,13,17,19,9,22,6,27,11,1,26,23,4,24,20,18,5,16,25,8,14,7,21,
45,4,17,8,6,10,26,2,9,15,14,21,20,3,1,19,11,7,24,23,0,25,13,5,27,12,22,16,18,
46,18,9,17,0,21,16,8,20,7,1,15,25,5,24,6,2,10,4,3,19,23,22,27,12,11,13,14,26,
47,8,4,10,9,11,6,7,13,20,21,0,3,24,5,1,12,14,25,16,17,18,19,15,27,23,2,26,22,
48,22,5,14,18,25,26,13,23,16,8,1,0,17,9,12,15,21,19,27,10,6,24,11,4,3,2,20,7,
49,0,18,12,17,6,22,3,5,4,13,16,19,2,27,11,1,9,20,14,23,8,21,7,24,10,15,26,25,
50,1,24,6,26,9,27,8,12,22,2,13,15,21,3,23,17,10,4,20,5,11,19,7,0,16,18,25,14,
51,26,3,4,1,2,18,16,15,25,11,23,19,9,8,14,0,24,6,7,10,20,22,13,12,21,5,17,27,
52,13,20,9,27,12,6,18,26,14,8,7,24,15,19,11,22,0,21,16,25,17,3,5,23,1,2,4,10,
53,14,17,4,13,8,25,11,15,0,2,12,9,1,16,20,23,10,22,18,3,19,24,7,21,6,26,5,27,
54,27,23,5,14,19,16,7,20,3,13,25,15,6,9,1,0,17,22,4,12,26,11,21,8,24,18,2,10,
55,24,5,0,19,2,4,13,1,21,20,22,7,26,8,11,18,3,25,9,12,23,10,17,15,27,6,16,14,
56,8,1,20,19,6,4,21,2,24,7,14,10,0,5,18,3,23,26,17,16,13,9,22,27,11,15,12,25,
57,0,9,26,27,4,13,10,25,19,17,7,24,15,12,18,6,16,21,14,20,3,2,11,22,23,8,5,1,
58,19,21,13,15,3,24,1,20,14,4,11,16,6,27,22,12,2,23,10,26,9,5,8,17,25,7,0,18,
59,3,9,27,25,22,2,24,20,26,0,1,16,4,15,19,10,12,21,23,11,7,8,5,14,6,18,17,13,
60,0,20,5,21,14,9,24,23,3,18,15,6,4,26,7,16,2,22,8,27,1,19,12,11,25,13,17,10,
61,23,24,27,4,1,16,19,13,17,0,25,20,3,21,6,18,15,7,22,26,8,11,12,5,9,2,14,10,
62,0,11,9,24,2,18,12,25,1,10,6,26,20,17,19,27,13,23,21,8,5,7,15,16,14,4,22,3,
63,4,23,9,21,11,8,6,24,25,10,3,22,15,1,14,5,27,26,18,17,12,13,2,20,16,7,19,0,
64,6,9,27,20,22,21,16,3,18,7,2,13,24,19,25,4,15,17,23,12,0,10,11,5,14,8,26,1,
65,15,21,20,24,3,7,4,1,5,23,19,6,26,10,27,17,8,16,9,25,14,22,2,12,18,11,0,13,
66,14,9,24,20,12,2,15,21,19,11,22,7,6,23,26,17,16,5,8,27,10,25,3,4,13,0,1,18,
67,2,27,26,8,14,7,23,25,21,10,22,4,3,11,13,12,15,9,19,24,5,16,17,18,1,0,20,6,
68,10,13,19,3,17,16,8,25,5,23,1,21,20,2,12,18,11,7,14,26,27,4,6,15,24,22,9,0,
69,9,14,25,24,11,26,22,17,19,27,0,8,3,7,12,21,13,6,5,16,20,10,18,15,4,2,1,23,
70,24,17,3,13,14,16,7,12,26,19,8,23,22,25,27,5,10,9,11,20,6,21,2,1,0,15,4,18,
71,14,17,10,18,26,25,13,9,12,3,7,0,15,27,4,1,20,23,2,16,24,22,21,19,5,11,6,8,
72,15,16,4,14,23,3,26,20,2,7,22,17,21,13,0,11,18,27,12,8,5,6,1,24,25,10,9,19,
73,13,22,26,7,18,9,1,21,14,24,10,5,11,4,12,15,8,25,17,2,0,27,6,23,19,3,16,20,
74,20,18,17,5,0,12,26,11,9,3,4,7,22,1,19,25,6,24,2,14,13,10,16,21,23,8,15,27,
75,12,22,8,13,16,15,3,25,27,5,2,14,10,26,6,19,21,17,20,24,23,11,0,1,18,4,7,9,
76,15,13,6,8,10,1,3,26,7,23,22,20,24,14,27,25,2,9,19,21,5,12,16,18,17,11,4,0,
77,14,23,24,27,15,12,6,16,8,5,22,18,9,3,13,0,26,2,25,11,19,20,10,7,4,17,21,1,
78,4,10,22,25,24,16,27,26,0,3,14,23,17,1,19,13,12,2,9,7,15,21,20,18,5,8,6,11,
79,13,2,10,1,8,12,20,19,11,15,26,7,18,23,6,21,5,14,24,0,16,25,3,9,17,4,22,27,
80,23,19,8,21,10,5,20,17,15,4,11,9,14,2,22,27,3,6,0,13,18,24,26,25,1,7,12,16,
81,26,15,21,14,25,3,17,11,27,6,16,9,1,24,13,7,18,20,19,5,22,23,10,4,12,8,2,0,
82,23,17,13,1,0,11,7,6,8,16,12,10,15,5,4,19,9,27,2,3,26,20,25,22,21,24,18,14,
83,27,18,0,10,25,23,14,8,24,20,12,1,2,11,21,19,26,17,16,5,22,4,9,13,7,6,15,3,
84,17,24,21,1,3,10,13,2,5,18,27,4,7,19,0,22,26,6,23,11,20,8,12,14,9,16,15,25,
85,16,17,12,11,1,24,0,4,21,7,13,14,5,20,18,2,15,22,10,25,23,6,27,19,9,8,3,26,
86,6,22,26,5,9,3,23,0,8,11,25,18,15,7,20,19,14,10,17,21,1,27,13,16,2,24,4,12,
87,22,13,6,1,17,26,3,4,18,0,21,8,20,14,19,9,11,15,7,24,23,25,27,16,12,2,5,10,
88,20,25,3,7,8,16,13,17,12,6,26,5,24,22,27,19,4,23,0,11,14,10,9,21,2,18,15,1,
89,23,18,1,14,13,12,8,20,15,10,3,2,4,6,17,21,7,16,24,11,25,22,19,0,26,5,9,27,
90,24,14,16,2,20,6,9,7,4,17,13,1,25,27,3,12,26,10,15,11,0,8,21,22,18,19,5,23,
91,1,21,22,5,10,7,23,9,0,3,27,14,25,15,19,13,11,16,24,4,17,6,18,2,20,26,8,12,
92,4,18,3,15,19,14,27,2,1,13,26,24,22,7,25,5,23,10,11,8,16,20,6,9,17,12,0,21,
93,27,3,20,1,5,16,26,25,10,22,2,15,0,4,9,18,8,11,23,24,14,13,12,17,6,19,21,7,
94,19,25,23,26,1,24,15,18,4,16,22,27,12,5,7,14,10,11,6,20,2,17,13,3,0,9,8,21,
95,17,3,26,13,6,0,19,23,7,8,2,18,9,24,15,14,10,20,1,27,21,25,22,4,11,16,12,5,
96,14,22,26,25,21,20,23,13,17,0,11,16,2,15,8,7,24,9,3,4,1,10,6,18,19,27,12,5,
97,6,21,24,2,13,9,20,14,12,5,23,1,18,3,10,8,4,27,25,16,15,11,0,7,26,17,22,19,
98,18,9,10,20,7,11,4,21,13,19,17,14,15,22,3,12,27,0,26,1,6,2,5,24,25,16,8,23,
99,10,23,11,1,19,17,0,14,26,25,3,12,4,13,7,15,27,20,21,24,5,9,2,8,6,22,18,16,
100,11,23,13,6,1,5,20,14,24,0,2,3,25,22,27,17,18,9,19,10,26,21,15,4,16,8,7,12,
