Iteration,Mean,Stdev,Run-0,Run-1,Run-2,Run-3,Run-4,Run-5,Run-6,Run-7,Run-8,Run-9,Run-10,Run-11,Run-12,Run-13,Run-14,Run-15,Run-16,Run-17,Run-18,Run-19,Run-20,Run-21,Run-22,Run-23,Run-24,Run-25,Run-26,Run-27,Run-28,Run-29,Run-30,Run-31,Run-32,Run-33,Run-34,Run-35,Run-36,Run-37,Run-38,Run-39,Run-40,Run-41,Run-42,Run-43,Run-44,Run-45,Run-46,Run-47,Run-48,Run-49,Run-50,Run-51,Run-52,Run-53,Run-54,Run-55,Run-56,Run-57,Run-58,Run-59,Run-60,Run-61,Run-62,Run-63,Run-64,Run-65,Run-66,Run-67,Run-68,Run-69,Run-70,Run-71,Run-72,Run-73,Run-74,Run-75,Run-76,Run-77,Run-78,Run-79,Run-80,Run-81,Run-82,Run-83,Run-84,Run-85,Run-86,Run-87,Run-88,Run-89,Run-90,Run-91,Run-92,Run-93,Run-94,Run-95,Run-96,Run-97,Run-98,Run-99
0,1.402192318136716,0.06829991931443656,1.619547197435795,1.3260000191367565,1.4616980706066829,1.4119348371184313,1.4231831008356541,1.5106294381962497,1.333564153612622,1.4654345347263071,1.3316867782837267,1.4507484604092291,1.4331542569125348,1.413907475413615,1.436374305909723,1.4744933033733523,1.383491358722595,1.4230809712631254,1.4190176269570212,1.4473086112044302,1.3862424772029307,1.3294892712012811,1.4208600933266757,1.4007305287449816,1.4525160984693926,1.4336731710289823,1.4426172831686253,1.3887103609482947,1.4126045419517763,1.365115089890011,1.376019166765818,1.332842707516311,1.3665329103996642,1.319727699585536,1.390814300983965,1.409253593567118,1.4269627479029556,1.3743187747613823,1.3991984250587945,1.436095267731963,1.3888696520674684,1.4991761585183052,1.3341570503705813,1.403078485454826,1.2761340746696437,1.3229338205313692,1.4311685703037422,1.3397238360609278,1.3784022391184227,1.417711851692392,1.4368630501606887,1.3639152088124056,1.36398024246808,1.319555202621561,1.4600359771412141,1.5085247032136573,1.425878624540064,1.3715873736910946,1.2946251080965483,1.4386938052475646,1.4276096826412534,1.2852665052036656,1.3236606673641342,1.3290334122519223,1.4855556602998332,1.3202037713991315,1.4470021392516839,1.3655150768314033,1.5862647209248386,1.5086925950400711,1.3201317239367285,1.3603461396437606,1.4184956117741065,1.3762304032293577,1.3424993688072193,1.3628428817077933,1.4450443565632403,1.5381583046660166,1.338481232535297,1.5410071057712824,1.414838378722354,1.414301219520424,1.3390344412454387,1.4507668767327133,1.400798430763873,1.3586741143468857,1.4738988519080225,1.4267807446559604,1.3591271084934697,1.2557824258378036,1.5051977248281772,1.4521091655562806,1.2980085131995707,1.46873006965531,1.2949511370648397,1.3682609430499826,1.4270204148705847,1.3525533258614781,1.5595372632600666,1.381206825097959,1.3310871610582549,1.359931272994536
1,1.1278801999542802,0.04942561720411541,1.2683218303651453,1.1096597168745839,1.1295815894468368,1.1314618311335325,1.1193322741348894,1.2293087599780745,1.073934654313718,1.175143070411359,1.003541827997387,1.140713505095789,1.1668498588384748,1.1465968920317768,1.1687670711502434,1.148578617628818,1.16311805505703,1.1663551739408748,1.143031786428417,1.1916666576985155,1.0827284419017154,1.045985966465948,1.1168164922326884,1.0428917080908067,1.1685036981466148,1.1619514778861464,1.1476403320702913,1.1616350407895562,1.1008247698428963,1.146708734593535,1.0706387007403537,1.1014847309720464,1.0365270248839977,1.0715755947792172,1.088850571872491,1.1251080527508919,1.117818895346962,1.1438122232122963,1.1553408245690275,1.1642237978157064,1.1352892238084287,1.2139222643042187,1.0815344425644215,1.1096048192467112,1.0537599540200242,1.08333530632519,1.102206353391561,1.0955863712821676,1.1181372188861958,1.1647817806609253,1.1796959284066244,1.1481393571548268,1.1512626461326212,1.11958907781227,1.1793915014981107,1.2203066706524066,1.1330022630638457,1.062151356406294,1.0370640596517449,1.1555960998640502,1.1583339883954284,1.0671623370621084,1.1201387642618652,1.0727238933749572,1.2286304764711855,1.064407811376674,1.1276129177338967,1.1238601831614947,1.2101625297375151,1.1989837300331618,1.1057146189576572,1.1150697026847018,1.1384252372434107,1.0922950898537587,1.064801321168313,1.1241340157288031,1.142600682157747,1.1758967423465063,1.0928585047316,1.1217357142479085,1.1245294339393295,1.1360994373445021,1.084841623513366,1.2189607495666042,1.1248715105843716,1.086901535016506,1.2220718170418607,1.1802610843432924,1.118962717129962,1.0475021220019742,1.1626135093051067,1.1347468764662898,1.0658245688475727,1.1558069369300754,1.081929625425626,1.1371854025861408,1.1348796625334248,1.0810333406902206,1.1933013276402327,1.0780426562405274,1.1057764750635355,1.0949423758675005
2,0.9111717614175102,0.04643145989790511,0.9778068072581496,0.8996385151564376,0.8856741556748898,0.9021451129740927,0.8984117380343667,1.0066338898738383,0.9015857959378156,0.9656297173349109,0.826425664092207,0.8752170728408963,0.9237452519589628,0.9525883196249162,0.9661198805232666,0.9509354549380835,0.90549257976558,0.9282923489579586,0.923545082072943,0.9679864196860887,0.8054732979303159,0.8611135932608573,0.9121354285291814,0.8663696308935166,0.8716932857171791,0.8753330671940314,0.9702492842609916,0.9282911976982707,0.933756261445195,0.9032958359197217,0.877615638916801,0.9048231322491709,0.8600406376621342,0.816475638405607,0.863915102344771,0.9147363018741569,0.8835732875013622,0.9695562092235582,0.9969034423878878,0.9721540669950567,0.9285824208996241,0.8900903699015188,0.9302692581088191,0.8806498648926356,0.8697491174121113,0.8765043593345986,0.8533441759436107,0.8692955901317254,0.9175883984285134,0.9325365485329294,0.9939660558733572,0.921242902467053,0.9941692464972394,0.8922202118303278,0.9553609767747725,0.8814322514278974,0.9548238786495804,0.8244512285898081,0.857890700668583,0.9286330590901217,0.9193384215139597,0.8428815866043285,0.8506649018745764,0.8627861764774458,0.9918995379623585,0.8599014528028968,0.8751828820982153,0.8913226051533613,0.9435013758747229,0.9518913673309595,0.8876990247243901,0.9276796770004209,0.9279042935728085,0.8286830338572909,0.8508420241521082,0.9378538170499644,0.9813198315944618,0.8835684493839563,0.8904588993324895,0.9337287925050117,0.9047558058915752,0.919654559461177,0.9041472790684365,1.0209274840743863,0.9762448110612991,0.9198532523254735,0.9642031773315299,0.9009490320620326,0.9140631017171958,0.8583004497949734,0.9894140191182521,0.9805746394724277,0.8718698133183702,0.9359374624882759,0.910370385187889,0.9403971996242455,0.9239615717926747,0.900170549142696,0.866824689052666,0.8684604318950739,0.9397696754262691,0.8690398390084275
3,0.7596356680375547,0.040430089468831414,0.8453314480144151,0.7694823752030304,0.6890464255578055,0.7753598149143628,0.7355225235023402,0.7808112589386923,0.742395012075826,0.843336646396503,0.7000512348913659,0.7403191770048774,0.778579808965591,0.7778821985042675,0.8413879234339453,0.8253801252458041,0.7541422608306776,0.8010241789753717,0.7563497265556773,0.8032212173900329,0.6813367448818024,0.7047981626345258,0.7428224314505119,0.7422640026723231,0.7359524820804976,0.7043021489729986,0.7841097287724317,0.7483038284989897,0.7743005307092629,0.7639137213009615,0.7442008738677339,0.8120183645858049,0.7292083449666521,0.6977024222533028,0.7045448904194747,0.7567565545693177,0.7191719448854447,0.8134266963419695,0.8479166658789213,0.7839352513447869,0.8074345795076368,0.7750082600106356,0.7860046699600479,0.7681145191334455,0.7324240401038693,0.6873522113740271,0.7492044616330541,0.731999308927202,0.8010988891841287,0.8049915241298343,0.8050393162285384,0.7819478305042553,0.8103834270647378,0.7346967631697495,0.7512173356493559,0.7422640026723236,0.787326514818136,0.7199917614255323,0.7034822782098222,0.7647135228294494,0.8009067631382903,0.7237580445529886,0.7115949295758719,0.7521883648890166,0.8079215104151862,0.7514378110657713,0.7755472457026866,0.7589564165178831,0.7974727423999541,0.8177626057446787,0.733578764063352,0.7563497265556777,0.7669114632311106,0.6945844734167873,0.7221807881667671,0.8216465317595011,0.7755541356772091,0.7254526799984001,0.7482566974125953,0.7424065282804815,0.7550769762346539,0.7805689595100451,0.7560783862662614,0.7822060982137428,0.7820257297487019,0.747353492149719,0.8190201493205055,0.8009988292856232,0.7491773585371089,0.7060344017474465,0.79195381497051,0.8089367699140415,0.7039849418840641,0.788144592727665,0.7633581216576919,0.7626648045171043,0.7150946322648067,0.7160146489643513,0.7303783956280767,0.6762861445302151,0.7646967523669783,0.6837402167279117
4,0.6644184371612277,0.03202050629759004,0.7185891883880611,0.6890712409691814,0.6223933365161962,0.6599513015311005,0.64734227114018,0.6919824007639686,0.659398865369326,0.6992814003911987,0.6389056162248747,0.6620337636530949,0.6644121620525979,0.6920874127113972,0.6687537864007516,0.7139833594780581,0.6654391977832707,0.6961950848601569,0.6683381631158063,0.7165115037425337,0.6266236050202639,0.6369774154256894,0.6531407182100459,0.6677222457755212,0.6647193139630146,0.6029066764013921,0.6863610802174976,0.6727307051780922,0.6497333280867006,0.6914122784203267,0.6529574319097567,0.6960784101224067,0.653773642308282,0.6005409483074658,0.6124649236645863,0.6643092102749542,0.649812275428126,0.6621628931016755,0.7321671874626997,0.6976166390427129,0.7106210679728314,0.6857582335227371,0.6948536805881529,0.6757027786437327,0.6140490112595669,0.6153338395310499,0.6522155788128616,0.6732071186713665,0.7070387659520089,0.6542965279698898,0.7204191214448836,0.7004861834942245,0.7016614826418149,0.6371921344594224,0.659982068831287,0.6460929764322931,0.7012729830271357,0.6358472701570004,0.6189030099074608,0.6802802974729244,0.6852219245416623,0.6437000189855883,0.6420908827840386,0.6772951750504171,0.6731563172964792,0.6434077481014824,0.6871453899846744,0.6532716055118525,0.7029351664462397,0.7279938427305053,0.6452173621425936,0.6674020643834127,0.6351157199302628,0.6205636641885933,0.6479363267585753,0.7057316023040262,0.6975875316281263,0.6382897615008492,0.6665945251825782,0.6598930016599345,0.6792615413657757,0.6795399643239846,0.6684133141535056,0.6794503151480341,0.662516256213591,0.6815625774186226,0.6843542109339642,0.6941966316842397,0.6534727935986319,0.6091282641844674,0.6667820768063127,0.7139833594780586,0.6202828899087593,0.6753753039888203,0.6504697973139163,0.6688496627893509,0.6128835624095189,0.5780366012369974,0.6390009536787649,0.6042169674068528,0.6630064572286363,0.6024154695344477
5,0.5915431049953037,0.02584827801499946,0.616957332111422,0.5972003009426398,0.5461186812727502,0.5433091598708919,0.590156347837988,0.6102010627873233,0.5969139082629694,0.6294279893054859,0.5748124535230132,0.6092686066198371,0.5671233351409365,0.6462054457071865,0.6093177188355146,0.6163628947983512,0.5772669658765126,0.6303374059776599,0.5721214355117815,0.62991679430217,0.5695152873528911,0.5758972165665553,0.594696876873719,0.6177346085875673,0.6104374557233133,0.5144100947990213,0.598844400878216,0.5893735266020242,0.5851807940090813,0.5910683289039691,0.5772669658765128,0.6290764261139311,0.5947471923748713,0.5280895225484508,0.5566010476459325,0.5904985057948271,0.5831171095253692,0.5907228827134444,0.6322419089249864,0.5990852750538642,0.6112090354963138,0.612592289891871,0.6104934761843038,0.5970070009534615,0.5533196001761764,0.5527688650292767,0.5866636820577487,0.5944596178627993,0.6116687206732707,0.5784653761838465,0.635484122892954,0.6385308188711001,0.6262141518811917,0.5733138249118815,0.5923416609890363,0.5850291930011582,0.6317599778458134,0.565521190000933,0.5570213810860769,0.607672057530288,0.6027506685080151,0.5831171095253701,0.5820623272343544,0.6059619662866832,0.5984713007444169,0.5909670671741826,0.5762830773914653,0.5876738366520036,0.6162865989561541,0.6164253116453268,0.5709995543704739,0.6059619662866831,0.5995293002238453,0.5552534574136708,0.5983087777417194,0.6222971720897404,0.5722335026544113,0.5772669658765125,0.6004110256137308,0.5872099273564407,0.6200674860758293,0.6226216675022912,0.5959947337432645,0.5758582450944667,0.5933637625441818,0.6326136748106239,0.6057696979196691,0.6033514318450702,0.5632337217355636,0.562354518575324,0.5662180856849736,0.6221460265310509,0.5642744574061577,0.6139097616464135,0.5760809037100967,0.5733138249118817,0.5734480232251118,0.5354471039309399,0.5888801052789544,0.5584182936940677,0.5857357204889375,0.5585790303578331
6,0.5428382622246439,0.024381109758021727,0.555315044892067,0.5339340613675508,0.5042906088352533,0.5121551823581558,0.5520724142875495,0.5567239176358747,0.5424823785922183,0.5884879759827447,0.5336938192562151,0.5697029081098076,0.506413840253149,0.6075823578768833,0.551415785677776,0.5706681781529845,0.5402793552828153,0.5751897520947454,0.526224407271507,0.5813347903782742,0.5053385360439878,0.5299319405020234,0.518565005097873,0.5760363788722097,0.5499622248422705,0.48789903359331693,0.5580507217541641,0.5459229552372412,0.5307380007920718,0.5487580451223033,0.5404533965175252,0.5861606867919436,0.5566010476459322,0.5052031688180476,0.5123137456297869,0.5437397685898145,0.5346561388656447,0.5485087088022313,0.5969837291417776,0.5489293981460335,0.5329904894761502,0.5553920196361604,0.5744479301068882,0.5324929898517927,0.5071224184486257,0.5170397650751742,0.5432383422097289,0.5526141740506191,0.5438517889138319,0.5211737114916861,0.5606015074320486,0.5799857042374369,0.5632337217355635,0.5306091134323645,0.5540916385036406,0.5377414780348838,0.5859254431034953,0.5380196414363704,0.5271658988933681,0.5668594533825829,0.5553920196361604,0.53415218763643,0.5228851806505027,0.548009695829142,0.5352714349239237,0.5168971245738387,0.5151595389482848,0.5443369439287588,0.5602201068998003,0.5553920196361607,0.4936305598099983,0.5690947923967961,0.5591527126786545,0.5172278250064598,0.5564224538325457,0.5670460681986301,0.5323645273814039,0.5472193122992106,0.5667614088657827,0.5457349922022867,0.5835568025252871,0.5606015074320486,0.5325331280186512,0.5322500893897019,0.5459934246928264,0.5682303003400506,0.5350158134027023,0.5529795618412072,0.5006066563516388,0.5311888602750067,0.5301255067483248,0.5540607776253668,0.5146364962762296,0.5533196001761758,0.5352714349239237,0.4978408289004493,0.5335976921256557,0.49472051111530546,0.5557940393023358,0.4964456787597565,0.5447608549104686,0.5306091134323658
7,0.507314995534526,0.02251323701761464,0.5213377315465643,0.49922779876698375,0.4911475671991472,0.47845005205362146,0.5080887898704162,0.525492777571468,0.510807499450112,0.5416444700331701,0.4907818740734185,0.5419285182834536,0.48074968458134026,0.5679951566689502,0.5186247674344078,0.53391804858989,0.49767765448669743,0.5226643969942514,0.48631937235149536,0.5199645210752804,0.47417128953472554,0.5056028206371507,0.48560024600418583,0.542647835623045,0.5279761821110662,0.4698490145869532,0.5176594842262492,0.5154250081476174,0.47989752163473715,0.5282675798191323,0.5115601323627075,0.5495578836799532,0.496445678759757,0.4669765492703894,0.48195747754025897,0.5035186203029188,0.5039514188800573,0.49411527943773176,0.5512529603288641,0.4904093706720899,0.49951885129062606,0.5270381657323993,0.5156986301297919,0.4969620612396367,0.48515768524188724,0.4853977309563804,0.519816515389181,0.504231267064029,0.524760127821566,0.48399320984304434,0.5310278829742846,0.5211737114916865,0.5151595389482847,0.45849594194287985,0.5097204977314501,0.5128558281910782,0.5498844900171389,0.5057613251043849,0.5011528721784493,0.5341521876364301,0.5068441665831915,0.4901216305665575,0.4899973269218388,0.5048159028697057,0.5129808428173867,0.4802982042808394,0.4642405681167067,0.5068441665831915,0.5297403209433039,0.5115099912882617,0.4680646372392444,0.5442112772613371,0.5178225535680031,0.4881442992384955,0.5243200465691035,0.5423700754322563,0.49989525594841927,0.5157980930443679,0.5324367913347704,0.5153503587571564,0.5523356211129807,0.5278466203825626,0.5086437796528434,0.5104558909914331,0.5227686675626539,0.531593100642138,0.46167359182248674,0.5013234425765557,0.48029820428083925,0.4964456787597574,0.48737304873062004,0.5054569526279697,0.4953789399112474,0.49040937067208973,0.5139445163007795,0.4817623045594741,0.49998076294172666,0.4755486374887662,0.5153005864889858,0.48237638894271717,0.5191582018372936,0.5099971802876663
8,0.48437086286300873,0.0189936101567203,0.49537893991124654,0.47989752163473753,0.47295039181347354,0.46590197721373583,0.4737654251365216,0.4955169909648599,0.4768413306991917,0.4998268398216445,0.4644154909455841,0.5157566524943513,0.4640471556447849,0.5325331280186512,0.49401145098404475,0.49297196370456453,0.4785929863019271,0.5031449263052598,0.4696237780798562,0.48895149155690787,0.45712098442875676,0.4848932773024453,0.4677083158389432,0.5011528721784492,0.5113929763292024,0.45079289796890976,0.49363055980999826,0.4927919966732659,0.46441549094558365,0.5028623483252213,0.4952840074909896,0.5320512701657748,0.46306734229101154,0.45449734084750526,0.4584959419428801,0.47828919996631486,0.48623366084846525,0.4782891999663147,0.5202871096960294,0.4783361207459104,0.47462859796759416,0.4984586893043958,0.4821171057561304,0.46919348086429263,0.47667096777344453,0.47104845704387727,0.48789903359331743,0.49255772425846905,0.5050508373204639,0.4551740401870793,0.5115434192173125,0.5003055562369706,0.4700968774376908,0.45126916162005415,0.49473131209495264,0.4950422791828836,0.5057613251043848,0.4925577242584691,0.4742704480043856,0.50793732377754,0.47648260104096557,0.46595014537769686,0.4638352304000777,0.48313791983353066,0.49822708144431693,0.460363843984882,0.4578988445813644,0.4924188435665363,0.5100977549174591,0.4917673174978251,0.4569526243489827,0.4922951199643625,0.49922779876698353,0.4603081261647493,0.48802387169068767,0.5121447488428565,0.4819574775402589,0.5029133515809551,0.512955842329551,0.493095517478519,0.5204760496099441,0.5079373237775402,0.4769466562663315,0.48798664261775015,0.4907818740734193,0.5040341174697159,0.4338608866579782,0.482580171900109,0.46275336385971433,0.4728419159148768,0.46973982249524493,0.4907818740734186,0.478718018760803,0.47175578506407734,0.4880567185143411,0.477128120233485,0.4728419159148768,0.4537913726560517,0.4843640284133324,0.4675529112714571,0.497986781739004,0.4920801576678305
9,0.46788670560210266,0.017361045854958804,0.47627620914028657,0.4629196142627553,0.4667270293224335,0.45469481551999374,0.4629196142627549,0.4891000970785119,0.4648295192804163,0.48478747374766473,0.4563909755320616,0.4920801576678296,0.4381186480812211,0.5113929763292026,0.47427044800438517,0.46424056811670633,0.4610806095219525,0.4753845555988604,0.4633557377670254,0.46902945427750753,0.4490851135498291,0.45712098442875676,0.4552961148196868,0.48029820428083947,0.49551699096486024,0.442613186369925,0.4721362150778554,0.4781104119555564,0.4551740401870794,0.472896156974536,0.4806185098878149,0.5099720335310137,0.437080714091761,0.4466775041599311,0.44748068384656375,0.46793447433933577,0.4734043646678564,0.4519506944922663,0.48818151628842216,0.4669765492703895,0.4640471556447856,0.47712812023348494,0.46339955816535483,0.45670932799767355,0.4630673422910118,0.46479962959004517,0.46291961426275496,0.48018248585899714,0.49489545796268825,0.4408397796979986,0.4910953419962439,0.47465786871819715,0.45449734084750576,0.440257575757497,0.4774863649212891,0.4645719450168231,0.48208163738711957,0.47427044800438417,0.4580761890928769,0.49018922106984436,0.46755291127145676,0.44856126566588284,0.45577236243497826,0.46286420409656454,0.48999732692183845,0.4523761311301433,0.4529875860934988,0.46737916266507873,0.49333603339443327,0.4694667311553681,0.4422653567001969,0.46621383517078097,0.4887853495664733,0.44543403219294725,0.4614698401019947,0.48878534956647324,0.46339955816535483,0.48895149155690787,0.5072235630997883,0.47580925396042134,0.4996386471677094,0.4881092688345722,0.4548734092092719,0.469739822495245,0.4771281202334847,0.48794503029247116,0.41667179641861,0.4675529112714571,0.4548734092092723,0.4619235279186492,0.44700277455014226,0.47441464150841683,0.4696670136641707,0.45105123270815334,0.4619697975418286,0.47117775970655973,0.44425925273744626,0.4407161257139514,0.4735939557362233,0.45195069449226627,0.48910009707851143,0.4753845555988607
10,0.4571465766803257,0.015480725397148202,0.4618309747654037,0.45180879325657813,0.46040098545220115,0.44974857036640736,0.45823480758268437,0.4742704480043847,0.4519506944922664,0.46806463723924435,0.45146804831856485,0.4756542493009834,0.43139308823872297,0.4851400625292198,0.46167359182248624,0.4546948155199937,0.4505083214359623,0.45334604822874236,0.4633557377670254,0.44974857036640803,0.4454340321929474,0.45077393178931296,0.437080714091761,0.46919348086429313,0.4835093943530842,0.42742847678490675,0.462919614262755,0.4669765492703892,0.45180879325657897,0.4633995581653553,0.4744146415084166,0.49093210242894864,0.42870921846250504,0.44667750415993107,0.4422653567001976,0.4577027522810414,0.46424056811670666,0.43069639472135723,0.47439436694521325,0.45919235001105563,0.45655954272449945,0.47107795024904037,0.44237166700457536,0.44700277455014203,0.4519506944922664,0.46275336385971433,0.454024463512039,0.46339955816535505,0.4827661594752117,0.437080714091761,0.4764826010409663,0.4587266422919135,0.44122022245470965,0.4345426693509045,0.46352868892520954,0.45655954272449917,0.46973982249524493,0.4679641638017276,0.45298758609349843,0.47066941843145227,0.45548385806085784,0.4418301845425648,0.45428096056926254,0.45829077747165475,0.4724643161226409,0.44529005428775476,0.45010961202403715,0.45146804831856546,0.47267915539016253,0.45146804831856546,0.4373349302883325,0.4505083214359627,0.47376542513652103,0.42573742042575935,0.4446055225188037,0.4704968207136974,0.45695262434898265,0.47136824634822333,0.5014257569643493,0.4664521741014656,0.4848932773024452,0.4757620839753253,0.44298728115798003,0.4539679676278518,0.46457194501682225,0.48165803204534674,0.4130032861535775,0.45317628571993823,0.4527799256728382,0.45374191374749123,0.44183018454256573,0.4539114647119287,0.4678453946476093,0.44071612571395113,0.4442400076134772,0.4690294542775066,0.4359471641070256,0.43862329352804386,0.4580761890928769,0.44339239519229223,0.48333253733179,0.4667087106769403
11,0.4502994189998637,0.01442868972474692,0.4568777777324902,0.43988844804344,0.45882215089320605,0.44122022245470943,0.4582348075826843,0.4698308176672955,0.4438549298996342,0.4633072998732017,0.4497485703664073,0.4665438105001859,0.4282003764539038,0.46821074193271667,0.4505083214359626,0.44406676396542344,0.4457506198867726,0.4468497356251241,0.4633557377670254,0.4468497356251232,0.43905434192161163,0.45060320024950784,0.43692419983754827,0.45989932255687627,0.47592379017468583,0.41356183925833573,0.45639097553206126,0.4533460482287419,0.4497485703664077,0.44424000761347715,0.47125940626680235,0.48436402841333254,0.42332830046068615,0.44667750415993107,0.43721761810319854,0.4577027522810414,0.4598993225568763,0.4271883793196387,0.4621432673705585,0.45748788808439433,0.44856126566588295,0.4663421866543058,0.42918757749564895,0.44199463326991306,0.4471366406417575,0.46002943583769196,0.4475379986671752,0.44893278448424884,0.47104845704387716,0.430001057768012,0.45958317980023433,0.45291444385333646,0.4378941745385481,0.434542669350904,0.4552961148196866,0.45026154295443926,0.4651512865365871,0.4585984897591171,0.44512682303036344,0.4601409322236068,0.4471366406417571,0.4385087631561421,0.45428096056926254,0.4446055225188036,0.464047155644785,0.44213968429386696,0.4418301845425652,0.444742513161146,0.46482951928041627,0.4402575757574973,0.43234333803569236,0.4452900542877546,0.4688471352112018,0.4222894440340567,0.4398131273827883,0.4574878880843943,0.4536288445643318,0.46358401966844864,0.4910953419962439,0.4431995299300907,0.47724457925387864,0.4667087106769404,0.4363367713720271,0.4392587592564641,0.45050832143596287,0.47721546716320035,0.4130032861535775,0.4449443172310441,0.4480177224408417,0.4438549298996343,0.43674805425781055,0.4506790889188685,0.46002943583769235,0.43429666186430593,0.4342154488074322,0.46755291127145654,0.43089485632818286,0.4371027194140711,0.45164791795986275,0.44339239519229223,0.4681468267400212,0.45882215089320605
12,0.44624409134815674,0.013858229014836253,0.4532258063534642,0.43580005197897975,0.4556246147236569,0.43944119438057383,0.4567093279976736,0.46196979754182843,0.4356038251907098,0.4569526243489831,0.44974857036640714,0.4521776438447267,0.42658754444243024,0.4572144910183521,0.4472513511157473,0.43580005197898064,0.4408397796979986,0.44226535670019756,0.4633557377670254,0.4468497356251231,0.43250151002178905,0.44742336168393604,0.4337229231004244,0.45383611654790645,0.4728419159148767,0.4100114855495518,0.44684973562512365,0.4480177224408413,0.4466775041599305,0.44226535670019723,0.46825639030045535,0.4809630449067638,0.42332830046068615,0.44667750415993107,0.43721761810319837,0.4577027522810414,0.45026154295443926,0.4271883793196387,0.4559974097519509,0.454873409209272,0.4437200737484591,0.4663421866543058,0.42057264307978004,0.441994633269913,0.44700277455014203,0.4600294358376917,0.442613186369925,0.4440667639654244,0.46280185972974386,0.42552650766723166,0.44008276438207733,0.4485112300154255,0.4378941745385481,0.434542669350904,0.4473469207079789,0.44684973562512303,0.46036384398488195,0.4537419137474918,0.4419946332699124,0.45539938318047374,0.4454340321929472,0.4351619913969309,0.45428096056926254,0.44344300842406564,0.4574878880843944,0.44041290539577843,0.43516199139693135,0.4429872811579801,0.45868237546497276,0.437080714091761,0.4289484646617327,0.43733493028833265,0.46275336385971516,0.4222894440340567,0.43476887329744485,0.4542809605692628,0.4473469207079786,0.45721449101835204,0.4851048151833101,0.4381186480812215,0.47435156224379127,0.458822150893206,0.43297321099945374,0.4240345796221094,0.44339239519229223,0.473582672678044,0.4130032861535775,0.43674805425781066,0.4464860579440757,0.4383235017881496,0.43674805425781055,0.4506790889188685,0.45060320024950695,0.43429666186430593,0.42918757749564895,0.46755291127145654,0.43087501428102537,0.43557192998787225,0.44974857036640764,0.44339239519229223,0.4648295192804165,0.45548385806085717
13,0.4433904193684707,0.013277537835987032,0.44906369539726965,0.4290381475912221,0.45562461472365684,0.4329732109994534,0.4567093279976736,0.45548385806085717,0.4339791062276083,0.4522627204908849,0.44144300470695413,0.44734692070797866,0.42658754444243,0.4471366406417582,0.4409561282425347,0.43243231689675443,0.43921009709192865,0.43733493028833276,0.4633557377670254,0.4468497356251231,0.4308353274452462,0.44742336168393604,0.4337229231004244,0.4409367389504246,0.47117775970655984,0.4100114855495518,0.4367480542578102,0.44474251316114527,0.4449443172310441,0.43516199139693124,0.46356557682117094,0.4748447086675933,0.42332830046068615,0.44667750415993107,0.4372176181031982,0.4577027522810414,0.4487041939227388,0.4271883793196387,0.45599740975195063,0.454873409209272,0.434768873297445,0.4663421866543058,0.42057264307978004,0.44199463326991295,0.4437200737484591,0.4600294358376917,0.44260352812571685,0.442139684293867,0.4596320101571715,0.42528533643489835,0.4333876859000453,0.4485112300154255,0.4378941745385481,0.434542669350904,0.44054877390366465,0.44684973562512303,0.44913270578759873,0.4521776438447266,0.44199463326991234,0.4503944404769929,0.43894722818234727,0.4298021834489738,0.45428096056926254,0.44344300842406564,0.4514680483185655,0.44041290539577843,0.43247927058174196,0.43476887329744524,0.45539938318047396,0.4335651967069018,0.42718837931963866,0.43223456121947385,0.46275336385971494,0.4222894440340567,0.43036128322933714,0.4527799256728382,0.4406651992822756,0.4471366406417576,0.4805829309182348,0.43633677137202725,0.46946673115536847,0.458822150893206,0.43297321099945363,0.4240345796221093,0.4369241998375481,0.4707761248271411,0.4130032861535775,0.4351619913969314,0.4464860579440756,0.4349753045997426,0.43674805425781055,0.4506790889188685,0.4473469207079783,0.43429666186430593,0.42746847991809517,0.46755291127145654,0.43087501428102526,0.43557192998787214,0.4466775041599305,0.44339239519229223,0.4536288445643321,0.4491707759470915
14,0.44127493652774297,0.013007557138227493,0.4457961708176332,0.427288436325848,0.45562461472365684,0.43139308823872285,0.4567093279976736,0.4440667639654234,0.432432316896754,0.44237166700457514,0.438674457007948,0.44252625458348616,0.42477239292011154,0.4422653567001972,0.4359569698171641,0.4291078880222782,0.43921009709192865,0.4353289590907443,0.4633557377670254,0.4468497356251231,0.4306963947213575,0.44742336168393604,0.4337229231004244,0.4392100970919287,0.46654381050018595,0.4100114855495518,0.43338768590004484,0.44474251316114527,0.44339239519229195,0.43516199139693124,0.4603638439848819,0.4647996295900447,0.42332830046068615,0.44667750415993107,0.4372176181031982,0.4577027522810414,0.44700277455014203,0.4271883793196387,0.4529875860934985,0.454873409209272,0.42528533643489846,0.4663421866543058,0.42057264307978004,0.4388206055090091,0.4437200737484591,0.4600294358376917,0.43925875925646407,0.442139684293867,0.44993862840473325,0.4183535157855979,0.43338768590004517,0.4485112300154255,0.4378941745385481,0.434542669350904,0.43867445700794777,0.44684973562512303,0.44908511354982883,0.4505083214359632,0.44199463326991234,0.4437200737484593,0.43733493028833303,0.4298021834489738,0.45428096056926254,0.44344300842406564,0.446486057944076,0.44041290539577843,0.4213165189959811,0.43476887329744524,0.45060320024950756,0.42883882672211926,0.42552650766723177,0.430477981276,0.4614142558358233,0.4222894440340567,0.423805167999849,0.4527799256728382,0.4375108395868528,0.44385492989963404,0.47448672182812823,0.43633677137202725,0.4633995581653549,0.458822150893206,0.4263870780046199,0.4240345796221093,0.4353289590907446,0.47077612482714104,0.4130032861535775,0.4335651967069021,0.4449443172310444,0.4349753045997426,0.43674805425781055,0.4506790889188685,0.44575061988677295,0.43429666186430593,0.42746847991809506,0.46755291127145654,0.42736846506431825,0.4322024173754386,0.44339239519229195,0.44339239519229223,0.45217764384472736,0.4456643000921141
15,0.4400990738347006,0.012762395415263503,0.4457961708176332,0.4256169116474581,0.45562461472365684,0.4313930882387228,0.4567093279976736,0.4424586291635128,0.4271883793196387,0.44237166700457514,0.43850876315614296,0.44252625458348616,0.42477239292011154,0.4422653567001972,0.4325805743266459,0.4287092184625052,0.43921009709192865,0.4305971296164511,0.4633557377670254,0.4468497356251231,0.4306963947213575,0.44742336168393604,0.4337229231004244,0.4342154488074321,0.46339955816535505,0.4100114855495518,0.43338768590004484,0.4429872811579798,0.44339239519229195,0.43516199139693124,0.4603638439848819,0.45639097553206204,0.42332830046068615,0.44667750415993107,0.4372176181031982,0.4577027522810414,0.4438549298996338,0.4271883793196387,0.4447425131611458,0.45317628571993895,0.42528533643489835,0.4663421866543058,0.42057264307978004,0.4388206055090091,0.44183018454256495,0.4600294358376917,0.43925875925646407,0.442139684293867,0.44356590222880676,0.4183535157855978,0.43338768590004517,0.4485112300154255,0.4378941745385481,0.434542669350904,0.43867445700794777,0.44684973562512303,0.44908511354982883,0.44566430009211383,0.44199463326991234,0.44041290539577854,0.43733493028833303,0.4298021834489738,0.45428096056926254,0.44344300842406564,0.446486057944076,0.44041290539577843,0.4213165189959811,0.43476887329744524,0.43914196100243996,0.42528533643489863,0.42496356188734696,0.43033893318475086,0.46141425583582324,0.4222894440340567,0.423805167999849,0.4527799256728382,0.43243231689675404,0.43894722818234694,0.46983081766729534,0.43633677137202725,0.46339955816535483,0.458822150893206,0.4263870780046198,0.4240345796221093,0.4319575511723857,0.47077612482714104,0.4130032861535775,0.4301799660459647,0.4431995299300907,0.4349753045997426,0.43674805425781055,0.4506790889188685,0.44575061988677295,0.43429666186430593,0.4274284767849067,0.46755291127145654,0.42736846506431825,0.4269506499522101,0.44008276438207633,0.44339239519229223,0.45026154295443926,0.44245862916351314
16,0.43963584593816996,0.012927103767508606,0.4457961708176332,0.42393375464009037,0.45562461472365684,0.4313930882387228,0.4567093279976736,0.44089795780816926,0.4271883793196387,0.44237166700457514,0.4385087631561427,0.44252625458348616,0.42477239292011154,0.4422653567001972,0.429157695677203,0.42870921846250515,0.43921009709192865,0.4290381475912222,0.4633557377670254,0.4468497356251231,0.4306963947213575,0.44742336168393604,0.43033893318475086,0.42915769567720313,0.4633995581653549,0.4100114855495518,0.43338768590004484,0.44144300470695436,0.44339239519229195,0.43516199139693124,0.4603638439848819,0.45469481551999413,0.42332830046068615,0.44667750415993107,0.4372176181031982,0.4577027522810414,0.4437200737484591,0.4271883793196387,0.44319952993009065,0.45317628571993895,0.42528533643489835,0.4663421866543058,0.42057264307978004,0.4388206055090091,0.44183018454256495,0.4600294358376917,0.43925875925646407,0.442139684293867,0.4421396842938669,0.4183535157855978,0.43338768590004517,0.4485112300154255,0.4378941745385481,0.434542669350904,0.43867445700794777,0.44684973562512303,0.44908511354982883,0.44566430009211383,0.44199463326991234,0.44025757575749713,0.43733493028833303,0.4298021834489738,0.45428096056926254,0.44344300842406564,0.446486057944076,0.44041290539577843,0.4213165189959811,0.43476887329744524,0.43580005197897975,0.42196538494055336,0.42496356188734696,0.43033893318475086,0.46141425583582324,0.4222894440340567,0.423805167999849,0.4527799256728382,0.42903814759122233,0.4389472281823468,0.4682563903004553,0.43633677137202725,0.46339955816535483,0.458822150893206,0.4229443978599678,0.4240345796221092,0.4319575511723857,0.47077612482714104,0.4130032861535775,0.42706827996852337,0.4431995299300907,0.4349753045997426,0.43674805425781055,0.4506790889188685,0.44575061988677295,0.43429666186430593,0.4274284767849066,0.46755291127145654,0.42736846506431825,0.4269506499522101,0.4385087631561432,0.44339239519229223,0.4485612656658823,0.4407621969390487
17,0.43915090179418703,0.013105491674213165,0.4457961708176332,0.42393375464009037,0.45562461472365684,0.4313930882387228,0.4567093279976736,0.435917745653169,0.4271883793196387,0.44237166700457514,0.4385087631561426,0.44252625458348616,0.42477239292011154,0.4422653567001972,0.42573742042575924,0.42706827996852326,0.43921009709192865,0.42216795102439153,0.4633557377670254,0.4468497356251231,0.4306963947213575,0.44742336168393604,0.43033893318475086,0.4257775824390034,0.4633995581653549,0.4100114855495518,0.43338768590004484,0.44144300470695436,0.44339239519229195,0.43516199139693124,0.4603638439848819,0.45317628571993956,0.42332830046068615,0.44667750415993107,0.4372176181031982,0.4577027522810414,0.4437200737484591,0.4271883793196387,0.44319952993009065,0.45317628571993895,0.42528533643489835,0.4663421866543058,0.42057264307978004,0.4388206055090091,0.44183018454256495,0.4600294358376917,0.43925875925646407,0.442139684293867,0.4388206055090089,0.4183535157855978,0.43338768590004517,0.4485112300154255,0.4378941745385481,0.434542669350904,0.43867445700794777,0.44684973562512303,0.44908511354982883,0.44566430009211383,0.44199463326991234,0.43356519670690147,0.43733493028833303,0.4298021834489738,0.45428096056926254,0.44344300842406564,0.446486057944076,0.44041290539577843,0.4213165189959811,0.43476887329744524,0.4342548267317943,0.41848633129391716,0.42496356188734696,0.43033893318475086,0.46141425583582324,0.4222894440340567,0.423805167999849,0.4527799256728382,0.4272884363258476,0.43560382519070945,0.46512371520814244,0.43633677137202725,0.46339955816535483,0.458822150893206,0.4229443978599678,0.4223198118253623,0.4319575511723857,0.47077612482714104,0.4130032861535775,0.4270682799685233,0.4431995299300907,0.4349753045997426,0.43674805425781055,0.4506790889188685,0.44575061988677295,0.43429666186430593,0.4274284767849066,0.46755291127145654,0.42736846506431825,0.4269506499522101,0.4385087631561431,0.44339239519229223,0.4485612656658823,0.4390543419216116
18,0.438820478135084,0.013318729575713383,0.4457961708176332,0.42393375464009037,0.45562461472365684,0.4313930882387228,0.4567093279976736,0.435917745653169,0.4271883793196387,0.44237166700457514,0.4351619913969311,0.44252625458348616,0.42477239292011154,0.4422653567001972,0.4257374204257592,0.42706827996852315,0.4392100970919286,0.41518408646738697,0.4633557377670254,0.4468497356251231,0.4306963947213575,0.44742336168393604,0.43033893318475086,0.4205319839801617,0.4633995581653549,0.4100114855495518,0.43338768590004484,0.44144300470695436,0.44339239519229195,0.43516199139693124,0.4603638439848819,0.45126916162005426,0.42332830046068615,0.44667750415993107,0.4372176181031982,0.4577027522810414,0.4437200737484591,0.4271883793196387,0.4431995299300906,0.45317628571993895,0.42528533643489835,0.4663421866543058,0.42057264307978004,0.4388206055090091,0.44183018454256495,0.4600294358376917,0.43925875925646407,0.442139684293867,0.4354762303629282,0.4183535157855978,0.43338768590004517,0.4485112300154255,0.4378941745385481,0.434542669350904,0.43867445700794777,0.44684973562512303,0.44908511354982883,0.44566430009211383,0.44199463326991234,0.4301799660459643,0.43733493028833303,0.4298021834489738,0.45428096056926254,0.44344300842406564,0.446486057944076,0.44041290539577843,0.4213165189959811,0.43476887329744524,0.4339791062276083,0.41848633129391716,0.42496356188734696,0.43033893318475086,0.46141425583582324,0.4222894440340567,0.423805167999849,0.4527799256728382,0.4255265076672317,0.43397910622760827,0.4650777593618064,0.43633677137202725,0.46339955816535483,0.458822150893206,0.4229443978599678,0.4223198118253623,0.4319575511723857,0.47077612482714104,0.4130032861535775,0.4270682799685233,0.4431995299300907,0.4349753045997426,0.43674805425781055,0.4506790889188685,0.44575061988677295,0.43429666186430593,0.4274284767849066,0.46755291127145654,0.42736846506431825,0.4269506499522101,0.43338768590004484,0.44339239519229223,0.4485612656658823,0.4390543419216116
19,0.43849604118910745,0.01342722844763927,0.4457961708176332,0.42393375464009037,0.45562461472365684,0.4313930882387228,0.4567093279976736,0.435917745653169,0.42718837931963866,0.44237166700457514,0.4351619913969311,0.44252625458348616,0.42477239292011154,0.4422653567001972,0.4257374204257592,0.42706827996852315,0.43756946030456356,0.41518408646738697,0.4633557377670254,0.4468497356251231,0.4306963947213575,0.44742336168393604,0.43033893318475086,0.41314816872706195,0.4633995581653549,0.4100114855495518,0.43338768590004484,0.44144300470695436,0.44339239519229195,0.43516199139693124,0.4603638439848819,0.4512691616200542,0.42332830046068615,0.44667750415993107,0.4372176181031982,0.4577027522810414,0.4437200737484591,0.4271883793196387,0.44144300470695497,0.45317628571993895,0.42528533643489835,0.4663421866543058,0.42057264307978004,0.4388206055090091,0.44183018454256495,0.4600294358376917,0.43925875925646407,0.442139684293867,0.4354762303629282,0.41835351578559776,0.43338768590004517,0.4485112300154255,0.4378941745385481,0.434542669350904,0.43867445700794777,0.44684973562512303,0.44908511354982883,0.44566430009211383,0.44199463326991234,0.4301799660459643,0.43560382519070995,0.4298021834489738,0.45428096056926254,0.44344300842406564,0.446486057944076,0.44041290539577843,0.4213165189959811,0.43476887329744524,0.4325904563487001,0.41848633129391716,0.42496356188734696,0.43033893318475086,0.46141425583582324,0.4222894440340567,0.423805167999849,0.4527799256728382,0.4203896461634299,0.42883882672211904,0.45859848975911677,0.43633677137202725,0.46339955816535483,0.458822150893206,0.4229443978599678,0.4223198118253623,0.4319575511723857,0.47077612482714104,0.4130032861535775,0.4270682799685233,0.4431995299300907,0.4349753045997426,0.43674805425781055,0.4506790889188685,0.44575061988677295,0.43429666186430593,0.4274284767849066,0.46755291127145654,0.42736846506431825,0.4269506499522101,0.43160113415450063,0.44339239519229223,0.4485612656658823,0.4390543419216116
