Iteration,Mean,Stdev,Run-0,Run-1,Run-2,Run-3,Run-4,Run-5,Run-6,Run-7,Run-8,Run-9,Run-10,Run-11,Run-12,Run-13,Run-14,Run-15,Run-16,Run-17,Run-18,Run-19,Run-20,Run-21,Run-22,Run-23,Run-24,Run-25,Run-26,Run-27,Run-28,Run-29,Run-30,Run-31,Run-32,Run-33,Run-34,Run-35,Run-36,Run-37,Run-38,Run-39,Run-40,Run-41,Run-42,Run-43,Run-44,Run-45,Run-46,Run-47,Run-48,Run-49,Run-50,Run-51,Run-52,Run-53,Run-54,Run-55,Run-56,Run-57,Run-58,Run-59,Run-60,Run-61,Run-62,Run-63,Run-64,Run-65,Run-66,Run-67,Run-68,Run-69,Run-70,Run-71,Run-72,Run-73,Run-74,Run-75,Run-76,Run-77,Run-78,Run-79,Run-80,Run-81,Run-82,Run-83,Run-84,Run-85,Run-86,Run-87,Run-88,Run-89,Run-90,Run-91,Run-92,Run-93,Run-94,Run-95,Run-96,Run-97,Run-98,Run-99
0,1.0172066920723366,0.06577648214411157,1.1001818031580044,1.0725670142233532,1.116915395184434,1.1034491379306988,1.010494928240612,0.9412226091632097,0.9509994742374983,0.9905049217444607,0.9559811713627009,0.9905049217444601,1.00876161703348,1.050904372433571,1.0007996802557446,0.9951884243699776,1.0051865498503243,1.0037429949942367,0.9820386957752723,1.045896744425568,1.0380751417888792,1.0380751417888794,0.8888194417315592,1.107925990308017,0.9474175425861614,1.0943491216243573,1.0316976301223129,1.0959470790143102,0.9152048950918048,1.0186265262597485,0.9509994742374983,0.9614572273377522,0.9420721840708386,1.0428326807307107,0.9368030742904305,1.0205880657738464,0.9969453345093707,0.9205976319760986,1.0300970828033635,1.1034491379306988,0.9766780431646868,0.9718024490605067,1.026596317936122,1.0537551897855584,1.1269427669584635,0.9718024490605064,1.0523782589924593,1.0712142642814277,1.088301428833022,0.988736567544663,1.0428326807307104,1.0588200980336555,1.0537551897855584,0.9368030742904305,1.023474474522936,1.0005498488331297,0.9820386957752725,1.0428326807307107,1.0246950765959595,1.0021975853094027,0.9579144011862447,1.1050339361304693,1.1034491379306988,0.8682741502544002,1.0440306508910548,1.0648474069086151,1.0959470790143102,1.0805091392487156,0.9905049217444603,0.9643650760992956,1.0805091392487158,0.9189124006128108,0.8491760712596654,1.010494928240612,1.0234744745229363,0.9921693403849959,1.0834666584625494,0.9848857801796104,0.9219544457292892,1.0087616170334803,1.212600511297929,1.0397595875970558,0.9600000000000003,1.0790736768172955,1.026596317936122,0.9850888284819792,1.1229870880824937,1.020343079557067,0.8588364221433564,1.0324243313676797,1.0988630487917956,0.9526279441628827,1.0554146104730604,0.9614572273377523,1.0509043724335712,1.058820098033655,1.028396810574596,1.1737120600896975,1.0037429949942367,1.0428326807307104,0.9171150418568,0.986863719061554
1,0.7307394299679015,0.05718291257172828,0.8034923770640267,0.6855654600401045,0.7748548251124204,0.7681145747868608,0.7025667228100119,0.6785278181474947,0.6368673331236263,0.7578918128598561,0.6740919818541083,0.7416198487095664,0.7022107945624306,0.7520638270785266,0.6881860213634099,0.7399324293474369,0.7,0.7306846104852626,0.7172168430816429,0.6633249580710799,0.7665507158694728,0.7649182962905249,0.6982120021884471,0.8207313811473279,0.6941901756723436,0.7618398781896359,0.7400000000000008,0.7618398781896363,0.6489221833163049,0.7601973427998803,0.6970652767137376,0.6046486583132387,0.7560423268574324,0.7615773105863908,0.6046486583132386,0.6015812497078008,0.7810249675906655,0.6737210105080587,0.7172168430816435,0.7743384273042371,0.7310266752998822,0.6617401302626277,0.6999999999999998,0.7517313349861102,0.7886063656856943,0.7301369734508726,0.7601973427998805,0.7355949972641193,0.8170679286326206,0.7068238818828914,0.7709734106958546,0.7351190379795641,0.7778817390837757,0.7249827584156744,0.7262919523166974,0.7351190379795639,0.7224264668462801,0.7909487973314075,0.7921489758877427,0.7459222479588606,0.7168681887209113,0.7056202944927242,0.6941901756723436,0.6770524351924305,0.7701298591796063,0.7440430095095311,0.8562125904236639,0.8111103500757457,0.7123903424387502,0.6734983296193094,0.7533923280734952,0.6982836100038445,0.6114736298484179,0.7440430095095311,0.7123903424387502,0.7262919523166974,0.7732399368889317,0.691303117308174,0.6633249580710798,0.6581033353509159,0.8400000000000002,0.7936623967405797,0.6731270311018568,0.8792610533851714,0.6205642593640076,0.7794228634059948,0.8135723692456616,0.757891812859856,0.6209669878504007,0.7794870107962037,0.7664854858377945,0.7190966555338723,0.7543871685016921,0.6740919818541082,0.7809609465267778,0.7835177087979569,0.7745966692414834,0.8581375181169976,0.7485986908885155,0.728010988928052,0.6383572667401856,0.6855654600401041
2,0.5480120325806479,0.04555010589259711,0.6383572667401853,0.4673328578219168,0.5287721626560912,0.5559676249567058,0.5566866263886711,0.48774993593028815,0.478643917750973,0.5653317610041025,0.4882622246293481,0.5942221806698232,0.565685424949238,0.5642694391866354,0.5095095681142796,0.5722761571129801,0.528772162656091,0.5673623181001709,0.5309425580983311,0.4882622246293481,0.5444263035526479,0.511761663276959,0.4572745346069469,0.6321392251711639,0.5473572873361601,0.6151422599691881,0.567362318100171,0.5701754116059367,0.5030904491242106,0.5638262143604182,0.5528109984434096,0.469041575982343,0.6063002556489648,0.5986651818838309,0.45552167895721507,0.49183330509431733,0.6151422599691879,0.5153639490690045,0.5063595560468861,0.5827520913733382,0.5638262143604181,0.49909918853871144,0.5477225575051661,0.5653317610041024,0.555967624956706,0.5083306010855534,0.5642694391866355,0.5083306010855534,0.6403124237432849,0.5642694391866355,0.6244997998398399,0.5444263035526478,0.5942221806698232,0.5775811631277457,0.562494444417009,0.5494542747126459,0.548087584241789,0.5473572873361601,0.5339475629684991,0.5673623181001708,0.5528109984434094,0.5376802023508028,0.48774993593028815,0.5117616632769594,0.5559676249567058,0.48948953002081647,0.6402343321003651,0.5566866263886711,0.511761663276959,0.5172040216394301,0.5480875842417892,0.5063595560468862,0.44485952839070464,0.59152345684681,0.6082762530298224,0.5339475629684992,0.5559676249567057,0.5230678732248802,0.5153639490690046,0.4833218389437824,0.6244197306299666,0.5874521257089801,0.5257375771237963,0.6633249580710799,0.49989998999799934,0.5339475629684991,0.5473572873361601,0.5874521257089801,0.49558046773455466,0.5878775382679625,0.5376802023508028,0.5567764362830026,0.5545268253204713,0.5376802023508028,0.5908468498688981,0.5494542747126457,0.5830951894845301,0.6431174076325409,0.5473572873361601,0.5566866263886711,0.4918333050943172,0.5653317610041025
3,0.44098651777587233,0.04065576391989471,0.5287721626560912,0.4330127018922195,0.43485629810317805,0.4431703961232064,0.47696960070847305,0.4358898943540676,0.3720215047547653,0.4882622246293481,0.42379240200834206,0.4769696007084731,0.47864391775097315,0.44676615807377346,0.3736308338453886,0.4302324952859788,0.32787192621510003,0.46216880033165314,0.4330127018922193,0.3736308338453883,0.3954743986657039,0.3979949748426478,0.3303028912982748,0.46861498055439943,0.46733285782191686,0.4918333050943172,0.43485629810317794,0.47864391775097304,0.421781934179263,0.46518813398452036,0.42237424163885734,0.4121892769104988,0.5361902647381808,0.4357751713900183,0.3736308338453885,0.41665333311999286,0.45727453460694695,0.4582575694955843,0.43485629810317816,0.3871692136521186,0.4431703961232068,0.4223742416388574,0.4237924020083417,0.4348562981031783,0.4786439177509731,0.4330127018922194,0.45287967496896964,0.3861346915261561,0.4454211490264016,0.44676615807377323,0.49909918853871127,0.4431703961232066,0.45287967496896964,0.4528796749689697,0.4467661580737737,0.4862098312457284,0.4877499359302881,0.40926763859362236,0.42237424163885734,0.45552167895721496,0.46216880033165325,0.457274534606947,0.41665333311999275,0.39949968710876377,0.3871692136521186,0.4112177038990417,0.518748493973718,0.4467661580737735,0.43081318457076023,0.37416573867739417,0.43588989435406755,0.4223742416388574,0.34914180500192205,0.5095095681142796,0.5172040216394304,0.46518813398452,0.4454211490264016,0.42237424163885734,0.46216880033165325,0.3840572873934302,0.45814844755821216,0.46216880033165325,0.42237424163885734,0.5276362383309168,0.41121770389904166,0.4357751713900183,0.45552167895721507,0.47958315233127213,0.3919183588453083,0.47444704657105796,0.4242640687119285,0.43588989435406744,0.4242640687119285,0.46518813398452,0.47947888378947395,0.4200000000000001,0.46518813398452,0.5187484939737177,0.42237424163885734,0.4673328578219168,0.43301270189221913,0.4572745346069475
4,0.37993040293703856,0.03340492365055471,0.4121892769104988,0.3593048844644333,0.3861346915261562,0.41121770389904155,0.4112177038990416,0.3720215047547653,0.3458323293158119,0.3979949748426478,0.37416573867739417,0.41218927691049884,0.41121770389904166,0.34641016151377546,0.3303028912982745,0.3536947836765477,0.29849623113198587,0.3919183588453083,0.35707142142714227,0.2998332870112991,0.35707142142714243,0.39547439866570383,0.2958039891549808,0.41121770389904144,0.38613469152615626,0.43301270189221946,0.34409301068170484,0.4223742416388574,0.3919183588453081,0.40926763859362225,0.34409301068170484,0.3720215047547653,0.4302324952859788,0.35707142142714243,0.345832329315812,0.3693237062523878,0.3861346915261562,0.4023679907746143,0.3979949748426478,0.34583232931581187,0.3570714214271425,0.3736308338453885,0.3458323293158121,0.41218927691049884,0.399499687108764,0.33030289129827467,0.3861346915261561,0.34409301068170484,0.39547439866570394,0.39949968710876405,0.3693237062523878,0.4121892769104988,0.3570714214271424,0.4166533331199927,0.3570714214271424,0.40926763859362253,0.4582575694955841,0.3136877428271623,0.3840572873934302,0.3994996871087638,0.4063249930782005,0.38613469152615615,0.3655133376499411,0.35930488446443354,0.34641016151377546,0.34583232931581187,0.4357751713900183,0.3736308338453887,0.395474398665704,0.3303028912982746,0.38091993909481786,0.3720215047547653,0.3370459909270542,0.4357751713900183,0.42379240200834234,0.3919183588453083,0.3411744421846396,0.34583232931581215,0.43485629810317816,0.3693237062523879,0.34583232931581187,0.37202150475476525,0.37202150475476525,0.4454211490264017,0.37202150475476525,0.38613469152615626,0.38405728739343026,0.43023249528597873,0.3491418050019219,0.42,0.37416573867739417,0.3840572873934302,0.3861346915261562,0.3720215047547653,0.41121770389904166,0.34409301068170495,0.3736308338453885,0.4357751713900183,0.37202150475476525,0.3979949748426478,0.4112177038990415,0.3871692136521186
5,0.34581290548593563,0.03172435025930756,0.38613469152615626,0.3278719262150999,0.3593048844644334,0.3570714214271426,0.3440930106817049,0.34409301068170484,0.29983328701129885,0.3593048844644333,0.3458323293158117,0.3840572873934303,0.38613469152615615,0.33151168908501527,0.3303028912982745,0.3411744421846396,0.29849623113198576,0.3440930106817049,0.33030289129827456,0.282842712474619,0.3411744421846396,0.39547439866570383,0.2628687885618982,0.38716921365211865,0.3440930106817049,0.4063249930782005,0.2998332870112989,0.3979949748426478,0.3655133376499412,0.35930488446443337,0.3136877428271623,0.3593048844644334,0.365513337649941,0.29849623113198587,0.33030289129827467,0.3570714214271426,0.34409301068170484,0.391918358845308,0.3840572873934303,0.2958039891549812,0.299833287011299,0.3315116890850154,0.3155946767611902,0.34641016151377546,0.34583232931581187,0.31368774282716216,0.33030289129827456,0.34409301068170484,0.3954743986657037,0.35930488446443326,0.3411744421846394,0.39949968710876405,0.3278719262151002,0.39191835884530807,0.3570714214271423,0.3570714214271425,0.3919183588453083,0.28213471959331765,0.3720215047547654,0.3840572873934303,0.35707142142714227,0.37202150475476525,0.34914180500192193,0.31559467676119013,0.31622776601683794,0.2984962311319857,0.34583232931581176,0.3315116890850152,0.3570714214271421,0.29580398915498063,0.38091993909481786,0.3440930106817049,0.33704599092705395,0.3736308338453884,0.37416573867739417,0.3536947836765476,0.3104834939252004,0.282842712474619,0.39547439866570394,0.3536947836765474,0.3303028912982746,0.34409301068170484,0.31368774282716216,0.37363083384538837,0.3303028912982747,0.3303028912982748,0.3693237062523879,0.3720215047547653,0.30594117081556726,0.34409301068170484,0.33151168908501527,0.34409301068170484,0.29983328701129897,0.3570714214271424,0.37363083384538837,0.2958039891549809,0.3458323293158121,0.39949968710876393,0.35930488446443326,0.35930488446443337,0.3861346915261562,0.3315116890850153
6,0.3277712793847772,0.03260350303979932,0.3458323293158121,0.3136877428271622,0.3155946767611901,0.33030289129827467,0.3136877428271622,0.33030289129827467,0.2998332870112988,0.35930488446443326,0.34583232931581165,0.35930488446443326,0.37363083384538837,0.3315116890850152,0.3303028912982745,0.34117444218463944,0.2821347195933176,0.32787192621509986,0.33030289129827456,0.282842712474619,0.3411744421846396,0.39547439866570383,0.22338307903688687,0.36041642581880184,0.3440930106817049,0.3809199390948178,0.26286878856189827,0.36932370625238775,0.3411744421846396,0.3440930106817049,0.2958039891549808,0.34583232931581204,0.3370459909270542,0.24166091947189117,0.33030289129827467,0.34117444218463944,0.31559467676119063,0.3536947836765476,0.3720215047547653,0.25980762113533173,0.24413111231467396,0.29983328701129897,0.31559467676118996,0.33151168908501527,0.299833287011299,0.31368774282716216,0.3303028912982745,0.33151168908501544,0.35930488446443326,0.34583232931581187,0.3411744421846394,0.3736308338453886,0.3136877428271622,0.35369478367654755,0.3570714214271423,0.34409301068170484,0.36551333764994115,0.2821347195933176,0.37202150475476525,0.3593048844644333,0.3570714214271422,0.33030289129827456,0.34914180500192177,0.2821347195933176,0.31622776601683794,0.26286878856189794,0.31622776601683794,0.282842712474619,0.34409301068170484,0.2799999999999999,0.38091993909481786,0.2984962311319859,0.3316624790355398,0.3458323293158117,0.36041642581880184,0.3411744421846396,0.3104834939252004,0.282842712474619,0.3411744421846398,0.3536947836765474,0.31559467676119024,0.32787192621510003,0.3104834939252002,0.35369478367654783,0.3303028912982747,0.3136877428271622,0.34117444218463966,0.3570714214271423,0.3059411708155672,0.34409301068170484,0.29983328701129885,0.3136877428271622,0.282842712474619,0.3278719262150999,0.33151168908501544,0.2958039891549809,0.3458323293158119,0.3604164258188018,0.35930488446443326,0.3315116890850156,0.35930488446443337,0.29849623113198576
7,0.32104595993497365,0.03305286083580686,0.34583232931581187,0.3136877428271622,0.31559467676119,0.3155946767611903,0.3136877428271622,0.2984962311319857,0.2998332870112988,0.34583232931581187,0.33030289129827467,0.3458323293158121,0.34583232931581187,0.2998332870112987,0.3303028912982745,0.34117444218463944,0.2821347195933176,0.32787192621509986,0.33030289129827456,0.282842712474619,0.3411744421846396,0.39547439866570383,0.22338307903688684,0.3458323293158118,0.3440930106817049,0.3809199390948178,0.2628687885618982,0.35369478367654766,0.3411744421846396,0.3440930106817049,0.2958039891549808,0.33151168908501527,0.32419130154894654,0.22158519806160326,0.33030289129827467,0.3278719262151,0.3155946767611906,0.3536947836765476,0.3720215047547653,0.25980762113533173,0.24413111231467396,0.29983328701129897,0.31559467676118996,0.33151168908501527,0.29983328701129897,0.31368774282716216,0.3303028912982745,0.3303028912982746,0.34409301068170484,0.34583232931581187,0.3411744421846394,0.3736308338453886,0.3136877428271622,0.3104834939252003,0.3570714214271423,0.3278719262151,0.3655133376499411,0.2643860813280457,0.37202150475476525,0.3593048844644333,0.3570714214271422,0.29849623113198587,0.32419130154894643,0.2821347195933176,0.31622776601683794,0.26286878856189794,0.31622776601683794,0.2643860813280456,0.34409301068170484,0.2799999999999998,0.38091993909481786,0.2984962311319859,0.33166247903553975,0.34409301068170484,0.3604164258188018,0.3278719262150999,0.3104834939252004,0.282842712474619,0.337045990927054,0.3536947836765474,0.31559467676119024,0.32787192621510003,0.29580398915498096,0.34117444218463955,0.3303028912982747,0.2984962311319858,0.34117444218463966,0.31559467676119024,0.3059411708155672,0.34409301068170484,0.2821347195933176,0.2821347195933176,0.282842712474619,0.32787192621509986,0.2821347195933176,0.2958039891549809,0.3458323293158119,0.3315116890850153,0.35930488446443326,0.29983328701129897,0.3570714214271423,0.29849623113198565
8,0.31685060886490723,0.03488110752165943,0.34583232931581187,0.3136877428271622,0.31559467676119,0.3155946767611903,0.3136877428271622,0.2821347195933176,0.2821347195933176,0.3458323293158117,0.3136877428271622,0.3315116890850154,0.34583232931581187,0.2998332870112987,0.3303028912982745,0.34117444218463944,0.2821347195933176,0.32787192621509986,0.33030289129827456,0.282842712474619,0.3411744421846396,0.39547439866570383,0.2,0.3458323293158118,0.3440930106817049,0.3809199390948178,0.2628687885618982,0.35369478367654766,0.3411744421846396,0.3440930106817049,0.2958039891549808,0.3155946767611907,0.32419130154894654,0.22158519806160326,0.33030289129827467,0.3278719262150999,0.29983328701129885,0.3536947836765476,0.3720215047547653,0.25980762113533173,0.24413111231467396,0.29983328701129897,0.31559467676118996,0.33151168908501527,0.29983328701129897,0.31368774282716216,0.3303028912982745,0.3155946767611901,0.32787192621510003,0.34583232931581187,0.3411744421846394,0.3736308338453886,0.3136877428271622,0.2958039891549809,0.3570714214271423,0.3278719262151,0.3655133376499411,0.2643860813280456,0.37202150475476525,0.3593048844644333,0.3570714214271422,0.2984962311319857,0.29580398915498074,0.2821347195933176,0.31622776601683794,0.26286878856189794,0.282842712474619,0.2643860813280456,0.34409301068170484,0.27999999999999975,0.38091993909481786,0.2984962311319859,0.33166247903553975,0.31559467676118996,0.34583232931581226,0.3278719262150999,0.3104834939252004,0.282842712474619,0.2958039891549811,0.3536947836765474,0.31559467676119024,0.32787192621510003,0.29580398915498096,0.34117444218463955,0.3303028912982747,0.27999999999999986,0.34117444218463966,0.2984962311319858,0.3059411708155672,0.34409301068170484,0.2643860813280456,0.2628687885618981,0.282842712474619,0.32787192621509986,0.2628687885618981,0.2958039891549809,0.3458323293158119,0.3315116890850153,0.35930488446443326,0.29983328701129897,0.34117444218463977,0.2984962311319856
9,0.31451873941494574,0.03612426548503697,0.34583232931581187,0.3136877428271622,0.31559467676119,0.3155946767611903,0.3136877428271622,0.2821347195933176,0.2821347195933176,0.3458323293158117,0.2984962311319856,0.3155946767611901,0.33030289129827467,0.2998332870112987,0.3303028912982745,0.34117444218463944,0.2821347195933176,0.32787192621509986,0.33030289129827456,0.282842712474619,0.3411744421846396,0.39547439866570383,0.2,0.3458323293158118,0.3440930106817049,0.3809199390948178,0.2628687885618982,0.3411744421846395,0.3411744421846396,0.3440930106817049,0.2958039891549808,0.3155946767611907,0.32419130154894654,0.22158519806160326,0.33030289129827467,0.3278719262150999,0.29983328701129885,0.3536947836765476,0.3720215047547653,0.25980762113533173,0.24413111231467396,0.2998332870112988,0.31559467676118996,0.33151168908501527,0.29983328701129897,0.31368774282716216,0.3303028912982745,0.31559467676119,0.32787192621510003,0.34583232931581187,0.3411744421846394,0.3736308338453886,0.3136877428271622,0.29580398915498085,0.3570714214271423,0.3278719262151,0.3655133376499411,0.2643860813280456,0.37202150475476525,0.3593048844644333,0.3411744421846397,0.2984962311319857,0.2799999999999998,0.2821347195933176,0.29983328701129874,0.26286878856189794,0.282842712474619,0.2643860813280456,0.34409301068170484,0.2628687885618981,0.38091993909481786,0.2984962311319859,0.33166247903553975,0.31559467676118996,0.33030289129827456,0.3278719262150999,0.3104834939252004,0.282842712474619,0.29580398915498096,0.3536947836765474,0.31559467676119024,0.32787192621510003,0.29580398915498096,0.34117444218463955,0.3303028912982747,0.27999999999999986,0.34117444218463966,0.26286878856189827,0.3059411708155672,0.34409301068170484,0.26438608132804553,0.2215851980616034,0.282842712474619,0.32787192621509986,0.2628687885618981,0.2958039891549809,0.3458323293158119,0.3315116890850153,0.35930488446443326,0.29983328701129897,0.3411744421846397,0.2821347195933176
10,0.3134969690111092,0.03675119618254099,0.34583232931581187,0.3136877428271622,0.31559467676119,0.3155946767611903,0.3136877428271622,0.2821347195933176,0.2821347195933176,0.3458323293158117,0.2984962311319856,0.3155946767611901,0.33030289129827467,0.2998332870112987,0.3303028912982745,0.34117444218463944,0.2821347195933176,0.32787192621509986,0.33030289129827456,0.282842712474619,0.3411744421846396,0.39547439866570383,0.2,0.3458323293158118,0.3440930106817049,0.3809199390948178,0.2628687885618982,0.3411744421846395,0.3411744421846396,0.3440930106817049,0.2958039891549808,0.3155946767611907,0.32419130154894654,0.22158519806160326,0.33030289129827467,0.3278719262150999,0.29983328701129885,0.3536947836765476,0.3720215047547653,0.25980762113533173,0.24413111231467396,0.26438608132804553,0.31559467676118996,0.33151168908501527,0.29983328701129897,0.31368774282716216,0.3303028912982745,0.29849623113198587,0.32787192621510003,0.34583232931581187,0.3411744421846394,0.3736308338453886,0.3136877428271622,0.29580398915498085,0.3570714214271423,0.3136877428271622,0.3655133376499411,0.2643860813280456,0.37202150475476525,0.3593048844644333,0.34117444218463966,0.2984962311319857,0.2799999999999998,0.2821347195933176,0.26438608132804536,0.26286878856189794,0.282842712474619,0.2643860813280456,0.34409301068170484,0.2628687885618981,0.38091993909481786,0.2984962311319859,0.33166247903553975,0.31559467676118996,0.33030289129827456,0.3278719262150999,0.3104834939252004,0.282842712474619,0.29580398915498085,0.3536947836765474,0.31559467676119024,0.32787192621510003,0.29580398915498096,0.34117444218463955,0.3303028912982747,0.27999999999999986,0.34117444218463966,0.2628687885618981,0.3059411708155672,0.34409301068170484,0.26438608132804553,0.2215851980616034,0.282842712474619,0.32787192621509986,0.2628687885618981,0.2958039891549809,0.3458323293158119,0.3315116890850153,0.35930488446443326,0.29983328701129897,0.3411744421846397,0.2821347195933176
11,0.31301195888341765,0.03700693983519344,0.34583232931581187,0.3136877428271622,0.31559467676119,0.3155946767611903,0.3136877428271622,0.2821347195933176,0.2821347195933176,0.3458323293158117,0.2984962311319856,0.29983328701129885,0.33030289129827467,0.2998332870112987,0.3303028912982745,0.34117444218463944,0.2821347195933176,0.32787192621509986,0.33030289129827456,0.282842712474619,0.3411744421846396,0.39547439866570383,0.2,0.3458323293158118,0.3440930106817049,0.3809199390948178,0.2628687885618982,0.3411744421846395,0.3411744421846396,0.3440930106817049,0.2958039891549808,0.3155946767611907,0.32419130154894654,0.22158519806160326,0.33030289129827467,0.3278719262150999,0.29983328701129885,0.3536947836765476,0.3720215047547653,0.25980762113533173,0.24413111231467396,0.26438608132804553,0.31559467676118996,0.33151168908501527,0.29983328701129897,0.31368774282716216,0.3303028912982745,0.2984962311319857,0.32787192621510003,0.34583232931581187,0.3278719262151002,0.3736308338453886,0.3136877428271622,0.29580398915498085,0.3570714214271423,0.3136877428271622,0.3655133376499411,0.2643860813280456,0.37202150475476525,0.3593048844644333,0.34117444218463966,0.2984962311319857,0.2799999999999998,0.2821347195933176,0.2449489742783178,0.26286878856189794,0.282842712474619,0.2643860813280456,0.34409301068170484,0.2628687885618981,0.38091993909481786,0.2984962311319859,0.33166247903553975,0.31559467676118996,0.33030289129827456,0.3278719262150999,0.3104834939252004,0.282842712474619,0.29580398915498085,0.3536947836765474,0.31559467676119024,0.32787192621510003,0.29580398915498096,0.34117444218463955,0.3303028912982747,0.27999999999999986,0.34117444218463966,0.2628687885618981,0.3059411708155672,0.34409301068170484,0.26438608132804553,0.2215851980616034,0.282842712474619,0.32787192621509986,0.2628687885618981,0.2958039891549809,0.3458323293158119,0.3315116890850153,0.35930488446443326,0.29983328701129897,0.3411744421846397,0.2821347195933176
12,0.3125081936642975,0.03711642348985047,0.34583232931581187,0.3136877428271622,0.29849623113198587,0.3155946767611903,0.3136877428271622,0.2821347195933176,0.2821347195933176,0.3458323293158117,0.2984962311319856,0.2998332870112988,0.33030289129827467,0.2998332870112987,0.3303028912982745,0.34117444218463944,0.2821347195933176,0.32787192621509986,0.33030289129827456,0.282842712474619,0.3411744421846396,0.39547439866570383,0.2,0.3458323293158118,0.3440930106817049,0.3809199390948178,0.2628687885618982,0.3411744421846395,0.3411744421846396,0.3440930106817049,0.2958039891549808,0.3155946767611907,0.32419130154894654,0.22158519806160326,0.33030289129827467,0.3278719262150999,0.29983328701129885,0.3536947836765476,0.3720215047547653,0.25980762113533173,0.24413111231467396,0.26438608132804553,0.31559467676118996,0.33151168908501527,0.29983328701129897,0.31368774282716216,0.3303028912982745,0.2984962311319857,0.32787192621510003,0.34583232931581187,0.3278719262151002,0.3736308338453886,0.3136877428271622,0.29580398915498085,0.3570714214271423,0.3136877428271622,0.3655133376499411,0.2643860813280456,0.37202150475476525,0.3593048844644333,0.34117444218463966,0.2984962311319857,0.2799999999999998,0.2821347195933176,0.2449489742783178,0.26286878856189794,0.282842712474619,0.2643860813280456,0.34409301068170484,0.2628687885618981,0.38091993909481786,0.2984962311319859,0.33166247903553975,0.31559467676118996,0.33030289129827456,0.3278719262150999,0.3104834939252004,0.282842712474619,0.29580398915498085,0.3536947836765474,0.31559467676119024,0.32787192621510003,0.29580398915498096,0.34117444218463955,0.3303028912982747,0.27999999999999986,0.34117444218463966,0.2628687885618981,0.3059411708155672,0.34409301068170484,0.2643860813280455,0.2215851980616034,0.282842712474619,0.32787192621509986,0.2628687885618981,0.2958039891549809,0.33030289129827456,0.3315116890850153,0.35930488446443326,0.29983328701129897,0.3411744421846397,0.26438608132804564
13,0.31187989745665856,0.036958484309074544,0.31559467676119,0.29580398915498096,0.29849623113198587,0.3155946767611903,0.3136877428271622,0.2821347195933176,0.2821347195933176,0.3458323293158117,0.2984962311319856,0.2998332870112988,0.33030289129827467,0.2998332870112987,0.3303028912982745,0.34117444218463944,0.2821347195933176,0.32787192621509986,0.3155946767611901,0.282842712474619,0.3411744421846396,0.39547439866570383,0.2,0.3458323293158118,0.3440930106817049,0.3809199390948178,0.2628687885618982,0.3411744421846395,0.3411744421846396,0.3440930106817049,0.2958039891549808,0.3155946767611907,0.32419130154894654,0.22158519806160326,0.33030289129827467,0.3278719262150999,0.29983328701129885,0.3536947836765476,0.3720215047547653,0.25980762113533173,0.24413111231467396,0.26438608132804553,0.31559467676118996,0.33151168908501527,0.29983328701129897,0.31368774282716216,0.3303028912982745,0.2984962311319857,0.32787192621510003,0.34583232931581187,0.3278719262151002,0.3736308338453886,0.3136877428271622,0.29580398915498085,0.3570714214271423,0.3136877428271622,0.3655133376499411,0.2643860813280456,0.37202150475476525,0.3593048844644333,0.34117444218463966,0.2984962311319857,0.2799999999999998,0.2821347195933176,0.2449489742783178,0.26286878856189794,0.282842712474619,0.2643860813280456,0.34409301068170484,0.2628687885618981,0.38091993909481786,0.2984962311319859,0.33166247903553975,0.31559467676118996,0.33030289129827456,0.3278719262150999,0.3104834939252004,0.282842712474619,0.29580398915498085,0.3536947836765474,0.31559467676119024,0.32787192621510003,0.29580398915498096,0.34117444218463955,0.3303028912982747,0.27999999999999986,0.34117444218463966,0.2628687885618981,0.3059411708155672,0.34409301068170484,0.2643860813280455,0.2215851980616034,0.282842712474619,0.32787192621509986,0.2628687885618981,0.2958039891549809,0.33030289129827456,0.3315116890850153,0.35930488446443326,0.29983328701129897,0.3411744421846397,0.26438608132804564
14,0.31141490752209405,0.0371854188225112,0.31559467676119,0.29580398915498096,0.26286878856189827,0.3155946767611903,0.3136877428271622,0.2821347195933176,0.2821347195933176,0.3458323293158117,0.2984962311319856,0.2998332870112988,0.33030289129827467,0.2998332870112987,0.3303028912982745,0.34117444218463944,0.2821347195933176,0.32787192621509986,0.3155946767611901,0.282842712474619,0.3303028912982747,0.39547439866570383,0.2,0.3458323293158118,0.3440930106817049,0.3809199390948178,0.2628687885618982,0.3411744421846395,0.3411744421846396,0.3440930106817049,0.2958039891549808,0.3155946767611907,0.32419130154894654,0.22158519806160326,0.33030289129827467,0.3278719262150999,0.29983328701129885,0.3536947836765476,0.3720215047547653,0.25980762113533173,0.24413111231467396,0.26438608132804553,0.31559467676118996,0.33151168908501527,0.29983328701129897,0.31368774282716216,0.3303028912982745,0.2984962311319857,0.32787192621510003,0.34583232931581187,0.3278719262151002,0.3736308338453886,0.3136877428271622,0.29580398915498085,0.3570714214271423,0.3136877428271622,0.3655133376499411,0.2643860813280456,0.37202150475476525,0.3593048844644333,0.34117444218463966,0.2984962311319857,0.2799999999999998,0.2821347195933176,0.2449489742783178,0.26286878856189794,0.282842712474619,0.2643860813280456,0.34409301068170484,0.2628687885618981,0.38091993909481786,0.2984962311319859,0.33166247903553975,0.31559467676118996,0.33030289129827456,0.3278719262150999,0.3104834939252004,0.282842712474619,0.29580398915498085,0.3536947836765474,0.31559467676119024,0.32787192621510003,0.29580398915498096,0.34117444218463955,0.3303028912982747,0.27999999999999986,0.34117444218463966,0.2628687885618981,0.3059411708155672,0.34409301068170484,0.2643860813280455,0.2215851980616034,0.282842712474619,0.32787192621509986,0.2628687885618981,0.2958039891549809,0.33030289129827456,0.3315116890850153,0.35930488446443326,0.29983328701129897,0.3411744421846397,0.26438608132804564
15,0.3111345849246602,0.036895393530350075,0.31559467676119,0.29580398915498096,0.2628687885618982,0.3155946767611903,0.3136877428271622,0.2821347195933176,0.2821347195933176,0.3458323293158117,0.2984962311319856,0.2998332870112988,0.33030289129827467,0.2998332870112987,0.3303028912982745,0.34117444218463944,0.2821347195933176,0.32787192621509986,0.3155946767611901,0.282842712474619,0.3136877428271622,0.38405728739343037,0.2,0.3458323293158118,0.3440930106817049,0.3809199390948178,0.2628687885618982,0.3411744421846395,0.3411744421846396,0.3440930106817049,0.2958039891549808,0.3155946767611907,0.32419130154894654,0.22158519806160326,0.33030289129827467,0.3278719262150999,0.29983328701129885,0.3536947836765476,0.3720215047547653,0.25980762113533173,0.24413111231467396,0.26438608132804553,0.31559467676118996,0.33151168908501527,0.29983328701129897,0.31368774282716216,0.3303028912982745,0.2984962311319857,0.32787192621510003,0.34583232931581187,0.3278719262151002,0.3736308338453886,0.3136877428271622,0.29580398915498085,0.3570714214271423,0.3136877428271622,0.3655133376499411,0.2643860813280456,0.37202150475476525,0.3593048844644333,0.34117444218463966,0.2984962311319857,0.2799999999999998,0.2821347195933176,0.2449489742783178,0.26286878856189794,0.282842712474619,0.2643860813280456,0.34409301068170484,0.2628687885618981,0.38091993909481786,0.2984962311319859,0.33166247903553975,0.31559467676118996,0.33030289129827456,0.3278719262150999,0.3104834939252004,0.282842712474619,0.29580398915498085,0.3536947836765474,0.31559467676119024,0.32787192621510003,0.29580398915498096,0.34117444218463955,0.3303028912982747,0.27999999999999986,0.34117444218463966,0.2628687885618981,0.3059411708155672,0.34409301068170484,0.2643860813280455,0.2215851980616034,0.282842712474619,0.32787192621509986,0.2628687885618981,0.2958039891549809,0.33030289129827456,0.3315116890850153,0.35930488446443326,0.29983328701129897,0.3411744421846397,0.26438608132804564
16,0.3105466596633344,0.036424883966117566,0.31559467676119,0.29580398915498096,0.2628687885618982,0.3155946767611903,0.3136877428271622,0.2821347195933176,0.2821347195933176,0.3458323293158117,0.2984962311319856,0.2998332870112988,0.33030289129827467,0.2998332870112987,0.29849623113198565,0.34117444218463944,0.2821347195933176,0.32787192621509986,0.3155946767611901,0.282842712474619,0.3136877428271622,0.3570714214271425,0.2,0.3458323293158118,0.3440930106817049,0.3809199390948178,0.2628687885618982,0.3411744421846395,0.3411744421846396,0.3440930106817049,0.2958039891549808,0.3155946767611907,0.32419130154894654,0.22158519806160326,0.33030289129827467,0.3278719262150999,0.29983328701129885,0.3536947836765476,0.3720215047547653,0.25980762113533173,0.24413111231467396,0.26438608132804553,0.31559467676118996,0.33151168908501527,0.29983328701129897,0.31368774282716216,0.3303028912982745,0.2984962311319857,0.32787192621510003,0.34583232931581187,0.3278719262151002,0.3736308338453886,0.3136877428271622,0.29580398915498085,0.3570714214271423,0.3136877428271622,0.3655133376499411,0.2643860813280456,0.37202150475476525,0.3593048844644333,0.34117444218463966,0.2984962311319857,0.2799999999999998,0.2821347195933176,0.2449489742783178,0.26286878856189794,0.282842712474619,0.2643860813280456,0.34409301068170484,0.2628687885618981,0.38091993909481786,0.2984962311319859,0.33166247903553975,0.31559467676118996,0.33030289129827456,0.3278719262150999,0.3104834939252004,0.282842712474619,0.29580398915498085,0.3536947836765474,0.31559467676119024,0.32787192621510003,0.29580398915498096,0.34117444218463955,0.3303028912982747,0.27999999999999986,0.34117444218463966,0.2628687885618981,0.3059411708155672,0.34409301068170484,0.2643860813280455,0.2215851980616034,0.282842712474619,0.32787192621509986,0.2628687885618981,0.2958039891549809,0.33030289129827456,0.3315116890850153,0.35930488446443326,0.29983328701129897,0.3411744421846397,0.26438608132804564
17,0.310251423658973,0.0362222875807202,0.31559467676119,0.29580398915498096,0.2628687885618982,0.3155946767611903,0.3136877428271622,0.2821347195933176,0.2821347195933176,0.3458323293158117,0.2984962311319856,0.2998332870112988,0.33030289129827467,0.2998332870112987,0.29849623113198565,0.34117444218463944,0.2821347195933176,0.32787192621509986,0.3155946767611901,0.282842712474619,0.3136877428271622,0.3570714214271425,0.2,0.3458323293158118,0.3440930106817049,0.3809199390948178,0.2628687885618982,0.3411744421846395,0.3411744421846396,0.3440930106817049,0.2958039891549808,0.3155946767611907,0.32419130154894654,0.22158519806160326,0.33030289129827467,0.3278719262150999,0.29983328701129885,0.3536947836765476,0.3720215047547653,0.25980762113533173,0.24413111231467396,0.26438608132804553,0.31559467676118996,0.33151168908501527,0.29983328701129897,0.31368774282716216,0.3303028912982745,0.2984962311319857,0.32787192621510003,0.34583232931581187,0.3278719262151002,0.3736308338453886,0.3136877428271622,0.29580398915498085,0.3570714214271423,0.3136877428271622,0.3655133376499411,0.2643860813280456,0.37202150475476525,0.3593048844644333,0.34117444218463966,0.2984962311319857,0.2799999999999998,0.2821347195933176,0.2449489742783178,0.26286878856189794,0.282842712474619,0.2643860813280456,0.3278719262150999,0.2628687885618981,0.38091993909481786,0.2984962311319859,0.33166247903553975,0.31559467676118996,0.33030289129827456,0.3278719262150999,0.3104834939252004,0.282842712474619,0.29580398915498085,0.3536947836765474,0.31559467676119024,0.32787192621510003,0.29580398915498096,0.34117444218463955,0.3303028912982747,0.27999999999999986,0.3278719262150999,0.2628687885618981,0.3059411708155672,0.34409301068170484,0.2643860813280455,0.2215851980616034,0.282842712474619,0.32787192621509986,0.2628687885618981,0.2958039891549809,0.33030289129827456,0.3315116890850153,0.35930488446443326,0.29983328701129897,0.3411744421846397,0.26438608132804564
18,0.30996675019174413,0.035897266965172335,0.31559467676119,0.29580398915498096,0.2628687885618982,0.3155946767611903,0.3136877428271622,0.2821347195933176,0.2821347195933176,0.3458323293158117,0.2984962311319856,0.2998332870112988,0.33030289129827467,0.2998332870112987,0.29849623113198565,0.34117444218463944,0.2821347195933176,0.32787192621509986,0.3155946767611901,0.282842712474619,0.3136877428271622,0.3570714214271425,0.2,0.3458323293158118,0.3440930106817049,0.3809199390948178,0.2628687885618982,0.3411744421846395,0.34117444218463955,0.3440930106817049,0.2958039891549808,0.3155946767611907,0.32419130154894654,0.22158519806160326,0.33030289129827467,0.3278719262150999,0.29983328701129885,0.3536947836765476,0.3720215047547653,0.25980762113533173,0.24413111231467396,0.26438608132804553,0.31559467676118996,0.33151168908501527,0.29983328701129897,0.31368774282716216,0.3303028912982745,0.2984962311319857,0.32787192621510003,0.34583232931581187,0.3278719262151002,0.3736308338453886,0.3136877428271622,0.29580398915498085,0.3570714214271423,0.3136877428271622,0.3370459909270542,0.2643860813280456,0.37202150475476525,0.3593048844644333,0.34117444218463966,0.2984962311319857,0.2799999999999998,0.2821347195933176,0.2449489742783178,0.26286878856189794,0.282842712474619,0.2643860813280456,0.3278719262150999,0.2628687885618981,0.38091993909481786,0.2984962311319859,0.33166247903553975,0.31559467676118996,0.33030289129827456,0.3278719262150999,0.3104834939252004,0.282842712474619,0.29580398915498085,0.3536947836765474,0.31559467676119024,0.32787192621510003,0.29580398915498096,0.34117444218463955,0.3303028912982747,0.27999999999999986,0.3278719262150997,0.2628687885618981,0.3059411708155672,0.34409301068170484,0.2643860813280455,0.2215851980616034,0.282842712474619,0.32787192621509986,0.2628687885618981,0.2958039891549809,0.33030289129827456,0.3315116890850153,0.35930488446443326,0.29983328701129897,0.3411744421846397,0.26438608132804564
19,0.30977409088142993,0.03609726608184586,0.31559467676119,0.29580398915498096,0.2628687885618982,0.3155946767611903,0.3136877428271622,0.2821347195933176,0.2628687885618981,0.3458323293158117,0.2984962311319856,0.2998332870112988,0.33030289129827467,0.2998332870112987,0.29849623113198565,0.34117444218463944,0.2821347195933176,0.32787192621509986,0.3155946767611901,0.282842712474619,0.3136877428271622,0.3570714214271425,0.2,0.3458323293158118,0.3440930106817049,0.3809199390948178,0.2628687885618982,0.3411744421846395,0.34117444218463955,0.3440930106817049,0.2958039891549808,0.3155946767611907,0.32419130154894654,0.22158519806160326,0.33030289129827467,0.3278719262150999,0.29983328701129885,0.3536947836765476,0.3720215047547653,0.25980762113533173,0.24413111231467396,0.26438608132804553,0.31559467676118996,0.33151168908501527,0.29983328701129897,0.31368774282716216,0.3303028912982745,0.2984962311319857,0.32787192621510003,0.34583232931581187,0.3278719262151002,0.3736308338453886,0.3136877428271622,0.29580398915498085,0.3570714214271423,0.3136877428271622,0.3370459909270542,0.2643860813280456,0.37202150475476525,0.3593048844644333,0.34117444218463966,0.2984962311319857,0.2799999999999998,0.2821347195933176,0.2449489742783178,0.26286878856189794,0.282842712474619,0.2643860813280456,0.3278719262150999,0.2628687885618981,0.38091993909481786,0.2984962311319859,0.33166247903553975,0.31559467676118996,0.33030289129827456,0.3278719262150999,0.3104834939252004,0.282842712474619,0.29580398915498085,0.3536947836765474,0.31559467676119024,0.32787192621510003,0.29580398915498096,0.34117444218463955,0.3303028912982747,0.27999999999999986,0.3278719262150997,0.2628687885618981,0.3059411708155672,0.34409301068170484,0.2643860813280455,0.2215851980616034,0.282842712474619,0.32787192621509986,0.2628687885618981,0.2958039891549809,0.33030289129827456,0.3315116890850153,0.35930488446443326,0.29983328701129897,0.3411744421846397,0.26438608132804564
