Iteration,Mean,Stdev,Run-0,Run-1,Run-2,Run-3,Run-4,Run-5,Run-6,Run-7,Run-8,Run-9,Run-10,Run-11,Run-12,Run-13,Run-14,Run-15,Run-16,Run-17,Run-18,Run-19,Run-20,Run-21,Run-22,Run-23,Run-24,Run-25,Run-26,Run-27,Run-28,Run-29,Run-30,Run-31,Run-32,Run-33,Run-34,Run-35,Run-36,Run-37,Run-38,Run-39,Run-40,Run-41,Run-42,Run-43,Run-44,Run-45,Run-46,Run-47,Run-48,Run-49,Run-50,Run-51,Run-52,Run-53,Run-54,Run-55,Run-56,Run-57,Run-58,Run-59,Run-60,Run-61,Run-62,Run-63,Run-64,Run-65,Run-66,Run-67,Run-68,Run-69,Run-70,Run-71,Run-72,Run-73,Run-74,Run-75,Run-76,Run-77,Run-78,Run-79,Run-80,Run-81,Run-82,Run-83,Run-84,Run-85,Run-86,Run-87,Run-88,Run-89,Run-90,Run-91,Run-92,Run-93,Run-94,Run-95,Run-96,Run-97,Run-98,Run-99
0,72.11069082798545,17.828540599972566,62.80992491073917,62.23130991724714,61.27367436607214,70.61795419091207,64.3956056425346,63.38913058880848,43.63164151899048,69.92799177621914,74.6941413946099,39.95268440384147,47.64837209612592,66.62085076789684,55.09195743029936,65.73139373115816,77.6155187016757,41.71647235224307,92.57880642518947,74.6941413946099,55.09195743029936,101.6503356656656,100.74913194574286,58.62769601874847,58.641588189270536,86.05539122371879,51.690165105871124,100.74913194574286,77.37623910926432,64.38648513975406,70.21642206531399,101.27643034147052,55.09195743029936,66.62085076789684,74.6941413946099,71.19485388736112,51.690165105871124,74.8486069644482,77.61551870167561,74.4660800788669,63.417061360358545,58.641588189270536,69.41984781306301,58.116675805308624,101.27643034147052,132.43853244141812,52.619819145945364,75.29299233685737,70.2215873092665,69.11629534989979,74.4660800788669,100.74393187602023,71.41521422448919,63.82327223067325,101.6503356656656,58.6415881892706,76.93172725153934,47.64837209612592,102.14504215632869,101.84518371403337,66.62085076789684,38.01025616083649,65.73139373115816,58.972159829561356,92.00698556638805,62.082671001621904,92.57880642518944,72.06209771316868,78.14899236519258,76.98570308262859,73.47051106207292,77.6155187016757,65.73139373115816,101.6503356656656,58.898319843898776,51.81369833457832,43.63164151899048,47.64837209612592,49.68589981937796,74.4660800788669,86.0553912237187,72.946766693406,67.6818354489898,100.95231935129013,100.74393187602023,54.20491314497684,58.641588189270536,72.946766693406,101.27643034147052,64.64720494231823,65.73139373115816,69.28784232933202,76.61002961813892,72.79735891157442,65.96763255737801,73.06973322899816,101.27643034147052,113.80459977814748,74.61689670405211,62.07578748665804,76.61002961813892,74.08621539564436
1,69.04695048388925,19.80184845529424,66.62798525876971,55.16939526775161,103.13159838529124,41.710589280586056,76.98283492020099,64.35720192681659,50.61735651841478,57.522253897941404,78.91863666333258,75.04830912790808,47.56486799242001,71.66244949515804,54.34504034118909,77.26643241869802,53.36375107187467,58.05014623613408,103.86511139896307,78.91863666333258,54.34504034118909,112.83893980526513,85.94571440279427,50.06584454866828,78.89239359204322,86.05539122371879,59.3530784839578,70.00955583159057,61.320479689187856,72.17327312216655,82.76038040820762,83.48969533144823,54.34504034118909,73.90161575862454,79.0641276132943,78.91863666333276,59.3530784839578,56.875674780038935,52.67084827773289,74.9091222905082,60.38650767213534,81.77493463782662,71.07570614178337,69.94146532420808,86.05539122371862,110.89993721660947,44.32424409255778,73.06306482548513,39.90997857836982,45.49600484423964,75.53287868314749,70.00955583159057,63.00185440017045,84.1631566230188,110.02407965404403,69.3120292711158,64.1105505805147,47.790157317171065,69.89299015776442,95.24019236633164,64.35720192681659,74.59476701067751,36.0896143304703,58.03264056868634,81.20179611598397,50.61261295515534,103.86511139896302,82.76038040820762,53.468029932968925,53.899204203221515,45.66872947844379,53.899204203221515,36.922413853710474,110.89993721660947,42.72368773095655,37.45054056865646,50.61735651841478,47.56486799242001,50.318847859963114,75.06545627168552,86.0553912237187,55.08088868172872,104.96597359342164,52.723247110929066,96.82575156476497,84.07053811593026,54.05156910348522,54.90520630498525,86.05539122371862,30.91552286019232,36.922413853710275,51.26882342271347,60.848000220447226,84.67849681480834,91.00323785133477,76.62243214980755,97.84344725343425,86.0553912237187,104.96597359342164,57.222587517263406,57.37918909257162,109.80796777208548
2,66.582834507327,19.82991546956567,54.350857312484095,64.62564279185004,104.00181629804779,93.69215141509535,75.22328704716784,65.2300465624102,48.47007191807986,57.522253897941404,76.88221614779826,73.7849591315068,46.594580214529834,70.88893912776174,46.88447922508174,63.23429467383079,53.899204203221515,58.83958318877917,76.88221614779826,76.88221614779826,46.88447922508174,112.89400602600189,88.40380326303932,48.75811364586713,77.02501744194643,86.05539122371879,47.974504594484806,53.15749701400162,54.65433284591729,55.24500917372491,57.83837633438812,82.42773043526726,50.269629596966,63.73084736394724,77.02501744194643,76.88221614779835,45.66091273565712,57.88979084739099,52.67084827773289,71.2995499731238,59.38671694342678,89.66364772163385,66.06269958792222,70.68138615079769,86.05539122371862,62.48466880846009,47.91931396304816,42.68214876266087,93.5461229444891,65.2300465624102,74.57339068967548,51.41997996406066,63.05256183004162,84.60376058891461,112.50791804725291,65.80710339161783,57.167346532627114,45.713296926697986,54.60822417942993,92.47205739046355,47.70312295974971,73.7849591315068,52.016228240811834,47.55611579737743,105.31543201755812,51.85417936003997,77.02501744194643,59.383940466152794,53.899204203221515,53.468029932968925,83.54452675809975,53.36375107187467,26.28572764414895,62.04119840467997,61.309681627156976,38.320173197791405,49.71797899561429,45.63544700683323,50.750118925445996,74.89418756525212,86.0553912237187,50.80148690023191,104.96597359342164,57.72008126312116,119.71124742364402,59.10226703599492,52.709607464231894,50.73320280288079,86.05539122371862,32.10644606337742,26.28572764414895,57.05961103854585,57.37918909257162,84.67849681480834,92.2040388202694,63.70422883469032,97.84344725343425,86.0553912237187,108.66712649593728,53.30560609081421,54.32967391671633,108.66712649593728
3,67.2894498918701,19.510928918865538,54.350857312484095,61.58711730563655,99.8362705877027,94.85481957180754,76.30122224119006,61.309681627156976,48.12390717778691,57.522253897941404,76.88221614779826,74.23132692112148,45.63544700683323,84.35376140521699,46.88447922508174,58.83291522716319,53.468029932968584,86.86286658686902,77.02501744194643,76.88221614779826,46.88447922508174,112.89400602600189,90.05855617111234,48.75811364586713,77.02501744194643,86.05539122371879,52.58275120797094,53.15749701400162,54.9992160360227,29.974691341173934,60.28579249853167,90.62197841102227,50.269629596966,61.309681627156976,77.02501744194643,76.88221614779835,50.97412021902835,57.88979084739099,52.67084827773289,73.58244582863728,59.38671694342678,86.73891453749145,66.06269958792222,65.80710339161789,86.05539122371862,62.48466880846009,61.454766468536846,93.94438031214838,70.05212087617079,63.730847363947355,73.18906211182707,55.762649086489816,62.010575443138734,84.60376058891461,112.89400602600189,51.52017506077524,58.28842646780674,47.121411583005525,54.60822417942993,83.08135063063942,61.309681627156976,74.23132692112148,52.016228240811834,48.47007191807986,105.31543201755812,54.23248773762795,76.88221614779826,52.016228240811834,53.899204203221515,52.67084827773289,83.54452675809975,53.36375107187467,29.154054354610786,62.04119840467997,63.730847363947355,68.18702703146798,48.76128170442246,46.21210401873642,51.85417936003997,74.57339068967548,83.48969533144823,50.73320280288079,104.96597359342164,57.522253897941404,122.51883483915081,55.29987210055596,52.709607464231894,49.765261782490946,81.76615088200255,40.9264893662198,26.28572764414895,56.47759634200748,54.3296739167166,81.49271380525462,91.00323785133477,62.20124918111697,97.84344725343425,86.0553912237187,108.66712649593728,51.5653749346268,54.9992160360227,108.21790966778958
4,66.18692330591799,20.409130855730336,54.350857312484095,61.08303913628732,99.8362705877027,70.69667744339681,71.74656761141975,65.2300465624102,47.55611579737743,57.522253897941404,76.88221614779826,74.23132692112148,45.43706731303938,85.34654861719773,46.88447922508174,58.83291522716319,54.00029822962084,86.86286658686902,76.88221614779826,76.88221614779826,46.96387226684888,112.89400602600189,83.08135063063942,48.75811364586713,77.02501744194643,86.05539122371879,52.58275120797094,53.15749701400162,54.9992160360227,29.974691341173934,45.823688339824805,122.02552007526734,50.269629596966,63.73084736394724,76.88221614779826,76.88221614779835,52.58275120797094,57.261299143358805,52.67084827773289,73.58244582863728,59.38671694342678,77.02501744194643,68.66710566495284,51.41957186397382,86.05539122371862,62.48466880846009,62.90833456146125,93.94438031214838,74.23132692112154,61.309681627156976,69.37461600212673,55.762649086489816,51.07205614475601,84.60376058891461,112.89400602600189,27.812372546149938,57.5640429924632,46.49390141477547,54.60822417942993,88.40380326303932,61.309681627156976,74.23132692112148,57.60176498746397,47.55611579737743,105.31543201755812,54.848123020960074,76.88221614779826,52.016228240811834,53.899204203221515,52.77950564105514,83.54452675809975,53.899204203221515,29.154054354610786,62.04119840467997,63.730847363947355,72.36915614912895,49.35690700198813,46.21210401873642,54.67310024886496,74.57339068967548,83.48969533144823,49.765261782490946,104.96597359342164,57.72008126312116,122.51883483915081,55.29987210055596,52.709607464231894,51.07514379517749,58.935323193929904,35.108375375581566,26.28572764414895,57.05961103854585,54.9992160360227,46.50541396171456,92.2040388202694,62.20124918111697,97.84344725343425,86.0553912237187,108.66712649593728,52.58275120797094,54.9992160360227,108.21790966778958
5,66.73432154039584,21.37221551162866,54.350857312484095,61.08303913628732,99.8362705877027,74.23132692112154,75.81586233069953,65.2300465624102,47.55611579737743,57.807028781292985,76.88221614779826,74.23132692112148,46.8380738848252,85.69040909048927,46.88447922508174,63.249871672863875,53.72192927276043,86.86286658686902,77.02501744194643,76.88221614779826,46.96387226684888,112.89400602600189,83.08135063063942,48.75811364586713,77.02501744194643,86.05539122371879,50.97412021902835,51.41997996406066,54.9992160360227,29.974691341173934,45.823688339824805,122.02552007526734,50.269629596966,65.2300465624102,76.88221614779826,77.02501744194643,50.97412021902835,57.05961103854566,52.67084827773289,71.2995499731238,59.38671694342678,77.02501744194643,69.76070997399614,27.997457568867066,86.05539122371862,91.1927263694111,87.96627426381664,93.83539202780177,74.23132692112154,61.309681627156976,70.93507146130243,53.15749701400162,62.18619639145879,84.60376058891461,112.89400602600189,27.812372546149938,58.28842646780674,46.49390141477547,54.60822417942993,90.05855617111234,63.73084736394724,74.23132692112148,52.016228240811834,47.55611579737743,105.31543201755812,53.81226062605942,76.88221614779826,52.016228240811834,53.36375107187439,53.468029932968925,83.54452675809975,53.899204203221515,29.154054354610786,91.77249347477606,63.730847363947355,72.36915614912895,48.47007191807986,46.594580214529834,54.243593520624486,73.24650491152103,83.48969533144823,49.765261782490946,104.96597359342164,57.522253897941404,119.71124742364402,55.29987210055596,52.709607464231894,51.14376970454593,58.935323193929904,35.108375375581566,26.28572764414895,57.261299143358805,54.9992160360227,29.154054354610786,95.4565481464077,59.230257725516296,97.84344725343425,86.0553912237187,108.66712649593728,52.58275120797094,54.22590913290751,108.21790966778958
6,66.75934826228276,21.58479596218794,54.350857312484095,61.08303913628732,103.76228639276195,74.23132692112154,76.30122224119006,61.309681627156976,48.47007191807986,57.807028781292985,76.88221614779826,74.23132692112148,45.63544700683323,82.55013950755098,46.88447922508174,63.249871672863875,54.00029822962084,86.86286658686902,76.88221614779826,77.02501744194643,46.96387226684888,113.12979649161689,82.98824098986161,48.75811364586713,77.02501744194643,81.7661508820028,50.97412021902835,51.41997996406066,54.9992160360227,31.024350519607527,45.823688339824805,122.02552007526734,50.269629596966,63.73084736394724,76.88221614779826,77.02501744194643,52.58275120797094,57.05961103854566,52.67084827773289,71.2995499731238,59.38671694342678,77.02501744194643,68.66710566495284,27.997457568867066,107.02570842963647,91.1927263694111,87.9063572773235,93.83539202780177,74.23132692112154,61.309681627156976,71.2995499731238,53.15749701400162,62.18619639145879,84.60376058891461,112.89400602600189,27.946353809945304,58.28842646780674,45.91394248350482,54.60822417942993,90.05855617111234,65.2300465624102,73.7849591315068,52.016228240811834,47.55611579737743,105.31543201755812,67.69682780943796,76.88221614779826,52.016228240811834,52.67084827773289,53.468029932968925,83.54452675809975,54.00029822962084,29.154054354610786,62.52966094373192,63.730847363947355,72.36915614912895,48.12390717778691,45.63544700683323,54.243593520624486,73.58244582863728,83.48969533144823,49.765261782490946,104.96597359342164,58.64018127816432,122.9085195640455,55.29987210055596,52.709607464231894,51.14376970454593,58.935323193929904,34.29381262173399,26.28572764414895,56.67930623235761,54.9992160360227,29.154054354610786,95.4565481464077,62.20124918111697,97.84344725343425,86.0553912237187,108.66712649593728,50.97412021902835,54.22590913290751,108.21790966778958
7,67.25570863902868,21.839923580631773,86.2490001945113,64.16135455952956,103.76228639276195,73.7849591315068,76.30122224119006,63.73084736394724,48.47007191807986,58.004851306373105,76.88221614779826,74.23132692112148,45.43706731303938,82.55013950755098,46.88447922508174,60.83412275428724,54.00029822962084,86.0735746474355,77.02501744194643,76.88221614779826,46.96387226684888,113.12979649161689,82.98824098986161,48.75811364586713,77.02501744194643,58.357309651232775,50.97412021902835,51.60192843491413,54.225909132907645,29.974691341173934,45.823688339824805,122.02552007526734,50.269629596966,65.2300465624102,76.88221614779826,77.02501744194643,52.58275120797094,57.88979084739099,52.67084827773289,74.89418756525218,59.38671694342678,77.02501744194643,69.76070997399614,27.997457568867066,110.65760489503852,91.1927263694111,84.5057542051869,93.83539202780177,74.23132692112154,65.2300465624102,74.89418756525218,53.15749701400162,62.18619639145879,84.60376058891461,112.89400602600189,27.812372546149938,57.5640429924632,47.121411583005525,54.60822417942993,88.40380326303932,65.2300465624102,73.7849591315068,52.016228240811834,47.816457239680936,108.68626871252717,67.69682780943796,76.88221614779826,52.016228240811834,53.899204203221515,52.77950564105514,83.54452675809975,52.67084827773309,29.154054354610786,91.7586796733016,63.730847363947355,68.4849709381264,48.12390717778691,45.43706731303938,54.243593520624486,74.07357197978274,86.0553912237187,49.765261782490946,104.96597359342164,58.004851306373105,122.9085195640455,55.29987210055596,52.709607464231894,50.79198826789381,58.935323193929904,34.29381262173399,26.28572764414895,58.0913307907138,54.225909132907645,29.154054354610786,95.4565481464077,62.20124918111697,97.84344725343425,83.48969533144823,108.66712649593728,50.97412021902835,53.57713310015287,108.21790966778958
8,67.13267194124649,21.82423524309523,86.2490001945113,61.08303913628732,103.90716136740721,73.7849591315068,75.81586233069953,61.309681627156976,47.55611579737743,58.004851306373105,76.88221614779826,74.23132692112148,45.63544700683323,82.55013950755098,46.88447922508174,70.5192613967575,53.468029932968584,86.0735746474355,76.88221614779826,77.02501744194643,46.88447922508174,113.12979649161689,82.98824098986161,48.75811364586713,77.02501744194643,58.357309651232775,50.97412021902835,51.60192843491413,54.225909132907645,29.974691341173934,45.823688339824805,122.02552007526734,50.269629596966,65.2300465624102,77.02501744194643,77.02501744194643,52.58275120797094,58.0913307907138,53.899204203221515,74.89418756525218,59.38671694342678,76.88221614779826,69.76070997399614,27.997457568867066,110.65760489503852,91.1927263694111,84.5057542051869,93.83539202780177,74.23132692112154,65.2300465624102,74.89418756525218,55.762649086489816,51.31590837563724,84.60376058891461,112.89400602600189,27.812372546149938,57.167346532627114,46.594580214529834,54.60822417942993,90.05855617111234,61.309681627156976,74.23132692112148,52.016228240811834,47.816457239680936,108.2754044943481,67.4556291734148,77.02501744194643,52.016228240811834,53.899204203221515,54.00029822962084,83.54452675809975,52.67084827773309,26.28572764414895,91.19272636941098,63.730847363947355,68.4849709381264,48.47007191807986,45.63544700683323,53.812260626059356,73.58244582863728,83.48969533144823,49.765261782490946,104.96597359342164,58.004851306373105,122.9085195640455,55.29987210055596,52.709607464231894,50.725965993622864,59.412990067144726,36.77405383219244,26.28572764414895,57.88979084739118,54.225909132907645,29.154054354610786,94.32442636122339,62.20124918111697,97.84344725343425,86.0553912237187,104.96597359342164,50.97412021902835,53.57713310015287,108.21790966778958
9,66.97913917631936,21.477991459167118,86.2490001945113,64.16135455952956,103.76228639276195,73.7849591315068,73.47197512544227,63.73084736394724,48.47007191807986,57.807028781292985,76.88221614779826,74.23132692112148,46.594580214529834,82.55013950755098,46.88447922508174,70.5192613967575,52.77950564105486,86.86286658686902,77.02501744194643,77.02501744194643,46.88447922508174,109.95541907279384,82.98824098986161,48.75811364586713,77.02501744194643,58.357309651232775,50.97412021902835,51.41997996406066,54.3296739167166,31.024350519607527,45.823688339824805,122.02552007526734,50.269629596966,61.309681627156976,77.02501744194643,77.02501744194643,52.58275120797094,58.0913307907138,53.72192927276036,74.89418756525218,59.38671694342678,77.02501744194643,69.76070997399614,27.997457568867066,110.65760489503852,91.7586796733016,84.5057542051869,93.83539202780177,74.23132692112154,65.2300465624102,74.89418756525218,55.762649086489816,62.010575443138734,84.60376058891461,112.89400602600189,27.812372546149938,56.446932913239436,46.21210401873642,54.60822417942993,88.40380326303932,63.73084736394724,74.23132692112148,52.016228240811834,47.816457239680936,105.31543201755812,68.06250429178444,77.02501744194643,52.016228240811834,53.61918965600625,54.00029822962084,83.18198072715055,53.899204203221515,26.28572764414895,62.48466880845986,65.2300465624102,68.59953456549417,48.12390717778691,45.63544700683323,54.23248773762795,74.89418756525212,83.48969533144823,49.83029384410193,104.96597359342164,57.807028781292985,122.9085195640455,55.29987210055596,52.709607464231894,50.725965993622864,59.412990067144726,36.77405383219244,26.28572764414895,57.05961103854585,54.225909132907645,29.154054354610786,95.4565481464077,62.20124918111697,97.84344725343425,86.0553912237187,104.96597359342164,52.58275120797094,54.22590913290751,108.21790966778958
10,66.73473092559738,21.44580880790831,86.2490001945113,64.16135455952956,103.76228639276195,73.7849591315068,72.98503411700763,65.2300465624102,47.55611579737743,57.807028781292985,76.88221614779826,74.23132692112148,46.21210401873642,85.34654861719773,46.88447922508174,70.5192613967575,54.00029822962084,86.86286658686902,77.02501744194643,77.02501744194643,46.88447922508174,109.95541907279384,82.98824098986161,48.75811364586713,77.02501744194643,58.357309651232775,50.97412021902835,51.41997996406066,54.3296739167166,31.024350519607527,45.823688339824805,122.02552007526734,50.269629596966,61.309681627156976,77.02501744194643,77.02501744194643,50.97412021902835,57.261299143358805,53.72192927276036,73.58244582863728,59.38671694342678,77.02501744194643,68.66710566495284,27.997457568867066,110.65760489503852,80.48326442113213,84.5057542051869,93.94438031214838,74.23132692112154,65.2300465624102,70.93507146130243,55.762649086489816,51.07205614475601,84.60376058891461,112.89400602600189,27.812372546149938,56.446932913239436,45.43706731303938,49.76203940496767,90.05855617111234,65.2300465624102,73.7849591315068,52.016228240811834,47.816457239680936,108.2754044943481,68.06250429178444,76.88221614779826,52.016228240811834,53.61918965600625,54.00029822962084,83.18198072715055,52.67084827773309,26.28572764414895,62.04119840467997,63.730847363947355,72.36897160179669,48.12390717778691,46.594580214529834,54.67310024886496,74.57339068967548,81.07917377824002,49.83029384410193,104.96597359342164,57.807028781292985,119.71124742364402,55.29987210055596,52.709607464231894,50.725965993622864,59.412990067144726,38.11757190409141,29.15405435461066,56.47759634200748,54.9992160360227,29.154054354610786,95.4565481464077,62.20124918111697,97.84344725343425,83.48969533144823,108.66712649593728,52.58275120797094,54.9992160360227,108.66712649593728
11,66.79053005014988,21.47005828633605,86.2490001945113,61.08303913628732,103.76228639276195,74.23132692112154,77.89446500847846,61.309681627156976,48.47007191807986,57.522253897941404,76.88221614779826,74.23132692112148,46.21210401873642,84.90392552869547,46.96387226684888,70.5192613967575,54.00029822962084,86.86286658686902,76.88221614779826,77.02501744194643,46.88447922508174,109.73331583981228,82.98824098986161,48.75811364586713,77.02501744194643,58.357309651232775,50.97412021902835,51.41997996406066,54.3296739167166,29.974691341173934,45.823688339824805,122.02552007526734,50.269629596966,61.309681627156976,76.88221614779826,76.88221614779835,50.97412021902835,56.7760279088102,53.36375107187439,73.24650491152103,59.38671694342678,77.02501744194643,69.76070997399614,27.997457568867066,110.65760489503852,80.48326442113213,87.9063572773235,93.94438031214838,74.23132692112154,65.2300465624102,73.24650491152103,55.762649086489816,62.010575443138734,84.60376058891461,113.12979649161689,27.812372546149938,56.446932913239436,45.713296926697986,49.76203940496767,90.05855617111234,63.73084736394724,73.7849591315068,52.016228240811834,47.816457239680936,108.2754044943481,54.46265089721719,76.88221614779826,57.60176498746397,53.61918965600625,54.00029822962084,83.18198072715055,53.899204203221515,29.154054354610786,62.48466880845986,65.2300465624102,68.59932215853422,49.71797899561429,46.8380738848252,54.243593520624486,74.57339068967548,82.9018256185985,49.83029384410193,104.96597359342164,57.807028781292985,119.71124742364402,55.29987210055596,52.77988699424463,50.725965993622864,59.412990067144726,38.11757190409141,26.28572764414895,56.47759634200748,54.9992160360227,29.154054354610786,95.4565481464077,62.20124918111697,97.84344725343425,83.48969533144823,108.66712649593728,50.97412021902835,54.9992160360227,108.66712649593728
12,66.51963599801736,21.42965053218431,81.19488505165133,64.16135455952956,103.76228639276195,74.23132692112154,77.41019974227247,65.2300465624102,48.12390717778691,57.807028781292985,76.88221614779826,74.23132692112148,45.43706731303938,86.21072851333635,46.88447922508174,70.5192613967575,53.36375107187467,58.83958318877917,76.88221614779826,77.02501744194643,46.88447922508174,109.73331583981228,82.98824098986161,48.75811364586713,77.02501744194643,58.18528898669531,52.58275120797094,51.41997996406066,53.99326738046722,31.024350519607527,45.823688339824805,122.02552007526734,50.269629596966,65.2300465624102,76.88221614779826,76.88221614779835,50.97412021902835,56.47759634200722,52.67084827773289,73.24650491152103,59.38671694342678,77.02501744194643,68.66710566495284,27.997457568867066,110.65760489503852,80.48326442113213,95.65943646726862,93.83539202780177,73.7849591315068,65.2300465624102,73.24650491152103,55.762649086489816,63.05256183004162,84.60376058891461,112.89400602600189,27.812372546149938,56.446932913239436,45.43706731303938,49.76203940496767,90.05855617111234,61.309681627156976,74.23132692112148,52.016228240811834,47.816457239680936,105.31543201755812,54.46265089721719,77.02501744194643,52.016228240811834,53.899204203221515,53.899204203221515,83.18198072715055,53.61918965600625,26.28572764414895,62.48466880845986,65.2300465624102,68.59953456549417,49.35690700198813,46.21210401873642,55.30085812975831,74.57339068967548,90.41560896554829,49.83029384410193,104.96597359342164,57.807028781292985,119.71124742364402,55.29987210055596,52.709607464231894,50.725965993622864,59.412990067144726,34.29381262173399,29.15405435461066,57.88979084739118,54.9992160360227,29.154054354610786,95.4565481464077,62.20124918111697,97.84344725343425,80.57323729794163,108.66712649593728,50.97412021902835,54.9992160360227,104.96597359342164
13,67.27616267068466,21.724630448471785,81.19488505165133,64.16135455952956,103.26202208355122,74.23132692112154,76.81311206772519,65.2300465624102,48.12390717778691,58.004851306373105,76.88221614779826,73.7849591315068,45.713296926697986,86.21072851333635,46.88447922508174,70.5192613967575,53.899204203221515,75.04830912790808,77.02501744194643,77.02501744194643,46.88447922508174,109.73331583981228,82.98824098986161,48.19142036620118,77.02501744194643,58.18528898669531,52.58275120797094,51.41997996406066,53.57713310015287,29.974691341173934,44.30916232101488,122.02552007526734,50.269629596966,61.309681627156976,77.02501744194643,76.88221614779835,50.97412021902835,57.05961103854566,53.899204203221515,74.07357197978274,59.38671694342678,77.02501744194643,69.76070997399614,41.47494321406228,110.65760489503852,80.48326442113213,95.65943646726862,93.83539202780177,73.7849591315068,65.2300465624102,73.24650491152103,55.762649086489816,63.05256183004162,88.07745668650068,112.89400602600189,41.40842765347316,56.446932913239436,46.8380738848252,49.76203940496767,90.05855617111234,61.309681627156976,74.23132692112148,52.016228240811834,46.94284605577696,108.68626871252717,54.848123020960074,77.02501744194643,52.016228240811834,53.899204203221515,53.899204203221515,83.18198072715055,52.67084827773309,29.154054354610786,62.52966094373192,65.2300465624102,68.59953456549417,49.35690700198813,46.21210401873642,55.30085812975831,74.57339068967548,122.02552007526715,49.83029384410193,104.96597359342164,57.522253897941404,119.71124742364402,55.29987210055596,52.709607464231894,50.79198826789381,58.935323193929904,34.29381262173399,29.15405435461066,56.47759634200748,54.9992160360227,26.28572764414895,95.4565481464077,62.20124918111697,97.84344725343425,80.57323729794163,108.66712649593728,50.97412021902835,54.9992160360227,104.96597359342164
14,67.04258777914244,21.804852194709916,81.19488505165133,64.16135455952956,103.26202208355122,74.23132692112154,77.31061084228956,61.309681627156976,48.12390717778691,58.004851306373105,77.02501744194643,74.23132692112148,45.43706731303938,86.21072851333635,46.88447922508174,70.5192613967575,53.61918965600625,74.23132692112148,76.88221614779826,77.02501744194643,46.88447922508174,109.73331583981228,83.08135063063942,48.75811364586713,77.02501744194643,58.18528898669531,50.97412021902835,51.41997996406066,53.57713310015287,29.974691341173934,44.30916232101488,122.02552007526734,50.269629596966,61.309681627156976,76.88221614779826,77.02501744194643,50.97412021902835,56.47759634200722,53.899204203221515,74.07357197978274,59.38671694342678,77.02501744194643,68.66710566495284,41.40842765347316,110.65760489503852,80.48326442113213,95.65943646726862,93.83539202780177,74.23132692112154,65.2300465624102,74.57339068967548,55.762649086489816,51.07205614475601,87.6528537265442,112.89400602600189,41.47494321406228,57.5640429924632,45.63544700683323,49.76203940496767,88.40380326303932,61.309681627156976,74.23132692112148,52.016228240811834,46.94284605577696,105.31543201755812,54.848123020960074,77.02501744194643,52.016228240811834,54.00029822962084,53.899204203221515,83.18198072715055,53.899204203221515,29.154054354610786,62.52966094373192,63.730847363947355,72.36915614912895,47.81645723968109,46.594580214529834,55.30085812975831,74.57339068967548,122.02552007526715,51.14376970454593,104.96597359342164,57.522253897941404,119.71124742364402,55.29987210055596,52.709607464231894,50.725965993622864,58.935323193929904,34.29381262173399,26.28572764414895,56.47759634200748,54.9992160360227,26.28572764414895,95.4565481464077,59.230257725516296,97.84344725343425,82.42773043526735,108.66712649593728,50.97412021902835,54.65433284591722,104.96597359342164
15,67.00539864873627,21.663654180828637,81.19488505165133,61.08303913628732,99.62213762533143,74.23132692112154,77.41019974227247,65.2300465624102,48.47007191807986,58.004851306373105,77.02501744194643,74.23132692112148,46.21210401873642,86.21072851333635,46.88447922508174,70.5192613967575,53.899204203221515,74.23132692112148,77.02501744194643,77.02501744194643,46.88447922508174,109.73331583981228,83.08135063063942,48.75811364586713,77.02501744194643,58.18528898669531,50.97412021902835,51.41997996406066,53.57713310015287,31.024350519607527,44.30916232101488,122.02552007526734,50.269629596966,61.309681627156976,76.88221614779826,77.02501744194643,50.97412021902835,56.67930623235761,54.00029822962084,74.07357197978274,59.38671694342678,77.02501744194643,68.66710566495284,41.40842765347316,110.65760489503852,80.48326442113213,89.1943430549882,93.94438031214838,74.23132692112154,61.309681627156976,74.57339068967548,51.26231288343942,51.07205614475601,87.6528537265442,112.89400602600189,41.40842765347316,58.28842646780674,46.8380738848252,49.76203940496767,88.40380326303932,63.73084736394724,74.23132692112148,52.016228240811834,46.94284605577696,105.31543201755812,54.46265089721719,77.02501744194643,57.60176498746397,54.00029822962084,52.67084827773289,83.18198072715055,53.899204203221515,26.28572764414895,62.52966094373192,63.730847363947355,68.59953456549417,46.94284605577696,46.8380738848252,54.243593520624486,74.57339068967548,122.02552007526715,51.07514379517749,104.96597359342164,57.522253897941404,119.71124742364402,55.29987210055596,52.77988699424463,50.725965993622864,58.935323193929904,34.29381262173399,29.15405435461066,57.261299143358805,54.225909132907645,26.28572764414895,92.2040388202694,62.20124918111697,97.84344725343425,90.41560896554829,108.66712649593728,50.97412021902835,54.9992160360227,104.96597359342164
16,67.7396208642704,21.89508911481751,81.15202563646436,61.58711730563655,99.62213762533143,74.23132692112154,77.89446500847846,61.309681627156976,48.47007191807986,57.807028781292985,77.02501744194643,74.23132692112148,46.21210401873642,86.21072851333635,46.88447922508174,70.5192613967575,53.36375107187467,74.23132692112148,76.88221614779826,77.02501744194643,46.88447922508174,109.73331583981228,82.98824098986161,48.75811364586713,77.02501744194643,58.18528898669531,50.97412021902835,51.41997996406066,53.99326738046722,31.024350519607527,44.30916232101488,122.02552007526734,50.269629596966,61.309681627156976,76.88221614779826,77.02501744194643,52.58275120797094,57.261299143358805,53.61918965600625,74.07357197978274,59.38671694342678,77.02501744194643,69.76070997399614,46.85161089937658,110.65760489503852,80.48326442113213,95.65943646726862,93.83539202780177,74.23132692112154,61.309681627156976,74.57339068967548,51.26231288343942,62.010575443138734,87.6528537265442,113.12979649161689,41.47494321406228,57.5640429924632,46.8380738848252,49.76203940496767,83.08135063063942,61.309681627156976,74.23132692112148,52.016228240811834,46.94284605577696,105.31543201755812,68.09251587663071,77.02501744194643,52.016228240811834,52.77950564105514,52.77950564105514,83.18198072715055,53.61918965600625,29.154054354610786,62.52966094373192,63.730847363947355,68.59932215853422,49.35690700198813,46.49390141477547,67.96618905660279,74.57339068967548,122.02552007526715,51.07514379517749,104.96597359342164,57.522253897941404,119.71124742364402,55.29987210055596,52.77988699424463,50.725965993622864,58.935323193929904,39.865446040822626,29.15405435461066,56.67930623235761,54.225909132907645,26.28572764414895,92.2040388202694,62.20124918111697,97.84344725343425,122.02552007526715,104.96597359342164,52.58275120797094,54.65433284591722,104.96597359342164
17,67.65979039751795,22.001812458971678,81.15202563646436,61.58711730563655,103.40499660807765,74.23132692112154,76.77604932822307,63.73084736394724,48.47007191807986,57.807028781292985,76.88221614779826,74.23132692112148,45.63544700683323,82.11338940708923,46.88447922508174,70.5192613967575,53.899204203221515,74.23132692112148,77.02501744194643,77.02501744194643,46.88447922508174,109.73331583981228,82.98824098986161,48.75811364586713,77.02501744194643,58.18528898669531,50.97412021902835,51.41997996406066,53.99326738046722,31.024350519607527,45.823688339824805,122.02552007526734,50.269629596966,61.309681627156976,77.02501744194643,76.88221614779835,52.58275120797094,56.67930623235761,52.67084827773289,74.07357197978274,59.38671694342678,77.02501744194643,68.66710566495284,41.602793666785445,110.65760489503852,80.48326442113213,94.3559721155184,93.83539202780177,74.23132692112154,63.730847363947355,74.57339068967548,51.26231288343942,62.010575443138734,84.60376058891461,113.12979649161689,41.47494321406228,57.5640429924632,46.21210401873642,49.76203940496767,83.08135063063942,63.73084736394724,74.23132692112148,52.016228240811834,46.94284605577696,105.31543201755812,68.21567681569971,77.02501744194643,52.016228240811834,52.77950564105514,52.77950564105514,83.18198072715055,53.899204203221515,29.154054354610786,62.04119840467997,65.2300465624102,71.91511385792545,48.12390717778691,46.49390141477547,67.96618905660279,70.93507146130243,122.02552007526715,49.765261782490946,104.96597359342164,57.522253897941404,119.71124742364402,55.29987210055596,52.709607464231894,50.725965993622864,58.1798997519354,39.865446040822626,26.28572764414895,56.67930623235761,54.225909132907645,26.28572764414895,93.9180981686096,62.85214651157856,97.84344725343425,122.02552007526715,104.96597359342164,52.58275120797094,54.9992160360227,104.96597359342164
18,67.54665737676353,22.007114699964564,81.15202563646436,64.62564279185004,103.40499660807765,73.7849591315068,77.89446500847846,61.309681627156976,48.12390717778691,57.807028781292985,76.88221614779826,74.23132692112148,45.63544700683323,82.11338940708923,46.88447922508174,70.5192613967575,53.36375107187467,74.23132692112148,77.02501744194643,77.02501744194643,46.88447922508174,109.73331583981228,82.98824098986161,48.75811364586713,77.02501744194643,58.18528898669531,50.97412021902835,55.762649086489816,54.225909132907645,29.974691341173934,45.823688339824805,122.02552007526734,50.269629596966,65.2300465624102,77.02501744194643,77.02501744194643,50.97412021902835,56.47759634200722,54.00029822962084,73.24650491152103,59.38671694342678,77.02501744194643,69.76070997399614,46.85161089937658,110.65760489503852,79.71150595107368,87.96627426381664,93.94438031214838,73.7849591315068,63.730847363947355,74.57339068967548,51.41997996406066,51.07205614475601,84.60376058891461,113.12979649161689,43.794133746761794,57.5640429924632,45.63544700683323,49.76203940496767,83.08135063063942,63.73084736394724,74.23132692112148,52.016228240811834,46.94284605577696,105.31543201755812,67.69682780943796,76.88221614779826,57.60176498746397,52.77950564105514,52.77950564105514,83.54452675809975,53.468029932968584,26.28572764414895,62.52966094373192,65.2300465624102,68.07648314673715,47.55611579737743,46.877466625906294,67.96618905660279,70.93507146130243,122.02552007526715,49.765261782490946,104.96597359342164,57.72008126312116,119.71124742364402,55.29987210055596,52.709607464231894,50.725965993622864,58.1798997519354,34.00607709383787,26.28572764414895,57.261299143358805,54.65433284591729,26.28572764414895,93.9180981686096,62.85214651157856,97.84344725343425,122.02552007526715,104.96597359342164,50.97412021902835,54.9992160360227,104.96597359342164
19,67.43051765484987,22.147527086677943,81.15202563646436,61.58711730563655,103.49863570120806,73.7849591315068,75.81586233069953,65.2300465624102,47.55611579737743,57.807028781292985,77.02501744194643,73.7849591315068,45.43706731303938,82.11338940708923,46.88447922508174,70.66211716951943,53.899204203221515,74.23132692112148,77.02501744194643,77.02501744194643,46.88447922508174,109.73331583981228,82.98824098986161,48.75811364586713,77.02501744194643,58.18528898669531,52.58275120797094,51.41997996406066,53.99326738046722,31.024350519607527,45.823688339824805,122.02552007526734,50.269629596966,63.73084736394724,76.88221614779826,77.02501744194643,52.58275120797094,56.67930623235761,54.00029822962084,74.07357197978274,59.38671694342678,76.88221614779826,66.06269958792222,41.40842765347316,110.65760489503852,80.48326442113213,87.9063572773235,93.94438031214838,73.7849591315068,63.730847363947355,74.57339068967548,53.15749701400162,51.07205614475601,84.60376058891461,113.12979649161689,41.40842765347316,58.28842646780674,46.594580214529834,49.76203940496767,82.98824098986161,65.2300465624102,74.23132692112148,52.016228240811834,46.94284605577696,108.68626871252717,67.4556291734148,77.02501744194643,52.016228240811834,52.67084827773289,52.77950564105514,83.18198072715055,54.00029822962084,29.154054354610786,62.52966094373192,65.2300465624102,68.07648314673715,48.76128170442246,45.91394248350482,67.96618905660279,71.2995499731238,122.02552007526715,49.765261782490946,104.96597359342164,57.522253897941404,122.9085195640455,55.55717042894917,52.77988699424463,51.07514379517749,58.1798997519354,34.00607709383787,26.28572764414895,56.67930623235761,54.65433284591729,26.28572764414895,91.00323785133477,59.230257725516296,97.84344725343425,122.02552007526715,104.96597359342164,50.97412021902835,54.15227322696351,104.96597359342164
