Iteration,Mean,Stdev,Run-0,Run-1,Run-2,Run-3,Run-4,Run-5,Run-6,Run-7,Run-8,Run-9,Run-10,Run-11,Run-12,Run-13,Run-14,Run-15,Run-16,Run-17,Run-18,Run-19,Run-20,Run-21,Run-22,Run-23,Run-24,Run-25,Run-26,Run-27,Run-28,Run-29,Run-30,Run-31,Run-32,Run-33,Run-34,Run-35,Run-36,Run-37,Run-38,Run-39,Run-40,Run-41,Run-42,Run-43,Run-44,Run-45,Run-46,Run-47,Run-48,Run-49,Run-50,Run-51,Run-52,Run-53,Run-54,Run-55,Run-56,Run-57,Run-58,Run-59,Run-60,Run-61,Run-62,Run-63,Run-64,Run-65,Run-66,Run-67,Run-68,Run-69,Run-70,Run-71,Run-72,Run-73,Run-74,Run-75,Run-76,Run-77,Run-78,Run-79,Run-80,Run-81,Run-82,Run-83,Run-84,Run-85,Run-86,Run-87,Run-88,Run-89,Run-90,Run-91,Run-92,Run-93,Run-94,Run-95,Run-96,Run-97,Run-98,Run-99
0,1.0128281303261015,0.07022946974122239,1.0770329614269003,1.017644338656684,0.9965440281292144,1.2054459755625717,0.9965440281292144,0.9987992791347026,0.9450396817065408,1.1205355862265152,0.9555626614722871,1.0331989159885915,1.0413452837555845,1.1092339699089628,0.9131812525451898,0.9965440281292146,0.995188424369978,0.9864583113340374,0.9965440281292146,1.0922911699725495,1.079073676817296,0.940425435640699,0.9905049217444603,0.9864583113340375,1.0069260151570234,0.9762684057163791,1.0005498488331301,1.0712142642814275,0.9492628719169413,0.9474175425861617,0.9850888284819799,1.0442221985765283,0.9748846085563146,1.0537551897855584,0.9951884243699775,1.0790736768172962,1.0959470790143104,0.9965440281292146,1.0248902380255156,1.0588200980336553,1.0493331215586397,0.9762684057163791,0.9682974749528173,1.0089103032480153,1.044222198576528,0.9630680142129114,1.0150862032359609,1.016415269464209,1.0922911699725495,0.900222194794151,0.9555626614722871,0.9748846085563144,0.9672641831474995,0.9614572273377524,1.1371455491712572,0.931396800509858,1.1182128598795484,1.0738249391777046,1.0665833300778713,0.8546344247688594,0.9541488353501243,0.9404254356406994,0.906145683651365,1.002197585309403,0.9492628719169419,0.9682974749528174,1.0632027088001603,1.1620671237067157,1.1182128598795484,0.929731143933556,1.0573079021741973,0.9672641831474996,0.8837986195961162,1.005186549850324,0.9748846085563144,0.94757585448343,1.006528688115744,1.00054984883313,1.0775435026020987,0.9718024490605064,1.085311015331551,1.0150862032359609,1.0148891565092217,1.162067123706716,0.9579144011862445,1.0077698149875296,1.0922911699725497,0.9937303457175894,0.9509994742374982,1.0712142642814275,0.9977975746613138,1.180296572900218,1.116915395184434,0.9864583113340375,0.8968834929911463,1.1014081895464556,0.9404254356406991,1.1406577050105777,1.0830974102083344,0.9450396817065412,0.9733961166965893,0.8742997197757754
1,0.7207160561571141,0.0536876745383454,0.7578918128598559,0.7279423054061364,0.6671581521648368,0.8126499861564015,0.7664854858377944,0.7031358332498772,0.6837397165588672,0.7794228634059948,0.7166589146867567,0.8444524853418343,0.7213875518748568,0.7520638270785268,0.7022107945624306,0.7073895673530953,0.7490660852020999,0.726360791893396,0.7665507158694728,0.7262919523166975,0.764918296290525,0.6740919818541083,0.7045565981523414,0.6878226515607058,0.7262919523166973,0.7027801932325638,0.7123903424387502,0.7208328516376037,0.6982120021884469,0.6902173570694959,0.8034923770640269,0.7440430095095311,0.7706490770772387,0.7622991538759566,0.7213875518748574,0.7876547467006084,0.8248636250920507,0.7280109889280517,0.679043444854598,0.6779380502671315,0.7472616676907766,0.7485986908885157,0.6590902821313627,0.6689544080129827,0.6878226515607058,0.6825686778632607,0.7355949972641191,0.7445804187594507,0.7956758133813043,0.6062177826491074,0.6740919818541079,0.643739077577243,0.7291090453423277,0.711055553385247,0.7664854858377944,0.6269768735766895,0.8135723692456618,0.7921489758877427,0.7605261336732622,0.6489221833163047,0.7166589146867568,0.6437390775772429,0.6339558344238181,0.6837397165588669,0.648074069840786,0.7218725649309575,0.6755738301621814,0.7517313349861102,0.6902173570694958,0.6766830868286866,0.7709734106958548,0.6855654600401043,0.6690291473471097,0.6887670143089019,0.7437069315261222,0.703135833249877,0.7445804187594506,0.793158243984137,0.7681145747868606,0.6928203230275507,0.7936623967405794,0.6993568473962344,0.6621178142898744,0.7348469228349535,0.7601973427998807,0.6849087530467107,0.820426718238747,0.7351190379795641,0.6269768735766894,0.7163099887618488,0.6982836100038444,0.8569714114251417,0.7200000000000004,0.7273926037567333,0.6339558344238182,0.7804485889538145,0.6855654600401042,0.8354040938372275,0.7399324293474372,0.6538348415311012,0.6675327707311454,0.6009159675029445
2,0.5483611112295876,0.04743513140122581,0.581291665173345,0.565685424949238,0.5444263035526478,0.5653317610041025,0.5908468498688981,0.5230678732248804,0.5000000000000002,0.5986651818838309,0.5559676249567057,0.698212002188447,0.5418486873657621,0.5642694391866355,0.5418486873657622,0.5559676249567058,0.5642694391866354,0.5599999999999995,0.5599999999999995,0.5462600113499065,0.6296030495478875,0.5117616632769592,0.5701754116059369,0.47864391775097276,0.5339475629684994,0.5295280917949491,0.5638262143604182,0.5567764362830026,0.49507575177946206,0.5413871073455665,0.6584831053261729,0.5743692192309755,0.6209669878504009,0.6042350536008314,0.5874521257089801,0.5799999999999996,0.5812916651733447,0.538423625038872,0.5035871324805665,0.5444263035526478,0.4882622246293481,0.570613704707484,0.46518813398452,0.538423625038872,0.5035871324805663,0.4358898943540674,0.5744562646538032,0.5894913061275798,0.5908468498688981,0.5030904491242106,0.49507575177946217,0.5063595560468864,0.5722761571129801,0.5172040216394304,0.5827520913733384,0.4974937185533101,0.5599999999999996,0.5874521257089802,0.5736723803705388,0.5225897052181568,0.5257375771237963,0.5385164807134508,0.5083306010855534,0.45287967496896975,0.4918333050943172,0.5291502622129182,0.5172040216394302,0.5874521257089803,0.5376802023508027,0.5339475629684992,0.6311893535223801,0.5660388679233963,0.5413871073455666,0.5528109984434095,0.5743692192309751,0.46733285782191686,0.5413871073455665,0.6311893535223803,0.5830951894845301,0.5063595560468861,0.47106262853255504,0.5566866263886711,0.5473572873361602,0.5722761571129802,0.5996665740225978,0.5559676249567059,0.6707458535093603,0.5339475629684993,0.4898979485566356,0.5722761571129803,0.5528109984434096,0.5566866263886711,0.5287721626560913,0.5523585791856588,0.5095095681142796,0.5559676249567058,0.49989998999799934,0.6675327707311454,0.5309425580983309,0.48826222462934815,0.5196152422706636,0.4493328387732195
3,0.4389446819268922,0.03893027367100564,0.4493328387732193,0.4223742416388574,0.41121770389904166,0.45727453460694706,0.4528796749689698,0.423792402008342,0.41121770389904166,0.4431703961232067,0.4454211490264016,0.43577517139001837,0.41121770389904166,0.469041575982343,0.4710626285325548,0.46861498055439915,0.43577517139001837,0.45287967496896975,0.4673328578219168,0.4348562981031781,0.45814844755821216,0.3954743986657038,0.43577517139001837,0.3840572873934303,0.45287967496896975,0.4264973622427225,0.4528796749689695,0.46216880033165336,0.3979949748426478,0.4264973622427224,0.5172040216394301,0.43485629810317816,0.5099019513592785,0.5276362383309168,0.42649736224272244,0.4651881339845201,0.47444704657105785,0.37363083384538825,0.4223742416388574,0.3994996871087641,0.38716921365211865,0.48774993593028804,0.33030289129827456,0.3979949748426478,0.41231056256176607,0.3693237062523877,0.4833218389437824,0.47864391775097326,0.46216880033165336,0.43023249528597873,0.36932370625238764,0.4237924020083418,0.469041575982343,0.4448595283907046,0.47696960070847294,0.3871692136521187,0.47696960070847294,0.5083306010855534,0.45727453460694706,0.43999999999999967,0.41999999999999976,0.46518813398452014,0.4581484475582122,0.38613469152615615,0.42379240200834223,0.4237924020083417,0.40926763859362253,0.4572745346069471,0.45727453460694695,0.46518813398452014,0.5276362383309168,0.4330127018922194,0.39547439866570366,0.4882622246293481,0.35930488446443337,0.3736308338453884,0.4063249930782005,0.43577517139001837,0.4673328578219168,0.43301270189221946,0.40632499307820064,0.457274534606947,0.42379240200834223,0.4472135954999579,0.48620983124572853,0.39799497484264784,0.537680202350803,0.4302324952859788,0.38716921365211854,0.4862098312457284,0.4431703961232066,0.4673328578219168,0.4472135954999579,0.4467661580737735,0.42379240200834195,0.41121770389904166,0.39949968710876393,0.5117616632769593,0.4357751713900183,0.41121770389904155,0.45552167895721507,0.39547439866570383
4,0.3710057537175509,0.03427434475627327,0.38091993909481786,0.37416573867739417,0.3570714214271425,0.36041642581880196,0.39547439866570366,0.3570714214271422,0.34583232931581176,0.3979949748426478,0.36041642581880173,0.36041642581880184,0.34583232931581187,0.3736308338453886,0.3840572873934303,0.3994996871087639,0.3736308338453886,0.40926763859362236,0.42237424163885734,0.3736308338453885,0.39949968710876393,0.34409301068170484,0.39949968710876393,0.3593048844644334,0.32787192621509986,0.3655133376499411,0.35930488446443337,0.35930488446443354,0.3155946767611905,0.3536947836765477,0.3871692136521186,0.3315116890850154,0.4237924020083422,0.4302324952859787,0.3919183588453081,0.35930488446443337,0.4302324952859786,0.3440930106817049,0.3954743986657038,0.3604164258188018,0.37416573867739417,0.4166533331199926,0.2984962311319857,0.3570714214271423,0.3655133376499411,0.32787192621510003,0.4092676385936227,0.4112177038990415,0.3720215047547653,0.4063249930782007,0.3136877428271622,0.3736308338453883,0.41121770389904183,0.3693237062523879,0.4112177038990414,0.31559467676119013,0.4242640687119285,0.43301270189221924,0.3840572873934304,0.4023679907746142,0.3570714214271422,0.3861346915261561,0.3570714214271423,0.31559467676118996,0.3736308338453886,0.3411744421846396,0.3693237062523878,0.35930488446443337,0.4330127018922194,0.3979949748426478,0.4330127018922193,0.35369478367654744,0.34409301068170484,0.3536947836765476,0.29849623113198565,0.29849623113198576,0.2821347195933176,0.37416573867739417,0.3979949748426478,0.3861346915261562,0.3570714214271425,0.37363083384538853,0.35930488446443337,0.4242640687119285,0.345832329315812,0.33151168908501527,0.4092676385936224,0.3693237062523878,0.3315116890850154,0.3604164258188018,0.3840572873934304,0.37416573867739417,0.39949968710876393,0.36041642581880184,0.36041642581880173,0.3136877428271622,0.345832329315812,0.43485629810317794,0.3979949748426478,0.31622776601683794,0.39547439866570366,0.3570714214271423
5,0.3378868567734308,0.03270278305849507,0.31368774282716233,0.33151168908501527,0.3570714214271425,0.31622776601683794,0.3693237062523876,0.34409301068170484,0.282842712474619,0.3458323293158118,0.34641016151377546,0.31559467676119013,0.3315116890850154,0.2643860813280455,0.34409301068170495,0.3720215047547653,0.3315116890850153,0.3720215047547653,0.3861346915261562,0.3604164258188018,0.2984962311319857,0.33030289129827456,0.3458323293158117,0.3458323293158118,0.2821347195933176,0.32787192621510003,0.3458323293158117,0.29983328701129885,0.282842712474619,0.3411744421846396,0.35930488446443337,0.3315116890850153,0.3994996871087637,0.3861346915261561,0.34117444218463944,0.35930488446443337,0.38091993909481797,0.3278719262150999,0.35930488446443337,0.36041642581880173,0.37363083384538853,0.3303028912982747,0.2643860813280456,0.3136877428271622,0.32419130154894654,0.2821347195933176,0.35369478367654755,0.37363083384538853,0.3440930106817049,0.3840572873934304,0.3136877428271622,0.34409301068170484,0.3861346915261562,0.3411744421846396,0.34409301068170484,0.282842712474619,0.37363083384538875,0.3861346915261561,0.34409301068170495,0.3766961640367474,0.3303028912982746,0.3720215047547653,0.3136877428271623,0.29849623113198565,0.2998332870112988,0.32787192621509986,0.3570714214271424,0.34409301068170484,0.3979949748426478,0.33151168908501544,0.40236799077461455,0.32787192621510003,0.3136877428271622,0.3370459909270543,0.29849623113198565,0.29849623113198576,0.26438608132804553,0.33030289129827467,0.36041642581880173,0.3861346915261562,0.3278719262150999,0.29849623113198565,0.3570714214271425,0.34583232931581204,0.34409301068170484,0.3303028912982745,0.3570714214271425,0.3241913015489466,0.2821347195933176,0.34409301068170484,0.3720215047547653,0.29983328701129885,0.3736308338453885,0.3315116890850153,0.3458323293158118,0.3136877428271622,0.34583232931581187,0.3155946767611901,0.36041642581880184,0.26438608132804553,0.3919183588453083,0.34409301068170495
6,0.32215182256872976,0.0332896863254314,0.3136877428271623,0.2998332870112988,0.3570714214271425,0.29983328701129897,0.3693237062523876,0.3303028912982746,0.282842712474619,0.31559467676119013,0.33151168908501527,0.29849623113198576,0.3315116890850154,0.2643860813280454,0.29849623113198576,0.3440930106817049,0.3315116890850153,0.3720215047547653,0.3303028912982746,0.33151168908501527,0.2628687885618981,0.3303028912982745,0.3303028912982746,0.34583232931581176,0.2821347195933176,0.32787192621510003,0.31559467676119,0.2984962311319857,0.26438608132804553,0.34117444218463955,0.3458323293158117,0.3315116890850153,0.37363083384538814,0.32787192621510003,0.34117444218463944,0.35930488446443337,0.3536947836765477,0.32787192621509986,0.3458323293158118,0.33151168908501527,0.3604164258188018,0.3303028912982746,0.24413111231467396,0.2984962311319856,0.31048349392520036,0.2821347195933176,0.27640549922170476,0.36041642581880173,0.3440930106817049,0.3693237062523877,0.3136877428271622,0.33030289129827467,0.3720215047547653,0.32419130154894643,0.26286878856189827,0.282842712474619,0.34583232931581187,0.34409301068170484,0.3440930106817049,0.3766961640367474,0.33030289129827456,0.3720215047547653,0.244131112314674,0.29849623113198565,0.2998332870112988,0.3278719262150998,0.3570714214271424,0.32787192621510003,0.34409301068170484,0.29983328701129874,0.3919183588453081,0.3136877428271622,0.31368774282716216,0.3370459909270542,0.29849623113198565,0.29849623113198576,0.26438608132804553,0.29849623113198565,0.2998332870112988,0.3861346915261562,0.3136877428271622,0.2643860813280456,0.34409301068170484,0.34583232931581204,0.3303028912982748,0.2998332870112987,0.34409301068170484,0.2958039891549808,0.26438608132804564,0.3155946767611905,0.3720215047547653,0.29983328701129874,0.3604164258188018,0.3315116890850153,0.3155946767611901,0.3136877428271622,0.34583232931581187,0.282842712474619,0.3303028912982746,0.244131112314674,0.3693237062523876,0.31559467676119013
7,0.31548802902335454,0.03429728185963039,0.3136877428271623,0.2998332870112988,0.3570714214271425,0.29983328701129885,0.3693237062523876,0.31559467676119,0.282842712474619,0.31559467676119013,0.33151168908501527,0.29849623113198576,0.31622776601683794,0.2643860813280454,0.2984962311319857,0.33030289129827467,0.3315116890850153,0.35930488446443337,0.3136877428271623,0.33151168908501527,0.2628687885618981,0.3303028912982745,0.33030289129827456,0.34583232931581176,0.26438608132804575,0.32787192621510003,0.31559467676119,0.26438608132804553,0.26438608132804553,0.32787192621510003,0.3303028912982746,0.29983328701129874,0.3593048844644335,0.2643860813280455,0.34117444218463944,0.35930488446443337,0.3411744421846395,0.32787192621509986,0.32787192621510003,0.3303028912982745,0.34641016151377546,0.3136877428271622,0.22158519806160357,0.2984962311319856,0.3104834939252002,0.2821347195933176,0.2374868417407581,0.3315116890850153,0.3440930106817049,0.3693237062523877,0.3136877428271622,0.33030289129827467,0.34583232931581204,0.32419130154894643,0.22158519806160337,0.282842712474619,0.3458323293158118,0.3303028912982745,0.3440930106817049,0.3278719262151,0.33030289129827456,0.3720215047547653,0.2416609194718912,0.29849623113198565,0.2998332870112988,0.3136877428271623,0.3570714214271424,0.3278719262150999,0.34409301068170484,0.29983328701129874,0.38091993909481786,0.3136877428271622,0.29580398915498085,0.3370459909270542,0.29849623113198565,0.29849623113198576,0.26438608132804553,0.2821347195933176,0.29983328701129874,0.3861346915261562,0.3136877428271622,0.26438608132804553,0.34409301068170484,0.34583232931581204,0.3155946767611902,0.2998332870112987,0.33030289129827456,0.2958039891549808,0.26438608132804553,0.2998332870112988,0.3720215047547653,0.29983328701129874,0.3604164258188018,0.3315116890850153,0.31368774282716216,0.3136877428271622,0.34583232931581187,0.282842712474619,0.3303028912982746,0.244131112314674,0.3570714214271425,0.31559467676119
8,0.3133097678387767,0.034684137250504295,0.3136877428271623,0.2998332870112988,0.3570714214271425,0.2998332870112988,0.3693237062523876,0.31559467676119,0.282842712474619,0.31559467676119013,0.33151168908501527,0.29849623113198576,0.31559467676119013,0.2643860813280454,0.2984962311319857,0.33030289129827467,0.3315116890850153,0.34583232931581187,0.3136877428271623,0.33151168908501527,0.2628687885618981,0.3303028912982745,0.33030289129827456,0.34583232931581176,0.26438608132804575,0.32787192621510003,0.31559467676119,0.244131112314674,0.26438608132804553,0.29580398915498085,0.3303028912982746,0.29983328701129874,0.3315116890850154,0.2643860813280455,0.34117444218463944,0.35930488446443337,0.3411744421846395,0.32787192621509986,0.32787192621509986,0.3303028912982745,0.3458323293158121,0.3136877428271622,0.22158519806160354,0.2984962311319856,0.2917190429162965,0.2821347195933176,0.2374868417407581,0.3315116890850153,0.3440930106817049,0.3693237062523877,0.3136877428271622,0.33030289129827467,0.3315116890850154,0.32419130154894643,0.22158519806160337,0.282842712474619,0.3458323293158118,0.3155946767611903,0.3440930106817049,0.3278719262151,0.33030289129827456,0.3720215047547653,0.2416609194718912,0.29849623113198565,0.2998332870112988,0.3136877428271622,0.3570714214271424,0.32787192621509986,0.34409301068170484,0.29983328701129874,0.38091993909481764,0.3136877428271622,0.29580398915498063,0.3370459909270542,0.29849623113198565,0.29849623113198576,0.26438608132804553,0.2821347195933176,0.29983328701129874,0.3861346915261562,0.3136877428271622,0.2449489742783178,0.34409301068170484,0.3458323293158119,0.3155946767611902,0.2998332870112987,0.33030289129827456,0.2958039891549808,0.26438608132804553,0.2821347195933176,0.3720215047547653,0.29983328701129874,0.3604164258188018,0.3315116890850153,0.2984962311319857,0.3136877428271622,0.34583232931581187,0.282842712474619,0.32787192621510003,0.244131112314674,0.3536947836765477,0.2984962311319857
9,0.31073483142030084,0.03506942460601809,0.3136877428271623,0.2998332870112988,0.3570714214271425,0.2643860813280456,0.3693237062523876,0.31559467676119,0.282842712474619,0.31559467676119013,0.33151168908501527,0.29849623113198576,0.29983328701129897,0.2643860813280454,0.2984962311319857,0.33030289129827467,0.3315116890850153,0.31622776601683794,0.3136877428271623,0.33151168908501527,0.2628687885618981,0.3303028912982745,0.33030289129827456,0.34583232931581176,0.26438608132804575,0.32787192621510003,0.31559467676119,0.244131112314674,0.26438608132804553,0.29580398915498085,0.3303028912982746,0.29983328701129874,0.31622776601683794,0.2643860813280455,0.34117444218463944,0.35930488446443337,0.3411744421846395,0.32787192621509986,0.32787192621509986,0.3303028912982745,0.3315116890850154,0.3136877428271622,0.22158519806160354,0.2984962311319856,0.2917190429162965,0.2821347195933176,0.2374868417407581,0.3315116890850153,0.3440930106817049,0.3693237062523877,0.3136877428271622,0.33030289129827467,0.3315116890850153,0.32419130154894643,0.22158519806160337,0.282842712474619,0.3458323293158118,0.3155946767611901,0.3440930106817049,0.3278719262151,0.33030289129827456,0.3720215047547653,0.2416609194718912,0.29849623113198565,0.2998332870112988,0.2984962311319857,0.3570714214271424,0.3104834939252006,0.34409301068170484,0.29983328701129874,0.3655133376499407,0.3136877428271622,0.29580398915498063,0.3370459909270542,0.29849623113198565,0.29849623113198576,0.26438608132804553,0.2821347195933176,0.29983328701129874,0.3861346915261562,0.3136877428271622,0.22338307903688662,0.34409301068170484,0.3458323293158119,0.3155946767611902,0.2998332870112987,0.33030289129827456,0.2958039891549808,0.26438608132804553,0.2628687885618981,0.3720215047547653,0.29983328701129874,0.3604164258188018,0.3315116890850153,0.2984962311319857,0.3136877428271622,0.34583232931581187,0.282842712474619,0.2821347195933176,0.244131112314674,0.34117444218463966,0.2984962311319857
10,0.30895515474672225,0.0351242417061047,0.3136877428271623,0.2998332870112988,0.3570714214271425,0.2643860813280456,0.3693237062523876,0.31559467676119,0.282842712474619,0.31559467676119013,0.33151168908501527,0.29849623113198576,0.29983328701129897,0.2643860813280454,0.2984962311319857,0.33030289129827467,0.3315116890850153,0.2984962311319857,0.3136877428271623,0.31559467676119013,0.2628687885618981,0.3303028912982745,0.33030289129827456,0.34583232931581176,0.26438608132804564,0.32787192621510003,0.31559467676119,0.244131112314674,0.26438608132804553,0.29580398915498085,0.3303028912982746,0.29983328701129874,0.31622776601683794,0.2643860813280455,0.34117444218463944,0.35930488446443337,0.3411744421846395,0.32787192621509986,0.32787192621509986,0.3303028912982745,0.3315116890850154,0.3136877428271622,0.22158519806160354,0.2984962311319856,0.2917190429162965,0.2821347195933176,0.2374868417407581,0.3315116890850153,0.3440930106817049,0.3693237062523877,0.3136877428271622,0.33030289129827467,0.3315116890850153,0.31048349392520047,0.22158519806160337,0.282842712474619,0.3458323293158118,0.29849623113198565,0.3440930106817049,0.3278719262151,0.33030289129827456,0.3720215047547653,0.2416609194718912,0.29849623113198565,0.2998332870112988,0.27999999999999975,0.3570714214271424,0.3104834939252006,0.34409301068170484,0.29983328701129874,0.3655133376499407,0.3136877428271622,0.29580398915498063,0.3370459909270542,0.29849623113198565,0.29849623113198576,0.26438608132804553,0.2821347195933176,0.29983328701129874,0.35930488446443337,0.3136877428271622,0.2233830790368866,0.34409301068170484,0.3458323293158119,0.3155946767611902,0.2998332870112987,0.33030289129827456,0.2958039891549808,0.26438608132804553,0.2628687885618981,0.3720215047547653,0.2821347195933176,0.3604164258188018,0.3315116890850153,0.2984962311319857,0.3136877428271622,0.34583232931581187,0.282842712474619,0.2449489742783178,0.244131112314674,0.32787192621510003,0.2984962311319857
11,0.30683841627545033,0.036649506102721496,0.3136877428271623,0.2998332870112988,0.3570714214271425,0.2643860813280456,0.3693237062523876,0.282842712474619,0.282842712474619,0.31559467676119013,0.33151168908501527,0.29849623113198576,0.29983328701129897,0.2643860813280454,0.2984962311319857,0.33030289129827467,0.3315116890850153,0.24413111231467396,0.3136877428271623,0.3155946767611901,0.2628687885618981,0.3303028912982745,0.33030289129827456,0.34583232931581176,0.26438608132804564,0.32787192621510003,0.31559467676119,0.244131112314674,0.26438608132804553,0.29580398915498085,0.3303028912982746,0.29983328701129874,0.31622776601683794,0.2643860813280455,0.34117444218463944,0.34583232931581187,0.3411744421846395,0.32787192621509986,0.32787192621509986,0.3303028912982745,0.3315116890850154,0.3136877428271622,0.22158519806160354,0.2984962311319856,0.2917190429162965,0.2821347195933176,0.2374868417407581,0.3315116890850153,0.3440930106817049,0.3693237062523877,0.3136877428271622,0.33030289129827467,0.3315116890850153,0.31048349392520047,0.22158519806160337,0.282842712474619,0.3458323293158118,0.29849623113198565,0.3440930106817049,0.3278719262151,0.33030289129827456,0.3720215047547653,0.2416609194718912,0.29849623113198565,0.2998332870112988,0.24166091947189122,0.3570714214271424,0.3104834939252006,0.3411744421846395,0.29983328701129874,0.3655133376499407,0.3136877428271622,0.29580398915498063,0.3370459909270542,0.29849623113198565,0.29849623113198576,0.26438608132804553,0.2821347195933176,0.29983328701129874,0.35930488446443326,0.3136877428271622,0.2233830790368866,0.34409301068170484,0.3458323293158119,0.3155946767611902,0.2998332870112987,0.33030289129827456,0.2958039891549808,0.26438608132804553,0.2628687885618981,0.3720215047547653,0.2643860813280455,0.3604164258188018,0.3315116890850153,0.2984962311319857,0.3136877428271622,0.34583232931581187,0.2449489742783178,0.2449489742783178,0.244131112314674,0.31368774282716216,0.2984962311319857
12,0.30606851344601516,0.03647005726546659,0.3136877428271623,0.2998332870112988,0.3570714214271425,0.2643860813280456,0.3693237062523876,0.282842712474619,0.282842712474619,0.31559467676119013,0.33151168908501527,0.29849623113198576,0.29983328701129897,0.2643860813280454,0.2984962311319857,0.33030289129827467,0.3315116890850153,0.24413111231467396,0.3136877428271623,0.3155946767611901,0.2628687885618981,0.3303028912982745,0.33030289129827456,0.34583232931581176,0.26438608132804564,0.32787192621510003,0.31559467676119,0.244131112314674,0.26438608132804553,0.29580398915498085,0.3303028912982746,0.29983328701129874,0.31622776601683794,0.2643860813280455,0.34117444218463944,0.34583232931581187,0.3411744421846395,0.32787192621509986,0.32787192621509986,0.3303028912982745,0.3315116890850154,0.3136877428271622,0.22158519806160354,0.2984962311319856,0.2917190429162965,0.2628687885618981,0.2374868417407581,0.3315116890850153,0.3440930106817049,0.3693237062523877,0.3136877428271622,0.33030289129827467,0.3315116890850153,0.31048349392520047,0.22158519806160337,0.282842712474619,0.3458323293158118,0.29849623113198565,0.3440930106817049,0.3278719262151,0.33030289129827456,0.3720215047547653,0.2416609194718912,0.29849623113198565,0.2998332870112988,0.24166091947189122,0.3570714214271424,0.3104834939252006,0.31368774282716216,0.29983328701129874,0.3655133376499407,0.3136877428271622,0.29580398915498063,0.3370459909270542,0.29849623113198565,0.29849623113198576,0.26438608132804553,0.2821347195933176,0.29983328701129874,0.35930488446443326,0.3136877428271622,0.2233830790368866,0.34409301068170484,0.3458323293158119,0.3155946767611902,0.2998332870112987,0.33030289129827456,0.2958039891549808,0.26438608132804553,0.2628687885618981,0.3720215047547653,0.2643860813280455,0.3604164258188018,0.3315116890850153,0.2984962311319857,0.3136877428271622,0.31559467676119024,0.2449489742783178,0.2449489742783178,0.244131112314674,0.31368774282716216,0.2984962311319857
13,0.3049269612563983,0.03644925649363666,0.3136877428271623,0.2998332870112988,0.3570714214271425,0.2643860813280456,0.3693237062523876,0.282842712474619,0.282842712474619,0.31559467676119013,0.3155946767611901,0.29849623113198576,0.29983328701129897,0.2643860813280454,0.2984962311319857,0.33030289129827467,0.3315116890850153,0.24413111231467396,0.3136877428271623,0.3155946767611901,0.2628687885618981,0.3303028912982745,0.33030289129827456,0.34583232931581176,0.244131112314674,0.32787192621510003,0.31559467676119,0.244131112314674,0.26438608132804553,0.29580398915498085,0.3303028912982746,0.29983328701129874,0.31622776601683794,0.2643860813280455,0.34117444218463944,0.34583232931581187,0.3411744421846395,0.32787192621509986,0.32787192621509986,0.3303028912982745,0.3315116890850154,0.31368774282716216,0.22158519806160354,0.2984962311319856,0.2917190429162965,0.2628687885618981,0.2374868417407581,0.3315116890850153,0.3440930106817049,0.3693237062523877,0.3136877428271622,0.33030289129827467,0.3315116890850153,0.31048349392520047,0.22158519806160337,0.282842712474619,0.3458323293158118,0.29849623113198565,0.3440930106817049,0.3278719262151,0.2984962311319857,0.3720215047547653,0.2416609194718912,0.29849623113198565,0.2998332870112988,0.24166091947189122,0.3570714214271424,0.3104834939252006,0.31368774282716216,0.29983328701129874,0.3655133376499407,0.3136877428271622,0.29580398915498063,0.3370459909270542,0.29849623113198565,0.2984962311319857,0.26438608132804553,0.2821347195933176,0.29983328701129874,0.35930488446443326,0.3136877428271622,0.2233830790368866,0.34409301068170484,0.3458323293158119,0.3155946767611902,0.2998332870112987,0.33030289129827456,0.2958039891549808,0.26438608132804553,0.2628687885618981,0.35930488446443326,0.2643860813280455,0.3604164258188018,0.3315116890850153,0.2984962311319857,0.3136877428271622,0.2821347195933176,0.2449489742783178,0.2449489742783178,0.244131112314674,0.31368774282716216,0.2984962311319857
14,0.3035535825375196,0.036962447546628446,0.3136877428271623,0.2998332870112988,0.3570714214271425,0.2643860813280456,0.3693237062523876,0.282842712474619,0.282842712474619,0.31559467676119013,0.31559467676119,0.29849623113198576,0.29983328701129897,0.2643860813280454,0.2984962311319857,0.33030289129827467,0.3315116890850153,0.24413111231467396,0.3136877428271623,0.3155946767611901,0.2628687885618981,0.3303028912982745,0.33030289129827456,0.34583232931581176,0.2215851980616033,0.32787192621510003,0.31559467676119,0.244131112314674,0.244131112314674,0.29580398915498085,0.3303028912982746,0.29983328701129874,0.31622776601683794,0.2643860813280455,0.34117444218463944,0.34583232931581187,0.3411744421846395,0.32787192621509986,0.32787192621509986,0.3303028912982745,0.3315116890850154,0.31368774282716216,0.22158519806160354,0.2984962311319856,0.2917190429162965,0.2628687885618981,0.2374868417407581,0.3315116890850153,0.3440930106817049,0.3693237062523877,0.31368774282716216,0.33030289129827467,0.3315116890850153,0.31048349392520047,0.22158519806160337,0.282842712474619,0.3458323293158118,0.29849623113198565,0.3315116890850155,0.3278719262151,0.29849623113198565,0.3720215047547653,0.2416609194718912,0.29849623113198565,0.2998332870112988,0.24166091947189122,0.3570714214271424,0.3104834939252006,0.31368774282716216,0.29983328701129874,0.3655133376499407,0.27999999999999975,0.29580398915498063,0.3370459909270542,0.29849623113198565,0.2984962311319857,0.26438608132804553,0.2821347195933176,0.29983328701129874,0.35930488446443326,0.3136877428271622,0.2233830790368866,0.34409301068170484,0.3458323293158119,0.3155946767611902,0.2998332870112987,0.33030289129827456,0.2958039891549808,0.26438608132804553,0.2628687885618981,0.3303028912982746,0.2643860813280455,0.3604164258188018,0.3315116890850153,0.2984962311319857,0.3136877428271622,0.262868788561898,0.2449489742783178,0.2449489742783178,0.244131112314674,0.31368774282716216,0.2984962311319857
15,0.30289576722591527,0.036785244278434916,0.3136877428271623,0.2998332870112988,0.3570714214271425,0.2643860813280456,0.3693237062523876,0.282842712474619,0.282842712474619,0.31559467676119013,0.31559467676119,0.29849623113198576,0.29983328701129897,0.2643860813280454,0.2984962311319857,0.33030289129827467,0.3315116890850153,0.24413111231467396,0.3136877428271623,0.3155946767611901,0.2628687885618981,0.3303028912982745,0.33030289129827456,0.34583232931581176,0.2215851980616033,0.32787192621510003,0.29849623113198603,0.244131112314674,0.24413111231467396,0.29580398915498085,0.3303028912982746,0.29983328701129874,0.31622776601683794,0.2643860813280455,0.34117444218463944,0.34583232931581187,0.3411744421846395,0.32787192621509986,0.2958039891549808,0.3303028912982745,0.3315116890850154,0.31368774282716216,0.22158519806160354,0.2984962311319856,0.2917190429162965,0.2628687885618981,0.2374868417407581,0.3315116890850153,0.3440930106817049,0.3693237062523877,0.31368774282716216,0.33030289129827467,0.3315116890850153,0.31048349392520047,0.22158519806160337,0.282842712474619,0.3458323293158118,0.29849623113198565,0.3315116890850154,0.3278719262151,0.29849623113198565,0.3720215047547653,0.2416609194718912,0.29849623113198565,0.2998332870112988,0.24166091947189122,0.3570714214271424,0.3104834939252006,0.31368774282716216,0.29983328701129874,0.3655133376499407,0.27999999999999975,0.29580398915498063,0.3370459909270542,0.29849623113198565,0.2984962311319857,0.26438608132804553,0.2821347195933176,0.29983328701129874,0.35930488446443326,0.3136877428271622,0.2233830790368866,0.34409301068170484,0.3458323293158119,0.3155946767611902,0.2998332870112987,0.33030289129827456,0.2958039891549808,0.26438608132804553,0.2628687885618981,0.3136877428271623,0.2643860813280455,0.3604164258188018,0.3315116890850153,0.2984962311319857,0.3136877428271622,0.262868788561898,0.2449489742783178,0.2449489742783178,0.244131112314674,0.31368774282716216,0.2984962311319857
16,0.3024689118013883,0.03639446927328314,0.3136877428271623,0.2998332870112988,0.3303028912982748,0.2643860813280456,0.3693237062523876,0.282842712474619,0.282842712474619,0.31559467676119013,0.31559467676119,0.29849623113198576,0.29983328701129897,0.2643860813280454,0.2984962311319857,0.33030289129827467,0.3315116890850153,0.24413111231467396,0.3136877428271623,0.3155946767611901,0.2628687885618981,0.3303028912982745,0.33030289129827456,0.34583232931581176,0.2215851980616033,0.32787192621510003,0.29849623113198603,0.244131112314674,0.24413111231467396,0.29580398915498085,0.3303028912982746,0.29983328701129874,0.31622776601683794,0.2643860813280455,0.34117444218463944,0.34583232931581187,0.3411744421846395,0.32787192621509986,0.2958039891549808,0.3303028912982745,0.3315116890850154,0.31368774282716216,0.22158519806160354,0.2984962311319856,0.2917190429162965,0.2628687885618981,0.2374868417407581,0.3315116890850153,0.3440930106817049,0.3693237062523877,0.31368774282716216,0.33030289129827467,0.3315116890850153,0.31048349392520047,0.22158519806160337,0.282842712474619,0.3458323293158118,0.29849623113198565,0.31559467676119,0.3278719262151,0.29849623113198565,0.3720215047547653,0.2416609194718912,0.29849623113198565,0.2998332870112988,0.24166091947189122,0.3570714214271424,0.3104834939252006,0.31368774282716216,0.29983328701129874,0.3655133376499407,0.27999999999999975,0.29580398915498063,0.3370459909270542,0.29849623113198565,0.2984962311319857,0.26438608132804553,0.2821347195933176,0.29983328701129874,0.35930488446443326,0.3136877428271622,0.2233830790368866,0.34409301068170484,0.3458323293158119,0.3155946767611902,0.2998332870112987,0.33030289129827456,0.2958039891549808,0.26438608132804553,0.2628687885618981,0.3136877428271623,0.2643860813280455,0.3604164258188018,0.3315116890850153,0.2984962311319857,0.3136877428271622,0.262868788561898,0.2449489742783178,0.2449489742783178,0.244131112314674,0.31368774282716216,0.2984962311319857
17,0.30219466345311413,0.03608857686940661,0.3136877428271623,0.2998332870112988,0.3303028912982748,0.2643860813280456,0.3693237062523876,0.282842712474619,0.282842712474619,0.31559467676119013,0.31559467676119,0.29849623113198576,0.29983328701129897,0.2643860813280454,0.2984962311319857,0.33030289129827467,0.3315116890850153,0.24413111231467396,0.3136877428271623,0.3155946767611901,0.2628687885618981,0.3303028912982745,0.33030289129827456,0.34583232931581176,0.2215851980616033,0.32787192621510003,0.29849623113198603,0.244131112314674,0.24413111231467396,0.29580398915498085,0.3303028912982746,0.29983328701129874,0.31622776601683794,0.2643860813280455,0.34117444218463944,0.34583232931581187,0.3411744421846395,0.32787192621509986,0.2958039891549808,0.3155946767611903,0.3315116890850154,0.31368774282716216,0.22158519806160354,0.29849623113198553,0.2917190429162965,0.2628687885618981,0.2374868417407581,0.3315116890850153,0.3440930106817049,0.3693237062523877,0.31368774282716216,0.33030289129827467,0.3315116890850153,0.31048349392520047,0.22158519806160337,0.282842712474619,0.3458323293158118,0.29849623113198565,0.31559467676118996,0.3278719262151,0.29849623113198565,0.35930488446443326,0.2416609194718912,0.29849623113198565,0.2998332870112988,0.24166091947189122,0.3570714214271424,0.3104834939252006,0.31368774282716216,0.29983328701129874,0.3655133376499407,0.27999999999999975,0.29580398915498063,0.3370459909270542,0.29849623113198565,0.2984962311319857,0.26438608132804553,0.2821347195933176,0.29983328701129874,0.35930488446443326,0.3136877428271622,0.2233830790368866,0.34409301068170484,0.3458323293158119,0.3155946767611902,0.2998332870112987,0.33030289129827456,0.2958039891549808,0.26438608132804553,0.2628687885618981,0.3136877428271623,0.2643860813280455,0.3604164258188018,0.3315116890850153,0.2984962311319857,0.3136877428271622,0.262868788561898,0.2449489742783178,0.2449489742783178,0.244131112314674,0.31368774282716216,0.2984962311319857
18,0.30173789396259815,0.03573854147857545,0.3136877428271623,0.2998332870112988,0.3303028912982748,0.2643860813280456,0.3693237062523876,0.282842712474619,0.282842712474619,0.31559467676119013,0.31559467676119,0.29849623113198576,0.29983328701129897,0.2643860813280454,0.2984962311319857,0.33030289129827467,0.3315116890850153,0.24413111231467396,0.3136877428271623,0.3155946767611901,0.2628687885618981,0.3303028912982745,0.33030289129827456,0.34583232931581176,0.2215851980616033,0.32787192621510003,0.29849623113198603,0.244131112314674,0.24413111231467396,0.29580398915498085,0.3303028912982746,0.29983328701129874,0.31622776601683794,0.2643860813280455,0.34117444218463944,0.34583232931581187,0.3411744421846395,0.32787192621509986,0.2958039891549808,0.3155946767611903,0.3315116890850154,0.31368774282716216,0.22158519806160354,0.29849623113198553,0.2917190429162965,0.2628687885618981,0.2374868417407581,0.3315116890850153,0.3440930106817049,0.3693237062523877,0.31368774282716216,0.33030289129827467,0.3315116890850153,0.31048349392520047,0.22158519806160337,0.282842712474619,0.3458323293158118,0.29849623113198565,0.31559467676118996,0.3278719262151,0.29849623113198565,0.33151168908501527,0.2416609194718912,0.29849623113198565,0.2998332870112988,0.24166091947189122,0.3570714214271424,0.3104834939252006,0.29580398915498074,0.29983328701129874,0.3655133376499407,0.27999999999999975,0.29580398915498063,0.3370459909270542,0.29849623113198565,0.2984962311319857,0.26438608132804553,0.2821347195933176,0.29983328701129874,0.35930488446443326,0.3136877428271622,0.2233830790368866,0.34409301068170484,0.3458323293158119,0.3155946767611902,0.2998332870112987,0.33030289129827456,0.2958039891549808,0.26438608132804553,0.2628687885618981,0.3136877428271623,0.2643860813280455,0.3604164258188018,0.3315116890850153,0.2984962311319857,0.3136877428271622,0.262868788561898,0.2449489742783178,0.2449489742783178,0.244131112314674,0.31368774282716216,0.2984962311319857
19,0.3015742788472115,0.035790422430928184,0.3136877428271623,0.2998332870112988,0.3303028912982748,0.2643860813280456,0.3693237062523876,0.282842712474619,0.282842712474619,0.31559467676119013,0.31559467676119,0.29849623113198576,0.29983328701129897,0.2643860813280454,0.2984962311319857,0.33030289129827467,0.3315116890850153,0.24413111231467396,0.3136877428271623,0.3155946767611901,0.2628687885618981,0.3303028912982745,0.33030289129827456,0.34583232931581176,0.2215851980616033,0.32787192621510003,0.29849623113198603,0.244131112314674,0.24413111231467396,0.29580398915498085,0.3303028912982746,0.29983328701129874,0.31622776601683794,0.2643860813280455,0.34117444218463944,0.34583232931581187,0.3411744421846395,0.32787192621509986,0.2958039891549808,0.3155946767611903,0.3315116890850154,0.31368774282716216,0.22158519806160354,0.29849623113198553,0.2917190429162965,0.2628687885618981,0.2374868417407581,0.3315116890850153,0.3440930106817049,0.3693237062523877,0.31368774282716216,0.33030289129827467,0.3315116890850153,0.31048349392520047,0.22158519806160337,0.282842712474619,0.3458323293158118,0.29849623113198565,0.31559467676118996,0.3278719262151,0.29849623113198565,0.33151168908501527,0.2416609194718912,0.29849623113198565,0.2998332870112988,0.24166091947189122,0.3570714214271424,0.3104834939252006,0.29580398915498074,0.29983328701129874,0.3655133376499407,0.27999999999999975,0.29580398915498063,0.3370459909270542,0.2821347195933176,0.2984962311319857,0.26438608132804553,0.2821347195933176,0.29983328701129874,0.35930488446443326,0.3136877428271622,0.2233830790368866,0.34409301068170484,0.3458323293158119,0.3155946767611902,0.2998332870112987,0.33030289129827456,0.2958039891549808,0.26438608132804553,0.2628687885618981,0.3136877428271623,0.2643860813280455,0.3604164258188018,0.3315116890850153,0.2984962311319857,0.3136877428271622,0.262868788561898,0.2449489742783178,0.2449489742783178,0.244131112314674,0.31368774282716216,0.2984962311319857
