Iteration,Mean,Stdev,Run-0,Run-1,Run-2,Run-3,Run-4,Run-5,Run-6,Run-7,Run-8,Run-9,Run-10,Run-11,Run-12,Run-13,Run-14,Run-15,Run-16,Run-17,Run-18,Run-19,Run-20,Run-21,Run-22,Run-23,Run-24,Run-25,Run-26,Run-27,Run-28,Run-29,Run-30,Run-31,Run-32,Run-33,Run-34,Run-35,Run-36,Run-37,Run-38,Run-39,Run-40,Run-41,Run-42,Run-43,Run-44,Run-45,Run-46,Run-47,Run-48,Run-49,Run-50,Run-51,Run-52,Run-53,Run-54,Run-55,Run-56,Run-57,Run-58,Run-59,Run-60,Run-61,Run-62,Run-63,Run-64,Run-65,Run-66,Run-67,Run-68,Run-69,Run-70,Run-71,Run-72,Run-73,Run-74,Run-75,Run-76,Run-77,Run-78,Run-79,Run-80,Run-81,Run-82,Run-83,Run-84,Run-85,Run-86,Run-87,Run-88,Run-89,Run-90,Run-91,Run-92,Run-93,Run-94,Run-95,Run-96,Run-97,Run-98,Run-99
0,-936.4792841543085,40.28955757427911,-881.4744424040229,-862.1631695934202,-917.9316196635515,-921.0025865591641,-950.9165237713042,-969.62774316428,-946.8948279953383,-946.1988063543511,-947.8727714500895,-882.0691747502003,-1003.1838720862735,-863.4644388948324,-1057.2609397033964,-951.234836155664,-953.3741742049052,-919.3307190919601,-853.4463274812206,-869.9148019980246,-889.3644089214425,-924.9763393799914,-929.8190027882891,-924.3791140525616,-913.3769457111991,-915.6310513394744,-919.3068302955207,-979.0323255518058,-924.7689573491069,-894.0736848820176,-1001.1738591578885,-938.420341845218,-953.6056579384965,-918.0758066749573,-930.5517714859167,-1000.7528580174132,-964.7372795088653,-935.236283407293,-937.3224089293204,-980.7254232198746,-957.3435419838046,-1013.7568063450269,-975.1957099830852,-916.0321850737552,-850.2823709193624,-924.9137934913771,-913.8476893194139,-895.4585704228193,-972.8257302563499,-865.5721057340587,-895.1175032584384,-984.1694322144784,-949.2053426239116,-928.3510054560993,-884.9475596247523,-929.3533289292784,-906.2812419474991,-961.9325207842827,-994.1997179787696,-932.9836763578876,-909.740184697007,-899.4711484495203,-902.6516740813069,-941.0527395796414,-946.072379084804,-982.2763810616426,-926.4011258782378,-884.1784118279304,-938.3210846467974,-942.1582163979756,-947.9301176478066,-958.3978855864268,-1006.6371569142844,-960.5404050553333,-905.7266551809591,-917.5828291798042,-987.8901101015888,-970.0831895424951,-959.2594593954631,-954.1451863558303,-906.0071314839454,-889.7426354731995,-935.568629992372,-965.0550873442623,-995.0862904651173,-921.6296383720035,-927.251636961127,-1007.6547257726244,-916.8957877891904,-951.017368609092,-914.5217774968656,-967.5801789584449,-1007.8267229934644,-921.790536656404,-1005.8602030117697,-902.1359394070261,-934.6827553321112,-911.2057102866501,-851.5776825865477,-918.4672973807899,-976.9938902735366,-954.3984896363576
1,-1153.1450821016485,74.37319084458082,-1062.2729173703015,-1210.6199142976898,-1198.6466786555236,-1153.0447365824095,-1087.869839921656,-1142.451263554791,-1151.0341327895278,-1198.7131133415437,-1207.0680613968834,-1090.5515304085734,-1142.3810791697144,-1093.7464810233557,-1227.2696643067197,-1201.207389913199,-1052.8435630779038,-1070.2946312481076,-983.0716460439597,-1119.8689371566404,-1159.5177315017613,-1149.2928740528544,-1212.2436065977201,-1077.1174227515503,-1067.5741852498381,-1091.9754647733273,-1147.5257687986243,-1208.7666126477743,-1114.2094590073368,-1101.1126211131507,-1153.329741214514,-1197.4676190888251,-1100.4497493091317,-1118.4500393281921,-1139.146853798971,-1068.2770524506773,-1110.7657383192172,-1233.7315878651264,-1092.7494284700824,-1280.6196903466168,-1155.4662619618914,-1139.2890881581486,-1184.8709843410968,-1193.07722962249,-1140.267283854767,-1020.6398994892631,-1011.4105239971608,-1079.0359804578486,-1211.0967952927274,-1105.54600492767,-1032.1162610930128,-1086.1941278379568,-1027.9941224496713,-1186.0254597893868,-1360.3464663009959,-1092.0194195628249,-1145.550043873468,-1068.0713161562946,-1190.9182001902022,-1113.8464331616103,-1154.128134126356,-1060.7717918943104,-1159.7976969574108,-1180.2132534351053,-1167.353176991119,-1096.7164303334123,-1279.3527159301898,-1285.9115191113658,-1283.1058361897537,-1061.378748389856,-1195.7096709468638,-1206.9488146313556,-1156.1387781841436,-1201.7309421825103,-1114.5723377530337,-1088.6606402529571,-1088.62353473691,-1229.259787913303,-1205.0177565942065,-1111.237475292644,-1254.368163362611,-1232.487275655075,-1155.090238595376,-1372.1402984781582,-1128.461466633712,-1186.5587741885683,-1256.8676172423077,-1200.9211526237798,-1100.6607640737,-1093.207021144102,-1086.0540673989874,-1103.2075347056941,-1325.651041933868,-1252.7271523123989,-1225.3008777551393,-1193.0947768262924,-1178.1218987000143,-1167.9701135081061,-1224.2993521300027,-1223.7860090087963,-1180.4419613845978,-1085.4008811944184
2,-1212.466544125378,74.28242514708558,-1154.4135428383768,-1248.1670611499812,-1302.5461112268583,-1291.690043117523,-1189.793524904239,-1203.7130446407598,-1129.2741650935118,-1233.9165327256117,-1151.033243368044,-1031.900228737922,-1137.0759816032255,-1148.0363587657941,-1250.8009481169158,-1298.047102389117,-1263.6656076910288,-1208.0568299727952,-1118.341784152177,-1226.4540490676259,-1184.9166230055632,-1181.5815215870784,-1442.1909025337438,-1268.6274239017573,-1118.8942362675305,-1148.79087259404,-1263.5479020736275,-1254.8338276616028,-1193.6499648252593,-1115.5621907724628,-1159.7571074832435,-1241.6113857594933,-1133.4375840232296,-1216.898858517508,-1184.0983256589004,-1213.8478174113511,-1218.2474173650269,-1285.731600403336,-1166.7200118751136,-1203.807882453568,-1192.5898376712769,-1153.698032336644,-1240.4387887874927,-1223.6762852650077,-1231.6013159529136,-1134.9500684975667,-1048.1419159797006,-1252.4641924312748,-1303.3161145539218,-1065.0571119883843,-1100.2607021813294,-1190.0729003180654,-1116.5062684781103,-1249.0986981720494,-1251.110913418985,-1159.5181436056332,-1262.1922689805765,-1135.2880745190203,-1211.0813725443204,-1144.9883581287183,-1175.6867684948004,-1177.6303831652601,-1240.9032536904085,-1237.9428874499442,-1141.8384539399376,-1230.8305630806606,-1330.3325966524444,-1442.3037281045326,-1465.1580982466753,-1207.4213720095925,-1304.1229917992584,-1160.2883288653798,-1218.6857277128104,-1187.1907995002252,-1252.8753513380327,-1236.4885746505818,-1078.4371245795867,-1237.524790318604,-1284.1363924177529,-1190.6468404421098,-1150.1943840502806,-1201.5575137712933,-1215.3417409905749,-1279.218111410275,-1230.4969577765298,-1216.3140514603017,-1251.0836324371958,-1228.818321633444,-1219.4537183759514,-1182.2417361955438,-1101.9522087422229,-1314.4546530727087,-1315.0981682804686,-1304.6162581698668,-1246.018598564597,-1223.3229305894133,-1236.7855385086496,-1200.950945325651,-1219.1866974643506,-1301.4834967601369,-1155.894206306712,-1201.9945366471238
3,-1236.461463724874,70.677726984867,-1196.2314320266676,-1233.15000928902,-1244.5133288824966,-1274.2470021492525,-1152.0462872221603,-1316.8062650962288,-1254.8223586049073,-1108.5008924937579,-1152.6302508681122,-1233.139544255048,-1273.529393436469,-1135.0270415446141,-1287.524439698598,-1348.8953510868644,-1211.2112579830384,-1197.8448273784154,-1155.1989325309444,-1268.8563539008064,-1290.0230107968885,-1240.3105232447022,-1333.5920975774095,-1224.1095328421184,-1168.9089996582295,-1210.3191210295925,-1282.026988939844,-1289.2455096847184,-1202.0028401586667,-1171.2369632232933,-1102.8476760778149,-1203.9275345727615,-1216.1358885773311,-1235.1282871302951,-1138.761205272117,-1214.9733119350287,-1248.1377603055369,-1272.0563851004881,-1264.846094992289,-1333.6569203448191,-1256.1229200445307,-1155.3346467365839,-1373.3632027652438,-1112.3171631781147,-1185.6244414244284,-1192.0439143984706,-1038.8141442081599,-1290.7061380513267,-1237.3352526821732,-1105.3585428934261,-1098.2828387420595,-1275.389497981482,-1181.2424145322477,-1144.979932186648,-1351.1106857024313,-1306.9884252845618,-1311.956858112347,-1166.5501378092342,-1222.5922417851186,-1143.6522043491984,-1177.2832836201849,-1206.2102368314165,-1262.8005937206967,-1288.607152407439,-1219.9373089367753,-1278.5097792375907,-1360.337495898679,-1341.8780477444168,-1402.979380346338,-1192.5973940845565,-1320.4648041074397,-1225.6939288801807,-1288.3097783371493,-1264.4024193297314,-1256.0331990238394,-1210.6496442075015,-1134.991976516852,-1263.6771397434554,-1271.6417965028327,-1191.9962650171158,-1121.596696602031,-1300.7032138946165,-1291.0604906221724,-1322.6854266229348,-1266.7200588911867,-1236.2598952672222,-1356.9322972564132,-1239.7385259430307,-1219.289186111781,-1153.5536887098917,-1145.776629188987,-1304.2066580905516,-1305.0644503996875,-1253.1691535696996,-1246.3765061454849,-1239.252177052836,-1280.9313343978727,-1233.0412939523765,-1347.3118458864114,-1297.8678250706282,-1227.293347928988,-1262.1268236092506
4,-1248.8500671719482,69.60896738792442,-1176.8024339189703,-1261.0895926947155,-1251.1241352272846,-1343.6316932767215,-1157.908495332144,-1211.3217568409495,-1248.2115700121778,-1187.1909455570033,-1225.105124115956,-1245.2774782360138,-1328.1790343616806,-1185.5160404781107,-1274.5546603133905,-1351.398149063654,-1210.6759283631677,-1181.4766484270447,-1175.7868084479007,-1290.4100406756666,-1301.7889048278798,-1290.3431838716358,-1277.947489033067,-1256.4776133834555,-1145.4130879527165,-1227.498313664468,-1314.1226369905894,-1286.729038975717,-1235.2062466796267,-1185.4357508886583,-1181.4461783583226,-1246.8514251200143,-1219.5694207546908,-1154.697331923495,-1162.676384091682,-1247.2969289660323,-1231.8545608393226,-1275.5624274940346,-1197.569982420778,-1294.8663877489817,-1327.717977031237,-1187.4441812630066,-1381.334089900932,-1114.4219818032125,-1183.3557308047243,-1216.5834090998048,-1067.1269047869444,-1272.3158254405155,-1297.347609343032,-1123.3340913168836,-1115.9949045673104,-1280.6987168925905,-1159.1037523403377,-1220.472160425504,-1262.1295941912333,-1340.5338616623935,-1414.222428136569,-1150.5837408444554,-1238.0231142370583,-1193.9606309387175,-1208.3715526510337,-1223.2829992187737,-1198.0850261782596,-1333.9299504520789,-1303.1279883996187,-1222.6363098706563,-1339.871978843428,-1364.44452208043,-1364.8171921657263,-1211.3666123198375,-1371.9639966329216,-1194.3323693838076,-1271.3318166728425,-1258.1145096071398,-1226.8642408386863,-1204.3651361476946,-1187.1051781896895,-1228.8921511494952,-1266.1649643489752,-1256.3204151782788,-1127.360927869352,-1302.3904614744295,-1272.7796366183306,-1301.2935997310392,-1300.7991738694568,-1252.4172948825726,-1406.607809003831,-1298.2786662354608,-1213.9808274132806,-1226.8864650903727,-1181.6001803644576,-1270.3959511819357,-1376.918257640496,-1268.394788229738,-1263.8788353287212,-1217.9067244217981,-1256.9668256172358,-1251.435721116915,-1360.5861612352562,-1397.0702276651111,-1242.4234553039003,-1273.5272822175837
5,-1258.3660649436708,61.310271806946886,-1240.4721950080218,-1290.1146043423378,-1251.1241352272846,-1334.4611118415983,-1138.7295274667815,-1244.5883511870275,-1284.883380482825,-1197.1992822105562,-1237.775676253215,-1248.1226082558956,-1311.3944753639264,-1171.4230594275245,-1266.0118438449279,-1344.9519913383424,-1199.1353057426447,-1229.9447898067597,-1242.8719722573053,-1321.8782698131315,-1297.3386207008539,-1329.287867128995,-1325.684511395147,-1282.9656046465668,-1202.7812438357869,-1273.5109919449885,-1301.7923714562003,-1329.5237451806902,-1231.5264738114813,-1229.516006489621,-1189.6117214977153,-1244.9365384190182,-1246.3797506106282,-1210.6994058307816,-1205.7452310286697,-1247.2969289660323,-1237.742122381845,-1293.011849151566,-1239.4727636737273,-1298.0716703965354,-1337.4169720655652,-1191.2921727930918,-1341.482697160665,-1115.3002404816195,-1206.6309540355126,-1290.7089465166937,-1090.266936229875,-1265.6474474651584,-1296.9129248071843,-1181.615115935824,-1115.9949045673104,-1255.512683623819,-1156.1906650999342,-1222.440683434521,-1266.4304437266258,-1321.9253886862346,-1430.6071390895522,-1161.6192362979252,-1252.6656563479648,-1207.4001931452838,-1262.9497200308783,-1217.456186616022,-1176.0785328623442,-1289.5866056978305,-1306.52065630854,-1225.150862147581,-1340.1993836710294,-1376.0973934232422,-1326.3364449648102,-1237.6292585213444,-1340.082160360478,-1223.36188576483,-1279.2161745029587,-1239.7383545257828,-1226.8642408386863,-1204.3651361476946,-1229.8140426424136,-1206.836762050567,-1292.6998928372097,-1256.3204151782788,-1138.0630776627038,-1308.6803137841416,-1245.7536334838649,-1296.6961845262601,-1251.0369275501905,-1253.3908905347234,-1363.5179069912017,-1265.212678965721,-1301.2331861294824,-1262.4597646805869,-1255.967668875863,-1249.1211450126248,-1389.5832077510283,-1291.4679909369017,-1251.1286983457976,-1217.9067244217981,-1259.9371419261151,-1285.5165297279761,-1337.4522895567982,-1380.9653974615248,-1233.163488870451,-1261.0081381515517
6,-1260.611085098781,60.917795613669426,-1254.3674749516724,-1311.0145121994415,-1251.1241352272846,-1317.6765528438443,-1138.7295274667815,-1240.3624595175534,-1284.883380482825,-1207.5738643335858,-1252.0846951861295,-1266.9007266683907,-1308.778148438471,-1180.3501660953177,-1269.512258320516,-1324.302186887258,-1199.1353057426447,-1223.5622572815469,-1224.3681955769168,-1332.7565648694915,-1309.5871437068934,-1309.0682873439432,-1309.629285462755,-1286.6923907924745,-1206.1732293397733,-1273.5109919449885,-1301.1048446707355,-1318.7794202183602,-1268.5262198931143,-1221.3414067038154,-1201.468346399704,-1240.5740488436234,-1248.1491368544735,-1131.2481333571486,-1205.7452310286697,-1254.9592892133803,-1237.2223082441303,-1273.1441360225251,-1256.0632566209422,-1333.7531738535406,-1316.739011889763,-1201.2198110833967,-1359.9082976275452,-1126.1284741424495,-1245.680111961054,-1289.9862055644446,-1129.0040744954354,-1259.9013413218036,-1296.9129248071843,-1182.2775950338455,-1115.9949045673104,-1274.6993339573296,-1156.698211799577,-1233.2278122012779,-1267.5603765901953,-1321.9253886862346,-1441.0733684382722,-1154.8747039053046,-1244.859644120604,-1235.4758329604938,-1259.6516172907523,-1205.7722669167615,-1212.167098901838,-1286.3534703985968,-1306.1927396628378,-1230.4892926872649,-1336.371827698975,-1377.199657653803,-1333.2093525743749,-1236.8707065643557,-1332.292990015028,-1245.644963977629,-1303.2035318569544,-1240.3533569618764,-1226.8642408386863,-1204.3651361476946,-1229.8140426424136,-1190.0393772529528,-1309.8675719931366,-1256.3204151782788,-1135.5858344174476,-1302.1785979515048,-1247.8835958462514,-1296.6961845262601,-1284.6705526881844,-1262.6011511222205,-1381.8176857319788,-1316.3936687220425,-1305.6207412011493,-1234.2633290449896,-1255.967668875863,-1252.6863870938203,-1407.468900723476,-1291.4679909369017,-1203.3877839124227,-1217.9067244217981,-1259.9371419261151,-1263.3462516112704,-1334.877711813892,-1330.1273940521369,-1249.6240268036338,-1275.1854114823466
7,-1262.448965958738,59.42583098974573,-1254.3674749516724,-1311.0145121994415,-1251.1241352272846,-1274.7598812040198,-1138.7295274667815,-1267.4734380308316,-1284.883380482825,-1207.5738643335858,-1252.0846951861295,-1266.9007266683907,-1294.5960617601756,-1180.3501660953177,-1283.3676008516504,-1326.5529290913023,-1199.4632223883473,-1242.2361061441932,-1224.8148442357945,-1332.7565648694915,-1309.5871437068934,-1306.7863135907994,-1298.3713809546277,-1286.6923907924745,-1210.0195216612858,-1275.1811497258045,-1301.1048446707355,-1321.1808944105796,-1268.5262198931143,-1228.8274160538817,-1209.8420171548219,-1246.0339903774886,-1226.6789651063914,-1160.0823317612371,-1205.7452310286697,-1254.9592892133803,-1262.6698332831638,-1273.1441360225251,-1246.7256217898018,-1331.598838509162,-1292.0953317126084,-1178.022682524889,-1398.8529808849041,-1126.1284741424495,-1245.0633707276825,-1289.0872582909963,-1134.567006634661,-1246.335926133516,-1296.9129248071843,-1184.9509514439862,-1115.9949045673104,-1274.6993339573296,-1206.6289433266325,-1233.2278122012779,-1266.6948622463422,-1321.9253886862346,-1417.4958709030138,-1174.0613542388153,-1250.6549126167567,-1284.4017591388244,-1259.6516172907523,-1205.7722669167615,-1205.5566924892387,-1286.3534703985968,-1306.1927396628378,-1255.4712115169284,-1336.371827698975,-1355.4415150031261,-1352.8256146198526,-1236.5427899186532,-1335.747867008162,-1245.644963977629,-1258.6234042245444,-1240.3533569618764,-1226.8642408386863,-1204.3651361476946,-1229.8140426424136,-1213.749140955974,-1326.0800962293265,-1256.3204151782788,-1135.5858344174476,-1267.1329031509943,-1247.8835958462514,-1296.6961845262601,-1278.3706900551008,-1264.4456134461586,-1405.4715879361684,-1316.3936687220425,-1315.240003812434,-1274.5298676299542,-1255.967668875863,-1252.6863870938203,-1407.468900723476,-1291.4679909369017,-1172.7601170306475,-1217.9067244217981,-1259.9371419261151,-1263.3462516112704,-1347.1537281634323,-1330.1273940521369,-1278.4912571466007,-1273.481964589146
8,-1265.0332423460866,59.075863095902484,-1254.3674749516724,-1311.0145121994415,-1251.1241352272846,-1283.4091354690804,-1138.7295274667815,-1264.299537719266,-1284.883380482825,-1207.5738643335858,-1252.0846951861295,-1266.9007266683907,-1327.1204554780338,-1180.3501660953177,-1281.6162423670714,-1326.5529290913023,-1199.4632223883473,-1304.8320354120438,-1224.8148442357945,-1332.7565648694915,-1309.5871437068934,-1306.7863135907994,-1298.3713809546277,-1280.8971222963216,-1210.0195216612858,-1275.1811497258045,-1301.3085745298333,-1328.5312539222577,-1268.5262198931143,-1251.3324639798414,-1209.8420171548219,-1246.0339903774886,-1288.584453680062,-1160.0823317612371,-1205.7452310286697,-1254.9592892133803,-1262.6698332831638,-1273.1441360225251,-1245.583435139991,-1331.598838509162,-1290.0635986182883,-1178.022682524889,-1402.9586392499943,-1126.1284741424495,-1240.6686280327456,-1289.8099992432453,-1134.567006634661,-1246.335926133516,-1296.9129248071843,-1182.2775950338455,-1115.9949045673104,-1274.6993339573296,-1225.901028457882,-1233.2278122012779,-1266.6948622463422,-1321.9253886862346,-1417.4958709030138,-1220.4283463688173,-1244.859644120604,-1284.4017591388244,-1259.6516172907523,-1217.456186616022,-1205.5566924892387,-1286.3534703985968,-1306.1927396628378,-1243.4675303315764,-1336.371827698975,-1356.8883965287916,-1352.8256146198526,-1236.8707065643557,-1355.844190969552,-1245.644963977629,-1267.1880484664998,-1240.3533569618764,-1226.8642408386863,-1204.3651361476946,-1228.1354059716157,-1213.0947262997922,-1326.0800962293265,-1256.3204151782788,-1135.5858344174476,-1251.781803361903,-1247.8835958462514,-1304.3419069338922,-1278.3706900551008,-1262.6011511222205,-1406.2974831694698,-1316.3936687220425,-1315.240003812434,-1277.9898071221212,-1260.3002994947908,-1250.9350286092413,-1407.468900723476,-1291.4679909369017,-1205.590073474449,-1217.9067244217981,-1259.9371419261151,-1263.3462516112704,-1341.3989127639209,-1330.1273940521369,-1280.2507161477695,-1238.5309175003736
9,-1264.492152938024,58.94018764685736,-1254.3674749516724,-1311.0145121994415,-1248.264568468445,-1269.8001960027705,-1138.7295274667815,-1263.6451230630842,-1284.883380482825,-1207.5738643335858,-1252.0846951861295,-1266.9007266683907,-1321.5018773459246,-1180.3501660953177,-1281.6162423670714,-1326.5529290913023,-1199.1353057426447,-1293.580532430767,-1223.1446864549787,-1357.8042723617302,-1304.7213761794053,-1306.7863135907994,-1295.6610292383805,-1286.6923907924745,-1210.0195216612858,-1275.1811497258045,-1301.9582452994287,-1328.5312539222577,-1268.5262198931143,-1251.3324639798414,-1209.4400636409468,-1246.050600625316,-1262.3881799487895,-1160.0823317612371,-1205.7452310286697,-1254.9592892133803,-1262.6698332831638,-1267.865013921297,-1245.583435139991,-1331.598838509162,-1290.5872694790596,-1178.1031501774853,-1403.7271452027232,-1126.1284741424495,-1240.6686280327456,-1289.8099992432453,-1134.567006634661,-1246.335926133516,-1296.9129248071843,-1182.2775950338455,-1115.9949045673104,-1274.6993339573296,-1241.8202833179107,-1234.0478339858971,-1266.6948622463422,-1321.9253886862346,-1417.4958709030138,-1222.595924236772,-1250.6549126167567,-1284.4017591388244,-1259.6516172907523,-1218.154229604112,-1205.5566924892387,-1286.3534703985968,-1306.1927396628378,-1262.0890514442049,-1336.371827698975,-1368.9184960796733,-1352.8256146198526,-1236.5427899186532,-1314.7409523607585,-1245.644963977629,-1267.1880484664998,-1240.3533569618764,-1226.8642408386863,-1204.3651361476946,-1228.1354059716157,-1217.3933976802107,-1326.0800962293265,-1256.3204151782788,-1135.5858344174476,-1209.96254259964,-1247.8835958462514,-1304.3419069338922,-1278.3706900551008,-1262.6011511222205,-1406.2974831694698,-1316.3936687220425,-1315.240003812434,-1273.0496651393735,-1260.3002994947908,-1266.9107649811515,-1407.468900723476,-1291.4679909369017,-1205.590073474449,-1217.9067244217981,-1259.9371419261151,-1263.3462516112704,-1339.36723904867,-1330.1273940521369,-1282.6004561830505,-1238.5309175003736
10,-1266.6420793367363,60.76731893667345,-1254.3674749516724,-1311.0145121994415,-1248.264568468445,-1269.8001960027705,-1138.7295274667815,-1257.3479443184167,-1284.883380482825,-1206.8053583808567,-1252.0846951861295,-1266.9007266683907,-1321.5018773459246,-1180.3501660953177,-1283.3676008516504,-1326.5529290913023,-1199.1353057426447,-1358.288477097439,-1223.1446864549787,-1372.6778933425157,-1304.7213761794053,-1306.7863135907994,-1314.388192296124,-1280.8971222963216,-1209.1588154337244,-1275.1811497258045,-1301.3085745298333,-1328.5312539222577,-1272.556701593407,-1239.5038835806251,-1210.5135400837619,-1246.050600625316,-1262.2323902079297,-1160.0823317612371,-1205.7452310286697,-1269.5348569750345,-1262.6698332831638,-1267.865013921297,-1245.4276453991313,-1331.598838509162,-1290.5872694790596,-1178.1031501774853,-1403.7271452027232,-1126.1284741424495,-1241.0186791507433,-1293.5009775832834,-1134.567006634661,-1246.335926133516,-1296.9129248071843,-1182.2775950338455,-1116.1091306016622,-1274.6993339573296,-1241.8202833179107,-1268.2598040153607,-1266.6948622463422,-1321.9253886862346,-1417.4958709030138,-1216.3959598404101,-1250.6549126167567,-1283.2083892432306,-1259.6516172907523,-1218.154229604112,-1205.5566924892387,-1286.3534703985968,-1306.1927396628378,-1255.4266606831163,-1336.371827698975,-1402.5701759977105,-1336.2856807121384,-1247.392253177398,-1314.7409523607585,-1245.644963977629,-1267.1880484664998,-1240.3533569618764,-1226.8642408386863,-1204.3651361476946,-1229.8140426424136,-1216.7389830240286,-1326.0800962293265,-1262.0206342904874,-1135.5858344174476,-1219.988601099523,-1247.8835958462514,-1304.3419069338922,-1278.3706900551008,-1262.6011511222205,-1406.296722749843,-1316.3936687220425,-1315.240003812434,-1273.0496651393735,-1260.3002994947908,-1272.1170004588646,-1407.468900723476,-1291.4679909369017,-1205.590073474449,-1217.9067244217981,-1256.7040066268814,-1266.390230768895,-1364.1866295540326,-1330.1273940521369,-1305.506054244902,-1238.5309175003736
11,-1266.8510422223026,60.56296953254464,-1254.6436202950795,-1311.0145121994415,-1251.1241352272846,-1269.8001960027705,-1138.7295274667815,-1251.952220081324,-1284.883380482825,-1206.8053583808567,-1252.0846951861295,-1266.9007266683907,-1321.5018773459246,-1180.3501660953177,-1283.3676008516504,-1326.5529290913023,-1199.1353057426447,-1331.9746503347137,-1224.8148442357945,-1365.167686942404,-1304.7213761794053,-1306.7863135907994,-1314.388192296124,-1280.8971222963216,-1209.1588154337244,-1275.1811497258045,-1301.7545154403306,-1328.5312539222577,-1315.8227968700508,-1251.3324639798414,-1210.5135400837619,-1246.050600625316,-1262.2323902079297,-1160.0823317612371,-1205.7452310286697,-1284.4971495161244,-1262.6698332831638,-1267.865013921297,-1245.583435139991,-1331.598838509162,-1290.5872694790596,-1178.022682524889,-1403.7271452027232,-1126.1284741424495,-1241.0186791507433,-1281.1544468099437,-1134.567006634661,-1246.335926133516,-1296.9129248071843,-1182.2775950338455,-1116.1091306016622,-1274.6993339573296,-1241.8202833179107,-1268.2598040153607,-1266.6948622463422,-1321.9253886862346,-1417.4958709030138,-1217.605160241737,-1250.6549126167567,-1283.2083892432306,-1259.6516172907523,-1206.4703099048515,-1205.5566924892387,-1286.3534703985968,-1316.4177398025047,-1256.945242161227,-1336.371827698975,-1402.5701759977105,-1308.4749013491048,-1251.724883796326,-1314.7409523607585,-1245.644963977629,-1267.1880484664998,-1240.3533569618764,-1226.8642408386863,-1204.3651361476946,-1228.1354059716157,-1217.3933976802107,-1326.0800962293265,-1260.1504123170055,-1135.5858344174476,-1219.988601099523,-1247.8835958462514,-1304.3419069338922,-1278.3706900551008,-1262.6011511222205,-1406.296722749843,-1316.3936687220425,-1315.240003812434,-1273.0496651393735,-1260.3002994947908,-1254.0602993834634,-1407.468900723476,-1291.4679909369017,-1205.590073474449,-1217.9067244217981,-1257.4595122496646,-1282.5536046155273,-1364.1866295540326,-1330.1273940521369,-1328.8260818943734,-1238.5309175003736
12,-1266.2569240423074,60.29099885147364,-1254.6436202950795,-1311.0145121994415,-1251.1241352272846,-1269.8001960027705,-1138.7295274667815,-1251.2978054251419,-1284.883380482825,-1206.8053583808567,-1249.8679539538828,-1266.9007266683907,-1321.5018773459246,-1180.3501660953177,-1283.3676008516504,-1326.5529290913023,-1199.1353057426447,-1331.9746503347137,-1224.8148442357945,-1364.9639570833065,-1304.7213761794053,-1306.7863135907994,-1314.388192296124,-1280.8971222963216,-1225.157429637145,-1275.1811497258045,-1301.7545154403306,-1328.5312539222577,-1315.8227968700508,-1253.6758681924896,-1209.4400636409468,-1246.051361044943,-1262.0435917381906,-1160.41024840694,-1205.7452310286697,-1284.4971495161244,-1262.6698332831638,-1267.865013921297,-1245.4276453991313,-1331.598838509162,-1290.5872694790596,-1178.022682524889,-1403.7271452027232,-1126.1284741424495,-1240.6686280327456,-1264.8931702390498,-1134.567006634661,-1246.335926133516,-1296.9129248071843,-1182.2775950338455,-1116.1091306016622,-1274.6993339573296,-1241.8202833179107,-1268.2598040153607,-1266.6948622463422,-1326.3058981832976,-1417.4958709030138,-1219.7320114271108,-1250.6549126167567,-1283.2083892432306,-1255.2184100042127,-1205.7722669167615,-1206.2063632588338,-1286.3534703985968,-1316.4177398025047,-1251.1499736650744,-1336.371827698975,-1368.9184960796733,-1333.8828862274063,-1251.724883796326,-1314.7409523607585,-1245.644963977629,-1267.1880484664998,-1240.3533569618764,-1226.8642408386863,-1183.4355829454382,-1229.8140426424136,-1216.6248917274818,-1329.1907456859176,-1260.1504123170055,-1135.5858344174476,-1219.988601099523,-1247.8835958462514,-1304.3419069338922,-1278.3706900551008,-1262.6011511222205,-1406.296722749843,-1316.3936687220425,-1315.240003812434,-1273.0496651393735,-1253.3568712840258,-1254.0602993834634,-1407.468900723476,-1276.961067519916,-1205.590073474449,-1217.9067244217981,-1250.853583872456,-1282.5536046155273,-1364.1866295540326,-1330.1273940521369,-1328.8260818943734,-1238.5309175003736
13,-1265.5306365751817,60.659797131727544,-1254.6436202950795,-1311.0145121994415,-1251.1241352272846,-1269.8001960027705,-1135.1304921691055,-1251.952220081324,-1284.883380482825,-1206.8053583808567,-1267.0860700988999,-1266.9007266683907,-1321.5018773459246,-1180.3501660953177,-1283.3676008516504,-1326.5529290913023,-1199.1353057426447,-1331.9746503347137,-1223.1446864549787,-1365.167686942404,-1304.7213761794053,-1306.7863135907994,-1295.6610292383805,-1285.022233011659,-1224.8575228950199,-1275.1811497258045,-1301.7545154403306,-1328.5312539222577,-1318.3420583775298,-1253.6758681924896,-1209.4400636409468,-1246.050600625316,-1262.0435917381906,-1160.41024840694,-1205.7452310286697,-1284.4971495161244,-1262.6698332831638,-1267.865013921297,-1245.583435139991,-1331.598838509162,-1290.5872694790596,-1174.5808203672952,-1403.7271452027232,-1126.1284741424495,-1241.5659970055153,-1264.8931702390498,-1134.567006634661,-1246.227605105168,-1296.9129248071843,-1182.2775950338455,-1113.492803676207,-1274.6993339573296,-1241.8202833179107,-1268.2598040153607,-1266.6948622463422,-1325.9779815375953,-1417.4958709030138,-1219.7320114271108,-1211.2079642025662,-1283.2083892432306,-1255.9171108172552,-1205.7722669167615,-1206.2063632588338,-1286.3534703985968,-1316.0898231568024,-1251.1499736650744,-1336.371827698975,-1368.9184960796733,-1329.231806634532,-1251.724883796326,-1314.7409523607585,-1251.2601204787238,-1267.1880484664998,-1240.3533569618764,-1226.8642408386863,-1179.9381530695828,-1229.8140426424136,-1215.9704770712997,-1329.1907456859176,-1260.1504123170055,-1135.5858344174476,-1220.1923309586205,-1247.8835958462514,-1304.3419069338922,-1278.3706900551008,-1264.4456134461586,-1406.296722749843,-1316.3936687220425,-1315.240003812434,-1273.0496651393735,-1261.8267559990861,-1255.8116578680424,-1407.468900723476,-1276.961067519916,-1205.590073474449,-1217.9067244217981,-1219.1691581080734,-1282.5536046155273,-1364.1866295540326,-1322.803001634302,-1328.8260818943734,-1239.9231439163088
14,-1266.6783608021267,61.329984106249505,-1254.6436202950795,-1311.0145121994415,-1239.0101956465437,-1269.8001960027705,-1138.7295274667815,-1251.2978054251419,-1284.883380482825,-1206.8053583808567,-1279.0636396140883,-1266.9007266683907,-1321.5018773459246,-1180.3501660953177,-1283.3676008516504,-1326.5529290913023,-1199.1353057426447,-1331.9746503347137,-1224.8148442357945,-1365.167686942404,-1304.7213761794053,-1306.7863135907994,-1314.388192296124,-1277.1815640217562,-1216.487596335229,-1275.1811497258045,-1303.942727452511,-1326.6867915983191,-1337.5287087110407,-1253.6758681924896,-1209.2842739000873,-1246.051361044943,-1262.0435917381906,-1160.41024840694,-1205.7452310286697,-1284.4971495161244,-1262.6698332831638,-1267.865013921297,-1247.6190752117939,-1331.598838509162,-1290.5872694790596,-1174.5808203672952,-1403.7271452027232,-1126.1284741424495,-1240.6686280327456,-1264.8931702390498,-1134.567006634661,-1246.227605105168,-1296.9129248071843,-1152.0432779036942,-1115.5375529098844,-1274.6993339573296,-1241.8202833179107,-1268.2598040153607,-1266.6948622463422,-1325.9779815375953,-1417.4958709030138,-1219.8878011679703,-1282.2334617266868,-1283.2083892432306,-1265.2576263038675,-1217.456186616022,-1206.2063632588338,-1286.3534703985968,-1316.4177398025047,-1251.1499736650744,-1336.371827698975,-1368.9184960796733,-1329.231806634532,-1251.724883796326,-1314.7409523607585,-1308.645241392857,-1267.1880484664998,-1240.3533569618764,-1226.8642408386863,-1179.9381530695828,-1229.8140426424136,-1215.9704770712997,-1329.1907456859176,-1260.1504123170055,-1135.8619797608546,-1219.367196144946,-1247.8835958462514,-1304.3419069338922,-1278.3706900551008,-1264.4456134461586,-1406.296722749843,-1316.3936687220425,-1315.240003812434,-1273.0496651393735,-1230.9443463673051,-1254.0602993834634,-1407.468900723476,-1276.961067519916,-1203.7141954680903,-1217.9067244217981,-1219.762406616996,-1282.5536046155273,-1364.1866295540326,-1322.803001634302,-1328.8260818943734,-1239.9231439163088
15,-1265.9602355437332,60.52807078835953,-1254.6436202950795,-1311.0145121994415,-1219.605309943497,-1269.5964661436726,-1138.7295274667815,-1251.2978054251419,-1284.883380482825,-1206.4774417351543,-1279.0636396140883,-1266.9007266683907,-1321.5018773459246,-1180.3501660953177,-1283.3676008516504,-1326.5529290913023,-1199.1353057426447,-1331.9746503347137,-1224.8148442357945,-1359.0491545910388,-1304.7213761794053,-1306.7863135907994,-1314.388192296124,-1279.695319427557,-1216.487596335229,-1275.1811497258045,-1277.8455316438824,-1326.6867915983191,-1294.2626134343973,-1262.227313813533,-1209.2842739000873,-1246.051361044943,-1262.0435917381906,-1160.0823317612371,-1205.7452310286697,-1284.4971495161244,-1262.6698332831638,-1267.865013921297,-1242.0561430725681,-1331.598838509162,-1290.5872694790596,-1174.5808203672952,-1403.7271452027232,-1126.456390788152,-1240.6686280327456,-1264.8931702390498,-1134.567006634661,-1246.227605105168,-1296.9129248071843,-1184.9509514439862,-1115.5375529098844,-1274.6993339573296,-1241.8202833179107,-1268.2598040153607,-1266.6948622463422,-1321.5974720405318,-1413.1853133044567,-1219.8878011679703,-1266.246776299513,-1283.2083892432306,-1265.2576263038675,-1205.7722669167615,-1206.2063632588338,-1286.3534703985968,-1316.4177398025047,-1256.945242161227,-1336.371827698975,-1368.9184960796733,-1329.231806634532,-1252.0528004420285,-1314.7409523607585,-1308.645241392857,-1267.1880484664998,-1240.3533569618764,-1233.0892860725164,-1179.9381530695828,-1228.1354059716157,-1220.1554216810096,-1329.1907456859176,-1260.1504123170055,-1129.3769111570725,-1219.367196144946,-1247.8835958462514,-1304.3419069338922,-1278.3706900551008,-1264.4456134461586,-1406.296722749843,-1316.3936687220425,-1315.240003812434,-1273.0496651393735,-1211.435128008893,-1255.8116578680424,-1407.468900723476,-1268.4457393071004,-1207.260231255265,-1217.9067244217981,-1244.8377188293202,-1282.5536046155273,-1375.0265595296657,-1322.803001634302,-1328.8260818943734,-1239.9231439163088
16,-1266.0351260222828,59.63546941540939,-1254.6436202950795,-1311.0145121994415,-1240.185377846949,-1269.5964661436726,-1138.7295274667815,-1251.2978054251419,-1284.883380482825,-1206.4774417351543,-1279.0636396140883,-1266.9007266683907,-1321.5018773459246,-1180.3501660953177,-1281.6162423670714,-1326.5529290913023,-1199.4632223883473,-1331.9746503347137,-1247.3670223148133,-1359.0491545910388,-1304.7213761794053,-1306.7863135907994,-1318.7687017931871,-1279.695319427557,-1216.487596335229,-1275.1811497258045,-1277.8455316438824,-1326.6867915983191,-1292.592455653581,-1262.227313813533,-1209.4400636409468,-1252.7758673671356,-1262.0435917381906,-1160.0823317612371,-1205.7452310286697,-1284.4971495161244,-1262.6698332831638,-1267.865013921297,-1242.0561430725681,-1300.7164288773806,-1290.5872694790596,-1174.5808203672952,-1403.7271452027232,-1152.9647956756157,-1240.6686280327456,-1264.8931702390498,-1134.567006634661,-1246.227605105168,-1296.9129248071843,-1184.9509514439862,-1115.5375529098844,-1274.6993339573296,-1224.9232106930406,-1268.2598040153607,-1266.6948622463422,-1321.5974720405318,-1413.1853133044567,-1219.8878011679703,-1232.6341841238275,-1284.4017591388244,-1265.2576263038675,-1244.5510936147748,-1205.5566924892387,-1286.3534703985968,-1316.4177398025047,-1251.1499736650744,-1336.371827698975,-1368.9184960796733,-1329.231806634532,-1251.724883796326,-1314.7409523607585,-1308.645241392857,-1267.1880484664998,-1240.3533569618764,-1233.0892860725164,-1179.9381530695828,-1228.1354059716157,-1220.1554216810096,-1329.1907456859176,-1262.5991672527325,-1129.3769111570725,-1219.1634662858482,-1247.8835958462514,-1304.3419069338922,-1278.3706900551008,-1262.6011511222205,-1406.296722749843,-1316.3936687220425,-1315.240003812434,-1273.0496651393735,-1211.435128008893,-1255.8116578680424,-1410.4195284917928,-1268.4457393071004,-1207.260231255265,-1217.9067244217981,-1219.3604531031212,-1282.5536046155273,-1375.0265595296657,-1322.803001634302,-1328.8260818943734,-1239.9231439163088
17,-1266.716771987168,60.67264820935269,-1254.6436202950795,-1311.0145121994415,-1240.185377846949,-1269.5964661436726,-1135.1304921691055,-1251.952220081324,-1284.883380482825,-1206.8053583808567,-1279.0636396140883,-1272.657844004091,-1321.173960700222,-1180.3501660953177,-1283.3676008516504,-1326.5529290913023,-1199.4632223883473,-1333.2723601129571,-1264.708761180291,-1359.364094222334,-1304.7213761794053,-1309.0682873439432,-1318.7687017931871,-1277.1815640217562,-1216.487596335229,-1275.1811497258045,-1278.4952024134775,-1326.6867915983191,-1292.592455653581,-1262.227313813533,-1209.2842739000873,-1252.7758673671356,-1262.0435917381906,-1160.0823317612371,-1205.7452310286697,-1293.3309638118556,-1262.6698332831638,-1267.865013921297,-1242.0561430725681,-1300.037335140548,-1311.498352066026,-1174.5808203672952,-1403.7271452027232,-1121.1409309031076,-1240.6686280327456,-1264.8931702390498,-1134.567006634661,-1246.227605105168,-1296.9129248071843,-1182.2775950338455,-1115.5375529098844,-1274.6993339573296,-1237.1867162123858,-1268.2598040153607,-1266.6948622463422,-1330.9581300293828,-1413.1853133044567,-1219.8878011679703,-1228.8695949473272,-1279.9469675742043,-1265.2576263038675,-1258.542657617874,-1205.5566924892387,-1289.5866056978305,-1316.0898231568024,-1256.945242161227,-1336.371827698975,-1368.9184960796733,-1342.545605754714,-1251.724883796326,-1314.7409523607585,-1311.9066630618831,-1267.1880484664998,-1240.3533569618764,-1233.0892860725164,-1179.9381530695828,-1229.8140426424136,-1220.1554216810096,-1329.1907456859176,-1262.5991672527325,-1129.3769111570725,-1219.1634662858482,-1247.8835958462514,-1304.3419069338922,-1278.3706900551008,-1262.6011511222205,-1406.296722749843,-1316.3936687220425,-1315.240003812434,-1273.0496651393735,-1211.435128008893,-1254.0602993834634,-1407.468900723476,-1268.4457393071004,-1208.8194242396567,-1217.9067244217981,-1219.3604531031212,-1282.5536046155273,-1375.0265595296657,-1322.803001634302,-1328.8260818943734,-1238.5309175003736
18,-1266.8806852041737,61.25439228813611,-1254.6436202950795,-1311.0145121994415,-1240.185377846949,-1269.5964661436726,-1135.1304921691055,-1252.9771027149195,-1284.883380482825,-1206.8053583808567,-1279.0636396140883,-1264.952280107103,-1321.173960700222,-1180.3501660953177,-1283.3676008516504,-1326.5529290913023,-1199.4632223883473,-1333.2723601129571,-1266.3789189611068,-1359.364094222334,-1304.7213761794053,-1309.0682873439432,-1318.7687017931871,-1277.1815640217562,-1216.487596335229,-1275.1259241018975,-1278.4952024134775,-1326.6867915983191,-1292.592455653581,-1250.3987334143167,-1209.2842739000873,-1253.464445056324,-1262.0435917381906,-1160.0823317612371,-1205.7452310286697,-1293.3309638118556,-1262.6698332831638,-1267.865013921297,-1241.9003533317084,-1300.037335140548,-1311.498352066026,-1174.5808203672952,-1403.7271452027232,-1120.5393783970824,-1240.6686280327456,-1264.948395862957,-1134.567006634661,-1246.227605105168,-1296.9129248071843,-1182.2775950338455,-1115.5375529098844,-1274.6993339573296,-1237.1867162123858,-1268.2598040153607,-1266.6948622463422,-1330.9581300293828,-1413.1853133044567,-1219.8878011679703,-1228.8695949473272,-1283.2083892432306,-1263.8042287298233,-1287.6708947377915,-1205.5566924892387,-1289.5866056978305,-1316.4177398025047,-1256.945242161227,-1336.371827698975,-1402.5701759977105,-1317.712078384792,-1252.0528004420285,-1314.7409523607585,-1311.9066630618831,-1267.1880484664998,-1240.3533569618764,-1201.7564188029407,-1179.9381530695828,-1228.1354059716157,-1220.1554216810096,-1329.1907456859176,-1262.5991672527325,-1129.3769111570725,-1219.988601099523,-1247.8835958462514,-1304.3419069338922,-1278.3706900551008,-1262.6011511222205,-1406.296722749843,-1316.3936687220425,-1315.240003812434,-1273.0496651393735,-1211.435128008893,-1254.0602993834634,-1407.468900723476,-1268.4457393071004,-1208.8194242396567,-1217.9067244217981,-1244.4357653154455,-1282.5536046155273,-1375.0265595296657,-1322.803001634302,-1328.8260818943734,-1238.5309175003736
19,-1267.4475841139588,59.90012824357603,-1254.6436202950795,-1311.0145121994415,-1250.5479589431109,-1269.8001960027705,-1135.1304921691055,-1253.6315173711014,-1284.883380482825,-1206.8053583808567,-1279.0636396140883,-1272.657844004091,-1321.173960700222,-1180.3501660953177,-1283.3676008516504,-1326.5529290913023,-1199.4632223883473,-1333.2723601129571,-1264.708761180291,-1359.364094222334,-1304.7213761794053,-1309.0682873439432,-1314.388192296124,-1277.1815640217562,-1216.487596335229,-1275.1259241018975,-1278.4952024134775,-1326.6867915983191,-1292.592455653581,-1250.3987334143167,-1209.4400636409468,-1252.0722186403887,-1286.9085890682964,-1164.8483752672807,-1204.516499585038,-1293.3309638118556,-1229.5506610920534,-1267.865013921297,-1242.0561430725681,-1300.037335140548,-1311.498352066026,-1174.5808203672952,-1403.7271452027232,-1142.602777048957,-1241.5659970055153,-1264.8931702390498,-1134.567006634661,-1246.227605105168,-1296.9129248071843,-1182.2775950338455,-1115.5375529098844,-1274.6993339573296,-1237.1867162123858,-1268.2598040153607,-1266.6948622463422,-1330.9581300293828,-1390.2569163299627,-1218.6786007666435,-1228.8695949473272,-1283.2083892432306,-1263.8042287298233,-1287.6708947377915,-1207.8386662423823,-1289.5866056978305,-1316.4177398025047,-1256.945242161227,-1336.371827698975,-1402.5701759977105,-1317.712078384792,-1236.8707065643557,-1314.7409523607585,-1311.9066630618831,-1267.1880484664998,-1240.3533569618764,-1221.2045569478248,-1179.9381530695828,-1229.8140426424136,-1220.1554216810096,-1329.1907456859176,-1262.5991672527325,-1129.3769111570725,-1219.988601099523,-1247.8835958462514,-1304.3419069338922,-1278.3706900551008,-1264.4456134461586,-1406.296722749843,-1316.3936687220425,-1315.240003812434,-1273.0496651393735,-1237.885833763806,-1255.8116578680424,-1407.468900723476,-1274.6707845409305,-1208.8194242396567,-1217.9067244217981,-1250.781372682862,-1282.5536046155273,-1375.0265595296657,-1322.803001634302,-1328.8260818943734,-1238.5309175003736
