Run,Terminal Iteration
0,7
1,7
2,17
3,10
4,6
5,12
6,6
7,7
8,15
9,7
10,10
11,7
12,8
13,8
14,6
15,12
16,8
17,12
18,7
19,7
20,8
21,7
22,15
23,6
24,16
25,9
26,16
27,9
28,8
29,8
30,10
31,8
32,6
33,12
34,8
35,7
36,16
37,18
38,10
39,14
40,9
41,18
42,9
43,13
44,8
45,8
46,6
47,7
48,15
49,7
50,10
51,11
52,8
53,6
54,8
55,11
56,18
57,8
58,15
59,19
60,8
61,6
62,6
63,12
64,6
65,10
66,19
67,7
68,10
69,15
70,9
71,7
72,20
73,14
74,6
75,8
76,8
77,12
78,7
79,11
80,7
81,9
82,8
83,7
84,8
85,7
86,8
87,10
88,16
89,12
90,7
91,6
92,9
93,5
94,15
95,12
96,11
97,7
98,12
99,9
