Run,Terminal Iteration
0,19
1,7
2,13
3,7
4,8
5,16
6,11
7,12
8,8
9,7
10,6
11,8
12,11
13,5
14,15
15,7
16,19
17,16
18,5
19,6
20,9
21,6
22,12
23,11
24,7
25,9
26,6
27,9
28,9
29,7
30,6
31,20
32,9
33,6
34,7
35,12
36,7
37,12
38,6
39,6
40,7
41,10
42,10
43,6
44,9
45,10
46,8
47,8
48,16
49,8
50,18
51,10
52,14
53,7
54,9
55,7
56,7
57,7
58,8
59,8
60,16
61,6
62,10
63,9
64,8
65,14
66,8
67,6
68,17
69,7
70,8
71,12
72,13
73,9
74,6
75,9
76,11
77,12
78,20
79,9
80,6
81,7
82,8
83,7
84,10
85,6
86,8
87,7
88,14
89,6
90,7
91,8
92,6
93,5
94,7
95,7
96,9
97,12
98,8
99,11
