Iteration,Mean,Stdev,Run-0,Run-1,Run-2,Run-3,Run-4,Run-5,Run-6,Run-7,Run-8,Run-9,Run-10,Run-11,Run-12,Run-13,Run-14,Run-15,Run-16,Run-17,Run-18,Run-19,Run-20,Run-21,Run-22,Run-23,Run-24,Run-25,Run-26,Run-27,Run-28,Run-29,Run-30,Run-31,Run-32,Run-33,Run-34,Run-35,Run-36,Run-37,Run-38,Run-39,Run-40,Run-41,Run-42,Run-43,Run-44,Run-45,Run-46,Run-47,Run-48,Run-49,Run-50,Run-51,Run-52,Run-53,Run-54,Run-55,Run-56,Run-57,Run-58,Run-59,Run-60,Run-61,Run-62,Run-63,Run-64,Run-65,Run-66,Run-67,Run-68,Run-69,Run-70,Run-71,Run-72,Run-73,Run-74,Run-75,Run-76,Run-77,Run-78,Run-79,Run-80,Run-81,Run-82,Run-83,Run-84,Run-85,Run-86,Run-87,Run-88,Run-89,Run-90,Run-91,Run-92,Run-93,Run-94,Run-95,Run-96,Run-97,Run-98,Run-99
0,413.006002608156,55.86112602833778,370.0598881352816,327.31370926639306,364.4398843845508,508.05851640477977,405.0663094558046,483.52018153856795,456.3509996815355,423.4301082146419,423.6380137552815,470.22673047455805,433.6786199173988,352.4702956743952,508.0966937871623,363.1499389986148,320.5251339516254,355.6697311455602,329.39144226772925,343.79943141445494,422.6058325901214,392.10940817646417,410.60674262610917,352.04074055105644,581.3185685551022,443.3084217255885,366.9292793168461,386.77350548072394,400.2407070922648,570.6469780490745,385.26846850721813,393.0652210659723,394.6191948577362,362.5042162788601,382.18286066485507,501.89283422771996,506.79834402087965,370.70105028778664,376.5289152842021,363.2018112532789,430.8430098389867,368.54660768659295,485.27801476512343,393.4211553301593,472.46184303939197,359.36847947598164,449.0198413332417,316.6315027677371,358.02851792555737,430.6003710979618,421.85569730184386,357.32317303963436,373.93945043111034,461.3586182902318,384.0913564056144,385.5804588732998,386.7411409440666,366.8352336331985,466.170618526362,339.023509303615,384.3101946448105,370.86035998463666,444.7109745695336,590.0148199770305,435.46526487778976,478.3148018490891,375.8151134054819,361.86329327840656,398.4140232506146,430.4023290746848,418.59160413828874,398.52288074556066,412.21024867663454,442.36522632549674,398.0813170635396,385.2886989440697,472.35495048100205,419.43118643069863,477.2528926362208,420.4437415796388,364.5657155078672,397.9840399852163,460.5635392611962,396.1339320610113,444.40112492278513,367.39453640586686,318.8425030414331,387.99511800971305,478.9784116598878,451.18906984954344,425.32940941555654,406.22288956110236,366.0887145981639,388.68793938453564,418.99975973457686,426.12994445342946,454.21960196681255,548.3213364297962,447.5217789043016,378.65123961633196,393.9419172450883,454.3764877782461
1,542.3817415968041,62.33834980799366,485.53736497156734,727.8781977998608,535.6297462847978,609.3718502948907,625.6962043307566,492.70954542163247,503.19435375235355,502.6425529070464,535.7085693360161,501.03315688610724,565.1819488010814,500.09713337414263,606.9166021901877,465.9171660910455,489.2495788919417,432.5618669770934,472.88441254378125,496.5435754634331,460.0316155993729,440.79667081507057,520.9322666391206,499.3496306339544,674.1163931565677,540.1416791239091,481.2556496586424,589.9881054969849,664.532901551709,586.4628380817148,680.5141408728646,554.6706302644174,493.92286796439026,536.3586615244975,643.2982165613741,531.3429580177567,484.83147044475857,573.8676087876079,690.0403520016251,628.3826390360723,487.5046807328894,534.5473021868439,523.2438663861991,593.3626721610927,539.6398891249826,585.0622488559443,594.3918469206542,586.1435761660733,625.3508918915223,596.0138111556338,541.7502481596467,597.4508127880638,426.4065148968365,588.689957961933,488.7396221053865,622.1325218099073,558.147062321403,460.56314929917994,572.4997933598652,536.6158598258246,452.44846490612946,481.5015166214208,555.8668821835753,599.3615973998614,550.2485480491331,523.249274987802,511.2886156665516,576.8396225721406,492.9332943390209,508.3901582171238,550.5318165687374,540.3262096617264,462.82200603453026,544.8619701088908,612.9353949082242,563.1073228174648,543.4099809037956,640.1583835830762,616.7670344654358,458.3370547688296,525.8098148804823,584.9888389129752,463.22095691436954,536.6472305033406,492.32052539967395,549.7852250148652,495.91919746694674,608.0122616179692,489.33214288333846,561.3415235470118,565.7278461285695,516.1490684576554,485.8628394253095,545.8915088708167,476.14333167379436,532.2629922070081,436.33058020174155,583.6291951595558,602.5122729486247,502.8128564350368,438.8838483079713,577.3575032998688
2,541.9636502076643,58.92367252045527,511.08340552788445,720.653485306686,513.6386890071279,654.2247596396478,568.2464088655347,625.8693621983389,561.9431761188833,496.1750162258184,586.4090860234544,545.755301345572,563.0732391866251,505.0623190506536,635.4517945157065,492.5915765355191,508.2331364048542,485.44303858288384,476.1789613225252,539.8530503325261,515.9679568302157,462.7713207724541,568.1892545539571,444.00769997246175,668.7296395540598,532.5865567858441,446.5668665088271,580.4516841545933,542.3054903940472,577.1765482212655,630.094517399289,621.6777599158048,552.1254287820217,537.2958830959817,612.0276348003539,503.19107372926385,498.9766638419431,556.222498388308,543.8850714236113,517.8202650166659,422.9035232537088,528.3343078008472,571.2200010183495,520.0327205367812,533.515296599371,567.9250372328229,633.7577550885003,617.155466570293,596.5754372448284,546.2132003530268,533.0355554754947,614.2777515089294,419.7825602160778,568.7162097452052,539.1733578549915,635.524776776096,532.2574215022339,500.8957831129202,593.2829191302988,576.3393295119507,443.78499107148446,479.6028182802533,555.0145981439479,616.2074135035747,536.917271552236,523.7959190237098,504.05242127026,540.5232549657884,512.1565044839539,514.0804685518727,503.65769174021966,522.6932584800516,429.9135723953106,498.830381922835,617.8477157057608,528.0696103552583,534.5671019764152,630.503589946146,605.9837265481225,471.25171476533905,558.7900870281698,576.2095853701896,506.0702013584623,541.4182613106505,504.1725795416625,504.4912665784464,517.4965807361071,602.3859483333532,527.4738040979013,554.5423551502257,569.1661945487007,522.5731769572267,469.86899625953225,555.0210728447069,561.1898694626556,602.6009533359268,354.8733750260109,584.731945566398,571.9580130174253,487.82182820476606,461.70959256192447,539.471277929525
3,537.6241168011456,57.65056140479278,508.5261579018759,695.5700739029039,525.7683202816501,681.08352310808,504.9667996695666,651.6528426678271,554.6832843291387,440.8975768835802,586.5728996157048,504.67550702255284,546.7462497584979,523.3354316902036,628.3966581526365,490.4242450549196,527.7446454403554,483.89113057699234,472.988182246429,523.975859333145,523.3643180269814,398.68024507097584,629.0060063758389,480.1397943215661,635.0629861567143,556.8769426240237,443.3592249053184,520.6444043761765,550.9256202391373,538.040502768514,548.798395749495,591.5920514900913,509.71291701243644,574.3459484432826,597.666552981937,503.91082174559125,553.2837349160764,559.1344251571805,508.29182565228945,528.7526629040067,443.10211178434713,572.9688564181894,574.6462160812351,534.6131590092843,558.183007349051,502.1441545269782,648.8588083296871,553.2381709887644,544.2497124264047,560.6175804215668,546.9648415831927,630.3192014335738,448.13559478183873,565.188226063064,496.7174949547062,627.2840764254772,518.233837357358,520.4992137450777,587.8793273313132,517.4832223695612,519.467628587608,466.93159023133364,562.7157232627095,625.1955072730476,504.9268633169389,534.8846911430535,488.01632403944456,473.992313762049,505.2288499687008,492.149075874162,578.6194125088501,510.86611931225974,430.4236403347754,561.5434860110853,599.8180909861909,532.767920977063,517.0588667189702,638.6219202688605,588.205374886406,495.38093756081435,564.6841022633907,520.2436017900425,469.9034291924257,544.6500352241425,514.705144984995,518.0972420817412,564.6188588484456,624.5705180632392,472.9027941093716,563.4046254523699,546.6504566335799,552.2790440738053,460.81559375448904,539.5148973316724,554.8187950207175,564.4041873131539,377.41606574239796,577.3233101179417,569.707795081385,497.4294400699936,454.85346337046195,527.7883606361132
4,529.4427742111086,56.90597367511776,483.7339927496417,739.6795893263588,512.7501522331652,650.1242338476815,524.3137851762449,611.1063368670078,579.7049646457934,446.39540532620447,563.5695507096765,491.15656117022087,522.1199404523899,506.4795473892068,613.3326450915791,477.3100166483926,532.1005411505678,459.55009496302165,458.3247680972586,514.4544673477388,511.2793853240858,393.04563185119855,623.9151576316854,474.80593780716003,647.1541858516179,569.787293010989,455.9479801167876,566.1079053446347,517.8751683210554,532.8219003660294,555.4423379338439,595.4139209805239,503.214812028901,566.4198392014115,593.3860258955162,504.0276036197023,555.610133707289,553.6034253060293,502.3711247887921,575.6319755719996,443.96064186707287,579.0856293667073,591.8054884611012,550.1975739031056,543.7513093870035,488.9543686545296,585.2195580056624,550.7338500403634,500.0018520857399,556.0615317673694,568.9913119628671,595.0215933635708,432.1189010242253,557.329740110175,493.1483367637488,625.6360214459937,522.9989063482781,527.5831517384571,567.0399498738811,483.0907107423708,442.8207161378674,495.17593808421515,516.8668138270947,573.2715203745593,518.8225009241847,521.0140469647029,489.3084567928862,475.18919504497535,529.2553232154993,510.7768260322776,562.3760685460584,466.74136834225317,470.41794973044216,553.8703095172596,549.0884071804743,558.5435567901767,521.4833803162527,550.9236044820057,588.1754756133969,482.83382583872157,531.739890803061,514.0355110739031,480.2487815413841,590.6256553423513,515.2623321788683,480.0431659441683,560.8110596912423,584.8319339195689,455.02367616572207,544.0686326186519,577.0506964033784,494.73718844354323,463.5318238458201,558.909366385225,491.16330566198275,563.6670563302879,409.63682152090905,541.5542746338946,571.8746016570112,501.1682560873765,377.6762459913082,512.8630963522623
5,518.1595677076796,55.252331548859345,452.36233446984306,704.5946014815173,532.4616568788554,634.2670656509767,508.7793211180173,559.3092756798125,576.5806945622899,448.0606531817518,573.2427723529016,487.95630127968934,526.8198353665312,489.3323604773049,596.3597844199438,477.3100166483926,530.7585516971652,464.334306803901,464.8101046867858,519.3126292061258,494.14879875444404,391.7336157380811,562.7132340499373,422.1114651431534,600.4189349551767,525.4039283489435,456.8889325266541,579.1458317498561,501.14795262649346,533.2395634483415,545.4420447410915,595.1665400800023,521.1452757690895,566.4198392014115,598.0975621325713,504.37783359943273,460.58423728981506,558.4546977527965,507.6260799629899,575.259171643011,436.37095171671115,573.3595118083887,581.579177946083,532.34186104754,510.8029345992629,494.1127664723828,590.5315873548645,551.9727786015466,496.7221698026381,544.2134432127335,547.0545060811837,576.5889033062767,422.39489237832754,558.7995860096843,469.5701900564218,580.345915149826,506.4853990089553,476.857328151854,544.943313610523,516.1646001549747,442.5501201145272,443.6149293520489,487.5369121021761,567.3864458809823,522.0715595892995,521.0140469647029,495.64881548839094,446.40663804833844,520.9638306570307,487.78040744339154,538.1602736901784,469.41922738807466,465.979061372495,499.4254135060421,499.217518723219,488.1332622856518,471.6953591175871,626.0357504669041,540.6877045600671,476.7695205946952,575.3172485850763,515.83448218849,476.2330622362907,537.8397931781379,512.5910471494783,469.73060902539373,547.6339212328444,619.5773618828127,484.5550979646179,542.449294955779,557.5186565184822,508.77686031857684,459.66233762514156,551.7515337128909,500.1399927696306,563.6670563302879,409.75332345664026,499.0788285512675,576.8460408613535,459.60891598039836,382.74387972156353,496.76100723171464
6,516.5627613020109,51.07986604407447,452.36233446984306,648.0741892485231,529.3358189235245,631.3138471781921,515.3600946174182,558.4283102216782,573.9911091354348,447.272826203907,565.9109099287169,515.4046005255274,526.8198353665312,491.39477685535616,481.66295839378245,477.3100166483926,531.4092186208663,468.91746917467975,464.8101046867858,518.9769907381634,493.2914179662426,391.7336157380811,563.59136217688,423.8155503544328,603.4615821487268,524.0325687058349,460.57171083245754,514.4784024538966,500.4407719591226,529.3089787190459,558.4597142537592,586.02633741288,521.1452757690895,566.4198392014115,605.8512548451672,504.37783359943273,463.4702261302273,556.5622499908634,529.8098299243914,529.8606151070308,436.37095171671115,575.1152525753989,551.2032747748601,533.6824959828457,510.4416669175857,494.1127664723828,575.8124147021501,560.0819163284123,511.0131225230454,496.4236954705593,547.797787668458,574.1731391994788,448.3849869301958,558.448258453304,471.73286696267303,573.6051378452036,474.6969329559784,470.6917547426792,558.084000653481,470.25993129604495,436.86233928070624,445.52950548160237,499.36456835165575,567.3864458809823,521.3088540866643,521.0140469647029,504.9575649460437,447.01362529407044,529.10076308993,491.866557584969,549.7170046755126,468.9979727116152,474.68401165126073,511.21694223924464,500.02519019098855,488.1332622856518,472.06958559746073,629.2904400357367,556.0123497338957,478.2663422653023,586.2661102348105,523.0714182513905,476.2330622362907,537.3029605266538,518.6500249053202,475.0623099519727,549.9956248635393,619.5773618828127,489.54545660638576,553.3710413996846,557.788948998551,499.56819632762307,464.1652545712626,559.5561231644481,500.1399927696306,563.6670563302879,466.63568418987245,467.1071998197967,587.3375113850085,456.7296619400041,397.3298478682744,496.76100723171464
7,514.484272351558,49.84368495627509,452.36233446984306,648.0741892485231,529.3358189235245,631.3138471781921,499.7538304159244,559.5800903589882,574.2718129098616,445.00589204546367,576.7504682080931,515.4046005255274,526.8198353665312,499.0085082630963,484.57417317131495,477.3100166483926,542.7941406300334,470.759887103688,464.8101046867858,534.7243610895091,494.14879875444404,391.7336157380811,515.8767060773256,423.8155503544328,596.2862751815686,523.9846285674968,462.59538566064,556.5435928016432,500.4407719591226,537.5508251153906,551.3129395999991,586.02633741288,521.1452757690895,556.1436062174035,606.0057166914258,504.37783359943273,463.4702261302273,556.5622499908634,531.7796478709828,527.2632740748245,436.37095171671115,571.9547566826,551.2032747748601,536.3073436103654,490.3403230060643,494.1127664723828,578.847330393749,548.0007722040085,512.9031086227106,505.88146207939315,543.3531922565029,564.9119814458583,448.7470504198884,578.7561109816717,471.73286696267303,573.6051378452036,484.3472812167785,470.6917547426792,558.084000653481,469.2512678530888,439.3599480359311,446.73298038530737,503.64027399771794,567.3864458809823,532.2127797344053,530.7221273436904,486.5305635200481,449.83380242908567,527.3702090879814,487.78040744339154,549.9129013456343,468.9979727116152,416.6796025029104,509.7684190799657,491.69370232353714,488.1332622856518,472.06958559746073,563.870050929891,541.0696647962224,490.87933605642866,570.681445237858,465.619938081914,475.49670682783136,537.3029605266538,516.1289400223644,475.0623099519727,534.0029136577238,619.6430688645736,486.5836120568868,553.3710413996846,558.4358438706942,499.56819632762307,464.1652545712626,552.1261119231145,518.4149912032465,563.6670563302879,466.63568418987245,467.1071998197967,554.8720896075733,451.1351610100404,411.77967508348127,512.8630963522623
8,510.4042140519687,51.46628500523258,452.36233446984306,645.6369487084817,529.3358189235245,635.1378930847026,501.826952316554,554.4347164576644,576.3219037259056,445.8967477217577,576.7504682080931,517.8180595579619,526.8198353665312,499.0085082630963,484.34117251134023,477.3100166483926,542.7941406300334,470.759887103688,464.8101046867858,471.18539515715753,494.14879875444404,391.7336157380811,514.7244222829128,423.8155503544328,596.7430731541391,524.6796426122759,462.59538566064,558.540550620261,501.14795262649346,543.9522925704481,540.7965331373688,586.02633741288,521.1452757690895,556.4726164383569,595.8674425097811,504.37783359943273,463.4702261302273,566.9570691635078,531.7796478709828,524.1465938042472,436.37095171671115,562.8806172387432,551.2032747748601,535.0042253648279,482.7175650933308,494.1127664723828,574.6269610888504,548.0652078285704,512.9031086227106,505.88146207939315,542.5953449817338,564.9119814458583,449.1671304016762,591.5378404300423,471.73286696267303,573.6051378452036,482.95634834331344,470.6917547426792,558.084000653481,469.2512678530888,436.8530475244465,446.73298038530737,505.7509077481932,567.3864458809823,531.8962736108022,474.68201745288155,486.5305635200481,442.00770499395486,527.3702090879814,453.11612454704317,538.4569771286938,467.72245978452577,415.95057960917455,447.9697271331761,492.2564677683359,417.0078334353518,470.4570916934556,564.8732356959861,541.0696647962224,490.87933605642866,560.2913920666217,464.7877537652118,475.49670682783136,531.3009005993322,516.1289400223644,475.0623099519727,534.4804555264988,619.6430688645736,486.5836120568868,553.3710413996846,558.4358438706942,502.17835372107703,464.1652545712626,552.1261119231145,518.4149912032465,563.6670563302879,466.63568418987245,467.1071998197967,502.4965856233708,446.56623500334746,411.77967508348127,496.76100723171464
9,510.81152881399476,51.70900336796957,452.36233446984306,646.4884483953826,529.3358189235245,635.1378930847026,501.826952316554,568.0035507846479,506.81493989062943,452.2801379606445,576.7504682080931,517.8180595579619,526.8198353665312,499.0085082630963,483.65591007507305,477.3100166483926,544.8451380005102,470.759887103688,464.8101046867858,511.81510053698617,493.2914179662426,391.7336157380811,514.7244222829128,423.8155503544328,596.7383201683153,524.4020426326659,462.59538566064,558.540550620261,500.4407719591226,543.9522925704481,540.7965331373688,586.02633741288,521.1452757690895,555.6777851952584,595.8674425097811,504.37783359943273,463.4702261302273,563.9756751661033,531.7796478709828,530.8784681989584,436.37095171671115,562.8806172387432,551.2046854397953,530.6600804709885,485.1909059020622,494.1127664723828,574.6269610888504,546.373826062609,512.9031086227106,505.88146207939315,542.5953449817338,564.9119814458583,449.1671304016762,605.6847335312108,471.73286696267303,573.6051378452036,484.52789760108755,470.692093976429,558.084000653481,470.25993129604495,436.8530475244465,446.73298038530737,504.84127509967016,567.2448450770274,539.0853999298023,474.68201745288155,486.5305635200481,442.9001467036069,527.3702090879814,453.11612454704317,538.4569771286938,467.72245978452577,413.73130391832655,447.4807351220974,472.20476783903786,417.0078334353518,468.10906408016325,564.8732356959861,557.8676928255865,497.71576177264274,570.9118175986999,464.7877537652118,475.49670682783136,531.3009005993322,516.1289400223644,475.0623099519727,540.4985332650916,619.6430688645736,486.5836120568868,553.3710413996846,558.4358438706942,507.5420187298738,464.1652545712626,552.1261119231145,518.4149912032465,563.6670563302879,466.63568418987245,467.1071998197967,502.4965856233708,437.37032846473477,411.77967508348127,511.5618233019754
10,510.5757950512171,51.936392509595514,452.36233446984306,645.6369487084817,529.3358189235245,635.1378930847026,501.826952316554,566.9957636260683,564.4082335517247,446.64590499347935,576.7504682080931,529.7669052178312,526.8198353665312,499.0085082630963,487.8691734099039,477.3100166483926,545.9154858822776,470.98639174076277,467.02881328298696,484.39482853207494,493.2914179662426,391.7336157380811,514.7244222829128,423.8155503544328,596.7383201683153,523.6385687032716,462.4122457766122,558.540550620261,500.4407719591226,543.9522925704481,537.530476577832,586.02633741288,521.1452757690895,552.8482321190154,592.712048864564,504.37783359943273,463.4702261302273,551.170429697426,531.7796478709828,533.0599779422729,436.37095171671115,562.8806172387432,551.2046854397953,530.6600804709885,485.1909059020622,494.1127664723828,574.6269610888504,546.373826062609,509.65347753196426,505.88146207939315,542.5953449817338,564.9119814458583,449.1671304016762,605.6847335312108,471.73286696267303,573.6051378452036,477.4982865400947,470.692093976429,558.084000653481,469.2512678530888,436.8530475244465,446.73298038530737,450.1655809542598,563.7788061883767,539.0853999298023,474.68201745288155,486.5305635200481,450.0792451900504,527.3702090879814,491.866557584969,538.4569771286938,467.72245978452577,414.5682067907217,446.59627694812684,472.20476783903786,417.0078334353518,468.10906408016325,564.8732356959861,557.9998809852766,480.90732978959636,570.9118175986999,464.7877537652118,475.49670682783136,531.390964905983,506.3332572776905,475.0623099519727,540.4985332650916,619.6430688645736,486.5836120568868,553.3710413996846,569.5943330915829,507.5420187298738,464.1652545712626,552.1261119231145,518.4149912032465,563.6670563302879,466.63568418987245,467.1071998197967,502.4965856233708,447.7826009815312,411.77967508348127,494.8113908203566
11,510.3840502769061,51.815369411061134,452.36233446984306,634.4432434999682,533.9914852003602,636.8063498875214,501.826952316554,568.0035507846479,564.4082335517247,452.20048253163617,576.7504682080931,529.7669052178312,526.8198353665312,499.0085082630963,487.8691734099039,477.3100166483926,547.3176525897733,470.98639174076277,467.02881328298696,484.39482853207494,493.2914179662426,391.7336157380811,514.7244222829128,423.8155503544328,602.8029145017194,523.6385687032716,462.4122457766122,558.540550620261,501.14795262649346,543.9522925704481,540.7965331373688,586.02633741288,521.1452757690895,554.9426594366433,588.6076396975856,504.37783359943273,463.4702261302273,552.8833846603487,531.7796478709828,520.3985703472962,436.37095171671115,560.7755594859965,551.2338514318511,530.6600804709885,485.1909059020622,494.1127664723828,574.6269610888504,546.373826062609,509.65347753196426,505.88146207939315,542.5953449817338,564.9119814458583,449.1671304016762,605.6847335312108,471.73286696267303,571.038341315406,477.4982865400947,470.692093976429,558.084000653481,471.84360260065904,436.8530475244465,446.73298038530737,450.1655809542598,563.7788061883767,539.0853999298023,474.68201745288155,486.5305635200481,450.0792451900504,527.3702090879814,487.78040744339154,538.4569771286938,467.72245978452577,414.5682067907217,446.0836409171234,467.6128775568396,417.0078334353518,468.10906408016325,564.8732356959861,557.9998809852766,477.45999064139875,570.9118175986999,464.7877537652118,475.49670682783136,537.2408920701979,506.3332572776905,475.0623099519727,541.7273629276336,619.6430688645736,486.5836120568868,553.3710413996846,564.4274794056731,508.8981061649912,464.1652545712626,552.1261119231145,518.4149912032465,563.6670563302879,467.7768341619079,467.28930129314654,502.4965856233708,438.53090432070485,411.77967508348127,494.8113908203566
12,510.4104055459505,52.786236400199904,452.36233446984306,625.8270257616113,537.5100080234577,635.1378930847026,501.826952316554,566.9957636260683,564.4082335517247,452.20048253163617,576.7504682080931,529.1965230085156,526.8198353665312,499.0085082630963,487.8691734099039,477.3100166483926,549.4204233753117,470.98639174076277,468.71774884561444,484.39482853207494,493.2914179662426,391.7336157380811,514.7244222829128,423.8155503544328,602.8029145017194,523.6385687032716,460.57171083245754,557.0014963060004,501.14795262649346,543.9522925704481,540.7965331373688,586.02633741288,521.1452757690895,557.5172901171813,588.6076396975856,504.37783359943273,461.84399785054586,552.5425032137156,531.7796478709828,520.3985703472962,436.37095171671115,562.089733798413,551.2338514318511,530.6600804709885,485.1909059020622,494.1127664723828,574.6269610888504,546.373826062609,509.65347753196426,505.88146207939315,542.5953449817338,565.6564403372807,449.1671304016762,605.6847335312108,470.92307240546523,571.038341315406,479.22970711929753,470.692093976429,558.084000653481,471.84360260065904,436.8530475244465,446.73298038530737,450.1655809542598,567.0166136403917,539.0853999298023,473.9139447668607,486.5305635200481,448.30087981272396,527.3702090879814,448.509019655966,542.7096753329656,467.72245978452577,413.73130391832655,446.0836409171234,466.7579868838677,417.0078334353518,468.10906408016325,564.8732356959861,557.9998809852766,478.98448536805336,570.9118175986999,464.7877537652118,476.2330622362907,537.2408920701979,522.995514354813,476.2608572827937,541.7273629276336,619.5773618828127,486.5836120568868,553.3710413996846,599.561138064491,507.5420187298738,464.1003576894042,552.1261119231145,518.4149912032465,563.6670563302879,467.72577754166446,441.5950860747466,502.4965856233708,438.53090432070485,411.77967508348127,509.7871052162938
13,509.8539794598265,52.508309876867735,452.36233446984306,617.8853315437714,536.2526590154422,635.1378930847026,501.826952316554,560.839868603538,562.1447755808357,452.20048253163617,576.7504682080931,529.1965230085156,526.8198353665312,499.0085082630963,487.8691734099039,477.3100166483926,519.0736865260852,470.98639174076277,468.71774884561444,484.39482853207494,494.14879875444404,391.7336157380811,514.7244222829128,423.8155503544328,596.2899284894178,524.3984227977998,460.57171083245754,557.0014963060004,501.14795262649346,543.9522925704481,544.8088199341182,585.3282513932013,521.1452757690895,554.9426594366433,591.3497733703485,504.37783359943273,461.84399785054586,553.0481036967711,531.7796478709828,520.3985703472962,427.96030342394624,564.5499522765118,551.2338514318511,530.6600804709885,485.1909059020622,494.1127664723828,574.6269610888504,546.373826062609,509.65347753196426,505.88146207939315,544.9581069934375,565.6564403372807,449.1671304016762,603.424571479651,468.15317024527064,571.038341315406,477.4982865400947,470.692093976429,558.084000653481,469.2512678530888,436.8530475244465,446.73298038530737,450.1655809542598,567.0166136403917,539.0853999298023,473.9139447668607,486.5305635200481,452.95340494481206,526.6838409452366,462.3961013869073,528.9931438376423,468.9979727116152,414.5682067907217,446.0836409171234,466.7579868838677,417.0078334353518,468.10906408016325,564.8732356959861,557.9998809852766,477.45999064139875,570.9118175986999,464.7877537652118,476.2330622362907,537.2408920701979,522.995514354813,476.2608572827937,541.7273629276336,633.6412206940689,486.5836120568868,553.3710413996846,599.5618858816138,507.5420187298738,464.1003576894042,552.1261119231145,518.4149912032465,563.6670563302879,467.72577754166446,441.5950860747466,502.4965856233708,440.8898424652968,411.77967508348127,494.8113908203566
14,509.9351449900047,51.95620609270072,452.36233446984306,617.8853315437714,536.2526590154422,636.8063498875214,493.11232625802984,553.8889015000256,562.1447755808357,452.20048253163617,576.7504682080931,529.1965230085156,526.8198353665312,499.0085082630963,487.8691734099039,477.3100166483926,518.4472808198011,470.98639174076277,467.02881328298696,480.16494227177066,493.2914179662426,401.5089237517038,514.7244222829128,423.8155503544328,596.2899284894178,524.3984227977998,460.57171083245754,557.0014963060004,501.14795262649346,543.9522925704481,544.8088199341182,585.3282513932013,521.1452757690895,557.5172901171813,591.3497733703485,504.37783359943273,461.84399785054586,553.0481036967711,531.7796478709828,520.3985703472962,427.96030342394624,562.089733798413,551.2338514318511,530.6600804709885,485.1909059020622,494.1127664723828,574.6269610888504,546.373826062609,509.65347753196426,505.88146207939315,539.8360552479973,565.6564403372807,449.1671304016762,603.424571479651,468.15317024527064,571.038341315406,478.3740539344011,470.692093976429,558.084000653481,470.25993129604495,439.8745760415387,446.73298038530737,450.1655809542598,581.5423662195852,539.0853999298023,473.9139447668607,486.5305635200481,465.983097340111,526.6838409452366,465.5997029257016,533.5560828819923,467.72245978452577,411.32128406424846,445.88542807501415,466.7579868838677,417.0078334353518,468.10906408016325,564.8732356959861,557.9998809852766,477.45999064139875,570.2426806687869,464.7877537652118,475.49670682783136,537.2408920701979,522.995514354813,471.9700074749383,541.7273629276336,619.5773618828127,486.5836120568868,553.3710413996846,599.5618858816138,505.2345756195851,464.1003576894042,552.1261119231145,500.1399927696306,563.6670563302879,482.3340384546176,441.5950860747466,502.4965856233708,440.8898424652968,411.77967508348127,509.7871052162938
15,510.4901291519775,51.45407767434987,452.36233446984306,617.8853315437714,537.5100080234577,636.8063498875214,493.11232625802984,545.2419867762898,562.1447755808357,450.58219415143117,576.7504682080931,529.1965230085156,526.8198353665312,499.0085082630963,487.8691734099039,477.3100166483926,518.4472808198011,470.98639174076277,467.02881328298696,480.0097405835382,492.62770077773257,401.5089237517038,514.7244222829128,423.8155503544328,596.2899284894178,526.1049637838973,462.1587984063468,557.0014963060004,501.14795262649346,543.9522925704481,544.8088199341182,585.3282513932013,521.1452757690895,545.286112482063,591.3497733703485,519.4941735105318,461.84399785054586,552.7070980885615,531.7796478709828,520.3985703472962,427.96030342394624,562.089733798413,551.2338514318511,530.6600804709885,485.1909059020622,494.1127664723828,574.6269610888504,546.373826062609,512.9031086227106,505.88146207939315,546.2378325069434,565.6564403372807,452.9283912900911,603.424571479651,468.15317024527064,573.6051378452036,482.38268451192164,470.692093976429,558.084000653481,470.83019604172716,439.8745760415387,446.73298038530737,504.6450546607695,581.5086347504404,526.3887629700542,473.9139447668607,486.5305635200481,466.90590394210875,526.6838409452366,465.5997029257016,542.0125744568597,468.9979727116152,411.32128406424846,445.88542807501415,466.7579868838677,417.0078334353518,468.10906408016325,564.8732356959861,557.9998809852766,478.98448536805336,570.2426806687869,464.7877537652118,475.49670682783136,537.2408920701979,522.995514354813,471.9700074749383,541.7273629276336,619.5773618828127,486.5836120568868,553.3710413996846,599.5618858816138,505.2345756195851,464.1003576894042,552.1261119231145,500.1399927696306,563.6670563302879,482.3340384546176,441.5950860747466,502.4965856233708,440.86618860408305,411.77967508348127,494.8113908203566
16,510.49114357683493,51.78680760515663,449.9890007150617,617.8853315437714,537.5100080234577,636.8063498875214,493.9674075162965,547.8502601084887,562.1447755808357,450.58219415143117,576.7504682080931,529.1965230085156,526.8198353665312,499.0085082630963,487.8691734099039,477.3100166483926,518.4472808198011,470.98639174076277,466.5156397951894,480.0097405835382,492.62770077773257,401.80993731025524,514.7244222829128,423.8155503544328,596.2899284894178,526.1049637838973,462.1587984063468,557.0014963060004,500.4407719591226,543.9522925704481,544.8088199341182,585.3282513932013,521.1452757690895,557.5172901171813,591.3497733703485,519.4941735105318,461.61058830269235,553.0481036967711,531.7796478709828,520.3985703472962,427.96030342394624,562.089733798413,551.2338514318511,530.6600804709885,485.1909059020622,494.1127664723828,575.9362462035627,546.373826062609,512.9031086227106,505.88146207939315,546.2378325069434,565.6564403372807,452.9283912900911,603.424571479651,468.15317024527064,573.6051378452036,481.6024532667793,470.692093976429,558.084000653481,470.83019604172716,436.8530475244465,446.73298038530737,504.6450546607695,581.5086347504404,526.3887629700542,473.9139447668607,486.5305635200481,451.9084420298921,526.6838409452366,470.01592205851205,545.9586432659825,467.72245978452577,414.1828826430397,446.0836409171234,466.7579868838677,417.0078334353518,468.10906408016325,564.8732356959861,557.9998809852766,478.98448536805336,570.9118175986999,464.7877537652118,475.49670682783136,537.2408920701979,522.995514354813,474.46412206471325,541.7273629276336,619.5773618828127,486.5836120568868,553.3710413996846,599.5618858816138,505.2345756195851,464.1003576894042,552.1261119231145,500.1399927696306,563.6670563302879,482.3340384546176,441.5950860747466,496.62797984681043,438.50688153615835,411.77967508348127,494.8113908203566
17,509.72958331898104,52.041555699236575,461.51638570552495,617.8853315437714,536.2526590154422,636.8063498875214,493.9674075162965,547.8502601084887,562.1447755808357,450.58219415143117,576.7504682080931,529.1965230085156,526.8198353665312,499.0085082630963,487.8691734099039,477.3100166483926,518.4472808198011,470.98639174076277,452.99263623432404,480.0097405835382,492.62770077773257,401.5089237517038,514.7244222829128,423.8155503544328,596.2899284894178,509.18103845720054,462.1587984063468,557.0014963060004,500.4407719591226,543.9522925704481,544.8088199341182,585.3282513932013,521.1452757690895,541.5434028389064,591.3497733703485,519.4941735105318,461.61058830269235,553.0481036967711,531.7796478709828,520.3985703472962,427.96030342394624,562.089733798413,551.2338514318511,530.6600804709885,485.1909059020622,494.1127664723828,574.6269610888504,546.373826062609,512.9031086227106,505.88146207939315,546.2378325069434,564.9119814458583,444.0329965800705,603.424571479651,468.15317024527064,573.6051378452036,481.5870804860882,470.692093976429,558.084000653481,471.84360260065904,439.3599480359311,446.73298038530737,504.6450546607695,581.5086347504404,526.3887629700542,473.9139447668607,486.5305635200481,453.2292038178963,526.6838409452366,451.3768710094044,545.9586432659825,468.9979727116152,414.1828826430397,446.0836409171234,466.7579868838677,417.0078334353518,468.10906408016325,564.8415713520216,557.9998809852766,478.98448536805336,570.9118175986999,464.7877537652118,475.49670682783136,537.2408920701979,522.995514354813,474.46412206471325,541.7273629276336,619.5773618828127,486.5836120568868,552.6882791878743,599.5618858816138,505.2345756195851,464.1652545712626,552.1261119231145,497.8744693444856,563.6670563302879,482.3340384546176,441.5950860747466,496.62797984681043,425.20468335222165,411.77967508348127,494.8113908203566
18,510.0514804422895,52.27593710572885,463.88184507030246,617.8853315437714,536.2526590154422,636.8063498875214,493.9674075162965,544.06130966504,562.1447755808357,450.58219415143117,576.7253614509976,529.1965230085156,526.8198353665312,499.0085082630963,487.8691734099039,477.3100166483926,518.4472808198011,470.98639174076277,453.38773227549933,480.0097405835382,491.7793325770797,403.3547653356839,514.7244222829128,423.8155503544328,602.8029145017194,508.98899737627187,462.1587984063468,557.0014963060004,498.82451804668153,543.9522925704481,544.8088199341182,585.3282513932013,521.1452757690895,551.1718094120457,591.3497733703485,519.4941735105318,461.61058830269235,553.0481036967711,531.7796478709828,520.3985703472962,428.04501363523974,562.089733798413,551.2338514318511,530.6600804709885,485.1909059020622,494.1127664723828,574.6269610888504,546.373826062609,512.9031086227106,505.88146207939315,546.2378325069434,564.9119814458583,444.0329965800705,603.424571479651,468.15317024527064,573.6051378452036,483.21567517997846,470.692093976429,558.084000653481,471.84360260065904,439.3599480359311,446.73298038530737,504.6450546607695,581.5086347504404,526.3887629700542,473.9139447668607,486.5305635200481,452.3959109708526,526.6838409452366,451.3768710094044,545.9586432659825,468.9979727116152,414.1828826430397,446.0836409171234,466.7579868838677,417.0078334353518,468.10906408016325,564.8415713520216,557.9998809852766,481.02921671483756,572.9636936158553,464.7877537652118,475.49670682783136,537.2408920701979,522.995514354813,474.46412206471325,540.4985332650916,633.6412206940689,486.5836120568868,552.6882791878743,590.0080669971719,500.901173337498,461.38487699834303,552.1261119231145,497.8744693444856,563.6666298208822,482.3340384546176,441.5950860747466,496.62797984681043,425.18380957738975,413.5938542904815,509.7871052162938
19,510.1507466478955,52.60051868339825,463.88184507030246,633.0649764502924,536.2526590154422,636.8063498875214,493.9674075162965,549.0354364834741,562.1447755808357,450.58219415143117,576.7253614509976,529.1965230085156,526.8198353665312,499.0085082630963,487.8691734099039,479.0851837285738,518.4472808198011,470.98639174076277,453.38773227549933,480.0097405835382,492.62770077773257,403.3547653356839,514.7244222829128,423.8155503544328,602.8029145017194,525.8908961951252,462.1587984063468,557.0014963060004,500.4407719591226,543.9522925704481,544.8088199341182,585.3282513932013,521.1452757690895,551.0247920299184,591.3497733703485,519.4941735105318,461.61058830269235,553.0481036967711,531.7796478709828,520.3985703472962,428.04501363523974,560.7755594859965,551.2338514318511,530.6600804709885,485.1909059020622,494.1127664723828,577.2482152818958,546.373826062609,512.9031086227106,505.88146207939315,546.2378325069434,564.9119814458583,444.0329965800705,603.424571479651,468.15317024527064,573.6051378452036,483.21567517997846,470.692093976429,558.084000653481,469.2512678530888,439.3599480359311,446.73298038530737,505.45935477687925,581.5086347504404,526.3887629700542,473.9139447668607,486.68849309435814,452.3959109708526,526.6838409452366,456.0340783770812,545.9586432659825,467.72245978452577,413.4627614057542,446.0836409171234,466.7579868838677,417.0078334353518,467.74170592045357,564.8415713520216,557.9998809852766,478.98448536805336,582.0082212846536,464.7877537652118,475.49670682783136,537.2408920701979,522.995514354813,473.1166796245978,540.4985332650916,619.5773618828127,486.5836120568868,552.6882791878743,590.0080669971719,500.13399232295774,466.1581904151552,552.1261119231145,501.0013111397526,563.6666298208822,467.72577754166446,441.5950860747466,496.62797984681043,422.84330395667797,413.5938542904815,494.8113908203566
