Iteration,Mean,Stdev,Run-0,Run-1,Run-2,Run-3,Run-4,Run-5,Run-6,Run-7,Run-8,Run-9,Run-10,Run-11,Run-12,Run-13,Run-14,Run-15,Run-16,Run-17,Run-18,Run-19,Run-20,Run-21,Run-22,Run-23,Run-24,Run-25,Run-26,Run-27,Run-28,Run-29,Run-30,Run-31,Run-32,Run-33,Run-34,Run-35,Run-36,Run-37,Run-38,Run-39,Run-40,Run-41,Run-42,Run-43,Run-44,Run-45,Run-46,Run-47,Run-48,Run-49,Run-50,Run-51,Run-52,Run-53,Run-54,Run-55,Run-56,Run-57,Run-58,Run-59,Run-60,Run-61,Run-62,Run-63,Run-64,Run-65,Run-66,Run-67,Run-68,Run-69,Run-70,Run-71,Run-72,Run-73,Run-74,Run-75,Run-76,Run-77,Run-78,Run-79,Run-80,Run-81,Run-82,Run-83,Run-84,Run-85,Run-86,Run-87,Run-88,Run-89,Run-90,Run-91,Run-92,Run-93,Run-94,Run-95,Run-96,Run-97,Run-98,Run-99
0,429.8472891695843,56.655791458429135,352.2359951652665,419.6902742471439,335.9928506923955,533.1794073754847,409.3824223154321,460.60388525763096,439.9836989763678,402.902708549013,386.46871798701756,395.02713625009,533.8924991405173,373.167226640253,531.6920637345339,417.2250064878504,400.06022102329075,413.7993636594709,389.36143349249113,426.4146807530227,427.96306664449565,484.2307774786018,541.4625351300247,412.9457836995033,438.91205959851095,406.0317260243183,409.07403773107166,411.70178514939386,442.3231150436292,529.637699928819,349.1447985902769,407.3772343746247,423.49461106051285,337.1008251273941,416.8013581219162,461.7100559263752,507.6498853003477,459.68263132013846,467.2093520264217,402.0341541576151,439.1492593344753,408.3779620391423,417.89544170240845,396.18351263607883,471.1038518865699,405.0690561880186,420.21796677033626,341.55211394301705,374.52177528765753,452.24409321064525,396.5263358072126,397.36234423769474,331.63949611678004,393.3127887146217,367.9103490942008,367.8836940125404,451.8578007672915,364.9260090705982,454.93047233703214,409.3050447604479,536.8903578503464,422.7560516006822,491.8913491737214,502.8157657629991,487.58112347504414,440.00415300677406,445.6896351408016,461.54157957004287,411.7380489740653,429.45737257881996,527.0076737671181,444.02017365631673,376.4792249022897,411.3248819066709,369.53271861354517,362.9870286270807,412.9665288107954,510.57528380205173,568.2981993638107,391.93893626387785,299.49262173668217,391.2562912464154,460.0168498089214,382.81569804611854,516.4798425463216,400.71154077155353,360.0246492366288,486.5807758727016,399.2585369834063,460.114905687727,358.9076423948066,423.00136578125154,504.6379334932574,474.18472079911857,466.5950565392111,403.96733363656267,505.99143558161927,534.8098425611163,412.14458815413576,348.1911161035048,418.8363437252102,551.6772873072828
1,584.4273639691615,62.59198180500914,702.3450471384662,705.039836086419,545.3078933757416,561.175293748654,714.0064736431814,578.7516007714457,662.8593047716146,564.227844867912,662.889634251346,615.1191677905031,627.3834288421019,572.0779180661773,599.7742333558282,455.37511845965304,516.3050485838154,606.3006855615233,590.0992934304466,566.1971589797336,534.0651688381248,683.7718036956037,585.158117347552,511.04151432234414,521.8231362636748,629.4783693799017,551.9015842503528,592.3253551747933,582.2755273085406,660.3244524212269,531.545047496862,579.075348357584,568.9204096528098,542.4442741533139,559.5242043489161,546.973885537673,554.0053512800611,522.3216090068987,648.5203797196361,511.9603992366634,478.4387349359584,685.8761947145335,544.2100375910491,593.0543142194442,530.5341051260557,565.0628973372054,610.8464894194674,560.7520809061667,493.7544268574755,562.9880566073668,553.3988556793605,627.1256850630167,591.6284066379128,547.5616976239697,513.8000291262714,488.8568836303745,664.9378856678641,572.5701820050452,574.3482093607348,574.0669343048123,610.6721724841526,501.09228671112425,780.9817336462688,569.7320463120171,530.1717932502305,415.7854141010071,599.2628760009474,585.8412027188825,573.9444297230348,556.8228470827179,634.2339276352308,655.1617750019853,657.6317872663997,626.8285759623639,554.3835155644825,705.8735516392163,633.1310381461195,616.7567292321207,688.6440305758822,492.0390686822717,550.5204773665537,543.6028590363927,567.4218857815976,573.5749467452927,515.1565194511734,620.0502050494501,596.0068601446393,715.542630063496,558.1275902195549,505.9302033622632,554.290980641801,615.1232954434574,665.9245736809413,562.591056812672,575.4934157446521,552.8632867438453,605.4097376897942,568.1640165496542,702.2750059060696,602.4245267270369,533.7872489345581,572.9612467536309
2,571.039424239817,55.89307275849194,591.2613458715706,673.5597776233117,515.3651569189127,586.4392407712512,695.8339934178937,590.2430125730853,657.5258220267038,520.6357461022073,615.1876400144579,623.5950636780041,607.5885588028727,551.3763577033698,637.7799512665375,510.3660397783306,540.964863353778,602.0640971721126,542.0839229634826,563.6394317410765,536.8171782025184,580.6169334264346,501.54326564874856,559.6804598858271,539.7434706748186,634.5872231435071,533.1345541956172,538.5286216634839,572.7599591667695,591.0363291981292,611.7158659255986,610.5078544629145,555.4555020512071,474.5236685762603,529.063410950557,515.7461168491175,550.7157755207326,561.6572988877049,674.2339810129318,517.0969338009959,520.9896763961539,616.2520642540723,545.8462982650881,537.1115657350356,550.2280013396894,515.6358563938498,599.304308426351,464.70754535327325,552.276868051216,529.3018061291856,573.4837876755375,596.9278946514437,502.74569173589083,528.2156493704055,539.7910446059303,498.7386310550741,655.5734223432869,601.9798726021243,615.1173331216959,576.7484005852912,622.4326189442884,513.5599082939012,655.860688358484,564.4744786456399,465.66423327505044,424.12618926371084,490.1654364271847,627.1660508590188,578.4583550210643,524.0477245548502,584.446812311212,630.6380142703943,669.5904995754368,564.7787096287551,518.3499060758335,582.0463895518393,652.7583075128053,614.4038953402968,603.6569743173419,478.4880506891388,554.336479732195,469.96374436566117,586.884180411443,561.9130700012585,598.0777270953926,605.9658867676759,596.7254633692971,717.1915347885449,559.0178022896307,553.1983294083318,491.73752793080774,675.6879750611794,613.3088335856114,621.0848316393542,578.0131425386745,514.417656513001,622.7592937902749,574.270056863848,609.214125761595,623.3286544228703,531.7841078670656,544.2986137482994
3,558.1730824476464,53.57836091658811,613.9474427981587,667.0475845433151,517.7606500318418,621.4026156459746,698.5819726950557,563.7875612517071,599.6822221111984,519.2138004471013,567.7783954008079,631.6240752721517,569.6935471247845,530.7778616373413,595.6590799561436,506.10364197996864,533.876151107398,544.3385710509453,542.1334339721244,576.4588440786314,571.7011625730385,589.871596766675,477.5806063433035,516.4057926916433,558.7417639720815,637.4160950885572,517.4909507959836,530.6379255139012,554.4813535545806,588.084363111891,553.5026479871655,601.7983763364919,561.6952369259467,497.9723671208151,516.5952308330794,530.1509963521019,554.6761214009823,547.4688565963348,609.5695402883105,529.2410853791861,534.6371339035197,546.9519430354052,562.3785277746073,550.7787806351538,543.9555741547982,508.42421835077926,603.2456972836158,463.2517675356509,519.9467663661541,508.3041657921422,568.5648824964387,595.4205991989711,554.7443864889528,482.43426149519,535.6286757779063,473.0464238431018,563.2429914840064,600.6748713701064,610.615194096051,577.1645411880922,536.1598542330723,505.4913381162873,673.857228434503,539.6651390872582,474.5049137539423,415.0930836671807,487.24258697271705,617.0692908497683,550.2163929128125,511.396481438093,573.4318093909122,619.6313520883456,672.3344081156473,521.8243020455685,508.99350356202274,524.9098602015542,548.7663158288645,621.3359586934023,571.5409298562067,440.3587862449422,561.840272001832,469.66498698889325,577.5042345220867,545.7625102850262,598.1663471146557,592.7894473248804,586.2708667345966,671.0698496238327,550.1308188119863,505.8002496951621,478.3267186220358,630.714585003727,638.1705668389725,618.1675389291436,592.3732924420395,477.32781525111534,625.7486716011781,535.4113979810674,587.3760478842584,621.26084930556,534.9865766668582,556.2601426352829
4,542.7319123361184,53.52261546658817,591.2332344219939,632.6716033826773,448.3377970275225,626.3535737127124,686.0813151874542,547.6149528172535,539.4615525322951,537.3299186131987,568.402999078386,574.1183723219596,595.1552430338816,516.6255494559026,587.7565672299636,532.5045233152985,528.2531203045263,516.4447322606267,501.7191988956357,507.71169092595125,543.7689904230032,567.5130243159692,447.3207063317022,511.1054596434192,520.6129974204731,648.4532171842214,513.0485395740021,492.0118577340704,556.2029427587734,581.6940942190984,562.4382951122631,598.5501955888393,594.3936591367898,517.3125757628885,531.3459331129692,529.9917861656213,556.4793212599052,528.7804422868601,564.0554522986098,479.85358835345465,546.015931328186,538.5359320143718,565.6953770823347,470.1835992164281,514.2321295537764,501.2928108137275,606.5762561512047,458.4807409489276,501.20817327926636,511.02164899267484,538.0329331544742,582.3557973939502,507.00179525994116,516.2024144967359,536.3692836640989,474.61023266736464,566.5552231584664,600.485466824761,612.8003085141206,552.2478899402142,587.811552324063,448.28142314078343,624.4616233087331,560.8723277880658,476.23438890364315,451.26383021629954,463.3228167612839,610.0731876118124,536.1888925830665,495.5084219174033,574.1247926119518,616.0309850377795,659.5056448595441,503.0064093906942,525.4872084338933,509.4376307530788,444.02436135039704,568.3873129381751,564.5438578946873,401.8746328804842,492.99164288931473,501.99433785011615,556.2357184676362,588.8673454872489,586.8543168513391,598.3108663085897,478.5234081475528,628.8878744008845,506.96488171078107,501.6134152047489,456.99194739577473,632.135154256684,551.3138628248182,583.4344891425143,527.7661401570695,492.43348439193784,568.0189485977955,534.3238160509411,584.1849445778147,599.5818911516031,533.3530471516528,565.3554322339966
5,536.8016783418431,56.40012011518213,574.2272388629588,632.6716033826773,448.3377970275225,634.5747888251561,688.41837757159,547.2519017312713,545.7379431358679,516.8845249308961,565.4040723349689,571.1226875090852,585.1150312852837,516.6255494559026,601.3001159538094,532.5045233152985,517.5687580327498,523.1342566593305,510.5971583991073,500.7505539560096,505.21834097957566,557.0647279869744,465.7276129947432,511.83078740056055,513.7951767636548,601.3902991219844,513.2593716784935,465.47091633498053,518.8025952633062,575.9082785304078,562.4382951122631,537.1779350777922,543.3318795693365,513.3393634717183,531.3459331129692,529.9917861656213,546.887619697235,534.5752642654903,572.2644945595023,548.8937458951281,557.0066223885873,541.6178518577387,520.9197884017607,448.4476770770406,517.8755173000616,496.0956293001206,597.0301218184377,457.56289538316366,501.20817327926636,508.92001045897103,538.9548632967886,626.2348855794733,506.7762809020686,446.0877087365363,536.0999752309305,473.93219262431245,532.4847518391788,549.8078692678182,612.9654820233171,543.9712848515243,581.4589290054696,436.86391879875526,675.8186561282922,554.9851066245706,475.59331845174677,451.54143236838274,471.98078009539665,605.9447864021789,483.5303440164074,489.4778202619194,596.7395750067199,552.8371748100127,610.0295499472961,509.67413533667013,558.0398425958477,509.67728887693016,434.238015315402,540.0041577160642,567.8232470426917,368.2899589678423,469.5081047337322,496.9191323950986,610.781461460139,586.8882449440507,571.414019421659,608.3305099059762,479.50899202183984,631.8549992078781,531.1992789253578,437.69748270215933,469.9647224361273,614.4600994367148,557.0341047896496,581.3821433705937,538.8047387577886,488.8361055508723,580.954108129554,529.5456402142278,494.8551875100389,652.0313531482917,533.3530471516528,565.3554322339966
6,535.8096825231963,49.99725512348459,574.2272388629588,633.4697839519363,448.3377970275225,546.5594121117421,687.6914688778401,537.6127549547949,545.8248221609966,517.2491580374664,563.9335102511491,571.1226875090852,587.1502076663343,516.6255494559026,601.3001159538094,532.5045233152985,525.0048897957998,520.8180839233087,491.21043804858186,502.6701104049605,510.21913807343054,559.2242050907009,442.26045918127727,486.36914825082255,537.8812783430792,572.6766922804385,513.2593716784935,478.59595810106345,544.8899317106757,582.0573729048281,562.4382951122631,543.1976526705697,555.4857985076931,531.2767888768217,531.3459331129692,529.9917861656213,547.137095715348,529.5872363411513,564.0600606894252,523.9814781285024,556.9909056304183,541.8942392971378,518.944510388579,468.93883161880245,517.8755173000616,545.5699832808523,566.8142013078574,457.56289538316366,501.20817327926636,515.8358283404776,538.0642446025315,622.0233042850242,500.22518774305973,459.27968869348547,535.6660688753709,472.08466904495134,532.4847518391788,558.7506888957129,571.8433187340487,552.1500437222624,580.8010405477655,447.64208600295274,668.6769519275946,554.9851066245706,459.53455161221865,451.54143236838274,480.19552285844986,562.8865000982016,476.76921336348346,482.91828577778335,600.9014115328459,554.7229447208936,597.6498876736805,509.67413533667013,560.1760006402611,509.67728887693016,432.54445060526496,539.84401730387,574.6529998304982,484.6809144419172,481.48328885797144,512.8785653009081,568.4955828364674,586.8882449440507,558.9531969752603,613.1182497026625,478.9576822957786,620.0145958796805,524.7922569021138,452.1140738266776,488.60514997560716,596.3343371194837,539.6734782846305,583.0551244204669,538.8047387577886,470.2749428605027,577.4579494471701,533.2323941281784,491.0454336916189,652.150459075838,533.3530471516528,565.3554322339966
7,536.672186406859,49.686441964486356,574.2272388629588,633.4697839519363,448.3377970275225,605.5712909020352,683.3231296374252,542.3341446074834,545.8243695311362,517.2491580374664,561.9015837927184,571.1226875090852,593.0509925902443,516.6255494559026,601.3001159538094,532.5045233152985,521.6495977931423,520.8180839233087,503.240582149232,502.5067059763955,510.21913807343054,556.7516752044571,477.3169145151549,483.4304237998564,577.5947607257749,572.6766922804385,502.0478780594873,478.59595810106345,544.7347340471343,585.3143701496158,562.4382951122631,543.1976526705697,532.5718576571115,535.0246768780643,531.3459331129692,529.9917861656213,548.0148854873602,529.5872363411513,573.0675895811937,523.9884307232261,556.9780823004655,541.6178518577387,521.2495368304772,468.70183105499717,517.8755173000616,545.5699832808523,566.8107151674664,474.81909454134905,501.20817327926636,516.4691577316155,537.9534022430188,637.5789068885275,500.98252098404026,464.65315958246623,535.0242006530246,473.52432979760306,532.4847518391788,562.7774299077512,569.1420562266189,466.556900967625,580.8010405477655,443.5191084709186,668.6769519275946,554.9851066245706,468.3793016144657,451.54143236838274,486.6345888755058,561.0394560668403,476.76921336348346,482.91828577778335,581.5481914751367,531.6039418983191,597.6498876736805,509.67413533667013,560.1760006402611,509.67728887693016,421.47338544094725,539.84401730387,573.7634180017772,486.51992305257227,486.0207060428926,523.5710523461381,573.5499425900011,586.8882449440507,558.9531969752603,607.066576549107,490.007915492657,618.4635225716427,524.7922569021138,477.6638538802194,490.51829876702084,596.3343371194837,539.6734782846305,584.5554473021875,538.2798659462278,469.5675766253661,576.0371574298383,533.6053577199624,488.8131913439949,652.0076809928167,533.3530471516528,565.3554322339966
8,536.0679394762469,49.86384781746205,574.2272388629588,632.6716033826773,448.3377970275225,596.4487992864034,676.8539032867518,537.2777212983859,545.8243695311362,517.2491580374664,561.9015837927184,571.1226875090852,593.0507445208407,515.282686189063,601.3001159538094,532.7407062305347,521.6495977931423,520.8180839233087,500.0285934013828,502.5067059763955,499.7551194483752,556.9731977368375,455.4877153957091,483.4304237998564,562.9423624080827,572.6766922804385,502.0478780594873,478.59595810106345,544.7347340471343,590.5542127769314,562.4382951122631,543.1976526705697,532.5917507808189,535.0246768780643,519.9733123981098,529.9917861656213,547.137095715348,529.5872363411513,562.5446031527702,523.9884307232261,556.9909056304183,541.961739980166,520.3908535279817,468.70183105499717,517.8755173000616,545.5699832808523,566.8107151674664,472.319127498306,501.20817327926636,517.7858588175525,536.6746960486026,637.5789068885275,500.98252098404026,464.3287394314687,507.4123434513957,473.52432979760306,532.4847518391788,561.754746466478,573.777094669553,466.556900967625,580.8010405477655,454.4480405179143,668.6769519275946,554.9851066245706,518.6131775929356,451.54143236838274,482.918826051981,564.6171079660928,473.4113798496132,480.2756655330584,581.6959814157826,521.3714644006757,597.6498876736805,509.67413533667013,560.1760006402611,509.67728887693016,420.83502582100294,539.84401730387,573.2023564419995,484.96162880578146,471.7608702001002,523.5710523461381,582.1438077231797,586.8882449440507,558.9531969752603,607.066576549107,490.007915492657,618.4635225716427,519.7233638625638,477.6638538802194,490.51829876702084,596.3343371194837,539.6734782846305,584.5554473021875,538.2798659462278,470.2749428605027,599.6332752803929,535.5808113869062,487.953443980419,652.0076809928167,533.3530471516528,565.3554322339966
9,536.0678002525495,50.8952125421749,574.2272388629588,632.7700305586421,448.3377970275225,594.1517571674407,679.2548422393434,533.6099710247041,545.8243695311362,513.0728490194576,561.9015837927184,571.1226875090852,609.7529319275552,538.7105802928329,602.1328572588944,532.7407062305347,521.3998651665114,520.8180839233087,501.5270807267246,512.6953017058537,499.7551194483752,556.9731977368375,455.4877153957091,483.4304237998564,562.9423624080827,590.7374544681342,502.0478780594873,478.59595810106345,544.7347340471343,590.3915667720595,562.4382951122631,543.1976526705697,532.5917507808189,533.6447883425743,531.3459331129692,529.9917861656213,547.1563599613216,529.5872363411513,553.0492997155282,523.9884307232261,556.9909056304183,541.6877617216047,520.3908535279817,468.70183105499717,517.8755173000616,545.5523169792251,566.8107151674664,479.1928025510987,501.20817327926636,517.7858588175525,536.6746960486026,628.9064272420675,500.98252098404026,464.3287394314687,509.6910493361457,473.52474627939324,532.4847518391788,561.754746466478,573.777094669553,466.556900967625,580.5949412489063,454.4480405179143,668.6769519275946,554.9851066245706,518.6131775929356,451.54143236838274,482.918826051981,563.4304874401299,473.4113798496132,486.3853513052744,581.6959814157826,521.3714644006757,599.5585900396985,509.67413533667013,560.1760006402611,509.67728887693016,420.83502582100294,539.84401730387,573.2023564419995,422.21555978741554,472.17572160018165,517.1117376659956,582.1438077231797,586.8882449440507,558.9531969752603,607.066576549107,488.4686058596256,618.4635225716427,519.7233638625638,477.6638538802194,489.8938813986624,596.3343371194837,533.7322585429392,584.5554473021875,543.0288136082831,469.5675766253661,599.6332752803929,537.4873163038558,488.8993256496591,652.0076809928167,533.3530471516528,565.3554322339966
10,537.2023829699756,50.07597642378042,574.2272388629588,632.7700305586421,448.3377970275225,594.1517571674407,679.2548422393434,537.2777212983859,545.8243695311362,522.6057855398991,561.9015837927184,571.1226875090852,609.7529319275552,554.9536001708011,602.1328572588944,532.7407062305347,521.6495977931423,520.8180839233087,499.3574528890474,514.0947272959777,499.7551194483752,553.5008997005876,455.4877153957091,483.4304237998564,560.8266173892413,590.7374544681342,502.0478780594873,478.59595810106345,544.7347340471343,587.0170992455056,562.4382951122631,543.1976526705697,530.6328456518067,535.0246768780643,531.3459331129692,529.9917861656213,548.035174505854,529.5872363411513,553.0492997155282,523.9884307232261,556.9909056304183,541.961739980166,520.3908535279817,468.70183105499717,536.6306352408485,543.2277377719661,564.8178545083256,474.4698184905442,501.20817327926636,517.7858588175525,536.6746960486026,626.2615962516322,500.98252098404026,464.3287394314687,509.71102667688996,473.52474627939324,532.4847518391788,561.754746466478,573.777094669553,466.556900967625,580.5949412489063,454.4480405179143,668.6769519275946,554.9851066245706,518.6131775929356,456.1555381217763,482.918826051981,563.4304874401299,473.4113798496132,495.49828974828444,581.6959814157826,521.775853495754,599.5585900396985,509.67413533667013,560.1760006402611,509.67728887693016,420.83502582100294,539.84401730387,573.2023564419995,423.04055887190174,535.3538359590781,517.1117376659956,582.1438077231797,586.8882449440507,558.9531969752603,607.066576549107,488.4686058596256,609.3763796634236,519.7233638625638,477.6638538802194,489.8938813986624,596.3343371194837,539.6734782846305,584.5554473021875,551.4049762200061,470.2749428605027,599.6332752803929,538.4234445000377,489.72497373765077,652.0076809928167,533.3530471516528,565.3554322339966
11,536.5767913176667,50.32359265319691,574.2272388629588,632.7700305586421,448.3377970275225,595.5977543370207,679.2548422393434,533.6099710247041,545.8243695311362,522.6057855398991,561.9015837927184,571.1226875090852,609.7529319275552,562.0819966979883,602.1328572588944,532.7407062305347,521.6495977931423,519.6382073732119,499.3574528890474,514.477987069371,499.7551194483752,550.2075199181629,455.4877153957091,483.4304237998564,560.8266173892413,590.7374544681342,502.0478780594873,478.59595810106345,544.7347340471343,587.0170992455056,562.4382951122631,543.1976526705697,530.6328456518067,535.0246768780643,531.3459331129692,529.9917861656213,547.1563599613216,533.3633763690912,511.9568819949387,523.9884307232261,556.9909056304183,544.1543600397899,520.3908535279817,468.7089068594589,539.9617398808232,543.2104534781729,564.2134747303297,476.7286770957414,501.20817327926636,517.7858588175525,536.6746960486026,625.470710048485,500.98252098404026,464.3287394314687,509.71102667688996,473.52474627939324,532.4847518391788,562.7774299077512,573.777094669553,466.556900967625,580.5949412489063,454.4480405179143,668.6769519275946,554.9851066245706,518.6131775929356,451.54143236838274,482.918826051981,563.4304874401299,473.4113798496132,500.4022373744926,579.7373235095248,521.775853495754,599.5585900396985,509.67413533667013,560.1760006402611,509.67728887693016,420.83502582100294,539.84401730387,575.0556718431226,423.04055887190174,497.17341749422036,514.9885774156764,582.7519911664065,586.8882449440507,558.9531969752603,607.066576549107,488.4686058596256,609.7512045802421,524.7922569021138,477.6638538802194,489.8938813986624,596.3343371194837,539.6734782846305,584.5554473021875,553.5990082698004,469.5675766253661,599.6332752803929,538.4234445000377,489.72497373765077,652.0076809928167,533.3530471516528,565.3554322339966
12,535.9041216836185,49.59666314250034,574.2272388629588,632.7700305586421,448.3377970275225,595.5977543370207,679.2548422393434,533.406688432674,545.8243695311362,520.8209300564171,561.9015837927184,571.1226875090852,609.7529319275552,562.0819966979883,602.1328572588944,532.7407062305347,521.6495977931423,519.6382073732119,499.3574528890474,515.5463714331833,499.7551194483752,550.2075199181629,475.55576901782075,483.4304237998564,560.8266173892413,590.7374544681342,502.0478780594873,478.59595810106345,544.7347340471343,587.0170992455056,562.4382951122631,543.1976526705697,530.6328456518067,535.0246768780643,531.3459331129692,529.9917861656213,547.1563599613216,532.5829121577308,501.7287860135648,523.9884307232261,556.9780823004655,541.961739980166,520.3908535279817,468.7089068594589,539.9617398808232,543.2277377719661,564.2134747303297,476.7286770957414,501.20817327926636,517.7858588175525,536.6746960486026,575.1384137141857,496.2208374119709,464.3287394314687,510.16232317999385,473.52474627939324,532.4847518391788,562.7774299077512,573.777094669553,461.2819597116119,580.5949412489063,454.4480405179143,668.6769519275946,554.9851066245706,518.6131775929356,451.54143236838274,482.918826051981,565.2110455951238,473.4113798496132,500.4022373744926,579.7373235095248,521.775853495754,599.5585900396985,509.67413533667013,560.1760006402611,509.67728887693016,420.83502582100294,539.84401730387,575.3715765245505,423.04055887190174,497.17341749422036,514.9885774156764,582.5505693567478,586.8882449440507,558.9531969752603,607.066576549107,488.4686058596256,612.4306447327697,523.3960497792444,477.6638538802194,489.8938813986624,596.3343371194837,539.6734782846305,586.5193354549486,534.2487358144675,470.2749428605027,599.6332752803929,538.4234445000377,489.72497373765077,652.0076809928167,533.5528717952253,565.3554322339966
13,535.5071467380127,49.717715458217285,575.48751677008,632.7700305586421,448.3377970275225,595.5977543370207,679.2548422393434,537.074873399644,545.8243695311362,520.8209300564171,561.9015837927184,571.1226875090852,609.7529319275552,562.0819966979883,601.3001159538094,532.7407062305347,521.6495977931423,519.6382073732119,499.3574528890474,519.0279947467828,499.7551194483752,550.2075199181629,453.68783421122146,483.4304237998564,560.8266173892413,590.7374544681342,502.4117271811052,464.56901395570446,544.7347340471343,587.0170992455056,562.4382951122631,536.1143836891761,530.6328456518067,535.0246768780643,531.3459331129692,529.9917861656213,550.6521203736738,524.2726113950781,506.089282618185,523.9884307232261,556.9909056304183,541.961739980166,520.3908535279817,468.7089068594589,539.9617398808232,543.2277377719661,570.6789475393041,476.7286770957414,501.20817327926636,517.7858588175525,536.6746960486026,574.6205322348301,496.2208374119709,464.3287394314687,510.16232317999385,473.52474627939324,532.4847518391788,560.9240158727482,573.777094669553,511.2321943885791,580.5949412489063,454.4480405179143,668.6769519275946,554.9851066245706,518.6131775929356,451.54143236838274,482.918826051981,565.2110455951238,473.4113798496132,500.4022373744926,579.7373235095248,521.775853495754,599.5585900396985,509.67413533667013,560.1760006402611,509.67728887693016,420.83502582100294,539.84401730387,507.40589601128886,423.04055887190174,497.17341749422036,515.2561212268374,586.0432770510887,586.8882449440507,558.9531969752603,607.066576549107,488.4686058596256,612.9001832872565,503.51392086539164,477.6638538802194,489.8938813986624,596.3343371194837,539.6734782846305,586.5193354549486,560.9550190048494,469.5675766253661,599.6446205898845,537.6160516641975,489.72497373765077,652.0076809928167,533.5528717952253,565.506849984938
14,535.211478946592,49.26846420410217,575.48751677008,632.7700305586421,448.3377970275225,593.2906235708842,679.2548422393434,537.074873399644,545.8248221609966,520.8209300564171,561.9015837927184,571.1226875090852,609.7529319275552,562.0819966979883,601.3001159538094,532.7407062305347,521.6495977931423,519.6382073732119,499.3574528890474,519.0279947467828,499.7551194483752,550.2075199181629,473.5937360026358,483.4304237998564,560.8266173892413,590.7374544681342,502.4117271811052,464.56901395570446,544.7347340471343,587.0170992455056,562.6253285048201,529.0371966401431,530.6328456518067,533.6447883425743,531.3459331129692,529.9917861656213,549.1705741592988,512.5617902517536,506.089282618185,525.4718494820976,556.9909056304183,541.961739980166,520.3908535279817,468.70183105499717,539.9617398808232,543.2104534781729,570.6789475393041,477.0897283297323,501.20817327926636,517.7858588175525,536.6746960486026,575.8384430641798,496.2208374119709,464.3287394314687,510.16232317999385,474.4236136946079,532.4847518391788,560.9240158727482,573.5818865365319,516.4608804333635,580.5949412489063,454.4480405179143,668.6769519275946,554.9851066245706,518.6131775929356,451.54143236838274,482.918826051981,564.367603671808,473.4113798496132,500.4022373744926,579.7373235095248,521.775853495754,599.5585900396985,509.67413533667013,560.1760006402611,509.67728887693016,420.83502582100294,539.84401730387,508.7479676440678,423.04055887190174,497.17341749422036,515.2561212268374,586.0432770510887,586.8882449440507,558.9531969752603,608.8047182367453,482.94263419525396,612.9001832872565,498.6881194977734,477.6638538802194,489.8938813986624,596.3343371194837,539.6734782846305,586.5193354549486,553.7009905324763,470.2749428605027,584.3122586904021,537.6160516641975,489.72497373765077,652.0076809928167,533.5528717952253,560.82691645805
15,534.3411588488142,49.98312127243684,573.2478021762613,632.7700305586421,448.3377970275225,593.2906235708842,679.4552492501067,537.074873399644,546.0626624619821,522.6057855398991,561.9015837927184,571.1226875090852,609.7529319275552,562.0819966979883,601.3001159538094,532.7407062305347,521.6495977931423,519.6382073732119,501.5270807267246,519.0279947467828,497.46246905285386,552.0424415693242,451.6666879763925,483.1508481056823,560.8266173892413,590.7374544681342,513.6763754053534,464.56901395570446,544.7347340471343,587.0170992455056,562.6253285048201,533.2011896494133,530.6328456518067,516.7970617458647,531.3459331129692,529.9917861656213,545.4735972506744,476.4921291923058,506.089282618185,525.0384769563195,556.9909056304183,541.961739980166,509.44974820510015,468.70183105499717,539.9617398808232,543.2104534781729,567.5605245223235,475.5873763413873,501.20817327926636,517.7348324389646,536.6746960486026,575.8384430641798,496.2420487812631,464.3287394314687,510.16232317999385,474.4236136946079,532.7519719768121,560.9240158727482,574.3008046035059,516.7839176762839,580.5949412489063,454.4480405179143,675.8186561282922,554.9851066245706,518.6131775929356,451.54143236838274,482.918826051981,564.6171079660928,473.4113798496132,500.4022373744926,579.7373235095248,521.775853495754,600.5564442621716,509.67413533667013,560.1760006402611,509.67728887693016,420.83502582100294,539.84401730387,508.99114457510404,420.94400571123384,497.17341749422036,515.2561212268374,586.6535049439459,586.8882449440507,558.9531969752603,608.8047182367453,484.15608204418055,612.9001832872565,498.6881194977734,477.6638538802194,489.8938813986624,596.3343371194837,539.6734782846305,585.2874756961205,553.7009905324763,470.2749428605027,563.1140635016187,535.8427239146479,489.72497373765077,652.0076809928167,533.3530471516528,566.2517039640845
16,534.3756528808622,49.98633820627819,573.2478021762613,632.7700305586421,448.3377970275225,593.2906235708842,679.4552492501067,533.406688432674,546.0626624619821,522.6057855398991,563.625564004461,571.1226875090852,609.7529319275552,562.0819966979883,601.3001159538094,532.7407062305347,521.3998651665114,519.720328873282,501.5270807267246,519.0279947467828,497.46246905285386,552.8387054390213,451.6666879763925,483.1508481056823,560.8266173892413,590.7374544681342,513.6763754053534,464.43924946721063,544.7347340471343,587.0170992455056,562.6253285048201,533.2011896494133,530.6328456518067,515.3860742220526,531.3459331129692,529.9917861656213,540.6739061533734,470.4237256386108,506.089282618185,525.0384769563195,556.9909056304183,541.961739980166,509.44974820510015,468.70183105499717,539.9617398808232,545.5523169792251,567.5605245223235,475.5873763413873,501.20817327926636,517.7348324389646,536.6746960486026,575.8384430641798,496.2208374119709,464.3287394314687,510.16232317999385,474.4236136946079,532.7519719768121,560.9240158727482,574.3008046035059,516.5729858501738,580.5949412489063,454.4480405179143,675.8186561282922,554.9851066245706,518.6131775929356,456.1555381217763,482.918826051981,564.6171079660928,473.4113798496132,497.9640625471367,579.7373235095248,521.775853495754,600.5564442621716,509.67413533667013,560.1760006402611,509.67728887693016,420.83502582100294,539.84401730387,509.7869600202296,420.94400571123384,497.17341749422036,515.2561212268374,586.6535049439459,588.2283880239117,558.9531969752603,608.8047182367453,489.8145641577311,612.9001832872565,498.6881194977734,477.6638538802194,489.8938813986624,596.3343371194837,539.6734782846305,585.2874756961205,553.2438692439499,469.5675766253661,563.1140635016187,542.1009214482824,489.72497373765077,652.0076809928167,533.3530471516528,566.2517039640845
17,534.6407199111039,49.5833822283401,573.2478021762613,632.7700305586421,448.10138805128344,593.2906235708842,679.4552492501067,537.074873399644,546.0626624619821,522.6057855398991,563.625564004461,571.1226875090852,609.7555971094296,562.0819966979883,601.3001159538094,532.7407062305347,521.3998651665114,519.720328873282,501.5270807267246,519.0279947467828,497.46246905285386,552.8387054390213,476.74710046277926,483.4304237998564,560.8266173892413,587.8896506222202,513.6763754053534,464.43924946721063,544.7347340471343,587.103500876453,562.6253285048201,533.2011896494133,530.6328456518067,516.7970617458647,531.3459331129692,530.5966292823949,540.6739061533734,470.4237256386108,506.089282618185,525.0384769563195,556.9780823004655,541.961739980166,509.44974820510015,468.70183105499717,539.9617398808232,545.5523169792251,567.5605245223235,477.0897283297323,501.20817327926636,517.7348324389646,536.6746960486026,574.6205322348301,496.2208374119709,464.3287394314687,510.1823450020464,474.4236136946079,532.7519719768121,560.9240158727482,574.3008046035059,516.5729858501738,580.5949412489063,454.4480405179143,675.8186561282922,554.9851066245706,518.6131775929356,456.1555381217763,482.918826051981,564.6171079660928,473.4113798496132,497.59439676280033,579.7373235095248,521.775853495754,600.5564442621716,509.67413533667013,560.1760006402611,509.67728887693016,420.83502582100294,539.84401730387,509.7869600202296,420.94400571123384,497.17341749422036,515.2561212268374,586.4514180584123,588.2283880239117,562.839402371199,608.8047182367453,487.59887487246084,612.9001832872565,503.51392086539164,477.6638538802194,486.36252762976693,596.3343371194837,539.6734782846305,583.314425695853,553.2438692439499,470.2749428605027,563.1140635016187,538.9776260011039,489.72497373765077,652.1696547598847,533.3530471516528,566.2517039640845
18,534.6783914770307,49.61024601281526,573.2478021762613,632.7700305586421,448.10138805128344,593.2906235708842,679.4552492501067,537.074873399644,546.0626624619821,522.9796270480728,563.625564004461,570.9024861006368,609.7555971094296,562.0819966979883,601.3001159538094,532.7407062305347,521.6495977931423,519.720328873282,501.5270807267246,519.0279947467828,497.46246905285386,552.8387054390213,476.74710046277926,483.1508481056823,560.8266173892413,587.8896506222202,513.6763754053534,464.43924946721063,544.7347340471343,587.103500876453,562.6253285048201,532.8390751761492,530.6328456518067,516.7970617458647,531.3459331129692,542.2775005061194,540.6739061533734,470.4237256386108,505.67239780261497,525.0384769563195,556.9780823004655,543.868077681463,509.44974820510015,468.70183105499717,539.9732052330198,545.5699832808523,567.9831583971395,477.0897283297323,501.20817327926636,517.7348324389646,536.6746960486026,574.6205322348301,496.2208374119709,464.3287394314687,508.1573643160812,474.4236136946079,532.0293051579392,560.9240158727482,574.3008046035059,516.5729858501738,580.5949412489063,454.4480405179143,675.8186561282922,545.106912006208,518.6131775929356,456.1555381217763,482.918826051981,564.6171079660928,473.4113798496132,497.59439676280033,579.7373235095248,521.775853495754,600.5564442621716,506.0275858314457,560.1760006402611,509.67728887693016,420.83502582100294,542.8053516948647,510.68997716017014,420.94400571123384,497.17341749422036,514.9885774156764,582.3391272628836,588.2283880239117,563.9032652046851,608.8047182367453,487.59887487246084,612.9001832872565,503.51392086539164,477.6638538802194,486.36252762976693,596.3343371194837,539.6734782846305,583.314425695853,561.1969577594099,469.5675766253661,563.1140635016187,538.9776260011039,488.7930304470487,651.9632720365124,533.3530471516528,566.2517039640845
19,534.3568657142782,50.12686484625198,602.2787993844076,633.5675622542232,448.10138805128344,595.5977543370207,679.4552492501067,537.074873399644,546.0626624619821,520.8209300564171,563.844801511878,570.9024861006368,609.7555971094296,562.0819966979883,601.1933346581393,532.7407062305347,521.6495977931423,519.720328873282,501.8636691050636,516.726415219462,497.46246905285386,552.8387054390213,454.8797652025819,483.1508481056823,560.8266173892413,587.8896506222202,513.6763754053534,464.43924946721063,544.7347340471343,587.103500876453,564.004506922488,532.8390751761492,530.6328456518067,516.7970617458647,531.3459331129692,540.0666349861341,540.6739061533734,470.4237256386108,505.67239780261497,525.0384769563195,556.7618373733048,543.868077681463,509.44974820510015,468.70183105499717,539.9732052330198,545.5699832808523,567.9831583971395,475.5873763413873,501.20817327926636,517.7348324389646,536.6746960486026,575.7612423414271,496.2208374119709,464.3287394314687,508.1573643160812,474.4236136946079,532.0293051579392,560.9240158727482,574.3008046035059,516.5729858501738,580.5949412489063,454.4480405179143,675.8186561282922,545.106912006208,519.6814444878679,456.1555381217763,481.9250127730964,564.6171079660928,473.4113798496132,497.59439676280033,579.7373235095248,521.775853495754,600.5564442621716,506.0275858314457,560.1760006402611,509.67728887693016,420.83502582100294,542.8053516948647,509.7869600202296,420.90003876687547,497.17341749422036,514.9885774156764,582.9472777963606,586.8882449440507,510.67613707851814,608.8047182367453,503.8826714442054,612.9001832872565,503.51392086539164,477.6638538802194,488.2314040226722,596.3343371194837,539.6734782846305,583.314425695853,561.1969577594099,470.2749428605027,563.1140635016187,537.9491430973283,488.7930304470487,651.9632720365124,533.3530471516528,566.2517039640845
