Iteration,Mean,Stdev,Run-0,Run-1,Run-2,Run-3,Run-4,Run-5,Run-6,Run-7,Run-8,Run-9,Run-10,Run-11,Run-12,Run-13,Run-14,Run-15,Run-16,Run-17,Run-18,Run-19,Run-20,Run-21,Run-22,Run-23,Run-24,Run-25,Run-26,Run-27,Run-28,Run-29,Run-30,Run-31,Run-32,Run-33,Run-34,Run-35,Run-36,Run-37,Run-38,Run-39,Run-40,Run-41,Run-42,Run-43,Run-44,Run-45,Run-46,Run-47,Run-48,Run-49,Run-50,Run-51,Run-52,Run-53,Run-54,Run-55,Run-56,Run-57,Run-58,Run-59,Run-60,Run-61,Run-62,Run-63,Run-64,Run-65,Run-66,Run-67,Run-68,Run-69,Run-70,Run-71,Run-72,Run-73,Run-74,Run-75,Run-76,Run-77,Run-78,Run-79,Run-80,Run-81,Run-82,Run-83,Run-84,Run-85,Run-86,Run-87,Run-88,Run-89,Run-90,Run-91,Run-92,Run-93,Run-94,Run-95,Run-96,Run-97,Run-98,Run-99
0,-975.7173908569671,44.558138044722504,-1002.1021030399503,-977.9070604852642,-937.2468407442566,-992.3428820316628,-998.5750580092255,-1023.912773182324,-1006.1457110787261,-1078.2754409736892,-982.6276089952478,-902.9928331748314,-947.9463626927965,-927.7705742748061,-987.976783930271,-960.1705654342899,-975.917742392992,-917.8917859894743,-857.6304095762802,-971.9054962701423,-949.0779365288092,-975.6445962062279,-1004.5824790844302,-891.3925860761456,-939.8870848146336,-1057.1013827647555,-973.5158860334159,-951.7749833279606,-905.3122708562421,-1082.560473710623,-950.5993671140355,-992.5972691567547,-978.782541118617,-1015.8381618024114,-997.6518499452193,-991.3009756130315,-941.8000841874273,-967.9218733267378,-1053.2592887929673,-984.024301060425,-1061.9138383731267,-963.8728694994616,-1039.0053815635547,-978.5870315161471,-988.3010726535306,-968.6102046206515,-957.4487050936094,-930.3913801459385,-979.4227348277475,-913.2286527168695,-987.3090659282974,-977.0172765170895,-1018.1026850185826,-911.5033523471405,-1023.922011055911,-981.1564155779225,-966.0572080867381,-992.975576893083,-993.7354782420605,-1031.9092712076297,-970.5258923876007,-939.9998016425434,-982.6434257653044,-991.2348511248022,-1068.0113388149211,-1047.0655181831282,-942.8003191965207,-1029.838136012179,-953.4553203737804,-989.8951013071859,-988.3213843884497,-1033.9526320618256,-954.8014501213092,-913.5045989391245,-973.9202442974787,-1000.3491925275455,-973.1989109638818,-982.4028490682534,-991.3984554287739,-952.825517548867,-1003.3927241876411,-1001.9669211564088,-980.5662158224385,-913.8115970184233,-1051.5651955086294,-867.6370838530896,-999.4542705751153,-951.8310878796375,-949.2751952681831,-983.8928400619617,-995.4208869807759,-1023.0171477183558,-887.020336442917,-894.9576030882615,-1000.791645664042,-944.4897185662401,-949.7035126417684,-929.4510295701439,-959.8841066140213,-935.0866183120088,-929.8754308372384,-1020.0693420937569
1,-1160.031506369256,61.78373364696712,-1086.1304600235737,-1279.6222061978835,-1146.5679585516627,-1169.6478889167606,-1192.4434174440864,-1086.7891188628312,-1182.2172708874648,-1140.787398699395,-1167.2754650173504,-1126.8483005851126,-1228.7570597756032,-1089.4823231781027,-1243.1227865194503,-1072.6667875109458,-1161.3594210783126,-1268.9990450242851,-1335.1183232979513,-1219.5664026081408,-1128.577866555946,-1256.7096469840058,-1240.837284248471,-1078.323383074987,-1213.915870039498,-1118.7643434464057,-1153.6692262160666,-1074.7668315090764,-1207.431054957731,-1247.691802295658,-1209.3007344859182,-1215.3248075959061,-1087.2660651398521,-1137.8061541699017,-1198.1520768748455,-1128.2718773934746,-1062.6351662790057,-1199.9640225327987,-1150.1604904795495,-1161.7821446849173,-1302.1666284011624,-1195.9768961464656,-1114.5260978954195,-1187.879695287213,-1160.9605262996286,-1142.5769750567135,-1200.774507085246,-1043.2919015158925,-1135.0967886004964,-1124.5125929083536,-1114.978683537192,-1154.4800450773926,-1094.5063901350136,-1234.4109681851567,-1166.1944303179555,-1198.8522871663974,-1139.8850828425782,-1185.9355425317592,-1139.8806054699949,-1231.6020384509834,-1081.1722669168046,-1065.8504606880178,-1178.1783434795109,-1073.4188283863757,-1166.5479633485668,-1048.9908650485902,-1092.629597844269,-1236.367353311968,-1158.1214458641018,-1137.6138984940342,-1104.4845343518152,-1171.8010418553743,-1176.4332687752812,-1222.510648255128,-1182.9558676337056,-1289.8344886006757,-1206.2259183370115,-1085.0685230564009,-1059.1017757966767,-1134.2353173583008,-1164.4127281651515,-1224.5437356878913,-1053.692149682951,-1078.6355367979618,-1152.0605342535928,-1050.5883969463741,-1161.5129853081291,-1145.6734248198138,-1102.6401924076213,-1169.4008436776214,-1200.2930049686026,-1108.0060920589574,-1113.7138139751764,-1190.287961491726,-1151.1164381786655,-1151.766151719595,-1202.277776797156,-1119.6203175013422,-1196.4967652106677,-1235.3110001284906,-1198.6777046396653,-1223.6395090519106
2,-1216.0885678209006,65.54550270204236,-1154.3338858069196,-1412.4106664349274,-1142.0478168263417,-1268.3151658381,-1308.3300397187738,-1142.7657054164727,-1254.1684588639148,-1184.3425126870643,-1203.3670087951582,-1135.802018760921,-1198.3201010179746,-1227.801364067354,-1193.620165188281,-1050.8080490595446,-1180.6328145494658,-1236.3048904157997,-1320.5998240077297,-1192.0863004924263,-1160.4751924125226,-1243.7044853033042,-1302.2723670937114,-1193.3322341774074,-1232.8033136574445,-1273.995726188021,-1285.1984268874135,-1121.467130525388,-1262.0075814716402,-1236.3056828970807,-1262.4006715637177,-1315.3832910596032,-1142.6651415048348,-1253.148795076409,-1333.1108841145979,-1252.8932487075133,-1169.5252744065288,-1285.6855813143616,-1275.0536286308532,-1198.6340662163534,-1273.6046794427475,-1171.5611836613093,-1093.3951034669842,-1250.1712223329469,-1274.21277997312,-1195.6705328443566,-1253.699657143094,-1150.732258063205,-1141.0134928328787,-1162.5835014481406,-1245.7226287042042,-1121.818071567015,-1217.340923490685,-1163.9669643515826,-1213.3219389042647,-1166.387023117772,-1189.2829441249626,-1170.717913386834,-1168.5090038846004,-1189.0196396744707,-1103.0753904461028,-1127.2231204694192,-1257.8325216563946,-1198.8577495986426,-1232.8759237276947,-1217.2473898483788,-1203.4962838758786,-1236.1016811342956,-1338.9022796089164,-1205.0689539767416,-1127.784216143768,-1186.616337305591,-1181.4330627342626,-1267.3516698175022,-1316.3116578185613,-1300.6536639681997,-1231.294985805718,-1165.5396129751982,-1109.6894693265583,-1350.7637090072446,-1134.9837355054533,-1331.2100796484779,-1112.2902122529874,-1163.6682099111024,-1247.150803721514,-1207.6777798156695,-1222.4742222277052,-1270.6297950297026,-1270.7201910711574,-1232.3001789853172,-1273.7298438636099,-1158.3392822687458,-1204.432433055408,-1145.9981720962473,-1180.7492793318377,-1163.3494822097246,-1234.857808470051,-1240.3580329086785,-1271.0433429840703,-1264.038364818347,-1172.253842337466,-1329.6310367606604
3,-1241.8930904360075,66.96459307593878,-1207.857889181174,-1313.2272716021712,-1173.3841719972413,-1185.367553244972,-1323.5804623100823,-1180.7393328351784,-1272.2552767935483,-1226.446136875979,-1131.8193447120673,-1160.0395513286226,-1223.818195336409,-1246.5423137579987,-1228.6781122099062,-1156.7676781644975,-1266.747300432636,-1267.010336609497,-1341.255614840625,-1226.3921309258442,-1089.5003282118785,-1295.0976700034341,-1290.2013033119565,-1212.753064580537,-1234.6246031596816,-1366.3118023830975,-1383.2226454034608,-1184.0852377180397,-1359.0360253329557,-1248.240480106973,-1360.598069722459,-1291.641926268851,-1174.7393250218724,-1302.7352208818027,-1352.3298337936378,-1289.7486774917475,-1237.3000141407845,-1303.2262769893182,-1264.879445636597,-1255.8555204231222,-1274.2966414136604,-1226.6085292752655,-1154.5648269933229,-1346.2397023265205,-1318.0875901289432,-1138.8031518955195,-1221.4271343807243,-1230.8078220151638,-1202.8739695668808,-1116.528284102095,-1211.4255411235922,-1148.48073330925,-1271.9425072504891,-1250.1675342407216,-1224.8141634997307,-1229.4438269534148,-1134.870030069929,-1260.9924155366054,-1177.882651315213,-1224.390288513458,-1129.9577938669838,-1249.3883752082168,-1355.0416702346588,-1304.872546064557,-1180.773872692245,-1210.540238082967,-1242.711356786744,-1254.8998022535802,-1312.9313741493838,-1248.1754620246668,-1131.1827187304673,-1252.0383889228815,-1229.4358270317139,-1235.012972757671,-1387.6984296829735,-1263.7512463236567,-1223.753705075225,-1257.449178229954,-1193.3448476328729,-1358.263644844039,-1186.3077921968065,-1271.9220288298873,-1142.2171582545614,-1209.3138394186242,-1235.6510824264362,-1215.7090910022064,-1211.348299455696,-1270.2487101743468,-1254.6296051760814,-1185.728845110528,-1410.801864148513,-1232.0982003651932,-1206.2491676748118,-1142.4256969178023,-1261.3052943183466,-1235.4916646645324,-1231.3007995885266,-1282.0032967166455,-1221.2538514717114,-1324.0992598359583,-1130.1024233722535,-1315.1741342346688
4,-1251.6144021865623,57.64931161251622,-1207.132032680746,-1279.4908313505148,-1224.664449178114,-1204.2286308759974,-1335.9209791787014,-1227.0162279385465,-1312.2218206221753,-1221.7704927062277,-1164.5551470922965,-1186.1401458442795,-1226.9855508313524,-1229.2167520754717,-1232.694587574793,-1168.3512186136152,-1215.8793290989536,-1254.8217196637536,-1295.102442438974,-1219.9516431438842,-1129.289000230084,-1299.9782297029883,-1261.4716102437221,-1245.0057868658023,-1242.1905219832915,-1346.941604830618,-1372.7058401596903,-1187.9614296574268,-1322.4378260181709,-1282.9573459047679,-1318.666366462598,-1278.3517436331063,-1198.1922587834574,-1367.8462191939636,-1347.5742886772175,-1242.499129885415,-1253.6695987483668,-1316.8027687852302,-1304.4197904604134,-1263.989623113723,-1307.05631849983,-1267.1021000457617,-1156.0987133743743,-1296.322335507745,-1316.4549321474262,-1192.0154402342391,-1233.994431511149,-1204.9744394006736,-1232.3470244510231,-1162.4315009931695,-1311.9507278604567,-1129.9256836646666,-1298.4032206363959,-1200.7370789407455,-1278.7874854266022,-1219.2691109820896,-1196.837553427916,-1329.2112547841346,-1222.4045121495105,-1240.6756172076384,-1182.8611312008693,-1205.3606238902266,-1370.3080979132665,-1316.9931254966818,-1226.59499186562,-1146.8496308850595,-1214.140009598228,-1374.8460490534521,-1316.230300898001,-1251.4466195617763,-1155.8675717761332,-1260.207858825604,-1206.9030562897133,-1334.1305220832787,-1327.1480354125347,-1288.1884144551118,-1240.5381033776575,-1256.0220231016513,-1244.4148496810892,-1335.114409565084,-1210.4920046858558,-1245.792428701234,-1132.5896953218817,-1212.6431527683867,-1219.9206847807156,-1207.8854939121277,-1270.1990458118428,-1237.522728618958,-1267.3151336009719,-1250.6989492591201,-1315.8645452818257,-1188.1406572177991,-1229.5357926724912,-1209.4506370986849,-1272.9645175644314,-1237.1808301027231,-1262.3933485266316,-1293.176707298154,-1210.4586852967961,-1323.363328526506,-1234.0512558935566,-1289.5407052904677
5,-1257.5608701963142,63.538713056460914,-1212.036733249434,-1285.2517463244233,-1232.5936537821453,-1210.872530344556,-1388.5572441702468,-1227.7011195598618,-1281.8020140634464,-1227.701144268474,-1159.2693486224914,-1166.2152799237876,-1231.2508302339045,-1257.5420973100893,-1198.224769483302,-1184.756482567708,-1222.5276075432532,-1232.3328141081658,-1262.9672612391053,-1243.964160517562,-1124.8971642066715,-1314.8643078272273,-1311.0814745398377,-1233.7127824531483,-1178.1362056787436,-1313.1219759860392,-1380.9105510476024,-1170.7570111663051,-1293.295452694599,-1263.542731735238,-1358.3638560749803,-1234.2890105845415,-1270.6780333344989,-1371.5854605624122,-1355.1334274478347,-1231.7807530537975,-1310.147800027367,-1366.1804984771159,-1318.726313457047,-1240.392594627591,-1313.5488350820283,-1234.0210799724448,-1195.206852704528,-1314.8842215638058,-1295.2151079155058,-1217.9802608808648,-1247.448641209223,-1247.2828590321037,-1233.7230289312108,-1191.7688491155725,-1341.1321660633669,-1106.533894247858,-1319.5478494067045,-1248.9719505778096,-1289.7187210668471,-1246.3593557519473,-1172.2994366942216,-1337.5909511689,-1195.8334501828147,-1252.7407431463757,-1160.7338475003692,-1187.0285691493957,-1357.2847601160486,-1281.814766958536,-1227.1720931839784,-1112.5999252166089,-1257.8227434642642,-1400.8801913708733,-1358.914209890612,-1251.8195640711413,-1176.9232974214158,-1285.0068665333747,-1187.3498054507402,-1345.8028922582787,-1306.4436302452602,-1309.4037583752927,-1248.9080299374486,-1275.342654030101,-1265.9695001477648,-1333.1452355878178,-1232.5094217876936,-1245.792428701234,-1165.959036270288,-1194.2057222334781,-1251.9150242035266,-1242.5842119018478,-1231.4129104691945,-1258.7684161712384,-1270.6133053106537,-1227.3536180322117,-1394.8810224403835,-1174.505825854589,-1273.3960414744395,-1243.8407591271173,-1295.671970305735,-1191.5336968010513,-1316.7768755253658,-1302.327396302981,-1213.9992174597135,-1259.7070695250075,-1251.1281612905925,-1317.8660505250853
6,-1258.7100929604562,61.425523204991116,-1212.3625186861698,-1300.8813536900125,-1232.5936537821453,-1241.9437767098505,-1392.1566678133784,-1227.0162279385465,-1290.4075479644896,-1241.5112626611228,-1156.9873748693478,-1179.6929136661922,-1323.8900959777736,-1244.4154383637594,-1262.5193816662156,-1168.3512186136152,-1230.607427989404,-1232.3328141081658,-1279.57119214703,-1243.964160517562,-1146.1528484612445,-1314.8643078272273,-1319.155075133135,-1230.3325884896165,-1184.527220994865,-1274.3908877570216,-1374.5030921884088,-1138.2428353619614,-1275.7612454019438,-1271.6570116988387,-1358.3638560749803,-1282.6710218261026,-1241.80787904001,-1336.8799122803316,-1355.1334274478347,-1245.1688430718682,-1275.625148923201,-1366.05552815937,-1318.726313457047,-1231.427703264156,-1314.5682658142434,-1205.0725103355855,-1177.4780498870082,-1322.7750552572918,-1302.348390653379,-1214.151265142201,-1253.2522339292934,-1226.2816050475726,-1246.0191976554197,-1258.1202824862437,-1319.0153827594663,-1176.396245617909,-1321.1079219756373,-1246.9153222127177,-1273.1476429021911,-1218.7394667368455,-1223.429207889592,-1290.6938856659654,-1195.8334501828147,-1224.1571448838363,-1160.0033623272354,-1187.0285691493957,-1329.995365504855,-1277.3103212438232,-1218.4373570059402,-1089.4258704208237,-1257.8227434642642,-1399.182373058166,-1407.874530479407,-1242.414300437668,-1191.3376298666938,-1269.3771730274973,-1201.6609443456857,-1352.4684394639078,-1304.6948788009297,-1326.9376004746712,-1251.2079900716149,-1273.4450016479216,-1265.9695001477648,-1333.1452355878178,-1232.5094217876936,-1268.1726545882793,-1192.4198723285522,-1166.3207104723713,-1229.718991138263,-1254.8643800039094,-1231.9452574474515,-1255.2273913795104,-1270.6133053106537,-1268.1483998458937,-1363.1630847641948,-1135.4671280481605,-1251.197755778992,-1242.6552055097368,-1309.2930481589767,-1191.5336968010513,-1287.8636737212048,-1311.0662205403514,-1244.067282930415,-1250.5284755109299,-1246.2251603532438,-1316.1146920405063
7,-1262.575963417152,62.26059728764247,-1241.006522918437,-1300.8813536900125,-1200.2953347071175,-1237.5954030339642,-1356.0162696659384,-1227.0162279385465,-1321.0100855410117,-1236.9971625968556,-1156.9873748693478,-1182.2223686047384,-1323.8900959777736,-1261.043040005953,-1330.729372457525,-1168.3512186136152,-1255.2153909663368,-1232.3328141081658,-1246.4433476407442,-1243.964160517562,-1157.1835771512126,-1314.8643078272273,-1319.155075133135,-1257.023994746248,-1191.9559168348583,-1274.3908877570216,-1420.1850313913524,-1168.4331331682545,-1278.8294599016579,-1286.5787330147257,-1356.946019567078,-1282.6710218261026,-1277.1116089682398,-1336.8799122803316,-1346.6469053840078,-1246.9274059997013,-1275.625148923201,-1339.7908112711516,-1318.726313457047,-1236.2151159059715,-1344.4558723070948,-1174.3002902100636,-1177.4780498870082,-1322.7750552572918,-1301.7935307837074,-1177.3674007827826,-1253.2522339292934,-1169.085573477581,-1237.8907370933898,-1264.1479817760228,-1316.9628020400148,-1213.4258118523414,-1321.1079219756373,-1238.997727264477,-1273.1476429021911,-1249.198381858725,-1215.4565854668087,-1277.8166753948838,-1194.6242497814878,-1254.3908349436147,-1184.4127948307232,-1170.0238162414457,-1340.0668417212244,-1277.3103212438232,-1218.4373570059402,-1120.0561178254025,-1257.8227434642642,-1408.8482707148635,-1407.8737700597799,-1256.9532304385455,-1215.109622282346,-1297.2854970806468,-1201.6609443456857,-1385.5771611233306,-1323.6881949941646,-1326.9376004746712,-1279.0589150872177,-1253.2286202115174,-1265.9695001477648,-1333.1452355878178,-1232.5094217876936,-1276.672922319603,-1229.983016445071,-1193.0626602135358,-1229.718991138263,-1254.8643800039094,-1231.9452574474515,-1277.4289568602107,-1270.6133053106537,-1268.1483998458937,-1364.5672628426744,-1135.4538631777025,-1219.8780429353462,-1242.6552055097368,-1311.6601513606522,-1176.2603709505859,-1287.8636737212048,-1335.591301413546,-1229.9945288842014,-1223.8106656294017,-1239.519433649623,-1316.1146920405063
8,-1264.19738969174,62.63236009503429,-1241.006522918437,-1300.8813536900125,-1199.5972917190272,-1240.3116803097676,-1379.0335810324589,-1227.7011195598618,-1321.0100855410117,-1236.9971625968556,-1134.9554166337934,-1208.6569269632103,-1323.8900959777736,-1254.3755657473878,-1280.2981907697647,-1168.3512186136152,-1305.360269913323,-1232.3328141081658,-1223.995686504635,-1243.964160517562,-1149.7370891259386,-1314.8643078272273,-1319.155075133135,-1257.023994746248,-1207.6442303771241,-1274.3908877570216,-1396.3815682074237,-1168.4331331682545,-1278.8294599016579,-1279.2098562992,-1356.946019567078,-1282.6710218261026,-1333.3277017244488,-1343.977430148912,-1346.6469053840078,-1272.0997861121207,-1275.625148923201,-1334.1922227620094,-1318.726313457047,-1236.2151159059715,-1344.4558723070948,-1182.865628392717,-1177.4780498870082,-1322.7750552572918,-1301.7935307837074,-1172.4322336457783,-1253.2522339292934,-1172.322424411356,-1198.8597597297223,-1254.714989107449,-1316.9628020400148,-1205.4565428830388,-1321.1079219756373,-1238.997727264477,-1273.1476429021911,-1241.022928670903,-1254.7046446514626,-1277.8166753948838,-1194.6242497814878,-1252.108861190471,-1185.8342629492267,-1170.0238162414457,-1338.2506154395699,-1277.3103212438232,-1227.9462315872133,-1124.3578390710416,-1257.8227434642642,-1408.8482707148635,-1407.8737700597799,-1256.9532304385455,-1215.109622282346,-1322.4195610430527,-1201.6609443456857,-1385.5771611233306,-1323.6881949941646,-1326.7766076335215,-1313.836171102823,-1316.0451758447475,-1259.7824254178345,-1333.1452355878178,-1229.6786550193665,-1237.6237643940615,-1232.7811186299662,-1225.0569996363467,-1238.9145326149167,-1263.5199297586264,-1231.9452574474515,-1292.420421613847,-1270.6133053106537,-1249.5452878273034,-1366.955842954331,-1135.4546235973291,-1219.8780429353462,-1242.6552055097368,-1292.9873391375381,-1176.2603709505859,-1287.8636737212048,-1335.591301413546,-1229.9945288842014,-1225.3862558656572,-1239.519433649623,-1316.1146920405063
9,-1263.6131222458791,61.2007412682897,-1241.006522918437,-1300.8813536900125,-1199.5972917190272,-1240.3116803097676,-1363.9765620370813,-1213.0977340466259,-1321.0100855410117,-1236.9971625968556,-1146.5209195801583,-1208.6561665435831,-1323.8900959777736,-1254.3755657473878,-1280.2981907697647,-1184.756482567708,-1299.0440626846091,-1232.3328141081658,-1223.995686504635,-1243.964160517562,-1149.7370891259386,-1314.8643078272273,-1320.348445028729,-1257.023994746248,-1215.9640235346365,-1274.3908877570216,-1398.6182557230018,-1168.4331331682545,-1278.8294599016579,-1279.2098562992,-1356.946019567078,-1282.6710218261026,-1356.2428332533614,-1343.977430148912,-1346.6469053840078,-1260.7505631169747,-1275.625148923201,-1333.7925045396958,-1318.726313457047,-1236.2151159059715,-1344.4558723070948,-1182.865628392717,-1177.4780498870082,-1322.7750552572918,-1301.7935307837074,-1172.4322336457783,-1253.2522339292934,-1179.6758099546025,-1182.4544957756295,-1254.714989107449,-1316.9628020400148,-1205.4565428830388,-1321.1079219756373,-1238.997727264477,-1273.1476429021911,-1237.814598597252,-1254.7046446514626,-1277.8166753948838,-1194.6242497814878,-1252.108861190471,-1175.659669474733,-1170.0238162414457,-1328.8716427614802,-1277.3103212438232,-1230.8228817369243,-1124.3578390710416,-1275.8244760803598,-1401.317965890648,-1407.8737700597799,-1256.5885077382989,-1215.109622282346,-1310.8344203469694,-1201.6609443456857,-1385.5771611233306,-1323.6881949941646,-1316.3657405396966,-1283.4028090985407,-1316.0451758447475,-1277.7515355605865,-1333.1452355878178,-1229.6786550193665,-1237.6237643940615,-1232.7811186299662,-1239.7551696086132,-1238.9145326149167,-1263.5191693389995,-1233.6966159320307,-1292.420421613847,-1273.4440720789808,-1249.5452878273034,-1336.533402225299,-1135.4546235973291,-1219.8780429353462,-1242.6552055097368,-1307.5315858537256,-1176.2603709505859,-1287.8636737212048,-1314.4264332114424,-1229.9945288842014,-1225.3862558656572,-1239.519433649623,-1313.8327182873625
10,-1263.68507283535,59.93620387200355,-1241.006522918437,-1300.8813536900125,-1199.5972917190272,-1240.3116803097676,-1298.0397120082102,-1268.0106877963005,-1321.0100855410117,-1236.9971625968556,-1146.5209195801583,-1208.6561665435831,-1323.8900959777736,-1254.3755657473878,-1280.2981907697647,-1168.3512186136152,-1296.9874343195172,-1232.3328141081658,-1223.995686504635,-1243.964160517562,-1158.3927775525394,-1316.6156663118065,-1320.348445028729,-1257.023994746248,-1215.9640235346365,-1274.3908877570216,-1398.6182557230018,-1168.4331331682545,-1283.5955034077012,-1279.2098562992,-1356.946019567078,-1282.6710218261026,-1337.1764831564128,-1345.6523047998273,-1349.4776721523344,-1260.7505631169747,-1259.4667291219046,-1329.3632355435914,-1318.726313457047,-1236.2151159059715,-1344.4558723070948,-1182.865628392717,-1177.4780498870082,-1340.5512509031564,-1301.7935307837074,-1172.4322336457783,-1253.2522339292934,-1179.6758099546025,-1195.0770617077976,-1257.615903861033,-1316.9628020400148,-1208.7876412412263,-1321.1079219756373,-1238.997727264477,-1273.1476429021911,-1237.814598597252,-1254.7046446514626,-1277.8166753948838,-1194.6242497814878,-1254.3908349436147,-1175.659669474733,-1187.0285691493957,-1328.8716427614802,-1277.3103212438232,-1268.0466407697968,-1124.3578390710416,-1297.1953386875468,-1403.5999396437917,-1407.8737700597799,-1256.5885077382989,-1215.109622282346,-1287.9276395604782,-1198.830177577359,-1385.5771611233306,-1323.6881949941646,-1316.3657405396966,-1236.581946229488,-1316.0451758447475,-1236.4454517156041,-1325.0697698053523,-1229.6786550193665,-1240.4545311623883,-1249.99494829604,-1239.7551696086132,-1238.9145326149167,-1260.5353511192043,-1233.6966159320307,-1292.420421613847,-1273.4440720789808,-1249.5452878273034,-1336.533402225299,-1135.4546235973291,-1219.8780429353462,-1242.6552055097368,-1339.5259252765366,-1185.037276861084,-1289.347964471565,-1316.9121368236842,-1229.9945288842014,-1225.3862558656572,-1239.519433649623,-1313.8327182873625
11,-1263.9122591338053,60.71977859186362,-1241.006522918437,-1300.8813536900125,-1199.5972917190272,-1226.6063494399511,-1298.0397120082102,-1257.539341982287,-1321.0100855410117,-1236.9971625968556,-1146.5209195801583,-1208.6569269632103,-1323.8900959777736,-1254.3755657473878,-1282.0495492543437,-1184.756482567708,-1299.269408072661,-1232.3328141081658,-1210.9186268366157,-1243.964160517562,-1148.5278887246118,-1316.6156663118065,-1319.155075133135,-1239.5053924504502,-1215.9640235346365,-1274.3908877570216,-1398.6182557230018,-1168.4331331682545,-1314.3185229632602,-1279.2098562992,-1355.7368191657513,-1282.6710218261026,-1337.1764831564128,-1345.6523047998273,-1349.4776721523344,-1260.7505631169747,-1259.4667291219046,-1329.3632355435914,-1318.726313457047,-1236.054123064822,-1344.4558723070948,-1182.865628392717,-1177.4780498870082,-1340.5512509031564,-1301.7935307837074,-1172.4322336457783,-1253.2522339292934,-1179.6758099546025,-1188.0877373986384,-1257.615903861033,-1316.9628020400148,-1205.4565428830388,-1321.1079219756373,-1238.997727264477,-1277.5829425124243,-1237.814598597252,-1254.7046446514626,-1277.8166753948838,-1194.6242497814878,-1251.9032170649602,-1175.659669474733,-1170.0238162414457,-1328.8716427614802,-1277.3103212438232,-1270.1032691348885,-1124.3578390710416,-1299.9448491543997,-1403.5999396437917,-1407.874530479407,-1256.749500579448,-1215.109622282346,-1312.3370720639662,-1198.830177577359,-1385.5771611233306,-1323.6881949941646,-1316.3657405396966,-1236.581946229488,-1313.214409076421,-1276.804479226796,-1324.1727139404907,-1211.2308177566726,-1240.4545311623883,-1232.7811186299662,-1239.7551696086132,-1243.8421443567452,-1260.5353511192043,-1233.6966159320307,-1292.420421613847,-1273.4440720789808,-1249.5452878273034,-1348.4813175702343,-1135.4546235973291,-1229.963820196718,-1242.6552055097368,-1339.5259252765366,-1205.8124971744467,-1276.97470563677,-1316.9121368236842,-1229.9945288842014,-1223.8106656294017,-1239.519433649623,-1313.8327182873625
12,-1263.6439715161778,60.51917329412436,-1241.006522918437,-1300.8813536900125,-1199.5972917190272,-1218.5181144140172,-1305.4506933752805,-1258.224233603602,-1321.0100855410117,-1219.5902182506074,-1146.5209195801583,-1208.6569269632103,-1325.5602537585896,-1254.3755657473878,-1282.0495492543437,-1168.3512186136152,-1299.269408072661,-1232.3328141081658,-1256.4571276400534,-1243.964160517562,-1148.5278887246118,-1316.6156663118065,-1320.348445028729,-1239.5053924504502,-1215.9640235346365,-1274.3908877570216,-1402.6515879607246,-1168.4331331682545,-1321.4063382246866,-1279.2098562992,-1355.7368191657513,-1282.6710218261026,-1337.1764831564128,-1345.6523047998273,-1349.4776721523344,-1260.7505631169747,-1259.4667291219046,-1329.3632355435914,-1321.9877351260727,-1236.054123064822,-1344.4558723070948,-1182.865628392717,-1177.4780498870082,-1340.5512509031564,-1301.7935307837074,-1172.4322336457783,-1253.2522339292934,-1179.6758099546025,-1188.0877373986384,-1237.075053658074,-1315.8527965815708,-1207.7385166361823,-1321.1079219756373,-1238.997727264477,-1296.95524580592,-1237.814598597252,-1254.7046446514626,-1277.8166753948838,-1194.6242497814878,-1249.6212433118164,-1175.659669474733,-1170.0238162414457,-1328.8716427614802,-1277.3103212438232,-1254.3371350559976,-1124.3578390710416,-1306.2257723650532,-1363.9119776711964,-1407.874530479407,-1256.5885077382989,-1215.109622282346,-1312.3370720639662,-1198.830177577359,-1385.5771611233306,-1323.6881949941646,-1316.3657405396966,-1236.581946229488,-1314.965767561,-1269.7623234899906,-1324.1727139404907,-1211.2308177566726,-1240.4545311623883,-1232.9574189861157,-1239.7551696086132,-1243.8421443567452,-1260.5353511192043,-1233.6966159320307,-1292.420421613847,-1273.4440720789808,-1249.5452878273034,-1348.4813175702343,-1135.4546235973291,-1229.963820196718,-1242.6552055097368,-1339.5259252765366,-1205.8124971744467,-1276.97470563677,-1316.9121368236842,-1229.9945288842014,-1223.8106656294017,-1239.519433649623,-1314.7511441604315
13,-1264.780414011265,59.96735684698669,-1243.837289686764,-1300.8813536900125,-1199.5972917190272,-1211.4759586772118,-1284.9311025590964,-1258.224233603602,-1321.694977162327,-1208.9854790897691,-1174.726809796186,-1208.8606568223076,-1325.5602537585896,-1254.3755657473878,-1282.0495492543437,-1184.756482567708,-1299.269408072661,-1232.3328141081658,-1264.5459522197539,-1243.964160517562,-1148.5278887246118,-1316.6156663118065,-1319.155075133135,-1239.5053924504502,-1215.9640235346365,-1275.9664779932775,-1400.3696142075808,-1168.4323727486274,-1357.1601784508623,-1279.2098562992,-1355.7368191657513,-1282.6710218261026,-1337.1764831564128,-1345.6523047998273,-1349.4776721523344,-1260.7505631169747,-1259.4667291219046,-1329.3632355435914,-1320.3973694826432,-1236.054123064822,-1344.4558723070948,-1182.865628392717,-1177.4780498870082,-1340.5512509031564,-1301.7935307837074,-1172.4322336457783,-1253.2522339292934,-1179.6758099546025,-1188.0877373986384,-1257.615903861033,-1317.0619969828979,-1207.7385166361823,-1321.1079219756373,-1238.997727264477,-1305.0027696799568,-1237.814598597252,-1254.7046446514626,-1309.5245992196744,-1194.6242497814878,-1251.9032170649602,-1175.659669474733,-1170.0238162414457,-1328.8716427614802,-1277.3103212438232,-1254.3371350559976,-1124.3578390710416,-1312.5850649343263,-1363.9119776711964,-1407.874530479407,-1256.5885077382989,-1215.109622282346,-1286.8190594258035,-1198.830177577359,-1385.5771611233306,-1323.6881949941646,-1316.3657405396966,-1238.465627069345,-1314.965767561,-1269.7623234899906,-1299.8474875225809,-1229.6786550193665,-1240.4545311623883,-1249.99494829604,-1239.7551696086132,-1243.8421443567452,-1260.5353511192043,-1233.6966159320307,-1292.420421613847,-1273.4440720789808,-1268.1483998458937,-1348.4813175702343,-1135.4546235973291,-1229.963820196718,-1242.6552055097368,-1339.5259252765366,-1190.8146853885157,-1276.97470563677,-1316.9121368236842,-1229.9945288842014,-1226.5796257612512,-1239.519433649623,-1313.8327182873625
14,-1263.9680998914582,61.072920220152334,-1243.837289686764,-1302.0747235856065,-1208.5142522244078,-1211.4759586772118,-1308.2814601436075,-1257.539341982287,-1323.494328841423,-1174.662825859157,-1174.726809796186,-1208.8606568223076,-1325.5602537585896,-1254.3755657473878,-1282.0495492543437,-1168.3512186136152,-1294.875780207071,-1232.3328141081658,-1264.5459522197539,-1243.964160517562,-1148.5278887246118,-1341.0811465892498,-1319.155075133135,-1239.5053924504502,-1215.9640235346365,-1275.9664779932775,-1398.6182557230018,-1168.4323727486274,-1357.10306620698,-1279.2098562992,-1355.7368191657513,-1282.6710218261026,-1337.1764831564128,-1345.6523047998273,-1351.2290306369136,-1262.4291997877724,-1261.266080801001,-1329.3632355435914,-1320.3973694826432,-1236.054123064822,-1344.4558723070948,-1184.616986877296,-1177.4780498870082,-1340.5512509031564,-1301.7935307837074,-1172.4322336457783,-1253.2522339292934,-1179.6758099546025,-1188.0877373986384,-1237.075053658074,-1280.7649249497974,-1207.7385166361823,-1321.1079219756373,-1238.997727264477,-1279.5649197708578,-1237.814598597252,-1254.7046446514626,-1314.3656180951218,-1194.6242497814878,-1251.9032170649602,-1175.659669474733,-1170.7137091566035,-1328.8716427614802,-1277.3103212438232,-1254.3371350559976,-1124.3578390710416,-1308.201491214765,-1361.6300039180528,-1407.874530479407,-1233.8127569556416,-1215.109622282346,-1286.8190594258035,-1198.830177577359,-1385.5771611233306,-1323.6881949941646,-1316.3657405396966,-1238.465627069345,-1314.965767561,-1269.7623234899906,-1299.8474875225809,-1211.2308177566726,-1240.4545311623883,-1232.7811186299662,-1239.7551696086132,-1243.8421443567452,-1257.8796447679686,-1233.6966159320307,-1295.251188382174,-1273.2830792378315,-1310.0484535582332,-1346.1993438170905,-1133.7032651127504,-1229.963820196718,-1242.6552055097368,-1339.5259252765366,-1190.8146853885157,-1290.6190122831702,-1316.9121368236842,-1229.9945288842014,-1226.5796257612512,-1239.519433649623,-1313.8327182873625
15,-1265.0697868211882,61.63696635891853,-1243.837289686764,-1302.0747235856065,-1208.5142522244078,-1211.4759586772118,-1305.4506933752805,-1270.1997948328749,-1322.809437220108,-1174.662825859157,-1174.726809796186,-1208.8606568223076,-1325.5602537585896,-1254.3755657473878,-1282.0495492543437,-1168.3512186136152,-1319.0473763401844,-1232.493806949315,-1264.5459522197539,-1243.964160517562,-1148.5278887246118,-1341.0811465892498,-1319.155075133135,-1239.5053924504502,-1214.735292091005,-1274.3908877570216,-1400.9002294761453,-1169.1304157367174,-1357.10306620698,-1279.2098562992,-1356.946019567078,-1282.6710218261026,-1337.1764831564128,-1345.6523047998273,-1349.4776721523344,-1262.4291997877724,-1258.9841070478574,-1329.3632355435914,-1317.135947813617,-1236.054123064822,-1344.4558723070948,-1184.616986877296,-1177.4780498870082,-1340.5512509031564,-1301.7935307837074,-1172.4322336457783,-1253.2522339292934,-1179.6758099546025,-1188.0877373986384,-1257.615903861033,-1280.7649249497974,-1207.7385166361823,-1321.1079219756373,-1238.997727264477,-1301.3826652569564,-1237.814598597252,-1254.7046446514626,-1314.3656180951218,-1194.6242497814878,-1251.9032170649602,-1175.659669474733,-1170.7137091566035,-1328.8716427614802,-1277.3103212438232,-1254.3371350559976,-1124.3578390710416,-1308.201491214765,-1361.6300039180528,-1407.874530479407,-1231.1429830284637,-1215.109622282346,-1286.8190594258035,-1198.830177577359,-1385.5771611233306,-1323.6881949941646,-1316.3657405396966,-1238.465627069345,-1314.965767561,-1269.7623234899906,-1309.0961545133152,-1211.2308177566726,-1240.4545311623883,-1232.9574189861157,-1239.7551696086132,-1243.8421443567452,-1257.8796447679686,-1233.6966159320307,-1295.251188382174,-1273.2830792378315,-1310.0484535582332,-1367.9174378729824,-1133.7032651127504,-1229.963820196718,-1242.6552055097368,-1339.5259252765366,-1190.8146853885157,-1291.8538535520643,-1316.9121368236842,-1238.7776139479631,-1226.5796257612512,-1239.519433649623,-1315.5840767719417
16,-1264.9379892487275,61.165877689158066,-1243.837289686764,-1302.0747235856065,-1208.5142522244078,-1211.4759586772118,-1305.4506933752805,-1252.6012763339909,-1322.809437220108,-1174.662825859157,-1177.2358770832695,-1208.8598964026808,-1325.5602537585896,-1254.3755657473878,-1280.2981907697647,-1166.4575321396676,-1315.714987331266,-1232.493806949315,-1264.5459522197539,-1245.715519002141,-1148.5278887246118,-1339.3297881046708,-1320.348445028729,-1260.2589595033785,-1214.735292091005,-1274.3916481766485,-1398.663541960567,-1169.1304157367174,-1357.10306620698,-1279.2098562992,-1356.946019567078,-1282.6710218261026,-1337.1764831564128,-1343.977430148912,-1349.4776721523344,-1262.4291997877724,-1258.9841070478574,-1329.3632355435914,-1320.3973694826432,-1236.054123064822,-1344.4558723070948,-1184.616986877296,-1175.8078921061922,-1340.5512509031564,-1299.573625520467,-1172.4322336457783,-1253.2522339292934,-1179.6758099546025,-1188.0877373986384,-1257.615903861033,-1280.7649249497974,-1207.7385166361823,-1321.1079219756373,-1238.997727264477,-1282.62789399011,-1237.814598597252,-1254.7046446514626,-1308.5405688613344,-1191.793483013161,-1251.9032170649602,-1187.7385038477241,-1170.7137091566035,-1328.8716427614802,-1277.3103212438232,-1254.3371350559976,-1124.3578390710416,-1308.201491214765,-1361.6300039180528,-1407.874530479407,-1230.9819901873145,-1215.109622282346,-1285.0335767150755,-1198.830177577359,-1385.5771611233306,-1323.6881949941646,-1316.3657405396966,-1237.2363608856701,-1314.965767561,-1276.804479226796,-1333.4213809312246,-1211.2308177566726,-1237.6237643940615,-1232.7811186299662,-1239.7551696086132,-1246.672911125072,-1257.8796447679686,-1233.6966159320307,-1295.251188382174,-1273.2830792378315,-1310.0484535582332,-1347.3844567127703,-1135.4678884677874,-1229.963820196718,-1242.6552055097368,-1339.5259252765366,-1189.2741300569432,-1288.6776002948147,-1316.9121368236842,-1238.7776139479631,-1226.5796257612512,-1239.519433649623,-1317.8660505250853
17,-1263.6877919853719,61.96746061886696,-1243.837289686764,-1302.0747235856065,-1208.5142522244078,-1211.4759586772118,-1305.4506933752805,-1264.6050227660003,-1321.0100855410117,-1174.662825859157,-1167.486896348679,-1208.8598964026808,-1323.0424136612635,-1254.3755657473878,-1280.4964188184706,-1143.8675398711298,-1315.714987331266,-1232.493806949315,-1264.5459522197539,-1245.715519002141,-1148.5278887246118,-1339.3297881046708,-1320.348445028729,-1260.2589595033785,-1214.735292091005,-1274.3916481766485,-1398.663541960567,-1169.1304157367174,-1357.10306620698,-1279.2098562992,-1356.946019567078,-1282.6710218261026,-1337.1764831564128,-1343.977430148912,-1349.4776721523344,-1262.4291997877724,-1258.9841070478574,-1327.6118770590124,-1320.3973694826432,-1236.054123064822,-1344.4558723070948,-1184.616986877296,-1175.8078921061922,-1340.5512509031564,-1299.573625520467,-1172.4322336457783,-1253.2522339292934,-1179.6758099546025,-1188.0877373986384,-1257.615903861033,-1280.7649249497974,-1207.7385166361823,-1321.1079219756373,-1238.997727264477,-1295.457436233358,-1237.814598597252,-1254.7046446514626,-1308.5405688613344,-1191.793483013161,-1251.9032170649602,-1182.8635035584211,-1170.7137091566035,-1328.8716427614802,-1277.3103212438232,-1254.3371350559976,-1124.3578390710416,-1308.201491214765,-1361.6300039180528,-1407.874530479407,-1231.1857200464121,-1215.109622282346,-1285.0335767150755,-1198.830177577359,-1385.5771611233306,-1323.6881949941646,-1316.3657405396966,-1237.2363608856701,-1313.214409076421,-1276.804479226796,-1333.4213809312246,-1214.061584525,-1237.6237643940615,-1249.99494829604,-1239.7551696086132,-1252.5091034562754,-1257.8796447679686,-1233.6966159320307,-1295.251188382174,-1273.2830792378315,-1310.0484535582332,-1337.6894744052665,-1135.4546235973291,-1229.963820196718,-1242.6552055097368,-1339.5259252765366,-1162.5556219247817,-1290.6251221084328,-1316.7084069645862,-1199.6470612027028,-1225.3862558656572,-1239.519433649623,-1261.7710568753555
18,-1265.238747842903,60.06048068702635,-1243.837289686764,-1302.0747235856065,-1208.5142522244078,-1211.4759586772118,-1299.8593324946755,-1289.8017986257203,-1321.0100855410117,-1174.662825859157,-1167.486896348679,-1208.8598964026808,-1329.1538725491243,-1254.3755657473878,-1280.4964188184706,-1153.737096403623,-1315.714987331266,-1232.493806949315,-1264.5459522197539,-1245.715519002141,-1157.1835771512126,-1339.3297881046708,-1319.155075133135,-1277.777561799176,-1214.735292091005,-1277.1764388142312,-1398.663541960567,-1169.1304157367174,-1357.10306620698,-1279.2098562992,-1356.946019567078,-1282.6710218261026,-1337.1764831564128,-1343.977430148912,-1349.4776721523344,-1262.4291997877724,-1258.9841070478574,-1329.3632355435914,-1317.135947813617,-1236.054123064822,-1344.4558723070948,-1184.616986877296,-1175.8078921061922,-1340.5512509031564,-1299.573625520467,-1172.4322336457783,-1253.2522339292934,-1179.6758099546025,-1188.0877373986384,-1257.615903861033,-1280.7649249497974,-1207.7385166361823,-1321.1079219756373,-1238.997727264477,-1275.8244466036667,-1237.814598597252,-1254.7046446514626,-1308.5405688613344,-1191.793483013161,-1251.9032170649602,-1182.8635035584211,-1187.0285691493957,-1328.8716427614802,-1277.3103212438232,-1254.3371350559976,-1124.3578390710416,-1308.201491214765,-1363.9119776711964,-1407.874530479407,-1231.1857200464121,-1215.109622282346,-1285.0335767150755,-1198.830177577359,-1385.5771611233306,-1323.6881949941646,-1316.3657405396966,-1237.2363608856701,-1313.3754019175701,-1276.804479226796,-1324.1727139404907,-1232.5094217876936,-1237.6237643940615,-1250.1712486521897,-1239.7551696086132,-1252.5091034562754,-1257.8796447679686,-1233.6966159320307,-1292.420421613847,-1279.464284910548,-1308.3782957774172,-1335.407500652123,-1188.324680196367,-1229.963820196718,-1242.6552055097368,-1339.5259252765366,-1162.5556219247817,-1291.8538535520643,-1318.1001766384604,-1229.511395603912,-1225.3862558656572,-1239.519433649623,-1261.7710568753555
19,-1265.4964354879348,60.59155284169184,-1243.837289686764,-1302.0747235856065,-1208.5142522244078,-1211.4759586772118,-1308.0651490070215,-1289.8017986257203,-1321.0100855410117,-1174.9365300464258,-1167.486896348679,-1208.8598964026808,-1329.1538725491243,-1254.3755657473878,-1280.4964188184706,-1153.737096403623,-1315.714987331266,-1229.6630401809882,-1264.5459522197539,-1245.715519002141,-1148.5278887246118,-1316.6156663118065,-1319.155075133135,-1277.777561799176,-1217.0172658441484,-1275.9672384129044,-1398.663541960567,-1168.4323727486274,-1357.10306620698,-1279.2098562992,-1356.946019567078,-1282.6710218261026,-1337.1764831564128,-1343.977430148912,-1351.2290306369136,-1262.4291997877724,-1258.9841070478574,-1327.9098379695472,-1317.135947813617,-1236.054123064822,-1344.4558723070948,-1184.616986877296,-1175.8078921061922,-1352.1643474437608,-1299.573625520467,-1172.4322336457783,-1253.2522339292934,-1179.6758099546025,-1188.0877373986384,-1257.615903861033,-1280.7649249497974,-1207.7385166361823,-1321.1079219756373,-1238.997727264477,-1293.7994891945223,-1237.814598597252,-1254.7046446514626,-1308.5405688613344,-1191.793483013161,-1254.3908349436147,-1182.8635035584211,-1187.0285691493957,-1328.8716427614802,-1277.3103212438232,-1257.1679018243246,-1124.3578390710416,-1308.201491214765,-1363.9119776711964,-1413.5575123474957,-1231.1857200464121,-1215.109622282346,-1285.0335767150755,-1198.830177577359,-1385.5771611233306,-1338.1794416675705,-1316.3657405396966,-1237.2363608856701,-1296.3439877268604,-1276.804479226796,-1325.345915148759,-1232.5094217876936,-1237.6237643940615,-1250.1712486521897,-1239.7551696086132,-1252.5091034562754,-1260.8418532063583,-1230.8658491637038,-1295.251188382174,-1279.464284910548,-1308.3782957774172,-1335.407500652123,-1188.3114153259087,-1229.963820196718,-1242.6552055097368,-1339.5259252765366,-1162.5556219247817,-1290.6204764804938,-1329.5547905579551,-1229.511395603912,-1223.8106656294017,-1239.519433649623,-1261.7710568753555
